Elapsed time,SWAPdb,SWAPfront1,SWAPstatic
13:03:58.0,,,1.53
13:04:00.0,100.0,,
13:04:01.0,,0.12,
13:04:02.0,,,1.53
13:04:03.0,100.0,,
13:04:04.0,,0.12,
13:04:06.0,,,1.53
13:04:07.0,100.0,,
13:04:08.0,,0.12,
13:04:09.0,,,1.53
13:04:10.0,100.0,,
13:04:11.0,,0.12,
13:04:12.0,,,1.53
13:04:13.0,100.0,,
13:04:14.0,,0.12,
13:04:16.0,,,1.53
13:04:17.0,100.0,,
13:04:18.0,,0.12,
13:04:19.0,,,1.53
13:04:20.0,100.0,,
13:04:21.0,,0.12,
13:04:22.0,,,1.53
13:04:24.0,100.0,,
13:04:25.0,,0.12,
13:04:26.0,,,1.53
13:04:27.0,100.0,,
13:04:28.0,,0.12,
13:04:29.0,,,1.53
13:04:30.0,100.0,,
13:04:31.0,,0.12,
13:04:32.0,,,1.53
13:04:34.0,100.0,,
13:04:35.0,,0.12,
13:04:36.0,,,1.53
13:04:37.0,100.0,,
13:04:38.0,,0.12,
13:04:39.0,,,1.53
13:04:40.0,100.0,,
13:04:41.0,,0.12,
13:04:42.0,,,1.53
13:04:44.0,100.0,,
13:04:45.0,,0.12,
13:04:46.0,,,1.53
13:04:47.0,100.0,,
13:04:48.0,,0.12,
13:04:49.0,,,1.53
13:04:50.0,100.0,,
13:04:52.0,,0.12,
13:04:53.0,,,1.53
13:04:54.0,100.0,,
13:04:55.0,,0.12,
13:04:56.0,,,1.53
13:04:57.0,100.0,,
13:04:58.0,,0.12,
13:05:00.0,,,1.53
13:05:01.0,100.0,,
13:05:02.0,,0.12,
13:05:03.0,,,1.53
13:05:04.0,100.0,,
13:05:05.0,,0.12,
13:05:06.0,,,1.53
13:05:07.0,100.0,,
13:05:08.0,,0.12,
13:05:09.0,,,1.53
13:05:11.0,100.0,,
13:05:12.0,,0.12,
13:05:13.0,,,1.53
13:05:14.0,100.0,,
13:05:15.0,,0.12,
13:05:16.0,,,1.53
13:05:17.0,100.0,,
13:05:18.0,,0.12,
13:05:19.0,,,1.53
13:05:20.0,100.0,,
13:05:21.0,,0.12,
13:05:23.0,,,1.53
13:05:24.0,100.0,,
13:05:25.0,,0.12,
13:05:26.0,,,1.53
13:05:27.0,100.0,,
13:05:28.0,,0.12,
13:05:29.0,,,1.53
13:05:30.0,100.0,,
13:05:31.0,,0.12,
13:05:32.0,,,1.53
13:05:34.0,100.0,,
13:05:35.0,,0.12,
13:05:36.0,,,1.53
13:05:37.0,100.0,,
13:05:38.0,,0.12,
13:05:39.0,,,1.53
13:05:40.0,100.0,,
13:05:41.0,,0.12,
13:05:42.0,,,1.53
13:05:44.0,100.0,,
13:05:45.0,,0.12,
13:05:46.0,,,1.53
13:05:47.0,100.0,,
13:05:48.0,,0.12,
13:05:49.0,,,1.53
13:05:50.0,100.0,,
13:05:51.0,,0.12,
13:05:52.0,,,1.53
13:05:53.0,100.0,,
13:05:54.0,,0.12,
13:05:55.0,,,1.53
13:05:57.0,100.0,,
13:05:58.0,,0.12,
13:05:59.0,,,1.53
13:06:00.0,100.0,,
13:06:01.0,,0.12,
13:06:02.0,,,1.53
13:06:03.0,100.0,,
13:06:04.0,,0.12,
13:06:05.0,,,1.53
13:06:06.0,100.0,,
13:06:08.0,,0.12,
13:06:09.0,,,1.53
13:06:10.0,100.0,,
13:06:11.0,,0.12,
13:06:12.0,,,1.53
13:06:13.0,100.0,,
13:06:14.0,,0.12,
13:06:15.0,,,1.53
13:06:16.0,100.0,,
13:06:17.0,,0.12,
13:06:19.0,,,1.53
13:06:20.0,100.0,,
13:06:21.0,,0.12,
13:06:22.0,,,1.53
13:06:23.0,100.0,,
13:06:24.0,,0.12,
13:06:25.0,,,1.53
13:06:26.0,100.0,,
13:06:27.0,,0.12,
13:06:28.0,,,1.53
13:06:29.0,100.0,,
13:06:31.0,,0.12,
13:06:32.0,,,1.53
13:06:33.0,100.0,,
13:06:34.0,,0.12,
13:06:35.0,,,1.53
13:06:36.0,100.0,,
13:06:37.0,,0.12,
13:06:38.0,,,1.53
13:06:39.0,100.0,,
13:06:40.0,,0.12,
13:06:42.0,,,1.53
13:06:43.0,100.0,,
13:06:44.0,,0.12,
13:06:45.0,,,1.53
13:06:46.0,100.0,,
13:06:47.0,,0.12,
13:06:48.0,,,1.53
13:06:50.0,100.0,,
13:06:51.0,,0.12,
13:06:52.0,,,1.53
13:06:53.0,100.0,,
13:06:54.0,,0.12,
13:06:55.0,,,1.53
13:06:56.0,100.0,,
13:06:57.0,,0.12,
13:06:58.0,,,1.53
13:06:59.0,100.0,,
13:07:01.0,,0.12,
13:07:02.0,,,1.53
13:07:03.0,100.0,,
13:07:04.0,,0.12,
13:07:05.0,,,1.53
13:07:06.0,100.0,,
13:07:07.0,,0.12,
13:07:08.0,,,1.53
13:07:09.0,100.0,,
13:07:11.0,,0.12,
13:07:12.0,,,1.53
13:07:13.0,100.0,,
13:07:14.0,,0.12,
13:07:15.0,,,1.53
13:07:16.0,100.0,,
13:07:17.0,,0.12,
13:07:18.0,,,1.53
13:07:19.0,100.0,,
13:07:20.0,,0.12,
13:07:21.0,,,1.53
13:07:23.0,100.0,,
13:07:24.0,,0.12,
13:07:25.0,,,1.53
13:07:26.0,100.0,,
13:07:27.0,,0.12,
13:07:28.0,,,1.53
13:07:29.0,100.0,,
13:07:30.0,,0.12,
13:07:32.0,,,1.53
13:07:33.0,100.0,,
13:07:34.0,,0.12,
13:07:35.0,,,1.53
13:07:36.0,100.0,,
13:07:37.0,,0.12,
13:07:38.0,,,1.53
13:07:39.0,100.0,,
13:07:40.0,,0.12,
13:07:41.0,,,1.53
13:07:43.0,100.0,,
13:07:44.0,,0.12,
13:07:45.0,,,1.53
13:07:46.0,100.0,,
13:07:47.0,,0.12,
13:07:48.0,,,1.53
13:07:49.0,100.0,,
13:07:50.0,,0.12,
13:07:51.0,,,1.53
13:07:52.0,100.0,,
13:07:54.0,,0.12,
13:07:55.0,,,1.53
13:07:56.0,100.0,,
13:07:57.0,,0.12,
13:07:58.0,,,1.53
13:07:59.0,100.0,,
13:08:00.0,,0.12,
13:08:01.0,,,1.53
13:08:02.0,100.0,,
13:08:03.0,,0.12,
13:08:05.0,,,1.53
13:08:06.0,100.0,,
13:08:07.0,,0.12,
13:08:08.0,,,1.53
13:08:09.0,100.0,,
13:08:10.0,,0.12,
13:08:11.0,,,1.53
13:08:12.0,100.0,,
13:08:13.0,,0.12,
13:08:15.0,,,1.53
13:08:16.0,100.0,,
13:08:17.0,,0.12,
13:08:18.0,,,1.53
13:08:19.0,100.0,,
13:08:20.0,,0.12,
13:08:21.0,,,1.53
13:08:22.0,100.0,,
13:08:23.0,,0.12,
13:08:25.0,,,1.53
13:08:26.0,100.0,,
13:08:27.0,,0.12,
13:08:28.0,,,1.53
13:08:29.0,100.0,,
13:08:30.0,,0.12,
13:08:31.0,,,1.53
13:08:32.0,100.0,,
13:08:34.0,,0.12,
13:08:35.0,,,1.53
13:08:36.0,100.0,,
13:08:37.0,,0.12,
13:08:38.0,,,1.53
13:08:39.0,100.0,,
13:08:41.0,,0.12,
13:08:42.0,,,1.53
13:08:43.0,100.0,,
13:08:44.0,,0.12,
13:08:45.0,,,1.53
13:08:46.0,100.0,,
13:08:48.0,,0.12,
13:08:49.0,,,1.53
13:08:51.0,100.0,,
13:08:52.0,,0.12,
13:08:53.0,,,1.53
13:08:54.0,100.0,,
13:08:55.0,,0.12,
13:08:56.0,,,1.53
13:08:58.0,100.0,,
13:08:59.0,,0.12,
13:09:00.0,,,1.53
13:09:21.0,100.0,,
13:09:22.0,,0.12,
13:09:23.0,,,1.53
13:09:35.0,100.0,,
13:09:37.0,,0.12,
13:09:38.0,,,1.53
13:09:39.0,4.61,,
13:09:40.0,,0.12,
13:09:41.0,,,1.53
13:09:42.0,4.61,,
13:09:43.0,,0.12,
13:09:44.0,,,1.53
13:09:45.0,4.61,,
13:09:46.0,,0.12,
13:09:48.0,,,1.53
13:09:49.0,4.61,,
13:09:50.0,,0.12,
13:09:51.0,,,1.53
13:09:52.0,4.61,,
13:09:53.0,,0.12,
13:09:54.0,,,1.53
13:09:55.0,4.61,,
13:09:56.0,,0.12,
13:09:58.0,,,1.53
13:09:59.0,4.61,,
13:10:00.0,,0.12,
13:10:01.0,,,1.53
13:10:02.0,4.61,,
13:10:03.0,,0.12,
13:10:04.0,,,1.53
13:10:05.0,4.61,,
13:10:07.0,,0.12,
13:10:08.0,,,1.53
13:10:09.0,4.61,,
13:10:10.0,,0.12,
13:10:11.0,,,1.53
13:10:12.0,4.61,,
13:10:13.0,,0.12,
13:10:14.0,,,1.53
13:10:16.0,4.61,,
13:10:17.0,,0.12,
13:10:18.0,,,1.53
13:10:19.0,4.61,,
13:10:20.0,,0.12,
13:10:21.0,,,1.53
13:10:23.0,4.61,,
13:10:24.0,,0.12,
13:10:25.0,,,1.53
13:10:26.0,4.61,,
13:10:27.0,,0.12,
13:10:28.0,,,1.53
13:10:29.0,4.61,,
13:10:30.0,,0.12,
13:10:32.0,,,1.53
13:10:33.0,4.61,,
13:10:34.0,,0.12,
13:10:35.0,,,1.53
13:10:36.0,4.61,,
13:10:37.0,,0.12,
13:10:38.0,,,1.53
13:10:39.0,4.61,,
13:10:40.0,,0.12,
13:10:41.0,,,1.53
13:10:43.0,4.61,,
13:10:44.0,,0.12,
13:10:45.0,,,1.53
13:10:46.0,4.61,,
13:10:47.0,,0.12,
13:10:48.0,,,1.53
13:10:49.0,4.61,,
13:10:50.0,,0.12,
13:10:51.0,,,1.53
13:10:52.0,4.61,,
13:10:54.0,,0.12,
13:10:55.0,,,1.53
13:10:56.0,4.61,,
13:10:57.0,,0.12,
13:10:58.0,,,1.53
13:10:59.0,4.61,,
13:11:00.0,,0.12,
13:11:01.0,,,1.53
13:11:03.0,4.61,,
13:11:04.0,,0.12,
13:11:05.0,,,1.53
13:11:06.0,4.61,,
13:11:07.0,,0.12,
13:11:08.0,,,1.53
13:11:09.0,4.61,,
13:11:10.0,,0.12,
13:11:12.0,,,1.53
13:11:13.0,4.61,,
13:11:14.0,,0.12,
13:11:15.0,,,1.53
13:11:16.0,4.61,,
13:11:17.0,,0.12,
13:11:18.0,,,1.53
13:11:20.0,4.61,,
13:11:21.0,,0.12,
13:11:22.0,,,1.53
13:11:23.0,4.61,,
13:11:25.0,,0.12,
13:11:26.0,,,1.53
13:11:27.0,4.61,,
13:11:28.0,,0.12,
13:11:29.0,,,1.53
13:11:30.0,4.61,,
13:11:31.0,,0.12,
13:11:32.0,,,1.53
13:11:33.0,4.61,,
13:11:35.0,,0.12,
13:11:36.0,,,1.53
13:11:37.0,4.61,,
13:11:38.0,,0.12,
13:11:39.0,,,1.53
13:11:40.0,4.61,,
13:11:41.0,,0.12,
13:11:42.0,,,1.53
13:11:43.0,4.61,,
13:11:44.0,,0.12,
13:11:46.0,,,1.53
13:11:47.0,4.61,,
13:11:48.0,,0.12,
13:11:49.0,,,1.53
13:11:50.0,4.61,,
13:11:51.0,,0.12,
13:11:52.0,,,1.53
13:11:53.0,4.61,,
13:11:54.0,,0.12,
13:11:55.0,,,1.53
13:11:56.0,4.61,,
13:11:58.0,,0.12,
13:11:59.0,,,1.53
13:12:00.0,4.61,,
13:12:01.0,,0.12,
13:12:02.0,,,1.53
13:12:03.0,4.61,,
13:12:04.0,,0.12,
13:12:06.0,,,1.53
13:12:07.0,4.61,,
13:12:08.0,,0.12,
13:12:09.0,,,1.53
13:12:10.0,4.61,,
13:12:11.0,,0.12,
13:12:12.0,,,1.53
13:12:14.0,4.61,,
13:12:15.0,,0.12,
13:12:16.0,,,1.53
13:12:17.0,4.61,,
13:12:18.0,,0.12,
13:12:19.0,,,1.53
13:12:20.0,4.61,,
13:12:21.0,,0.12,
13:12:22.0,,,1.53
13:12:23.0,4.61,,
13:12:25.0,,0.12,
13:12:26.0,,,1.53
13:12:27.0,4.61,,
13:12:28.0,,0.12,
13:12:29.0,,,1.53
13:12:30.0,4.61,,
13:12:31.0,,0.12,
13:12:32.0,,,1.53
13:12:34.0,4.61,,
13:12:35.0,,0.12,
13:12:36.0,,,1.53
13:12:37.0,4.61,,
13:12:38.0,,0.12,
13:12:39.0,,,1.53
13:12:40.0,4.61,,
13:12:41.0,,0.12,
13:12:42.0,,,1.53
13:12:43.0,4.61,,
13:12:44.0,,0.12,
13:12:45.0,,,1.53
13:12:47.0,4.61,,
13:12:48.0,,0.12,
13:12:49.0,,,1.53
13:12:50.0,4.61,,
13:12:51.0,,0.12,
13:12:52.0,,,1.53
13:12:53.0,4.61,,
13:12:54.0,,0.12,
13:12:55.0,,,1.53
13:12:56.0,4.61,,
13:12:57.0,,0.12,
13:12:59.0,,,1.54
13:13:00.0,4.61,,
13:13:01.0,,0.12,
13:13:02.0,,,1.54
13:13:03.0,4.61,,
13:13:04.0,,0.12,
13:13:05.0,,,1.54
13:13:06.0,4.61,,
13:13:07.0,,0.12,
13:13:08.0,,,1.54
13:13:09.0,4.61,,
13:13:11.0,,0.12,
13:13:12.0,,,1.54
13:13:13.0,4.61,,
13:13:14.0,,0.12,
13:13:15.0,,,1.54
13:13:16.0,4.61,,
13:13:17.0,,0.12,
13:13:18.0,,,1.54
13:13:19.0,4.61,,
13:13:20.0,,0.12,
13:13:22.0,,,1.54
13:13:23.0,4.61,,
13:13:24.0,,0.12,
13:13:25.0,,,1.54
13:13:26.0,4.61,,
13:13:27.0,,0.12,
13:13:28.0,,,1.54
13:13:29.0,4.61,,
13:13:30.0,,0.12,
13:13:31.0,,,1.54
13:13:32.0,4.61,,
13:13:33.0,,0.12,
13:13:35.0,,,1.54
13:13:36.0,4.61,,
13:13:37.0,,0.12,
13:13:38.0,,,1.54
13:13:39.0,4.61,,
13:13:40.0,,0.12,
13:13:41.0,,,1.54
13:13:42.0,4.61,,
13:13:43.0,,0.12,
13:13:44.0,,,1.54
13:13:46.0,4.61,,
13:13:47.0,,0.12,
13:13:48.0,,,1.54
13:13:49.0,4.61,,
13:13:50.0,,0.12,
13:13:51.0,,,1.54
13:13:52.0,4.61,,
13:13:53.0,,0.12,
13:13:54.0,,,1.54
13:13:55.0,4.61,,
13:13:56.0,,0.12,
13:13:58.0,,,1.54
13:13:59.0,4.61,,
13:14:00.0,,0.12,
13:14:01.0,,,1.54
13:14:02.0,4.61,,
13:14:03.0,,0.12,
13:14:04.0,,,1.54
13:14:05.0,4.61,,
13:14:06.0,,0.12,
13:14:07.0,,,1.54
13:14:09.0,4.61,,
13:14:10.0,,0.12,
13:14:11.0,,,1.54
13:14:12.0,4.61,,
13:14:13.0,,0.12,
13:14:14.0,,,1.54
13:14:15.0,4.61,,
13:14:16.0,,0.12,
13:14:17.0,,,1.54
13:14:18.0,4.61,,
13:14:20.0,,0.12,
13:14:21.0,,,1.54
13:14:22.0,4.61,,
13:14:23.0,,0.12,
13:14:24.0,,,1.54
13:14:26.0,4.61,,
13:14:27.0,,0.12,
13:14:29.0,,,1.54
13:14:30.0,4.61,,
13:14:32.0,,0.12,
13:14:33.0,,,1.54
13:14:35.0,4.61,,
13:14:37.0,,0.12,
13:14:38.0,,,1.54
13:14:40.0,4.61,,
13:14:41.0,,0.12,
13:14:43.0,,,1.54
13:14:45.0,4.61,,
13:14:46.0,,0.12,
13:14:47.0,,,1.54
13:14:48.0,4.61,,
13:14:49.0,,0.12,
13:14:50.0,,,1.54
13:14:51.0,4.61,,
13:14:53.0,,0.12,
13:14:54.0,,,1.54
13:14:55.0,4.61,,
13:14:56.0,,0.12,
13:14:57.0,,,1.54
13:14:58.0,4.61,,
13:14:59.0,,0.12,
13:15:00.0,,,1.54
13:15:01.0,4.61,,
13:15:02.0,,0.12,
13:15:03.0,,,1.54
13:15:05.0,4.61,,
13:15:06.0,,0.12,
13:15:07.0,,,1.54
13:15:08.0,4.61,,
13:15:09.0,,0.12,
13:15:10.0,,,1.54
13:15:11.0,4.61,,
13:15:12.0,,0.12,
13:15:13.0,,,1.54
13:15:14.0,4.61,,
13:15:16.0,,0.12,
13:15:17.0,,,1.54
13:15:18.0,4.61,,
13:15:19.0,,0.12,
13:15:20.0,,,1.54
13:15:21.0,4.61,,
13:15:22.0,,0.12,
13:15:23.0,,,1.54
13:15:24.0,4.61,,
13:15:25.0,,0.12,
13:15:27.0,,,1.54
13:15:28.0,4.61,,
13:15:29.0,,0.12,
13:15:30.0,,,1.54
13:15:31.0,4.61,,
13:15:32.0,,0.12,
13:15:33.0,,,1.54
13:15:34.0,4.61,,
13:15:35.0,,0.12,
13:15:36.0,,,1.54
13:15:38.0,4.61,,
13:15:39.0,,0.12,
13:15:40.0,,,1.54
13:15:41.0,4.61,,
13:15:42.0,,0.12,
13:15:43.0,,,1.54
13:15:44.0,4.61,,
13:15:45.0,,0.12,
13:15:46.0,,,1.54
13:15:47.0,4.61,,
13:15:48.0,,0.12,
13:15:50.0,,,1.54
13:15:51.0,4.61,,
13:15:52.0,,0.12,
13:15:53.0,,,1.54
13:15:54.0,4.61,,
13:15:55.0,,0.12,
13:15:56.0,,,1.54
13:15:57.0,4.61,,
13:15:58.0,,0.12,
13:15:59.0,,,1.54
13:16:01.0,4.61,,
13:16:02.0,,0.12,
13:16:03.0,,,1.54
13:16:04.0,4.61,,
13:16:05.0,,0.12,
