timeStamp,elapsed,label,responseCode,responseMessage,threadName,success,bytes,sentBytes,grpThreads,allThreads,URL,Latency,SampleCount,ErrorCount,Hostname,IdleTime,Connect
15:38:49,0,SWAPstatic,,7.57,,true,0,0,0,0,null,0,1,0,brander-desktop,0,0
15:38:51,0,SWAPdb,,20.65,,true,0,0,0,0,null,0,1,0,brander-desktop,0,0
15:38:54,0,SWAPfront1,,0.56,,true,0,0,0,0,null,0,1,0,brander-desktop,0,0
15:38:56,0,SWAPfront2,,0.0,,true,0,0,0,0,null,0,1,0,brander-desktop,0,0
15:38:58,0,SWAPfront3,,0.0,,true,0,0,0,0,null,0,1,0,brander-desktop,0,0
15:39:00,0,SWAPfront4,,0.1,,true,0,0,0,0,null,0,1,0,brander-desktop,0,0
15:39:01,0,SWAPstatic,,7.57,,true,0,0,0,0,null,0,1,0,brander-desktop,0,0
15:39:02,0,SWAPdb,,20.65,,true,0,0,0,0,null,0,1,0,brander-desktop,0,0
15:39:03,0,SWAPfront1,,0.56,,true,0,0,0,0,null,0,1,0,brander-desktop,0,0
15:39:04,0,SWAPfront2,,0.0,,true,0,0,0,0,null,0,1,0,brander-desktop,0,0
15:39:05,0,SWAPfront3,,0.0,,true,0,0,0,0,null,0,1,0,brander-desktop,0,0
15:39:06,0,SWAPfront4,,0.1,,true,0,0,0,0,null,0,1,0,brander-desktop,0,0
15:39:07,0,SWAPstatic,,7.57,,true,0,0,0,0,null,0,1,0,brander-desktop,0,0
15:39:08,0,SWAPdb,,20.65,,true,0,0,0,0,null,0,1,0,brander-desktop,0,0
15:39:09,0,SWAPfront1,,0.56,,true,0,0,0,0,null,0,1,0,brander-desktop,0,0
15:39:11,0,SWAPfront2,,0.0,,true,0,0,0,0,null,0,1,0,brander-desktop,0,0
15:39:12,0,SWAPfront3,,0.0,,true,0,0,0,0,null,0,1,0,brander-desktop,0,0
15:39:13,0,SWAPfront4,,0.1,,true,0,0,0,0,null,0,1,0,brander-desktop,0,0
15:39:14,0,SWAPstatic,,7.57,,true,0,0,0,0,null,0,1,0,brander-desktop,0,0
15:39:15,0,SWAPdb,,20.65,,true,0,0,0,0,null,0,1,0,brander-desktop,0,0
15:39:16,0,SWAPfront1,,0.56,,true,0,0,0,0,null,0,1,0,brander-desktop,0,0
15:39:17,0,SWAPfront2,,0.0,,true,0,0,0,0,null,0,1,0,brander-desktop,0,0
15:39:18,0,SWAPfront3,,0.0,,true,0,0,0,0,null,0,1,0,brander-desktop,0,0
15:39:19,0,SWAPfront4,,0.1,,true,0,0,0,0,null,0,1,0,brander-desktop,0,0
15:39:20,0,SWAPstatic,,7.57,,true,0,0,0,0,null,0,1,0,brander-desktop,0,0
15:39:21,0,SWAPdb,,20.65,,true,0,0,0,0,null,0,1,0,brander-desktop,0,0
15:39:22,0,SWAPfront1,,0.56,,true,0,0,0,0,null,0,1,0,brander-desktop,0,0
15:39:24,0,SWAPfront2,,0.0,,true,0,0,0,0,null,0,1,0,brander-desktop,0,0
15:39:25,0,SWAPfront3,,0.0,,true,0,0,0,0,null,0,1,0,brander-desktop,0,0
15:39:26,0,SWAPfront4,,0.1,,true,0,0,0,0,null,0,1,0,brander-desktop,0,0
15:39:27,0,SWAPstatic,,7.57,,true,0,0,0,0,null,0,1,0,brander-desktop,0,0
15:39:28,0,SWAPdb,,20.65,,true,0,0,0,0,null,0,1,0,brander-desktop,0,0
15:39:29,0,SWAPfront1,,0.56,,true,0,0,0,0,null,0,1,0,brander-desktop,0,0
15:39:30,0,SWAPfront2,,0.0,,true,0,0,0,0,null,0,1,0,brander-desktop,0,0
15:39:31,0,SWAPfront3,,0.0,,true,0,0,0,0,null,0,1,0,brander-desktop,0,0
15:39:32,0,SWAPfront4,,0.1,,true,0,0,0,0,null,0,1,0,brander-desktop,0,0
15:39:33,0,SWAPstatic,,7.57,,true,0,0,0,0,null,0,1,0,brander-desktop,0,0
15:39:35,0,SWAPdb,,20.65,,true,0,0,0,0,null,0,1,0,brander-desktop,0,0
15:39:36,0,SWAPfront1,,0.56,,true,0,0,0,0,null,0,1,0,brander-desktop,0,0
15:39:37,0,SWAPfront2,,0.0,,true,0,0,0,0,null,0,1,0,brander-desktop,0,0
15:39:38,0,SWAPfront3,,0.0,,true,0,0,0,0,null,0,1,0,brander-desktop,0,0
15:39:39,0,SWAPfront4,,0.1,,true,0,0,0,0,null,0,1,0,brander-desktop,0,0
15:39:40,0,SWAPstatic,,7.57,,true,0,0,0,0,null,0,1,0,brander-desktop,0,0
15:39:41,0,SWAPdb,,20.65,,true,0,0,0,0,null,0,1,0,brander-desktop,0,0
15:39:42,0,SWAPfront1,,0.56,,true,0,0,0,0,null,0,1,0,brander-desktop,0,0
15:39:43,0,SWAPfront2,,0.0,,true,0,0,0,0,null,0,1,0,brander-desktop,0,0
15:39:44,0,SWAPfront3,,0.0,,true,0,0,0,0,null,0,1,0,brander-desktop,0,0
15:39:45,0,SWAPfront4,,0.1,,true,0,0,0,0,null,0,1,0,brander-desktop,0,0
15:39:47,0,SWAPstatic,,7.57,,true,0,0,0,0,null,0,1,0,brander-desktop,0,0
15:39:48,0,SWAPdb,,20.65,,true,0,0,0,0,null,0,1,0,brander-desktop,0,0
15:39:49,0,SWAPfront1,,0.56,,true,0,0,0,0,null,0,1,0,brander-desktop,0,0
15:39:50,0,SWAPfront2,,0.0,,true,0,0,0,0,null,0,1,0,brander-desktop,0,0
15:39:51,0,SWAPfront3,,0.0,,true,0,0,0,0,null,0,1,0,brander-desktop,0,0
15:39:52,0,SWAPfront4,,0.1,,true,0,0,0,0,null,0,1,0,brander-desktop,0,0
15:39:53,0,SWAPstatic,,7.57,,true,0,0,0,0,null,0,1,0,brander-desktop,0,0
15:39:54,0,SWAPdb,,20.65,,true,0,0,0,0,null,0,1,0,brander-desktop,0,0
15:39:55,0,SWAPfront1,,0.56,,true,0,0,0,0,null,0,1,0,brander-desktop,0,0
15:39:56,0,SWAPfront2,,0.0,,true,0,0,0,0,null,0,1,0,brander-desktop,0,0
15:39:57,0,SWAPfront3,,0.0,,true,0,0,0,0,null,0,1,0,brander-desktop,0,0
15:39:58,0,SWAPfront4,,0.1,,true,0,0,0,0,null,0,1,0,brander-desktop,0,0
15:40:00,0,SWAPstatic,,7.57,,true,0,0,0,0,null,0,1,0,brander-desktop,0,0
15:40:01,0,SWAPdb,,20.65,,true,0,0,0,0,null,0,1,0,brander-desktop,0,0
15:40:02,0,SWAPfront1,,0.56,,true,0,0,0,0,null,0,1,0,brander-desktop,0,0
