timeStamp,elapsed,label,responseCode,responseMessage,threadName,success,bytes,sentBytes,grpThreads,allThreads,URL,Latency,SampleCount,ErrorCount,Hostname,IdleTime,Connect
19:22:41,0,SWAPstatic,,7.49,,true,0,0,0,0,null,0,1,0,brander-desktop,0,0
19:22:42,0,SWAPdb,,20.63,,true,0,0,0,0,null,0,1,0,brander-desktop,0,0
19:22:44,0,SWAPfront1,,0.56,,true,0,0,0,0,null,0,1,0,brander-desktop,0,0
19:22:45,0,SWAPstatic,,7.49,,true,0,0,0,0,null,0,1,0,brander-desktop,0,0
19:22:46,0,SWAPdb,,20.63,,true,0,0,0,0,null,0,1,0,brander-desktop,0,0
19:22:47,0,SWAPfront1,,0.56,,true,0,0,0,0,null,0,1,0,brander-desktop,0,0
19:22:48,0,SWAPstatic,,7.49,,true,0,0,0,0,null,0,1,0,brander-desktop,0,0
19:22:50,0,SWAPdb,,20.63,,true,0,0,0,0,null,0,1,0,brander-desktop,0,0
19:22:51,0,SWAPfront1,,0.56,,true,0,0,0,0,null,0,1,0,brander-desktop,0,0
19:22:52,0,SWAPstatic,,7.49,,true,0,0,0,0,null,0,1,0,brander-desktop,0,0
19:22:53,0,SWAPdb,,20.63,,true,0,0,0,0,null,0,1,0,brander-desktop,0,0
19:22:54,0,SWAPfront1,,0.56,,true,0,0,0,0,null,0,1,0,brander-desktop,0,0
19:22:55,0,SWAPstatic,,7.49,,true,0,0,0,0,null,0,1,0,brander-desktop,0,0
19:22:56,0,SWAPdb,,20.63,,true,0,0,0,0,null,0,1,0,brander-desktop,0,0
19:22:57,0,SWAPfront1,,0.56,,true,0,0,0,0,null,0,1,0,brander-desktop,0,0
19:22:58,0,SWAPstatic,,7.49,,true,0,0,0,0,null,0,1,0,brander-desktop,0,0
19:22:59,0,SWAPdb,,20.63,,true,0,0,0,0,null,0,1,0,brander-desktop,0,0
19:23:00,0,SWAPfront1,,0.56,,true,0,0,0,0,null,0,1,0,brander-desktop,0,0
19:23:01,0,SWAPstatic,,7.49,,true,0,0,0,0,null,0,1,0,brander-desktop,0,0
19:23:03,0,SWAPdb,,20.63,,true,0,0,0,0,null,0,1,0,brander-desktop,0,0
19:23:04,0,SWAPfront1,,0.56,,true,0,0,0,0,null,0,1,0,brander-desktop,0,0
19:23:05,0,SWAPstatic,,7.49,,true,0,0,0,0,null,0,1,0,brander-desktop,0,0
19:23:06,0,SWAPdb,,20.63,,true,0,0,0,0,null,0,1,0,brander-desktop,0,0
19:23:07,0,SWAPfront1,,0.56,,true,0,0,0,0,null,0,1,0,brander-desktop,0,0
19:23:08,0,SWAPstatic,,7.49,,true,0,0,0,0,null,0,1,0,brander-desktop,0,0
19:23:09,0,SWAPdb,,20.63,,true,0,0,0,0,null,0,1,0,brander-desktop,0,0
19:23:10,0,SWAPfront1,,0.56,,true,0,0,0,0,null,0,1,0,brander-desktop,0,0
19:23:11,0,SWAPstatic,,7.49,,true,0,0,0,0,null,0,1,0,brander-desktop,0,0
19:23:12,0,SWAPdb,,20.63,,true,0,0,0,0,null,0,1,0,brander-desktop,0,0
19:23:14,0,SWAPfront1,,0.56,,true,0,0,0,0,null,0,1,0,brander-desktop,0,0
19:23:15,0,SWAPstatic,,7.49,,true,0,0,0,0,null,0,1,0,brander-desktop,0,0
19:23:16,0,SWAPdb,,20.63,,true,0,0,0,0,null,0,1,0,brander-desktop,0,0
19:23:17,0,SWAPfront1,,0.56,,true,0,0,0,0,null,0,1,0,brander-desktop,0,0
19:23:18,0,SWAPstatic,,7.49,,true,0,0,0,0,null,0,1,0,brander-desktop,0,0
19:23:19,0,SWAPdb,,20.63,,true,0,0,0,0,null,0,1,0,brander-desktop,0,0
19:23:20,0,SWAPfront1,,0.56,,true,0,0,0,0,null,0,1,0,brander-desktop,0,0
19:23:21,0,SWAPstatic,,7.49,,true,0,0,0,0,null,0,1,0,brander-desktop,0,0
19:23:22,0,SWAPdb,,20.63,,true,0,0,0,0,null,0,1,0,brander-desktop,0,0
19:23:23,0,SWAPfront1,,0.56,,true,0,0,0,0,null,0,1,0,brander-desktop,0,0
19:23:24,0,SWAPstatic,,7.49,,true,0,0,0,0,null,0,1,0,brander-desktop,0,0
19:23:26,0,SWAPdb,,20.63,,true,0,0,0,0,null,0,1,0,brander-desktop,0,0
19:23:27,0,SWAPfront1,,0.56,,true,0,0,0,0,null,0,1,0,brander-desktop,0,0
19:23:28,0,SWAPstatic,,7.49,,true,0,0,0,0,null,0,1,0,brander-desktop,0,0
19:23:29,0,SWAPdb,,20.63,,true,0,0,0,0,null,0,1,0,brander-desktop,0,0
19:23:30,0,SWAPfront1,,0.56,,true,0,0,0,0,null,0,1,0,brander-desktop,0,0
19:23:31,0,SWAPstatic,,7.49,,true,0,0,0,0,null,0,1,0,brander-desktop,0,0
19:23:32,0,SWAPdb,,20.63,,true,0,0,0,0,null,0,1,0,brander-desktop,0,0
19:23:33,0,SWAPfront1,,0.56,,true,0,0,0,0,null,0,1,0,brander-desktop,0,0
19:23:34,0,SWAPstatic,,7.49,,true,0,0,0,0,null,0,1,0,brander-desktop,0,0
19:23:35,0,SWAPdb,,20.63,,true,0,0,0,0,null,0,1,0,brander-desktop,0,0
19:23:36,0,SWAPfront1,,0.56,,true,0,0,0,0,null,0,1,0,brander-desktop,0,0
19:23:38,0,SWAPstatic,,7.49,,true,0,0,0,0,null,0,1,0,brander-desktop,0,0
19:23:39,0,SWAPdb,,20.63,,true,0,0,0,0,null,0,1,0,brander-desktop,0,0
19:23:40,0,SWAPfront1,,0.56,,true,0,0,0,0,null,0,1,0,brander-desktop,0,0
19:23:41,0,SWAPstatic,,7.49,,true,0,0,0,0,null,0,1,0,brander-desktop,0,0
19:23:42,0,SWAPdb,,20.63,,true,0,0,0,0,null,0,1,0,brander-desktop,0,0
19:23:43,0,SWAPfront1,,0.56,,true,0,0,0,0,null,0,1,0,brander-desktop,0,0
19:23:44,0,SWAPstatic,,7.49,,true,0,0,0,0,null,0,1,0,brander-desktop,0,0
19:23:45,0,SWAPdb,,20.63,,true,0,0,0,0,null,0,1,0,brander-desktop,0,0
19:23:46,0,SWAPfront1,,0.56,,true,0,0,0,0,null,0,1,0,brander-desktop,0,0
19:23:47,0,SWAPstatic,,7.49,,true,0,0,0,0,null,0,1,0,brander-desktop,0,0
19:23:49,0,SWAPdb,,20.63,,true,0,0,0,0,null,0,1,0,brander-desktop,0,0
19:23:50,0,SWAPfront1,,0.56,,true,0,0,0,0,null,0,1,0,brander-desktop,0,0
19:23:51,0,SWAPstatic,,7.49,,true,0,0,0,0,null,0,1,0,brander-desktop,0,0
19:23:52,0,SWAPdb,,20.63,,true,0,0,0,0,null,0,1,0,brander-desktop,0,0
19:23:53,0,SWAPfront1,,0.56,,true,0,0,0,0,null,0,1,0,brander-desktop,0,0
19:23:54,0,SWAPstatic,,7.49,,true,0,0,0,0,null,0,1,0,brander-desktop,0,0
19:23:55,0,SWAPdb,,20.63,,true,0,0,0,0,null,0,1,0,brander-desktop,0,0
19:23:56,0,SWAPfront1,,0.56,,true,0,0,0,0,null,0,1,0,brander-desktop,0,0
19:23:57,0,SWAPstatic,,7.49,,true,0,0,0,0,null,0,1,0,brander-desktop,0,0
19:23:58,0,SWAPdb,,20.63,,true,0,0,0,0,null,0,1,0,brander-desktop,0,0
19:24:00,0,SWAPfront1,,0.56,,true,0,0,0,0,null,0,1,0,brander-desktop,0,0
19:24:01,0,SWAPstatic,,7.49,,true,0,0,0,0,null,0,1,0,brander-desktop,0,0
19:24:02,0,SWAPdb,,20.63,,true,0,0,0,0,null,0,1,0,brander-desktop,0,0
19:24:03,0,SWAPfront1,,0.56,,true,0,0,0,0,null,0,1,0,brander-desktop,0,0
19:24:04,0,SWAPstatic,,7.49,,true,0,0,0,0,null,0,1,0,brander-desktop,0,0
19:24:05,0,SWAPdb,,20.63,,true,0,0,0,0,null,0,1,0,brander-desktop,0,0
19:24:06,0,SWAPfront1,,0.56,,true,0,0,0,0,null,0,1,0,brander-desktop,0,0
19:24:07,0,SWAPstatic,,7.49,,true,0,0,0,0,null,0,1,0,brander-desktop,0,0
19:24:08,0,SWAPdb,,20.63,,true,0,0,0,0,null,0,1,0,brander-desktop,0,0
19:24:09,0,SWAPfront1,,0.56,,true,0,0,0,0,null,0,1,0,brander-desktop,0,0
19:24:10,0,SWAPstatic,,7.49,,true,0,0,0,0,null,0,1,0,brander-desktop,0,0
19:24:12,0,SWAPdb,,20.63,,true,0,0,0,0,null,0,1,0,brander-desktop,0,0
19:24:13,0,SWAPfront1,,0.56,,true,0,0,0,0,null,0,1,0,brander-desktop,0,0
19:24:14,0,SWAPstatic,,7.49,,true,0,0,0,0,null,0,1,0,brander-desktop,0,0
19:24:15,0,SWAPdb,,20.63,,true,0,0,0,0,null,0,1,0,brander-desktop,0,0
19:24:16,0,SWAPfront1,,0.56,,true,0,0,0,0,null,0,1,0,brander-desktop,0,0
19:24:17,0,SWAPstatic,,7.49,,true,0,0,0,0,null,0,1,0,brander-desktop,0,0
19:24:18,0,SWAPdb,,20.63,,true,0,0,0,0,null,0,1,0,brander-desktop,0,0
19:24:19,0,SWAPfront1,,0.56,,true,0,0,0,0,null,0,1,0,brander-desktop,0,0
19:24:20,0,SWAPstatic,,7.49,,true,0,0,0,0,null,0,1,0,brander-desktop,0,0
19:24:21,0,SWAPdb,,20.63,,true,0,0,0,0,null,0,1,0,brander-desktop,0,0
19:24:23,0,SWAPfront1,,0.56,,true,0,0,0,0,null,0,1,0,brander-desktop,0,0
19:24:24,0,SWAPstatic,,7.49,,true,0,0,0,0,null,0,1,0,brander-desktop,0,0
19:24:25,0,SWAPdb,,20.63,,true,0,0,0,0,null,0,1,0,brander-desktop,0,0
19:24:26,0,SWAPfront1,,0.56,,true,0,0,0,0,null,0,1,0,brander-desktop,0,0
19:24:27,0,SWAPstatic,,7.49,,true,0,0,0,0,null,0,1,0,brander-desktop,0,0
19:24:28,0,SWAPdb,,20.63,,true,0,0,0,0,null,0,1,0,brander-desktop,0,0
19:24:29,0,SWAPfront1,,0.56,,true,0,0,0,0,null,0,1,0,brander-desktop,0,0
19:24:30,0,SWAPstatic,,7.49,,true,0,0,0,0,null,0,1,0,brander-desktop,0,0
19:24:31,0,SWAPdb,,20.63,,true,0,0,0,0,null,0,1,0,brander-desktop,0,0
19:24:33,0,SWAPfront1,,0.56,,true,0,0,0,0,null,0,1,0,brander-desktop,0,0
19:24:34,0,SWAPstatic,,7.49,,true,0,0,0,0,null,0,1,0,brander-desktop,0,0
19:24:35,0,SWAPdb,,20.63,,true,0,0,0,0,null,0,1,0,brander-desktop,0,0
19:24:36,0,SWAPfront1,,0.56,,true,0,0,0,0,null,0,1,0,brander-desktop,0,0
19:24:37,0,SWAPstatic,,7.49,,true,0,0,0,0,null,0,1,0,brander-desktop,0,0
19:24:38,0,SWAPdb,,20.63,,true,0,0,0,0,null,0,1,0,brander-desktop,0,0
19:24:39,0,SWAPfront1,,0.56,,true,0,0,0,0,null,0,1,0,brander-desktop,0,0
19:24:40,0,SWAPstatic,,7.49,,true,0,0,0,0,null,0,1,0,brander-desktop,0,0
19:24:41,0,SWAPdb,,20.63,,true,0,0,0,0,null,0,1,0,brander-desktop,0,0
19:24:42,0,SWAPfront1,,0.56,,true,0,0,0,0,null,0,1,0,brander-desktop,0,0
19:24:43,0,SWAPstatic,,7.49,,true,0,0,0,0,null,0,1,0,brander-desktop,0,0
19:24:45,0,SWAPdb,,20.63,,true,0,0,0,0,null,0,1,0,brander-desktop,0,0
19:24:46,0,SWAPfront1,,0.56,,true,0,0,0,0,null,0,1,0,brander-desktop,0,0
19:24:47,0,SWAPstatic,,7.49,,true,0,0,0,0,null,0,1,0,brander-desktop,0,0
19:24:48,0,SWAPdb,,20.63,,true,0,0,0,0,null,0,1,0,brander-desktop,0,0
19:24:49,0,SWAPfront1,,0.56,,true,0,0,0,0,null,0,1,0,brander-desktop,0,0
19:24:50,0,SWAPstatic,,7.49,,true,0,0,0,0,null,0,1,0,brander-desktop,0,0
19:24:51,0,SWAPdb,,20.63,,true,0,0,0,0,null,0,1,0,brander-desktop,0,0
19:24:52,0,SWAPfront1,,0.56,,true,0,0,0,0,null,0,1,0,brander-desktop,0,0
19:24:53,0,SWAPstatic,,7.49,,true,0,0,0,0,null,0,1,0,brander-desktop,0,0
19:24:55,0,SWAPdb,,20.63,,true,0,0,0,0,null,0,1,0,brander-desktop,0,0
19:24:56,0,SWAPfront1,,0.56,,true,0,0,0,0,null,0,1,0,brander-desktop,0,0
19:24:57,0,SWAPstatic,,7.49,,true,0,0,0,0,null,0,1,0,brander-desktop,0,0
19:24:58,0,SWAPdb,,20.63,,true,0,0,0,0,null,0,1,0,brander-desktop,0,0
19:24:59,0,SWAPfront1,,0.56,,true,0,0,0,0,null,0,1,0,brander-desktop,0,0
19:25:00,0,SWAPstatic,,7.49,,true,0,0,0,0,null,0,1,0,brander-desktop,0,0
19:25:01,0,SWAPdb,,20.63,,true,0,0,0,0,null,0,1,0,brander-desktop,0,0
19:25:02,0,SWAPfront1,,0.56,,true,0,0,0,0,null,0,1,0,brander-desktop,0,0
19:25:03,0,SWAPstatic,,7.49,,true,0,0,0,0,null,0,1,0,brander-desktop,0,0
19:25:05,0,SWAPdb,,20.63,,true,0,0,0,0,null,0,1,0,brander-desktop,0,0
19:25:06,0,SWAPfront1,,0.56,,true,0,0,0,0,null,0,1,0,brander-desktop,0,0
19:25:07,0,SWAPstatic,,7.49,,true,0,0,0,0,null,0,1,0,brander-desktop,0,0
19:25:08,0,SWAPdb,,20.63,,true,0,0,0,0,null,0,1,0,brander-desktop,0,0
19:25:09,0,SWAPfront1,,0.56,,true,0,0,0,0,null,0,1,0,brander-desktop,0,0
19:25:10,0,SWAPstatic,,7.49,,true,0,0,0,0,null,0,1,0,brander-desktop,0,0
19:25:11,0,SWAPdb,,20.63,,true,0,0,0,0,null,0,1,0,brander-desktop,0,0
19:25:12,0,SWAPfront1,,0.56,,true,0,0,0,0,null,0,1,0,brander-desktop,0,0
19:25:14,0,SWAPstatic,,7.49,,true,0,0,0,0,null,0,1,0,brander-desktop,0,0
19:25:15,0,SWAPdb,,20.63,,true,0,0,0,0,null,0,1,0,brander-desktop,0,0
19:25:16,0,SWAPfront1,,0.56,,true,0,0,0,0,null,0,1,0,brander-desktop,0,0
19:25:17,0,SWAPstatic,,7.49,,true,0,0,0,0,null,0,1,0,brander-desktop,0,0
19:25:18,0,SWAPdb,,20.63,,true,0,0,0,0,null,0,1,0,brander-desktop,0,0
19:25:19,0,SWAPfront1,,0.56,,true,0,0,0,0,null,0,1,0,brander-desktop,0,0
19:25:20,0,SWAPstatic,,7.49,,true,0,0,0,0,null,0,1,0,brander-desktop,0,0
19:25:21,0,SWAPdb,,20.63,,true,0,0,0,0,null,0,1,0,brander-desktop,0,0
19:25:23,0,SWAPfront1,,0.56,,true,0,0,0,0,null,0,1,0,brander-desktop,0,0
19:25:24,0,SWAPstatic,,7.49,,true,0,0,0,0,null,0,1,0,brander-desktop,0,0
19:25:25,0,SWAPdb,,20.63,,true,0,0,0,0,null,0,1,0,brander-desktop,0,0
19:25:26,0,SWAPfront1,,0.56,,true,0,0,0,0,null,0,1,0,brander-desktop,0,0
19:25:27,0,SWAPstatic,,7.49,,true,0,0,0,0,null,0,1,0,brander-desktop,0,0
19:25:28,0,SWAPdb,,20.63,,true,0,0,0,0,null,0,1,0,brander-desktop,0,0
19:25:29,0,SWAPfront1,,0.56,,true,0,0,0,0,null,0,1,0,brander-desktop,0,0
19:25:30,0,SWAPstatic,,7.49,,true,0,0,0,0,null,0,1,0,brander-desktop,0,0
19:25:31,0,SWAPdb,,20.63,,true,0,0,0,0,null,0,1,0,brander-desktop,0,0
19:25:32,0,SWAPfront1,,0.56,,true,0,0,0,0,null,0,1,0,brander-desktop,0,0
19:25:34,0,SWAPstatic,,7.49,,true,0,0,0,0,null,0,1,0,brander-desktop,0,0
19:25:35,0,SWAPdb,,20.63,,true,0,0,0,0,null,0,1,0,brander-desktop,0,0
19:25:36,0,SWAPfront1,,0.56,,true,0,0,0,0,null,0,1,0,brander-desktop,0,0
19:25:37,0,SWAPstatic,,7.49,,true,0,0,0,0,null,0,1,0,brander-desktop,0,0
19:25:38,0,SWAPdb,,20.63,,true,0,0,0,0,null,0,1,0,brander-desktop,0,0
19:25:39,0,SWAPfront1,,0.56,,true,0,0,0,0,null,0,1,0,brander-desktop,0,0
19:25:40,0,SWAPstatic,,7.49,,true,0,0,0,0,null,0,1,0,brander-desktop,0,0
19:25:41,0,SWAPdb,,20.63,,true,0,0,0,0,null,0,1,0,brander-desktop,0,0
19:25:43,0,SWAPfront1,,0.56,,true,0,0,0,0,null,0,1,0,brander-desktop,0,0
19:25:44,0,SWAPstatic,,7.49,,true,0,0,0,0,null,0,1,0,brander-desktop,0,0
19:25:45,0,SWAPdb,,20.63,,true,0,0,0,0,null,0,1,0,brander-desktop,0,0
19:25:46,0,SWAPfront1,,0.56,,true,0,0,0,0,null,0,1,0,brander-desktop,0,0
19:25:47,0,SWAPstatic,,7.49,,true,0,0,0,0,null,0,1,0,brander-desktop,0,0
19:25:48,0,SWAPdb,,20.63,,true,0,0,0,0,null,0,1,0,brander-desktop,0,0
19:25:49,0,SWAPfront1,,0.56,,true,0,0,0,0,null,0,1,0,brander-desktop,0,0
19:25:50,0,SWAPstatic,,7.49,,true,0,0,0,0,null,0,1,0,brander-desktop,0,0
19:25:51,0,SWAPdb,,20.63,,true,0,0,0,0,null,0,1,0,brander-desktop,0,0
19:25:52,0,SWAPfront1,,0.56,,true,0,0,0,0,null,0,1,0,brander-desktop,0,0
19:25:54,0,SWAPstatic,,7.49,,true,0,0,0,0,null,0,1,0,brander-desktop,0,0
19:25:55,0,SWAPdb,,20.63,,true,0,0,0,0,null,0,1,0,brander-desktop,0,0
19:25:56,0,SWAPfront1,,0.56,,true,0,0,0,0,null,0,1,0,brander-desktop,0,0
19:25:57,0,SWAPstatic,,7.49,,true,0,0,0,0,null,0,1,0,brander-desktop,0,0
19:25:58,0,SWAPdb,,20.63,,true,0,0,0,0,null,0,1,0,brander-desktop,0,0
19:25:59,0,SWAPfront1,,0.56,,true,0,0,0,0,null,0,1,0,brander-desktop,0,0
19:26:00,0,SWAPstatic,,7.49,,true,0,0,0,0,null,0,1,0,brander-desktop,0,0
19:26:01,0,SWAPdb,,20.63,,true,0,0,0,0,null,0,1,0,brander-desktop,0,0
19:26:02,0,SWAPfront1,,0.56,,true,0,0,0,0,null,0,1,0,brander-desktop,0,0
19:26:04,0,SWAPstatic,,7.49,,true,0,0,0,0,null,0,1,0,brander-desktop,0,0
19:26:05,0,SWAPdb,,20.63,,true,0,0,0,0,null,0,1,0,brander-desktop,0,0
19:26:06,0,SWAPfront1,,0.56,,true,0,0,0,0,null,0,1,0,brander-desktop,0,0
19:26:07,0,SWAPstatic,,7.49,,true,0,0,0,0,null,0,1,0,brander-desktop,0,0
19:26:08,0,SWAPdb,,20.63,,true,0,0,0,0,null,0,1,0,brander-desktop,0,0
19:26:09,0,SWAPfront1,,0.56,,true,0,0,0,0,null,0,1,0,brander-desktop,0,0
19:26:10,0,SWAPstatic,,7.49,,true,0,0,0,0,null,0,1,0,brander-desktop,0,0
19:26:11,0,SWAPdb,,20.63,,true,0,0,0,0,null,0,1,0,brander-desktop,0,0
19:26:13,0,SWAPfront1,,0.56,,true,0,0,0,0,null,0,1,0,brander-desktop,0,0
19:26:14,0,SWAPstatic,,7.49,,true,0,0,0,0,null,0,1,0,brander-desktop,0,0
19:26:15,0,SWAPdb,,20.63,,true,0,0,0,0,null,0,1,0,brander-desktop,0,0
19:26:17,0,SWAPfront1,,0.56,,true,0,0,0,0,null,0,1,0,brander-desktop,0,0
19:26:18,0,SWAPstatic,,7.49,,true,0,0,0,0,null,0,1,0,brander-desktop,0,0
19:26:19,0,SWAPdb,,20.63,,true,0,0,0,0,null,0,1,0,brander-desktop,0,0
19:26:20,0,SWAPfront1,,0.56,,true,0,0,0,0,null,0,1,0,brander-desktop,0,0
19:26:22,0,SWAPstatic,,7.49,,true,0,0,0,0,null,0,1,0,brander-desktop,0,0
19:26:23,0,SWAPdb,,20.63,,true,0,0,0,0,null,0,1,0,brander-desktop,0,0
19:26:24,0,SWAPfront1,,0.56,,true,0,0,0,0,null,0,1,0,brander-desktop,0,0
19:26:25,0,SWAPstatic,,7.49,,true,0,0,0,0,null,0,1,0,brander-desktop,0,0
19:26:27,0,SWAPdb,,20.63,,true,0,0,0,0,null,0,1,0,brander-desktop,0,0
19:26:28,0,SWAPfront1,,0.56,,true,0,0,0,0,null,0,1,0,brander-desktop,0,0
19:26:29,0,SWAPstatic,,7.49,,true,0,0,0,0,null,0,1,0,brander-desktop,0,0
19:26:31,0,SWAPdb,,20.63,,true,0,0,0,0,null,0,1,0,brander-desktop,0,0
19:26:32,0,SWAPfront1,,0.56,,true,0,0,0,0,null,0,1,0,brander-desktop,0,0
19:26:33,0,SWAPstatic,,7.49,,true,0,0,0,0,null,0,1,0,brander-desktop,0,0
19:26:35,0,SWAPdb,,20.63,,true,0,0,0,0,null,0,1,0,brander-desktop,0,0
19:26:36,0,SWAPfront1,,0.56,,true,0,0,0,0,null,0,1,0,brander-desktop,0,0
19:26:37,0,SWAPstatic,,7.49,,true,0,0,0,0,null,0,1,0,brander-desktop,0,0
19:26:38,0,SWAPdb,,20.63,,true,0,0,0,0,null,0,1,0,brander-desktop,0,0
19:26:40,0,SWAPfront1,,0.56,,true,0,0,0,0,null,0,1,0,brander-desktop,0,0
19:26:41,0,SWAPstatic,,7.49,,true,0,0,0,0,null,0,1,0,brander-desktop,0,0
19:26:42,0,SWAPdb,,20.63,,true,0,0,0,0,null,0,1,0,brander-desktop,0,0
19:26:44,0,SWAPfront1,,0.56,,true,0,0,0,0,null,0,1,0,brander-desktop,0,0
19:26:45,0,SWAPstatic,,7.49,,true,0,0,0,0,null,0,1,0,brander-desktop,0,0
19:26:46,0,SWAPdb,,20.63,,true,0,0,0,0,null,0,1,0,brander-desktop,0,0
19:26:48,0,SWAPfront1,,0.56,,true,0,0,0,0,null,0,1,0,brander-desktop,0,0
19:26:49,0,SWAPstatic,,7.49,,true,0,0,0,0,null,0,1,0,brander-desktop,0,0
19:26:50,0,SWAPdb,,20.63,,true,0,0,0,0,null,0,1,0,brander-desktop,0,0
19:26:52,0,SWAPfront1,,0.56,,true,0,0,0,0,null,0,1,0,brander-desktop,0,0
19:26:53,0,SWAPstatic,,7.49,,true,0,0,0,0,null,0,1,0,brander-desktop,0,0
19:26:54,0,SWAPdb,,20.63,,true,0,0,0,0,null,0,1,0,brander-desktop,0,0
19:26:56,0,SWAPfront1,,0.56,,true,0,0,0,0,null,0,1,0,brander-desktop,0,0
19:26:57,0,SWAPstatic,,7.49,,true,0,0,0,0,null,0,1,0,brander-desktop,0,0
19:26:59,0,SWAPdb,,20.63,,true,0,0,0,0,null,0,1,0,brander-desktop,0,0
19:27:00,0,SWAPfront1,,0.56,,true,0,0,0,0,null,0,1,0,brander-desktop,0,0
19:27:01,0,SWAPstatic,,7.49,,true,0,0,0,0,null,0,1,0,brander-desktop,0,0
19:27:03,0,SWAPdb,,20.63,,true,0,0,0,0,null,0,1,0,brander-desktop,0,0
19:27:04,0,SWAPfront1,,0.56,,true,0,0,0,0,null,0,1,0,brander-desktop,0,0
19:27:06,0,SWAPstatic,,7.49,,true,0,0,0,0,null,0,1,0,brander-desktop,0,0
19:27:07,0,SWAPdb,,20.63,,true,0,0,0,0,null,0,1,0,brander-desktop,0,0
19:27:08,0,SWAPfront1,,0.56,,true,0,0,0,0,null,0,1,0,brander-desktop,0,0
19:27:10,0,SWAPstatic,,7.49,,true,0,0,0,0,null,0,1,0,brander-desktop,0,0
19:27:11,0,SWAPdb,,20.63,,true,0,0,0,0,null,0,1,0,brander-desktop,0,0
19:27:12,0,SWAPfront1,,0.56,,true,0,0,0,0,null,0,1,0,brander-desktop,0,0
19:27:14,0,SWAPstatic,,7.49,,true,0,0,0,0,null,0,1,0,brander-desktop,0,0
19:27:15,0,SWAPdb,,20.63,,true,0,0,0,0,null,0,1,0,brander-desktop,0,0
19:27:17,0,SWAPfront1,,0.56,,true,0,0,0,0,null,0,1,0,brander-desktop,0,0
19:27:18,0,SWAPstatic,,7.49,,true,0,0,0,0,null,0,1,0,brander-desktop,0,0
19:27:19,0,SWAPdb,,20.63,,true,0,0,0,0,null,0,1,0,brander-desktop,0,0
19:27:21,0,SWAPfront1,,0.56,,true,0,0,0,0,null,0,1,0,brander-desktop,0,0
19:27:22,0,SWAPstatic,,7.49,,true,0,0,0,0,null,0,1,0,brander-desktop,0,0
19:27:24,0,SWAPdb,,20.63,,true,0,0,0,0,null,0,1,0,brander-desktop,0,0
19:27:25,0,SWAPfront1,,0.56,,true,0,0,0,0,null,0,1,0,brander-desktop,0,0
19:27:27,0,SWAPstatic,,7.49,,true,0,0,0,0,null,0,1,0,brander-desktop,0,0
19:27:28,0,SWAPdb,,20.63,,true,0,0,0,0,null,0,1,0,brander-desktop,0,0
19:27:33,0,SWAPfront1,,0.56,,true,0,0,0,0,null,0,1,0,brander-desktop,0,0
19:27:39,0,SWAPstatic,,7.49,,true,0,0,0,0,null,0,1,0,brander-desktop,0,0
19:27:41,0,SWAPdb,,20.63,,true,0,0,0,0,null,0,1,0,brander-desktop,0,0
19:27:42,0,SWAPfront1,,0.56,,true,0,0,0,0,null,0,1,0,brander-desktop,0,0
19:27:47,0,SWAPstatic,,7.49,,true,0,0,0,0,null,0,1,0,brander-desktop,0,0
19:27:51,0,SWAPdb,,20.63,,true,0,0,0,0,null,0,1,0,brander-desktop,0,0
