timeStamp,elapsed,label,responseCode,responseMessage,threadName,success,bytes,sentBytes,grpThreads,allThreads,URL,Latency,SampleCount,ErrorCount,Hostname,IdleTime,Connect
16:12:05,0,SWAPstatic,,3.54,,true,0,0,0,0,null,0,1,0,brander-desktop,0,0
16:12:07,0,SWAPdb,,4.61,,true,0,0,0,0,null,0,1,0,brander-desktop,0,0
16:12:09,0,SWAPfront1,,3.09,,true,0,0,0,0,null,0,1,0,brander-desktop,0,0
16:12:10,0,SWAPfront2,,0.0,,true,0,0,0,0,null,0,1,0,brander-desktop,0,0
16:12:12,0,SWAPfront3,,0.0,,true,0,0,0,0,null,0,1,0,brander-desktop,0,0
16:12:14,0,SWAPfront4,,0.1,,true,0,0,0,0,null,0,1,0,brander-desktop,0,0
16:12:15,0,SWAPstatic,,3.54,,true,0,0,0,0,null,0,1,0,brander-desktop,0,0
16:12:16,0,SWAPdb,,4.61,,true,0,0,0,0,null,0,1,0,brander-desktop,0,0
16:12:17,0,SWAPfront1,,3.09,,true,0,0,0,0,null,0,1,0,brander-desktop,0,0
16:12:18,0,SWAPfront2,,0.0,,true,0,0,0,0,null,0,1,0,brander-desktop,0,0
16:12:19,0,SWAPfront3,,0.0,,true,0,0,0,0,null,0,1,0,brander-desktop,0,0
16:12:20,0,SWAPfront4,,0.1,,true,0,0,0,0,null,0,1,0,brander-desktop,0,0
16:12:21,0,SWAPstatic,,3.54,,true,0,0,0,0,null,0,1,0,brander-desktop,0,0
16:12:23,0,SWAPdb,,4.61,,true,0,0,0,0,null,0,1,0,brander-desktop,0,0
16:12:24,0,SWAPfront1,,3.09,,true,0,0,0,0,null,0,1,0,brander-desktop,0,0
16:12:25,0,SWAPfront2,,0.0,,true,0,0,0,0,null,0,1,0,brander-desktop,0,0
16:12:26,0,SWAPfront3,,0.0,,true,0,0,0,0,null,0,1,0,brander-desktop,0,0
16:12:27,0,SWAPfront4,,0.1,,true,0,0,0,0,null,0,1,0,brander-desktop,0,0
16:12:28,0,SWAPstatic,,3.54,,true,0,0,0,0,null,0,1,0,brander-desktop,0,0
16:12:29,0,SWAPdb,,4.61,,true,0,0,0,0,null,0,1,0,brander-desktop,0,0
16:12:30,0,SWAPfront1,,3.09,,true,0,0,0,0,null,0,1,0,brander-desktop,0,0
16:12:31,0,SWAPfront2,,0.0,,true,0,0,0,0,null,0,1,0,brander-desktop,0,0
16:12:32,0,SWAPfront3,,0.0,,true,0,0,0,0,null,0,1,0,brander-desktop,0,0
16:12:34,0,SWAPfront4,,0.1,,true,0,0,0,0,null,0,1,0,brander-desktop,0,0
16:12:35,0,SWAPstatic,,3.54,,true,0,0,0,0,null,0,1,0,brander-desktop,0,0
16:12:36,0,SWAPdb,,4.61,,true,0,0,0,0,null,0,1,0,brander-desktop,0,0
16:12:37,0,SWAPfront1,,3.09,,true,0,0,0,0,null,0,1,0,brander-desktop,0,0
16:12:38,0,SWAPfront2,,0.0,,true,0,0,0,0,null,0,1,0,brander-desktop,0,0
16:12:39,0,SWAPfront3,,0.0,,true,0,0,0,0,null,0,1,0,brander-desktop,0,0
16:12:40,0,SWAPfront4,,0.1,,true,0,0,0,0,null,0,1,0,brander-desktop,0,0
16:12:42,0,SWAPstatic,,3.54,,true,0,0,0,0,null,0,1,0,brander-desktop,0,0
16:12:43,0,SWAPdb,,4.61,,true,0,0,0,0,null,0,1,0,brander-desktop,0,0
16:12:44,0,SWAPfront1,,3.09,,true,0,0,0,0,null,0,1,0,brander-desktop,0,0
16:12:45,0,SWAPfront2,,0.0,,true,0,0,0,0,null,0,1,0,brander-desktop,0,0
16:12:46,0,SWAPfront3,,0.0,,true,0,0,0,0,null,0,1,0,brander-desktop,0,0
16:12:47,0,SWAPfront4,,0.1,,true,0,0,0,0,null,0,1,0,brander-desktop,0,0
16:12:48,0,SWAPstatic,,3.54,,true,0,0,0,0,null,0,1,0,brander-desktop,0,0
16:12:49,0,SWAPdb,,4.61,,true,0,0,0,0,null,0,1,0,brander-desktop,0,0
16:12:50,0,SWAPfront1,,3.09,,true,0,0,0,0,null,0,1,0,brander-desktop,0,0
16:12:52,0,SWAPfront2,,0.0,,true,0,0,0,0,null,0,1,0,brander-desktop,0,0
16:12:53,0,SWAPfront3,,0.0,,true,0,0,0,0,null,0,1,0,brander-desktop,0,0
16:12:54,0,SWAPfront4,,0.1,,true,0,0,0,0,null,0,1,0,brander-desktop,0,0
16:12:55,0,SWAPstatic,,3.54,,true,0,0,0,0,null,0,1,0,brander-desktop,0,0
16:12:56,0,SWAPdb,,4.61,,true,0,0,0,0,null,0,1,0,brander-desktop,0,0
16:12:57,0,SWAPfront1,,3.09,,true,0,0,0,0,null,0,1,0,brander-desktop,0,0
16:12:58,0,SWAPfront2,,0.0,,true,0,0,0,0,null,0,1,0,brander-desktop,0,0
16:12:59,0,SWAPfront3,,0.0,,true,0,0,0,0,null,0,1,0,brander-desktop,0,0
16:13:00,0,SWAPfront4,,0.1,,true,0,0,0,0,null,0,1,0,brander-desktop,0,0
16:13:02,0,SWAPstatic,,3.54,,true,0,0,0,0,null,0,1,0,brander-desktop,0,0
16:13:03,0,SWAPdb,,4.61,,true,0,0,0,0,null,0,1,0,brander-desktop,0,0
16:13:04,0,SWAPfront1,,3.09,,true,0,0,0,0,null,0,1,0,brander-desktop,0,0
16:13:05,0,SWAPfront2,,0.0,,true,0,0,0,0,null,0,1,0,brander-desktop,0,0
16:13:06,0,SWAPfront3,,0.0,,true,0,0,0,0,null,0,1,0,brander-desktop,0,0
16:13:07,0,SWAPfront4,,0.1,,true,0,0,0,0,null,0,1,0,brander-desktop,0,0
16:13:08,0,SWAPstatic,,3.54,,true,0,0,0,0,null,0,1,0,brander-desktop,0,0
16:13:09,0,SWAPdb,,4.61,,true,0,0,0,0,null,0,1,0,brander-desktop,0,0
16:13:10,0,SWAPfront1,,3.09,,true,0,0,0,0,null,0,1,0,brander-desktop,0,0
16:13:11,0,SWAPfront2,,0.0,,true,0,0,0,0,null,0,1,0,brander-desktop,0,0
16:13:13,0,SWAPfront3,,0.0,,true,0,0,0,0,null,0,1,0,brander-desktop,0,0
16:13:14,0,SWAPfront4,,0.1,,true,0,0,0,0,null,0,1,0,brander-desktop,0,0
16:13:15,0,SWAPstatic,,3.54,,true,0,0,0,0,null,0,1,0,brander-desktop,0,0
16:13:16,0,SWAPdb,,4.61,,true,0,0,0,0,null,0,1,0,brander-desktop,0,0
16:13:17,0,SWAPfront1,,3.09,,true,0,0,0,0,null,0,1,0,brander-desktop,0,0
16:13:18,0,SWAPfront2,,0.0,,true,0,0,0,0,null,0,1,0,brander-desktop,0,0
16:13:19,0,SWAPfront3,,0.0,,true,0,0,0,0,null,0,1,0,brander-desktop,0,0
16:13:20,0,SWAPfront4,,0.1,,true,0,0,0,0,null,0,1,0,brander-desktop,0,0
16:13:21,0,SWAPstatic,,3.54,,true,0,0,0,0,null,0,1,0,brander-desktop,0,0
16:13:23,0,SWAPdb,,4.61,,true,0,0,0,0,null,0,1,0,brander-desktop,0,0
16:13:24,0,SWAPfront1,,3.09,,true,0,0,0,0,null,0,1,0,brander-desktop,0,0
16:13:25,0,SWAPfront2,,0.0,,true,0,0,0,0,null,0,1,0,brander-desktop,0,0
16:13:26,0,SWAPfront3,,0.0,,true,0,0,0,0,null,0,1,0,brander-desktop,0,0
16:13:27,0,SWAPfront4,,0.1,,true,0,0,0,0,null,0,1,0,brander-desktop,0,0
16:13:28,0,SWAPstatic,,3.54,,true,0,0,0,0,null,0,1,0,brander-desktop,0,0
16:13:29,0,SWAPdb,,4.61,,true,0,0,0,0,null,0,1,0,brander-desktop,0,0
16:13:30,0,SWAPfront1,,3.09,,true,0,0,0,0,null,0,1,0,brander-desktop,0,0
16:13:32,0,SWAPfront2,,0.0,,true,0,0,0,0,null,0,1,0,brander-desktop,0,0
16:13:33,0,SWAPfront3,,0.0,,true,0,0,0,0,null,0,1,0,brander-desktop,0,0
16:13:34,0,SWAPfront4,,0.1,,true,0,0,0,0,null,0,1,0,brander-desktop,0,0
16:13:35,0,SWAPstatic,,3.54,,true,0,0,0,0,null,0,1,0,brander-desktop,0,0
16:13:36,0,SWAPdb,,4.61,,true,0,0,0,0,null,0,1,0,brander-desktop,0,0
16:13:37,0,SWAPfront1,,3.09,,true,0,0,0,0,null,0,1,0,brander-desktop,0,0
16:13:38,0,SWAPfront2,,0.0,,true,0,0,0,0,null,0,1,0,brander-desktop,0,0
16:13:39,0,SWAPfront3,,0.0,,true,0,0,0,0,null,0,1,0,brander-desktop,0,0
16:13:40,0,SWAPfront4,,0.1,,true,0,0,0,0,null,0,1,0,brander-desktop,0,0
16:13:41,0,SWAPstatic,,3.54,,true,0,0,0,0,null,0,1,0,brander-desktop,0,0
16:13:43,0,SWAPdb,,4.61,,true,0,0,0,0,null,0,1,0,brander-desktop,0,0
16:13:44,0,SWAPfront1,,3.09,,true,0,0,0,0,null,0,1,0,brander-desktop,0,0
16:13:45,0,SWAPfront2,,0.0,,true,0,0,0,0,null,0,1,0,brander-desktop,0,0
16:13:46,0,SWAPfront3,,0.0,,true,0,0,0,0,null,0,1,0,brander-desktop,0,0
16:13:47,0,SWAPfront4,,0.1,,true,0,0,0,0,null,0,1,0,brander-desktop,0,0
16:13:48,0,SWAPstatic,,3.54,,true,0,0,0,0,null,0,1,0,brander-desktop,0,0
16:13:49,0,SWAPdb,,4.61,,true,0,0,0,0,null,0,1,0,brander-desktop,0,0
16:13:50,0,SWAPfront1,,3.09,,true,0,0,0,0,null,0,1,0,brander-desktop,0,0
16:13:51,0,SWAPfront2,,0.0,,true,0,0,0,0,null,0,1,0,brander-desktop,0,0
16:13:52,0,SWAPfront3,,0.0,,true,0,0,0,0,null,0,1,0,brander-desktop,0,0
16:13:54,0,SWAPfront4,,0.1,,true,0,0,0,0,null,0,1,0,brander-desktop,0,0
16:13:55,0,SWAPstatic,,3.54,,true,0,0,0,0,null,0,1,0,brander-desktop,0,0
16:13:56,0,SWAPdb,,4.61,,true,0,0,0,0,null,0,1,0,brander-desktop,0,0
16:13:57,0,SWAPfront1,,3.09,,true,0,0,0,0,null,0,1,0,brander-desktop,0,0
16:13:58,0,SWAPfront2,,0.0,,true,0,0,0,0,null,0,1,0,brander-desktop,0,0
16:13:59,0,SWAPfront3,,0.0,,true,0,0,0,0,null,0,1,0,brander-desktop,0,0
16:14:00,0,SWAPfront4,,0.1,,true,0,0,0,0,null,0,1,0,brander-desktop,0,0
16:14:01,0,SWAPstatic,,3.54,,true,0,0,0,0,null,0,1,0,brander-desktop,0,0
16:14:02,0,SWAPdb,,4.61,,true,0,0,0,0,null,0,1,0,brander-desktop,0,0
16:14:03,0,SWAPfront1,,3.09,,true,0,0,0,0,null,0,1,0,brander-desktop,0,0
16:14:05,0,SWAPfront2,,0.0,,true,0,0,0,0,null,0,1,0,brander-desktop,0,0
16:14:06,0,SWAPfront3,,0.0,,true,0,0,0,0,null,0,1,0,brander-desktop,0,0
16:14:07,0,SWAPfront4,,0.1,,true,0,0,0,0,null,0,1,0,brander-desktop,0,0
16:14:08,0,SWAPstatic,,3.54,,true,0,0,0,0,null,0,1,0,brander-desktop,0,0
16:14:09,0,SWAPdb,,4.61,,true,0,0,0,0,null,0,1,0,brander-desktop,0,0
16:14:10,0,SWAPfront1,,3.09,,true,0,0,0,0,null,0,1,0,brander-desktop,0,0
16:14:11,0,SWAPfront2,,0.0,,true,0,0,0,0,null,0,1,0,brander-desktop,0,0
16:14:13,0,SWAPfront3,,0.0,,true,0,0,0,0,null,0,1,0,brander-desktop,0,0
16:14:14,0,SWAPfront4,,0.1,,true,0,0,0,0,null,0,1,0,brander-desktop,0,0
16:14:15,0,SWAPstatic,,3.54,,true,0,0,0,0,null,0,1,0,brander-desktop,0,0
16:14:16,0,SWAPdb,,4.61,,true,0,0,0,0,null,0,1,0,brander-desktop,0,0
16:14:17,0,SWAPfront1,,3.09,,true,0,0,0,0,null,0,1,0,brander-desktop,0,0
16:14:18,0,SWAPfront2,,0.0,,true,0,0,0,0,null,0,1,0,brander-desktop,0,0
16:14:19,0,SWAPfront3,,0.0,,true,0,0,0,0,null,0,1,0,brander-desktop,0,0
16:14:21,0,SWAPfront4,,0.1,,true,0,0,0,0,null,0,1,0,brander-desktop,0,0
16:14:22,0,SWAPstatic,,3.54,,true,0,0,0,0,null,0,1,0,brander-desktop,0,0
16:14:23,0,SWAPdb,,4.61,,true,0,0,0,0,null,0,1,0,brander-desktop,0,0
16:14:25,0,SWAPfront1,,3.09,,true,0,0,0,0,null,0,1,0,brander-desktop,0,0
16:14:26,0,SWAPfront2,,0.0,,true,0,0,0,0,null,0,1,0,brander-desktop,0,0
16:14:27,0,SWAPfront3,,0.0,,true,0,0,0,0,null,0,1,0,brander-desktop,0,0
16:14:28,0,SWAPfront4,,0.1,,true,0,0,0,0,null,0,1,0,brander-desktop,0,0
16:14:30,0,SWAPstatic,,3.54,,true,0,0,0,0,null,0,1,0,brander-desktop,0,0
16:14:31,0,SWAPdb,,4.61,,true,0,0,0,0,null,0,1,0,brander-desktop,0,0
16:14:32,0,SWAPfront1,,3.09,,true,0,0,0,0,null,0,1,0,brander-desktop,0,0
16:14:33,0,SWAPfront2,,0.0,,true,0,0,0,0,null,0,1,0,brander-desktop,0,0
16:14:35,0,SWAPfront3,,0.0,,true,0,0,0,0,null,0,1,0,brander-desktop,0,0
16:14:36,0,SWAPfront4,,0.1,,true,0,0,0,0,null,0,1,0,brander-desktop,0,0
16:14:37,0,SWAPstatic,,3.54,,true,0,0,0,0,null,0,1,0,brander-desktop,0,0
16:14:39,0,SWAPdb,,4.61,,true,0,0,0,0,null,0,1,0,brander-desktop,0,0
16:14:40,0,SWAPfront1,,3.09,,true,0,0,0,0,null,0,1,0,brander-desktop,0,0
16:14:42,0,SWAPfront2,,0.0,,true,0,0,0,0,null,0,1,0,brander-desktop,0,0
16:14:43,0,SWAPfront3,,0.0,,true,0,0,0,0,null,0,1,0,brander-desktop,0,0
16:14:44,0,SWAPfront4,,0.1,,true,0,0,0,0,null,0,1,0,brander-desktop,0,0
16:14:46,0,SWAPstatic,,3.54,,true,0,0,0,0,null,0,1,0,brander-desktop,0,0
16:14:47,0,SWAPdb,,4.61,,true,0,0,0,0,null,0,1,0,brander-desktop,0,0
16:14:48,0,SWAPfront1,,3.09,,true,0,0,0,0,null,0,1,0,brander-desktop,0,0
16:14:50,0,SWAPfront2,,0.0,,true,0,0,0,0,null,0,1,0,brander-desktop,0,0
16:14:51,0,SWAPfront3,,0.0,,true,0,0,0,0,null,0,1,0,brander-desktop,0,0
16:14:52,0,SWAPfront4,,0.1,,true,0,0,0,0,null,0,1,0,brander-desktop,0,0
16:14:54,0,SWAPstatic,,3.54,,true,0,0,0,0,null,0,1,0,brander-desktop,0,0
16:14:55,0,SWAPdb,,4.61,,true,0,0,0,0,null,0,1,0,brander-desktop,0,0
16:14:56,0,SWAPfront1,,3.09,,true,0,0,0,0,null,0,1,0,brander-desktop,0,0
16:14:57,0,SWAPfront2,,0.0,,true,0,0,0,0,null,0,1,0,brander-desktop,0,0
16:14:58,0,SWAPfront3,,0.0,,true,0,0,0,0,null,0,1,0,brander-desktop,0,0
16:15:00,0,SWAPfront4,,0.1,,true,0,0,0,0,null,0,1,0,brander-desktop,0,0
16:15:01,0,SWAPstatic,,3.54,,true,0,0,0,0,null,0,1,0,brander-desktop,0,0
16:15:02,0,SWAPdb,,4.61,,true,0,0,0,0,null,0,1,0,brander-desktop,0,0
16:15:03,0,SWAPfront1,,3.09,,true,0,0,0,0,null,0,1,0,brander-desktop,0,0
16:15:04,0,SWAPfront2,,0.0,,true,0,0,0,0,null,0,1,0,brander-desktop,0,0
16:15:06,0,SWAPfront3,,0.0,,true,0,0,0,0,null,0,1,0,brander-desktop,0,0
16:15:07,0,SWAPfront4,,0.1,,true,0,0,0,0,null,0,1,0,brander-desktop,0,0
16:15:08,0,SWAPstatic,,3.54,,true,0,0,0,0,null,0,1,0,brander-desktop,0,0
16:15:09,0,SWAPdb,,4.61,,true,0,0,0,0,null,0,1,0,brander-desktop,0,0
16:15:10,0,SWAPfront1,,3.09,,true,0,0,0,0,null,0,1,0,brander-desktop,0,0
16:15:12,0,SWAPfront2,,0.0,,true,0,0,0,0,null,0,1,0,brander-desktop,0,0
16:15:13,0,SWAPfront3,,0.0,,true,0,0,0,0,null,0,1,0,brander-desktop,0,0
16:15:14,0,SWAPfront4,,0.1,,true,0,0,0,0,null,0,1,0,brander-desktop,0,0
16:15:15,0,SWAPstatic,,3.54,,true,0,0,0,0,null,0,1,0,brander-desktop,0,0
16:15:17,0,SWAPdb,,4.61,,true,0,0,0,0,null,0,1,0,brander-desktop,0,0
16:15:18,0,SWAPfront1,,3.09,,true,0,0,0,0,null,0,1,0,brander-desktop,0,0
16:15:19,0,SWAPfront2,,0.0,,true,0,0,0,0,null,0,1,0,brander-desktop,0,0
16:15:21,0,SWAPfront3,,0.0,,true,0,0,0,0,null,0,1,0,brander-desktop,0,0
16:15:22,0,SWAPfront4,,0.1,,true,0,0,0,0,null,0,1,0,brander-desktop,0,0
16:15:23,0,SWAPstatic,,3.54,,true,0,0,0,0,null,0,1,0,brander-desktop,0,0
16:15:24,0,SWAPdb,,4.61,,true,0,0,0,0,null,0,1,0,brander-desktop,0,0
16:15:26,0,SWAPfront1,,3.09,,true,0,0,0,0,null,0,1,0,brander-desktop,0,0
16:15:27,0,SWAPfront2,,0.0,,true,0,0,0,0,null,0,1,0,brander-desktop,0,0
16:15:28,0,SWAPfront3,,0.0,,true,0,0,0,0,null,0,1,0,brander-desktop,0,0
16:15:29,0,SWAPfront4,,0.1,,true,0,0,0,0,null,0,1,0,brander-desktop,0,0
16:15:30,0,SWAPstatic,,3.54,,true,0,0,0,0,null,0,1,0,brander-desktop,0,0
16:15:31,0,SWAPdb,,4.61,,true,0,0,0,0,null,0,1,0,brander-desktop,0,0
16:15:33,0,SWAPfront1,,3.09,,true,0,0,0,0,null,0,1,0,brander-desktop,0,0
16:15:34,0,SWAPfront2,,0.0,,true,0,0,0,0,null,0,1,0,brander-desktop,0,0
16:15:35,0,SWAPfront3,,0.0,,true,0,0,0,0,null,0,1,0,brander-desktop,0,0
16:15:36,0,SWAPfront4,,0.1,,true,0,0,0,0,null,0,1,0,brander-desktop,0,0
16:15:37,0,SWAPstatic,,3.54,,true,0,0,0,0,null,0,1,0,brander-desktop,0,0
16:15:38,0,SWAPdb,,4.61,,true,0,0,0,0,null,0,1,0,brander-desktop,0,0
16:15:40,0,SWAPfront1,,3.09,,true,0,0,0,0,null,0,1,0,brander-desktop,0,0
16:15:41,0,SWAPfront2,,0.0,,true,0,0,0,0,null,0,1,0,brander-desktop,0,0
16:15:42,0,SWAPfront3,,0.0,,true,0,0,0,0,null,0,1,0,brander-desktop,0,0
16:15:43,0,SWAPfront4,,0.1,,true,0,0,0,0,null,0,1,0,brander-desktop,0,0
16:15:44,0,SWAPstatic,,3.54,,true,0,0,0,0,null,0,1,0,brander-desktop,0,0
16:15:45,0,SWAPdb,,4.61,,true,0,0,0,0,null,0,1,0,brander-desktop,0,0
16:15:46,0,SWAPfront1,,3.09,,true,0,0,0,0,null,0,1,0,brander-desktop,0,0
16:15:47,0,SWAPfront2,,0.0,,true,0,0,0,0,null,0,1,0,brander-desktop,0,0
16:15:49,0,SWAPfront3,,0.0,,true,0,0,0,0,null,0,1,0,brander-desktop,0,0
16:15:50,0,SWAPfront4,,0.1,,true,0,0,0,0,null,0,1,0,brander-desktop,0,0
16:15:51,0,SWAPstatic,,3.54,,true,0,0,0,0,null,0,1,0,brander-desktop,0,0
16:15:52,0,SWAPdb,,4.61,,true,0,0,0,0,null,0,1,0,brander-desktop,0,0
16:15:53,0,SWAPfront1,,3.09,,true,0,0,0,0,null,0,1,0,brander-desktop,0,0
16:15:54,0,SWAPfront2,,0.0,,true,0,0,0,0,null,0,1,0,brander-desktop,0,0
16:15:56,0,SWAPfront3,,0.0,,true,0,0,0,0,null,0,1,0,brander-desktop,0,0
16:15:57,0,SWAPfront4,,0.1,,true,0,0,0,0,null,0,1,0,brander-desktop,0,0
16:15:58,0,SWAPstatic,,3.54,,true,0,0,0,0,null,0,1,0,brander-desktop,0,0
16:16:00,0,SWAPdb,,4.61,,true,0,0,0,0,null,0,1,0,brander-desktop,0,0
16:16:01,0,SWAPfront1,,3.09,,true,0,0,0,0,null,0,1,0,brander-desktop,0,0
16:16:02,0,SWAPfront2,,0.0,,true,0,0,0,0,null,0,1,0,brander-desktop,0,0
16:16:04,0,SWAPfront3,,0.0,,true,0,0,0,0,null,0,1,0,brander-desktop,0,0
16:16:05,0,SWAPfront4,,0.1,,true,0,0,0,0,null,0,1,0,brander-desktop,0,0
16:16:07,0,SWAPstatic,,3.54,,true,0,0,0,0,null,0,1,0,brander-desktop,0,0
16:16:08,0,SWAPdb,,4.61,,true,0,0,0,0,null,0,1,0,brander-desktop,0,0
16:16:10,0,SWAPfront1,,3.09,,true,0,0,0,0,null,0,1,0,brander-desktop,0,0
16:16:11,0,SWAPfront2,,0.0,,true,0,0,0,0,null,0,1,0,brander-desktop,0,0
16:16:12,0,SWAPfront3,,0.0,,true,0,0,0,0,null,0,1,0,brander-desktop,0,0
16:16:13,0,SWAPfront4,,0.1,,true,0,0,0,0,null,0,1,0,brander-desktop,0,0
16:16:14,0,SWAPstatic,,3.54,,true,0,0,0,0,null,0,1,0,brander-desktop,0,0
16:16:16,0,SWAPdb,,4.61,,true,0,0,0,0,null,0,1,0,brander-desktop,0,0
16:16:17,0,SWAPfront1,,3.09,,true,0,0,0,0,null,0,1,0,brander-desktop,0,0
16:16:18,0,SWAPfront2,,0.0,,true,0,0,0,0,null,0,1,0,brander-desktop,0,0
16:16:19,0,SWAPfront3,,0.0,,true,0,0,0,0,null,0,1,0,brander-desktop,0,0
16:16:20,0,SWAPfront4,,0.1,,true,0,0,0,0,null,0,1,0,brander-desktop,0,0
16:16:22,0,SWAPstatic,,3.54,,true,0,0,0,0,null,0,1,0,brander-desktop,0,0
16:16:23,0,SWAPdb,,4.61,,true,0,0,0,0,null,0,1,0,brander-desktop,0,0
16:16:24,0,SWAPfront1,,3.09,,true,0,0,0,0,null,0,1,0,brander-desktop,0,0
16:16:25,0,SWAPfront2,,0.0,,true,0,0,0,0,null,0,1,0,brander-desktop,0,0
16:16:26,0,SWAPfront3,,0.0,,true,0,0,0,0,null,0,1,0,brander-desktop,0,0
16:16:27,0,SWAPfront4,,0.1,,true,0,0,0,0,null,0,1,0,brander-desktop,0,0
16:16:28,0,SWAPstatic,,3.54,,true,0,0,0,0,null,0,1,0,brander-desktop,0,0
16:16:30,0,SWAPdb,,4.61,,true,0,0,0,0,null,0,1,0,brander-desktop,0,0
16:16:31,0,SWAPfront1,,3.09,,true,0,0,0,0,null,0,1,0,brander-desktop,0,0
16:16:32,0,SWAPfront2,,0.0,,true,0,0,0,0,null,0,1,0,brander-desktop,0,0
16:16:33,0,SWAPfront3,,0.0,,true,0,0,0,0,null,0,1,0,brander-desktop,0,0
16:16:34,0,SWAPfront4,,0.1,,true,0,0,0,0,null,0,1,0,brander-desktop,0,0
16:16:35,0,SWAPstatic,,3.54,,true,0,0,0,0,null,0,1,0,brander-desktop,0,0
16:16:37,0,SWAPdb,,4.61,,true,0,0,0,0,null,0,1,0,brander-desktop,0,0
16:16:38,0,SWAPfront1,,3.09,,true,0,0,0,0,null,0,1,0,brander-desktop,0,0
16:16:39,0,SWAPfront2,,0.0,,true,0,0,0,0,null,0,1,0,brander-desktop,0,0
16:16:40,0,SWAPfront3,,0.0,,true,0,0,0,0,null,0,1,0,brander-desktop,0,0
16:16:41,0,SWAPfront4,,0.1,,true,0,0,0,0,null,0,1,0,brander-desktop,0,0
16:16:42,0,SWAPstatic,,3.54,,true,0,0,0,0,null,0,1,0,brander-desktop,0,0
16:16:44,0,SWAPdb,,4.61,,true,0,0,0,0,null,0,1,0,brander-desktop,0,0
16:16:45,0,SWAPfront1,,3.09,,true,0,0,0,0,null,0,1,0,brander-desktop,0,0
16:16:46,0,SWAPfront2,,0.0,,true,0,0,0,0,null,0,1,0,brander-desktop,0,0
16:16:47,0,SWAPfront3,,0.0,,true,0,0,0,0,null,0,1,0,brander-desktop,0,0
16:16:48,0,SWAPfront4,,0.1,,true,0,0,0,0,null,0,1,0,brander-desktop,0,0
16:16:49,0,SWAPstatic,,3.54,,true,0,0,0,0,null,0,1,0,brander-desktop,0,0
16:16:50,0,SWAPdb,,4.61,,true,0,0,0,0,null,0,1,0,brander-desktop,0,0
16:16:52,0,SWAPfront1,,3.09,,true,0,0,0,0,null,0,1,0,brander-desktop,0,0
16:16:53,0,SWAPfront2,,0.0,,true,0,0,0,0,null,0,1,0,brander-desktop,0,0
16:16:54,0,SWAPfront3,,0.0,,true,0,0,0,0,null,0,1,0,brander-desktop,0,0
16:16:55,0,SWAPfront4,,0.1,,true,0,0,0,0,null,0,1,0,brander-desktop,0,0
16:16:56,0,SWAPstatic,,3.54,,true,0,0,0,0,null,0,1,0,brander-desktop,0,0
16:16:58,0,SWAPdb,,4.61,,true,0,0,0,0,null,0,1,0,brander-desktop,0,0
16:16:59,0,SWAPfront1,,3.09,,true,0,0,0,0,null,0,1,0,brander-desktop,0,0
16:17:00,0,SWAPfront2,,0.0,,true,0,0,0,0,null,0,1,0,brander-desktop,0,0
16:17:01,0,SWAPfront3,,0.0,,true,0,0,0,0,null,0,1,0,brander-desktop,0,0
16:17:02,0,SWAPfront4,,0.1,,true,0,0,0,0,null,0,1,0,brander-desktop,0,0
16:17:03,0,SWAPstatic,,3.54,,true,0,0,0,0,null,0,1,0,brander-desktop,0,0
16:17:05,0,SWAPdb,,4.61,,true,0,0,0,0,null,0,1,0,brander-desktop,0,0
16:17:06,0,SWAPfront1,,3.09,,true,0,0,0,0,null,0,1,0,brander-desktop,0,0
16:17:07,0,SWAPfront2,,0.0,,true,0,0,0,0,null,0,1,0,brander-desktop,0,0
16:17:08,0,SWAPfront3,,0.0,,true,0,0,0,0,null,0,1,0,brander-desktop,0,0
16:17:09,0,SWAPfront4,,0.1,,true,0,0,0,0,null,0,1,0,brander-desktop,0,0
16:17:11,0,SWAPstatic,,3.54,,true,0,0,0,0,null,0,1,0,brander-desktop,0,0
16:17:12,0,SWAPdb,,4.61,,true,0,0,0,0,null,0,1,0,brander-desktop,0,0
16:17:13,0,SWAPfront1,,3.09,,true,0,0,0,0,null,0,1,0,brander-desktop,0,0
16:17:14,0,SWAPfront2,,0.0,,true,0,0,0,0,null,0,1,0,brander-desktop,0,0
16:17:16,0,SWAPfront3,,0.0,,true,0,0,0,0,null,0,1,0,brander-desktop,0,0
16:17:17,0,SWAPfront4,,0.1,,true,0,0,0,0,null,0,1,0,brander-desktop,0,0
16:17:18,0,SWAPstatic,,3.54,,true,0,0,0,0,null,0,1,0,brander-desktop,0,0
16:17:19,0,SWAPdb,,4.61,,true,0,0,0,0,null,0,1,0,brander-desktop,0,0
16:17:21,0,SWAPfront1,,3.09,,true,0,0,0,0,null,0,1,0,brander-desktop,0,0
16:17:22,0,SWAPfront2,,0.0,,true,0,0,0,0,null,0,1,0,brander-desktop,0,0
16:17:23,0,SWAPfront3,,0.0,,true,0,0,0,0,null,0,1,0,brander-desktop,0,0
16:17:24,0,SWAPfront4,,0.1,,true,0,0,0,0,null,0,1,0,brander-desktop,0,0
16:17:26,0,SWAPstatic,,3.54,,true,0,0,0,0,null,0,1,0,brander-desktop,0,0
16:17:27,0,SWAPdb,,4.61,,true,0,0,0,0,null,0,1,0,brander-desktop,0,0
16:17:28,0,SWAPfront1,,3.09,,true,0,0,0,0,null,0,1,0,brander-desktop,0,0
16:17:29,0,SWAPfront2,,0.0,,true,0,0,0,0,null,0,1,0,brander-desktop,0,0
16:17:31,0,SWAPfront3,,0.0,,true,0,0,0,0,null,0,1,0,brander-desktop,0,0
16:17:32,0,SWAPfront4,,0.1,,true,0,0,0,0,null,0,1,0,brander-desktop,0,0
16:17:33,0,SWAPstatic,,3.54,,true,0,0,0,0,null,0,1,0,brander-desktop,0,0
16:17:34,0,SWAPdb,,4.61,,true,0,0,0,0,null,0,1,0,brander-desktop,0,0
16:17:35,0,SWAPfront1,,3.09,,true,0,0,0,0,null,0,1,0,brander-desktop,0,0
16:17:36,0,SWAPfront2,,0.0,,true,0,0,0,0,null,0,1,0,brander-desktop,0,0
16:17:38,0,SWAPfront3,,0.0,,true,0,0,0,0,null,0,1,0,brander-desktop,0,0
16:17:39,0,SWAPfront4,,0.1,,true,0,0,0,0,null,0,1,0,brander-desktop,0,0
16:17:40,0,SWAPstatic,,3.54,,true,0,0,0,0,null,0,1,0,brander-desktop,0,0
16:17:41,0,SWAPdb,,4.61,,true,0,0,0,0,null,0,1,0,brander-desktop,0,0
16:17:43,0,SWAPfront1,,3.09,,true,0,0,0,0,null,0,1,0,brander-desktop,0,0
16:17:44,0,SWAPfront2,,0.0,,true,0,0,0,0,null,0,1,0,brander-desktop,0,0
16:17:45,0,SWAPfront3,,0.0,,true,0,0,0,0,null,0,1,0,brander-desktop,0,0
16:17:46,0,SWAPfront4,,0.1,,true,0,0,0,0,null,0,1,0,brander-desktop,0,0
16:17:47,0,SWAPstatic,,3.54,,true,0,0,0,0,null,0,1,0,brander-desktop,0,0
16:17:48,0,SWAPdb,,4.61,,true,0,0,0,0,null,0,1,0,brander-desktop,0,0
16:17:49,0,SWAPfront1,,3.09,,true,0,0,0,0,null,0,1,0,brander-desktop,0,0
16:17:51,0,SWAPfront2,,0.0,,true,0,0,0,0,null,0,1,0,brander-desktop,0,0
16:17:52,0,SWAPfront3,,0.0,,true,0,0,0,0,null,0,1,0,brander-desktop,0,0
16:17:53,0,SWAPfront4,,0.1,,true,0,0,0,0,null,0,1,0,brander-desktop,0,0
16:17:54,0,SWAPstatic,,3.54,,true,0,0,0,0,null,0,1,0,brander-desktop,0,0
16:17:55,0,SWAPdb,,4.61,,true,0,0,0,0,null,0,1,0,brander-desktop,0,0
16:17:57,0,SWAPfront1,,3.09,,true,0,0,0,0,null,0,1,0,brander-desktop,0,0
16:17:58,0,SWAPfront2,,0.0,,true,0,0,0,0,null,0,1,0,brander-desktop,0,0
16:17:59,0,SWAPfront3,,0.0,,true,0,0,0,0,null,0,1,0,brander-desktop,0,0
16:18:00,0,SWAPfront4,,0.1,,true,0,0,0,0,null,0,1,0,brander-desktop,0,0
16:18:01,0,SWAPstatic,,3.54,,true,0,0,0,0,null,0,1,0,brander-desktop,0,0
16:18:03,0,SWAPdb,,4.61,,true,0,0,0,0,null,0,1,0,brander-desktop,0,0
16:18:04,0,SWAPfront1,,3.09,,true,0,0,0,0,null,0,1,0,brander-desktop,0,0
16:18:05,0,SWAPfront2,,0.0,,true,0,0,0,0,null,0,1,0,brander-desktop,0,0
16:18:06,0,SWAPfront3,,0.0,,true,0,0,0,0,null,0,1,0,brander-desktop,0,0
16:18:07,0,SWAPfront4,,0.1,,true,0,0,0,0,null,0,1,0,brander-desktop,0,0
16:18:08,0,SWAPstatic,,3.54,,true,0,0,0,0,null,0,1,0,brander-desktop,0,0
16:18:09,0,SWAPdb,,4.61,,true,0,0,0,0,null,0,1,0,brander-desktop,0,0
16:18:10,0,SWAPfront1,,3.09,,true,0,0,0,0,null,0,1,0,brander-desktop,0,0
16:18:11,0,SWAPfront2,,0.0,,true,0,0,0,0,null,0,1,0,brander-desktop,0,0
16:18:13,0,SWAPfront3,,0.0,,true,0,0,0,0,null,0,1,0,brander-desktop,0,0
16:18:14,0,SWAPfront4,,0.1,,true,0,0,0,0,null,0,1,0,brander-desktop,0,0
16:18:15,0,SWAPstatic,,3.54,,true,0,0,0,0,null,0,1,0,brander-desktop,0,0
16:18:16,0,SWAPdb,,4.61,,true,0,0,0,0,null,0,1,0,brander-desktop,0,0
16:18:17,0,SWAPfront1,,3.09,,true,0,0,0,0,null,0,1,0,brander-desktop,0,0
16:18:18,0,SWAPfront2,,0.0,,true,0,0,0,0,null,0,1,0,brander-desktop,0,0
16:18:20,0,SWAPfront3,,0.0,,true,0,0,0,0,null,0,1,0,brander-desktop,0,0
16:18:21,0,SWAPfront4,,0.1,,true,0,0,0,0,null,0,1,0,brander-desktop,0,0
16:18:22,0,SWAPstatic,,3.54,,true,0,0,0,0,null,0,1,0,brander-desktop,0,0
16:18:23,0,SWAPdb,,4.61,,true,0,0,0,0,null,0,1,0,brander-desktop,0,0
16:18:24,0,SWAPfront1,,3.09,,true,0,0,0,0,null,0,1,0,brander-desktop,0,0
16:18:26,0,SWAPfront2,,0.0,,true,0,0,0,0,null,0,1,0,brander-desktop,0,0
16:18:27,0,SWAPfront3,,0.0,,true,0,0,0,0,null,0,1,0,brander-desktop,0,0
16:18:29,0,SWAPfront4,,0.1,,true,0,0,0,0,null,0,1,0,brander-desktop,0,0
16:18:30,0,SWAPstatic,,3.54,,true,0,0,0,0,null,0,1,0,brander-desktop,0,0
16:18:32,0,SWAPdb,,4.61,,true,0,0,0,0,null,0,1,0,brander-desktop,0,0
16:18:34,0,SWAPfront1,,3.09,,true,0,0,0,0,null,0,1,0,brander-desktop,0,0
16:18:35,0,SWAPfront2,,0.0,,true,0,0,0,0,null,0,1,0,brander-desktop,0,0
16:18:36,0,SWAPfront3,,0.0,,true,0,0,0,0,null,0,1,0,brander-desktop,0,0
16:18:38,0,SWAPfront4,,0.1,,true,0,0,0,0,null,0,1,0,brander-desktop,0,0
16:18:39,0,SWAPstatic,,3.54,,true,0,0,0,0,null,0,1,0,brander-desktop,0,0
16:18:40,0,SWAPdb,,4.61,,true,0,0,0,0,null,0,1,0,brander-desktop,0,0
16:18:41,0,SWAPfront1,,3.09,,true,0,0,0,0,null,0,1,0,brander-desktop,0,0
16:18:43,0,SWAPfront2,,0.0,,true,0,0,0,0,null,0,1,0,brander-desktop,0,0
16:18:44,0,SWAPfront3,,0.0,,true,0,0,0,0,null,0,1,0,brander-desktop,0,0
16:18:45,0,SWAPfront4,,0.1,,true,0,0,0,0,null,0,1,0,brander-desktop,0,0
16:18:46,0,SWAPstatic,,3.54,,true,0,0,0,0,null,0,1,0,brander-desktop,0,0
16:18:48,0,SWAPdb,,4.61,,true,0,0,0,0,null,0,1,0,brander-desktop,0,0
16:18:49,0,SWAPfront1,,3.09,,true,0,0,0,0,null,0,1,0,brander-desktop,0,0
16:18:50,0,SWAPfront2,,0.0,,true,0,0,0,0,null,0,1,0,brander-desktop,0,0
16:18:52,0,SWAPfront3,,0.0,,true,0,0,0,0,null,0,1,0,brander-desktop,0,0
16:18:53,0,SWAPfront4,,0.1,,true,0,0,0,0,null,0,1,0,brander-desktop,0,0
16:18:54,0,SWAPstatic,,3.54,,true,0,0,0,0,null,0,1,0,brander-desktop,0,0
16:18:55,0,SWAPdb,,4.61,,true,0,0,0,0,null,0,1,0,brander-desktop,0,0
16:18:57,0,SWAPfront1,,3.09,,true,0,0,0,0,null,0,1,0,brander-desktop,0,0
16:18:58,0,SWAPfront2,,0.0,,true,0,0,0,0,null,0,1,0,brander-desktop,0,0
16:18:59,0,SWAPfront3,,0.0,,true,0,0,0,0,null,0,1,0,brander-desktop,0,0
16:19:00,0,SWAPfront4,,0.1,,true,0,0,0,0,null,0,1,0,brander-desktop,0,0
16:19:01,0,SWAPstatic,,3.54,,true,0,0,0,0,null,0,1,0,brander-desktop,0,0
16:19:03,0,SWAPdb,,4.61,,true,0,0,0,0,null,0,1,0,brander-desktop,0,0
16:19:04,0,SWAPfront1,,3.09,,true,0,0,0,0,null,0,1,0,brander-desktop,0,0
16:19:05,0,SWAPfront2,,0.0,,true,0,0,0,0,null,0,1,0,brander-desktop,0,0
16:19:06,0,SWAPfront3,,0.0,,true,0,0,0,0,null,0,1,0,brander-desktop,0,0
16:19:07,0,SWAPfront4,,0.1,,true,0,0,0,0,null,0,1,0,brander-desktop,0,0
16:19:08,0,SWAPstatic,,3.54,,true,0,0,0,0,null,0,1,0,brander-desktop,0,0
16:19:10,0,SWAPdb,,4.61,,true,0,0,0,0,null,0,1,0,brander-desktop,0,0
16:19:11,0,SWAPfront1,,3.09,,true,0,0,0,0,null,0,1,0,brander-desktop,0,0
16:19:12,0,SWAPfront2,,0.0,,true,0,0,0,0,null,0,1,0,brander-desktop,0,0
16:19:13,0,SWAPfront3,,0.0,,true,0,0,0,0,null,0,1,0,brander-desktop,0,0
16:19:14,0,SWAPfront4,,0.1,,true,0,0,0,0,null,0,1,0,brander-desktop,0,0
16:19:16,0,SWAPstatic,,3.54,,true,0,0,0,0,null,0,1,0,brander-desktop,0,0
16:19:17,0,SWAPdb,,4.61,,true,0,0,0,0,null,0,1,0,brander-desktop,0,0
16:19:18,0,SWAPfront1,,3.09,,true,0,0,0,0,null,0,1,0,brander-desktop,0,0
16:19:19,0,SWAPfront2,,0.0,,true,0,0,0,0,null,0,1,0,brander-desktop,0,0
16:19:20,0,SWAPfront3,,0.0,,true,0,0,0,0,null,0,1,0,brander-desktop,0,0
16:19:21,0,SWAPfront4,,0.1,,true,0,0,0,0,null,0,1,0,brander-desktop,0,0
16:19:22,0,SWAPstatic,,3.54,,true,0,0,0,0,null,0,1,0,brander-desktop,0,0
16:19:24,0,SWAPdb,,4.61,,true,0,0,0,0,null,0,1,0,brander-desktop,0,0
16:19:25,0,SWAPfront1,,3.09,,true,0,0,0,0,null,0,1,0,brander-desktop,0,0
16:19:26,0,SWAPfront2,,0.0,,true,0,0,0,0,null,0,1,0,brander-desktop,0,0
16:19:27,0,SWAPfront3,,0.0,,true,0,0,0,0,null,0,1,0,brander-desktop,0,0
16:19:29,0,SWAPfront4,,0.1,,true,0,0,0,0,null,0,1,0,brander-desktop,0,0
16:19:30,0,SWAPstatic,,3.54,,true,0,0,0,0,null,0,1,0,brander-desktop,0,0
16:19:32,0,SWAPdb,,4.61,,true,0,0,0,0,null,0,1,0,brander-desktop,0,0
16:19:33,0,SWAPfront1,,3.09,,true,0,0,0,0,null,0,1,0,brander-desktop,0,0
16:19:34,0,SWAPfront2,,0.0,,true,0,0,0,0,null,0,1,0,brander-desktop,0,0
16:19:35,0,SWAPfront3,,0.0,,true,0,0,0,0,null,0,1,0,brander-desktop,0,0
16:19:36,0,SWAPfront4,,0.1,,true,0,0,0,0,null,0,1,0,brander-desktop,0,0
16:19:37,0,SWAPstatic,,3.54,,true,0,0,0,0,null,0,1,0,brander-desktop,0,0
16:19:39,0,SWAPdb,,4.61,,true,0,0,0,0,null,0,1,0,brander-desktop,0,0
16:19:40,0,SWAPfront1,,3.09,,true,0,0,0,0,null,0,1,0,brander-desktop,0,0
16:19:41,0,SWAPfront2,,0.0,,true,0,0,0,0,null,0,1,0,brander-desktop,0,0
16:19:42,0,SWAPfront3,,0.0,,true,0,0,0,0,null,0,1,0,brander-desktop,0,0
16:19:43,0,SWAPfront4,,0.1,,true,0,0,0,0,null,0,1,0,brander-desktop,0,0
16:19:45,0,SWAPstatic,,3.54,,true,0,0,0,0,null,0,1,0,brander-desktop,0,0
16:19:46,0,SWAPdb,,4.61,,true,0,0,0,0,null,0,1,0,brander-desktop,0,0
16:19:47,0,SWAPfront1,,3.09,,true,0,0,0,0,null,0,1,0,brander-desktop,0,0
16:19:49,0,SWAPfront2,,0.0,,true,0,0,0,0,null,0,1,0,brander-desktop,0,0
16:19:50,0,SWAPfront3,,0.0,,true,0,0,0,0,null,0,1,0,brander-desktop,0,0
16:19:52,0,SWAPfront4,,0.1,,true,0,0,0,0,null,0,1,0,brander-desktop,0,0
16:19:53,0,SWAPstatic,,3.54,,true,0,0,0,0,null,0,1,0,brander-desktop,0,0
16:19:54,0,SWAPdb,,4.61,,true,0,0,0,0,null,0,1,0,brander-desktop,0,0
16:19:56,0,SWAPfront1,,3.09,,true,0,0,0,0,null,0,1,0,brander-desktop,0,0
16:19:57,0,SWAPfront2,,0.0,,true,0,0,0,0,null,0,1,0,brander-desktop,0,0
16:19:58,0,SWAPfront3,,0.0,,true,0,0,0,0,null,0,1,0,brander-desktop,0,0
16:20:00,0,SWAPfront4,,0.1,,true,0,0,0,0,null,0,1,0,brander-desktop,0,0
16:20:01,0,SWAPstatic,,3.54,,true,0,0,0,0,null,0,1,0,brander-desktop,0,0
16:20:02,0,SWAPdb,,4.61,,true,0,0,0,0,null,0,1,0,brander-desktop,0,0
16:20:04,0,SWAPfront1,,3.09,,true,0,0,0,0,null,0,1,0,brander-desktop,0,0
16:20:05,0,SWAPfront2,,0.0,,true,0,0,0,0,null,0,1,0,brander-desktop,0,0
16:20:06,0,SWAPfront3,,0.0,,true,0,0,0,0,null,0,1,0,brander-desktop,0,0
16:20:08,0,SWAPfront4,,0.1,,true,0,0,0,0,null,0,1,0,brander-desktop,0,0
16:20:09,0,SWAPstatic,,3.54,,true,0,0,0,0,null,0,1,0,brander-desktop,0,0
16:20:10,0,SWAPdb,,4.61,,true,0,0,0,0,null,0,1,0,brander-desktop,0,0
16:20:12,0,SWAPfront1,,3.09,,true,0,0,0,0,null,0,1,0,brander-desktop,0,0
16:20:13,0,SWAPfront2,,0.0,,true,0,0,0,0,null,0,1,0,brander-desktop,0,0
16:20:14,0,SWAPfront3,,0.0,,true,0,0,0,0,null,0,1,0,brander-desktop,0,0
16:20:16,0,SWAPfront4,,0.1,,true,0,0,0,0,null,0,1,0,brander-desktop,0,0
16:20:17,0,SWAPstatic,,3.54,,true,0,0,0,0,null,0,1,0,brander-desktop,0,0
16:20:19,0,SWAPdb,,4.61,,true,0,0,0,0,null,0,1,0,brander-desktop,0,0
16:20:20,0,SWAPfront1,,3.09,,true,0,0,0,0,null,0,1,0,brander-desktop,0,0
16:20:21,0,SWAPfront2,,0.0,,true,0,0,0,0,null,0,1,0,brander-desktop,0,0
16:20:23,0,SWAPfront3,,0.0,,true,0,0,0,0,null,0,1,0,brander-desktop,0,0
16:20:24,0,SWAPfront4,,0.1,,true,0,0,0,0,null,0,1,0,brander-desktop,0,0
16:20:26,0,SWAPstatic,,3.54,,true,0,0,0,0,null,0,1,0,brander-desktop,0,0
16:20:27,0,SWAPdb,,4.61,,true,0,0,0,0,null,0,1,0,brander-desktop,0,0
16:20:28,0,SWAPfront1,,3.09,,true,0,0,0,0,null,0,1,0,brander-desktop,0,0
16:20:29,0,SWAPfront2,,0.0,,true,0,0,0,0,null,0,1,0,brander-desktop,0,0
16:20:30,0,SWAPfront3,,0.0,,true,0,0,0,0,null,0,1,0,brander-desktop,0,0
16:20:32,0,SWAPfront4,,0.1,,true,0,0,0,0,null,0,1,0,brander-desktop,0,0
16:20:33,0,SWAPstatic,,3.54,,true,0,0,0,0,null,0,1,0,brander-desktop,0,0
16:20:34,0,SWAPdb,,4.61,,true,0,0,0,0,null,0,1,0,brander-desktop,0,0
16:20:35,0,SWAPfront1,,3.09,,true,0,0,0,0,null,0,1,0,brander-desktop,0,0
16:20:36,0,SWAPfront2,,0.0,,true,0,0,0,0,null,0,1,0,brander-desktop,0,0
16:20:37,0,SWAPfront3,,0.0,,true,0,0,0,0,null,0,1,0,brander-desktop,0,0
16:20:38,0,SWAPfront4,,0.1,,true,0,0,0,0,null,0,1,0,brander-desktop,0,0
16:20:39,0,SWAPstatic,,3.54,,true,0,0,0,0,null,0,1,0,brander-desktop,0,0
16:20:40,0,SWAPdb,,4.61,,true,0,0,0,0,null,0,1,0,brander-desktop,0,0
16:20:42,0,SWAPfront1,,3.09,,true,0,0,0,0,null,0,1,0,brander-desktop,0,0
16:20:43,0,SWAPfront2,,0.0,,true,0,0,0,0,null,0,1,0,brander-desktop,0,0
16:20:44,0,SWAPfront3,,0.0,,true,0,0,0,0,null,0,1,0,brander-desktop,0,0
16:20:45,0,SWAPfront4,,0.1,,true,0,0,0,0,null,0,1,0,brander-desktop,0,0
16:20:46,0,SWAPstatic,,3.54,,true,0,0,0,0,null,0,1,0,brander-desktop,0,0
16:20:47,0,SWAPdb,,4.61,,true,0,0,0,0,null,0,1,0,brander-desktop,0,0
16:20:48,0,SWAPfront1,,3.09,,true,0,0,0,0,null,0,1,0,brander-desktop,0,0
16:20:49,0,SWAPfront2,,0.0,,true,0,0,0,0,null,0,1,0,brander-desktop,0,0
16:20:51,0,SWAPfront3,,0.0,,true,0,0,0,0,null,0,1,0,brander-desktop,0,0
16:20:52,0,SWAPfront4,,0.1,,true,0,0,0,0,null,0,1,0,brander-desktop,0,0
16:20:53,0,SWAPstatic,,3.54,,true,0,0,0,0,null,0,1,0,brander-desktop,0,0
16:20:54,0,SWAPdb,,4.61,,true,0,0,0,0,null,0,1,0,brander-desktop,0,0
16:20:55,0,SWAPfront1,,3.09,,true,0,0,0,0,null,0,1,0,brander-desktop,0,0
16:20:56,0,SWAPfront2,,0.0,,true,0,0,0,0,null,0,1,0,brander-desktop,0,0
16:20:57,0,SWAPfront3,,0.0,,true,0,0,0,0,null,0,1,0,brander-desktop,0,0
16:20:58,0,SWAPfront4,,0.1,,true,0,0,0,0,null,0,1,0,brander-desktop,0,0
16:20:59,0,SWAPstatic,,3.54,,true,0,0,0,0,null,0,1,0,brander-desktop,0,0
16:21:00,0,SWAPdb,,4.61,,true,0,0,0,0,null,0,1,0,brander-desktop,0,0
16:21:02,0,SWAPfront1,,3.09,,true,0,0,0,0,null,0,1,0,brander-desktop,0,0
16:21:03,0,SWAPfront2,,0.0,,true,0,0,0,0,null,0,1,0,brander-desktop,0,0
16:21:04,0,SWAPfront3,,0.0,,true,0,0,0,0,null,0,1,0,brander-desktop,0,0
16:21:05,0,SWAPfront4,,0.1,,true,0,0,0,0,null,0,1,0,brander-desktop,0,0
16:21:06,0,SWAPstatic,,3.54,,true,0,0,0,0,null,0,1,0,brander-desktop,0,0
16:21:07,0,SWAPdb,,4.61,,true,0,0,0,0,null,0,1,0,brander-desktop,0,0
16:21:08,0,SWAPfront1,,3.09,,true,0,0,0,0,null,0,1,0,brander-desktop,0,0
16:21:09,0,SWAPfront2,,0.0,,true,0,0,0,0,null,0,1,0,brander-desktop,0,0
16:21:10,0,SWAPfront3,,0.0,,true,0,0,0,0,null,0,1,0,brander-desktop,0,0
16:21:11,0,SWAPfront4,,0.1,,true,0,0,0,0,null,0,1,0,brander-desktop,0,0
16:21:12,0,SWAPstatic,,3.54,,true,0,0,0,0,null,0,1,0,brander-desktop,0,0
16:21:14,0,SWAPdb,,4.61,,true,0,0,0,0,null,0,1,0,brander-desktop,0,0
16:21:15,0,SWAPfront1,,3.09,,true,0,0,0,0,null,0,1,0,brander-desktop,0,0
16:21:16,0,SWAPfront2,,0.0,,true,0,0,0,0,null,0,1,0,brander-desktop,0,0
16:21:17,0,SWAPfront3,,0.0,,true,0,0,0,0,null,0,1,0,brander-desktop,0,0
16:21:18,0,SWAPfront4,,0.1,,true,0,0,0,0,null,0,1,0,brander-desktop,0,0
16:21:19,0,SWAPstatic,,3.54,,true,0,0,0,0,null,0,1,0,brander-desktop,0,0
16:21:20,0,SWAPdb,,4.61,,true,0,0,0,0,null,0,1,0,brander-desktop,0,0
16:21:21,0,SWAPfront1,,3.09,,true,0,0,0,0,null,0,1,0,brander-desktop,0,0
16:21:22,0,SWAPfront2,,0.0,,true,0,0,0,0,null,0,1,0,brander-desktop,0,0
16:21:23,0,SWAPfront3,,0.0,,true,0,0,0,0,null,0,1,0,brander-desktop,0,0
16:21:25,0,SWAPfront4,,0.1,,true,0,0,0,0,null,0,1,0,brander-desktop,0,0
16:21:26,0,SWAPstatic,,3.54,,true,0,0,0,0,null,0,1,0,brander-desktop,0,0
16:21:27,0,SWAPdb,,4.61,,true,0,0,0,0,null,0,1,0,brander-desktop,0,0
16:21:28,0,SWAPfront1,,3.09,,true,0,0,0,0,null,0,1,0,brander-desktop,0,0
16:21:29,0,SWAPfront2,,0.0,,true,0,0,0,0,null,0,1,0,brander-desktop,0,0
16:21:30,0,SWAPfront3,,0.0,,true,0,0,0,0,null,0,1,0,brander-desktop,0,0
16:21:31,0,SWAPfront4,,0.1,,true,0,0,0,0,null,0,1,0,brander-desktop,0,0
16:21:32,0,SWAPstatic,,3.54,,true,0,0,0,0,null,0,1,0,brander-desktop,0,0
16:21:33,0,SWAPdb,,4.61,,true,0,0,0,0,null,0,1,0,brander-desktop,0,0
16:21:35,0,SWAPfront1,,3.09,,true,0,0,0,0,null,0,1,0,brander-desktop,0,0
16:21:36,0,SWAPfront2,,0.0,,true,0,0,0,0,null,0,1,0,brander-desktop,0,0
16:21:37,0,SWAPfront3,,0.0,,true,0,0,0,0,null,0,1,0,brander-desktop,0,0
16:21:38,0,SWAPfront4,,0.1,,true,0,0,0,0,null,0,1,0,brander-desktop,0,0
16:21:39,0,SWAPstatic,,3.54,,true,0,0,0,0,null,0,1,0,brander-desktop,0,0
16:21:40,0,SWAPdb,,4.61,,true,0,0,0,0,null,0,1,0,brander-desktop,0,0
16:21:41,0,SWAPfront1,,3.09,,true,0,0,0,0,null,0,1,0,brander-desktop,0,0
16:21:42,0,SWAPfront2,,0.0,,true,0,0,0,0,null,0,1,0,brander-desktop,0,0
16:21:43,0,SWAPfront3,,0.0,,true,0,0,0,0,null,0,1,0,brander-desktop,0,0
16:21:44,0,SWAPfront4,,0.1,,true,0,0,0,0,null,0,1,0,brander-desktop,0,0
16:21:46,0,SWAPstatic,,3.54,,true,0,0,0,0,null,0,1,0,brander-desktop,0,0
16:21:47,0,SWAPdb,,4.61,,true,0,0,0,0,null,0,1,0,brander-desktop,0,0
16:21:48,0,SWAPfront1,,3.09,,true,0,0,0,0,null,0,1,0,brander-desktop,0,0
16:21:49,0,SWAPfront2,,0.0,,true,0,0,0,0,null,0,1,0,brander-desktop,0,0
16:21:50,0,SWAPfront3,,0.0,,true,0,0,0,0,null,0,1,0,brander-desktop,0,0
16:21:51,0,SWAPfront4,,0.1,,true,0,0,0,0,null,0,1,0,brander-desktop,0,0
16:21:52,0,SWAPstatic,,3.54,,true,0,0,0,0,null,0,1,0,brander-desktop,0,0
16:21:54,0,SWAPdb,,4.61,,true,0,0,0,0,null,0,1,0,brander-desktop,0,0
16:21:55,0,SWAPfront1,,3.09,,true,0,0,0,0,null,0,1,0,brander-desktop,0,0
16:21:56,0,SWAPfront2,,0.0,,true,0,0,0,0,null,0,1,0,brander-desktop,0,0
16:21:57,0,SWAPfront3,,0.0,,true,0,0,0,0,null,0,1,0,brander-desktop,0,0
16:21:58,0,SWAPfront4,,0.1,,true,0,0,0,0,null,0,1,0,brander-desktop,0,0
16:21:59,0,SWAPstatic,,3.54,,true,0,0,0,0,null,0,1,0,brander-desktop,0,0
16:22:01,0,SWAPdb,,4.61,,true,0,0,0,0,null,0,1,0,brander-desktop,0,0
16:22:02,0,SWAPfront1,,3.09,,true,0,0,0,0,null,0,1,0,brander-desktop,0,0
16:22:03,0,SWAPfront2,,0.0,,true,0,0,0,0,null,0,1,0,brander-desktop,0,0
16:22:04,0,SWAPfront3,,0.0,,true,0,0,0,0,null,0,1,0,brander-desktop,0,0
16:22:05,0,SWAPfront4,,0.1,,true,0,0,0,0,null,0,1,0,brander-desktop,0,0
16:22:06,0,SWAPstatic,,3.54,,true,0,0,0,0,null,0,1,0,brander-desktop,0,0
16:22:08,0,SWAPdb,,4.61,,true,0,0,0,0,null,0,1,0,brander-desktop,0,0
16:22:09,0,SWAPfront1,,3.09,,true,0,0,0,0,null,0,1,0,brander-desktop,0,0
16:22:10,0,SWAPfront2,,0.0,,true,0,0,0,0,null,0,1,0,brander-desktop,0,0
16:22:11,0,SWAPfront3,,0.0,,true,0,0,0,0,null,0,1,0,brander-desktop,0,0
16:22:12,0,SWAPfront4,,0.1,,true,0,0,0,0,null,0,1,0,brander-desktop,0,0
16:22:13,0,SWAPstatic,,3.54,,true,0,0,0,0,null,0,1,0,brander-desktop,0,0
16:22:14,0,SWAPdb,,4.61,,true,0,0,0,0,null,0,1,0,brander-desktop,0,0
16:22:15,0,SWAPfront1,,3.09,,true,0,0,0,0,null,0,1,0,brander-desktop,0,0
16:22:16,0,SWAPfront2,,0.0,,true,0,0,0,0,null,0,1,0,brander-desktop,0,0
16:22:18,0,SWAPfront3,,0.0,,true,0,0,0,0,null,0,1,0,brander-desktop,0,0
16:22:19,0,SWAPfront4,,0.1,,true,0,0,0,0,null,0,1,0,brander-desktop,0,0
16:22:20,0,SWAPstatic,,3.54,,true,0,0,0,0,null,0,1,0,brander-desktop,0,0
16:22:21,0,SWAPdb,,4.61,,true,0,0,0,0,null,0,1,0,brander-desktop,0,0
16:22:22,0,SWAPfront1,,3.09,,true,0,0,0,0,null,0,1,0,brander-desktop,0,0
16:22:23,0,SWAPfront2,,0.0,,true,0,0,0,0,null,0,1,0,brander-desktop,0,0
16:22:24,0,SWAPfront3,,0.0,,true,0,0,0,0,null,0,1,0,brander-desktop,0,0
16:22:25,0,SWAPfront4,,0.1,,true,0,0,0,0,null,0,1,0,brander-desktop,0,0
16:22:26,0,SWAPstatic,,3.54,,true,0,0,0,0,null,0,1,0,brander-desktop,0,0
16:22:27,0,SWAPdb,,4.61,,true,0,0,0,0,null,0,1,0,brander-desktop,0,0
16:22:29,0,SWAPfront1,,3.09,,true,0,0,0,0,null,0,1,0,brander-desktop,0,0
16:22:30,0,SWAPfront2,,0.0,,true,0,0,0,0,null,0,1,0,brander-desktop,0,0
16:22:31,0,SWAPfront3,,0.0,,true,0,0,0,0,null,0,1,0,brander-desktop,0,0
16:22:32,0,SWAPfront4,,0.1,,true,0,0,0,0,null,0,1,0,brander-desktop,0,0
16:22:33,0,SWAPstatic,,3.54,,true,0,0,0,0,null,0,1,0,brander-desktop,0,0
16:22:34,0,SWAPdb,,4.61,,true,0,0,0,0,null,0,1,0,brander-desktop,0,0
16:22:35,0,SWAPfront1,,3.09,,true,0,0,0,0,null,0,1,0,brander-desktop,0,0
16:22:36,0,SWAPfront2,,0.0,,true,0,0,0,0,null,0,1,0,brander-desktop,0,0
16:22:37,0,SWAPfront3,,0.0,,true,0,0,0,0,null,0,1,0,brander-desktop,0,0
16:22:38,0,SWAPfront4,,0.1,,true,0,0,0,0,null,0,1,0,brander-desktop,0,0
16:22:40,0,SWAPstatic,,3.54,,true,0,0,0,0,null,0,1,0,brander-desktop,0,0
16:22:41,0,SWAPdb,,4.61,,true,0,0,0,0,null,0,1,0,brander-desktop,0,0
16:22:42,0,SWAPfront1,,3.09,,true,0,0,0,0,null,0,1,0,brander-desktop,0,0
16:22:43,0,SWAPfront2,,0.0,,true,0,0,0,0,null,0,1,0,brander-desktop,0,0
16:22:44,0,SWAPfront3,,0.0,,true,0,0,0,0,null,0,1,0,brander-desktop,0,0
16:22:45,0,SWAPfront4,,0.1,,true,0,0,0,0,null,0,1,0,brander-desktop,0,0
16:22:46,0,SWAPstatic,,3.54,,true,0,0,0,0,null,0,1,0,brander-desktop,0,0
16:22:47,0,SWAPdb,,4.61,,true,0,0,0,0,null,0,1,0,brander-desktop,0,0
16:22:48,0,SWAPfront1,,3.09,,true,0,0,0,0,null,0,1,0,brander-desktop,0,0
16:22:49,0,SWAPfront2,,0.0,,true,0,0,0,0,null,0,1,0,brander-desktop,0,0
16:22:51,0,SWAPfront3,,0.0,,true,0,0,0,0,null,0,1,0,brander-desktop,0,0
16:22:52,0,SWAPfront4,,0.1,,true,0,0,0,0,null,0,1,0,brander-desktop,0,0
16:22:53,0,SWAPstatic,,3.54,,true,0,0,0,0,null,0,1,0,brander-desktop,0,0
16:22:54,0,SWAPdb,,4.61,,true,0,0,0,0,null,0,1,0,brander-desktop,0,0
16:22:55,0,SWAPfront1,,3.09,,true,0,0,0,0,null,0,1,0,brander-desktop,0,0
16:22:56,0,SWAPfront2,,0.0,,true,0,0,0,0,null,0,1,0,brander-desktop,0,0
16:22:57,0,SWAPfront3,,0.0,,true,0,0,0,0,null,0,1,0,brander-desktop,0,0
16:22:58,0,SWAPfront4,,0.1,,true,0,0,0,0,null,0,1,0,brander-desktop,0,0
16:22:59,0,SWAPstatic,,3.54,,true,0,0,0,0,null,0,1,0,brander-desktop,0,0
16:23:01,0,SWAPdb,,4.61,,true,0,0,0,0,null,0,1,0,brander-desktop,0,0
16:23:02,0,SWAPfront1,,3.09,,true,0,0,0,0,null,0,1,0,brander-desktop,0,0
16:23:03,0,SWAPfront2,,0.0,,true,0,0,0,0,null,0,1,0,brander-desktop,0,0
16:23:04,0,SWAPfront3,,0.0,,true,0,0,0,0,null,0,1,0,brander-desktop,0,0
16:23:05,0,SWAPfront4,,0.1,,true,0,0,0,0,null,0,1,0,brander-desktop,0,0
16:23:06,0,SWAPstatic,,3.54,,true,0,0,0,0,null,0,1,0,brander-desktop,0,0
16:23:07,0,SWAPdb,,4.61,,true,0,0,0,0,null,0,1,0,brander-desktop,0,0
16:23:08,0,SWAPfront1,,3.09,,true,0,0,0,0,null,0,1,0,brander-desktop,0,0
16:23:09,0,SWAPfront2,,0.0,,true,0,0,0,0,null,0,1,0,brander-desktop,0,0
16:23:10,0,SWAPfront3,,0.0,,true,0,0,0,0,null,0,1,0,brander-desktop,0,0
16:23:12,0,SWAPfront4,,0.1,,true,0,0,0,0,null,0,1,0,brander-desktop,0,0
16:23:13,0,SWAPstatic,,3.54,,true,0,0,0,0,null,0,1,0,brander-desktop,0,0
16:23:14,0,SWAPdb,,4.61,,true,0,0,0,0,null,0,1,0,brander-desktop,0,0
16:23:15,0,SWAPfront1,,3.09,,true,0,0,0,0,null,0,1,0,brander-desktop,0,0
16:23:16,0,SWAPfront2,,0.0,,true,0,0,0,0,null,0,1,0,brander-desktop,0,0
16:23:17,0,SWAPfront3,,0.0,,true,0,0,0,0,null,0,1,0,brander-desktop,0,0
16:23:18,0,SWAPfront4,,0.1,,true,0,0,0,0,null,0,1,0,brander-desktop,0,0
16:23:20,0,SWAPstatic,,3.54,,true,0,0,0,0,null,0,1,0,brander-desktop,0,0
16:23:21,0,SWAPdb,,4.61,,true,0,0,0,0,null,0,1,0,brander-desktop,0,0
16:23:22,0,SWAPfront1,,3.09,,true,0,0,0,0,null,0,1,0,brander-desktop,0,0
16:23:23,0,SWAPfront2,,0.0,,true,0,0,0,0,null,0,1,0,brander-desktop,0,0
16:23:24,0,SWAPfront3,,0.0,,true,0,0,0,0,null,0,1,0,brander-desktop,0,0
16:23:25,0,SWAPfront4,,0.1,,true,0,0,0,0,null,0,1,0,brander-desktop,0,0
16:23:26,0,SWAPstatic,,3.54,,true,0,0,0,0,null,0,1,0,brander-desktop,0,0
16:23:27,0,SWAPdb,,4.61,,true,0,0,0,0,null,0,1,0,brander-desktop,0,0
16:23:28,0,SWAPfront1,,3.09,,true,0,0,0,0,null,0,1,0,brander-desktop,0,0
16:23:29,0,SWAPfront2,,0.0,,true,0,0,0,0,null,0,1,0,brander-desktop,0,0
16:23:31,0,SWAPfront3,,0.0,,true,0,0,0,0,null,0,1,0,brander-desktop,0,0
16:23:32,0,SWAPfront4,,0.1,,true,0,0,0,0,null,0,1,0,brander-desktop,0,0
16:23:33,0,SWAPstatic,,3.54,,true,0,0,0,0,null,0,1,0,brander-desktop,0,0
16:23:34,0,SWAPdb,,4.61,,true,0,0,0,0,null,0,1,0,brander-desktop,0,0
16:23:35,0,SWAPfront1,,3.09,,true,0,0,0,0,null,0,1,0,brander-desktop,0,0
16:23:36,0,SWAPfront2,,0.0,,true,0,0,0,0,null,0,1,0,brander-desktop,0,0
16:23:37,0,SWAPfront3,,0.0,,true,0,0,0,0,null,0,1,0,brander-desktop,0,0
16:23:38,0,SWAPfront4,,0.1,,true,0,0,0,0,null,0,1,0,brander-desktop,0,0
16:23:39,0,SWAPstatic,,3.54,,true,0,0,0,0,null,0,1,0,brander-desktop,0,0
16:23:41,0,SWAPdb,,4.61,,true,0,0,0,0,null,0,1,0,brander-desktop,0,0
16:23:42,0,SWAPfront1,,3.09,,true,0,0,0,0,null,0,1,0,brander-desktop,0,0
16:23:43,0,SWAPfront2,,0.0,,true,0,0,0,0,null,0,1,0,brander-desktop,0,0
16:23:44,0,SWAPfront3,,0.0,,true,0,0,0,0,null,0,1,0,brander-desktop,0,0
16:23:45,0,SWAPfront4,,0.1,,true,0,0,0,0,null,0,1,0,brander-desktop,0,0
16:23:46,0,SWAPstatic,,3.54,,true,0,0,0,0,null,0,1,0,brander-desktop,0,0
16:23:47,0,SWAPdb,,4.61,,true,0,0,0,0,null,0,1,0,brander-desktop,0,0
16:23:48,0,SWAPfront1,,3.09,,true,0,0,0,0,null,0,1,0,brander-desktop,0,0
16:23:49,0,SWAPfront2,,0.0,,true,0,0,0,0,null,0,1,0,brander-desktop,0,0
16:23:51,0,SWAPfront3,,0.0,,true,0,0,0,0,null,0,1,0,brander-desktop,0,0
16:23:52,0,SWAPfront4,,0.1,,true,0,0,0,0,null,0,1,0,brander-desktop,0,0
16:23:53,0,SWAPstatic,,3.54,,true,0,0,0,0,null,0,1,0,brander-desktop,0,0
16:23:54,0,SWAPdb,,4.61,,true,0,0,0,0,null,0,1,0,brander-desktop,0,0
16:23:55,0,SWAPfront1,,3.09,,true,0,0,0,0,null,0,1,0,brander-desktop,0,0
16:23:56,0,SWAPfront2,,0.0,,true,0,0,0,0,null,0,1,0,brander-desktop,0,0
16:23:57,0,SWAPfront3,,0.0,,true,0,0,0,0,null,0,1,0,brander-desktop,0,0
16:23:58,0,SWAPfront4,,0.1,,true,0,0,0,0,null,0,1,0,brander-desktop,0,0
16:23:59,0,SWAPstatic,,3.54,,true,0,0,0,0,null,0,1,0,brander-desktop,0,0
16:24:00,0,SWAPdb,,4.61,,true,0,0,0,0,null,0,1,0,brander-desktop,0,0
16:24:02,0,SWAPfront1,,3.09,,true,0,0,0,0,null,0,1,0,brander-desktop,0,0
16:24:03,0,SWAPfront2,,0.0,,true,0,0,0,0,null,0,1,0,brander-desktop,0,0
16:24:04,0,SWAPfront3,,0.0,,true,0,0,0,0,null,0,1,0,brander-desktop,0,0
16:24:05,0,SWAPfront4,,0.1,,true,0,0,0,0,null,0,1,0,brander-desktop,0,0
16:24:06,0,SWAPstatic,,3.54,,true,0,0,0,0,null,0,1,0,brander-desktop,0,0
16:24:07,0,SWAPdb,,4.61,,true,0,0,0,0,null,0,1,0,brander-desktop,0,0
16:24:08,0,SWAPfront1,,3.09,,true,0,0,0,0,null,0,1,0,brander-desktop,0,0
16:24:09,0,SWAPfront2,,0.0,,true,0,0,0,0,null,0,1,0,brander-desktop,0,0
16:24:10,0,SWAPfront3,,0.0,,true,0,0,0,0,null,0,1,0,brander-desktop,0,0
16:24:11,0,SWAPfront4,,0.1,,true,0,0,0,0,null,0,1,0,brander-desktop,0,0
16:24:13,0,SWAPstatic,,3.54,,true,0,0,0,0,null,0,1,0,brander-desktop,0,0
16:24:14,0,SWAPdb,,4.61,,true,0,0,0,0,null,0,1,0,brander-desktop,0,0
16:24:15,0,SWAPfront1,,3.09,,true,0,0,0,0,null,0,1,0,brander-desktop,0,0
16:24:16,0,SWAPfront2,,0.0,,true,0,0,0,0,null,0,1,0,brander-desktop,0,0
16:24:17,0,SWAPfront3,,0.0,,true,0,0,0,0,null,0,1,0,brander-desktop,0,0
16:24:18,0,SWAPfront4,,0.1,,true,0,0,0,0,null,0,1,0,brander-desktop,0,0
