timeStamp,elapsed,label,responseCode,responseMessage,threadName,success,bytes,sentBytes,grpThreads,allThreads,URL,Latency,SampleCount,ErrorCount,Hostname,IdleTime,Connect
15:14:07,0,RAMstatic,,97.6,,true,0,0,0,0,null,0,1,0,brander-desktop,0,0
15:14:09,0,RAMdb,,85.49,,true,0,0,0,0,null,0,1,0,brander-desktop,0,0
15:14:10,0,RAMfront1,,66.66,,true,0,0,0,0,null,0,1,0,brander-desktop,0,0
15:14:12,0,RAMfront2,,56.55,,true,0,0,0,0,null,0,1,0,brander-desktop,0,0
15:14:13,0,RAMfront3,,38.99,,true,0,0,0,0,null,0,1,0,brander-desktop,0,0
15:14:15,0,RAMfront4,,67.06,,true,0,0,0,0,null,0,1,0,brander-desktop,0,0
15:14:17,0,RAMcache,,92.8,,true,0,0,0,0,null,0,1,0,brander-desktop,0,0
15:14:18,0,RAMstatic,,97.62,,true,0,0,0,0,null,0,1,0,brander-desktop,0,0
15:14:19,0,RAMdb,,85.49,,true,0,0,0,0,null,0,1,0,brander-desktop,0,0
15:14:20,0,RAMfront1,,66.99,,true,0,0,0,0,null,0,1,0,brander-desktop,0,0
15:14:21,0,RAMfront2,,56.37,,true,0,0,0,0,null,0,1,0,brander-desktop,0,0
15:14:22,0,RAMfront3,,39.1,,true,0,0,0,0,null,0,1,0,brander-desktop,0,0
15:14:23,0,RAMfront4,,66.71,,true,0,0,0,0,null,0,1,0,brander-desktop,0,0
15:14:24,0,RAMcache,,92.81,,true,0,0,0,0,null,0,1,0,brander-desktop,0,0
15:14:25,0,RAMstatic,,97.6,,true,0,0,0,0,null,0,1,0,brander-desktop,0,0
15:14:26,0,RAMdb,,85.56,,true,0,0,0,0,null,0,1,0,brander-desktop,0,0
15:14:28,0,RAMfront1,,66.96,,true,0,0,0,0,null,0,1,0,brander-desktop,0,0
15:14:29,0,RAMfront2,,57.09,,true,0,0,0,0,null,0,1,0,brander-desktop,0,0
15:14:30,0,RAMfront3,,39.41,,true,0,0,0,0,null,0,1,0,brander-desktop,0,0
15:14:31,0,RAMfront4,,67.09,,true,0,0,0,0,null,0,1,0,brander-desktop,0,0
15:14:32,0,RAMcache,,92.82,,true,0,0,0,0,null,0,1,0,brander-desktop,0,0
15:14:33,0,RAMstatic,,97.63,,true,0,0,0,0,null,0,1,0,brander-desktop,0,0
15:14:34,0,RAMdb,,85.57,,true,0,0,0,0,null,0,1,0,brander-desktop,0,0
15:14:35,0,RAMfront1,,67.32,,true,0,0,0,0,null,0,1,0,brander-desktop,0,0
15:14:36,0,RAMfront2,,57.03,,true,0,0,0,0,null,0,1,0,brander-desktop,0,0
15:14:37,0,RAMfront3,,39.76,,true,0,0,0,0,null,0,1,0,brander-desktop,0,0
15:14:38,0,RAMfront4,,66.99,,true,0,0,0,0,null,0,1,0,brander-desktop,0,0
15:14:39,0,RAMcache,,92.83,,true,0,0,0,0,null,0,1,0,brander-desktop,0,0
15:14:41,0,RAMstatic,,97.66,,true,0,0,0,0,null,0,1,0,brander-desktop,0,0
15:14:42,0,RAMdb,,85.64,,true,0,0,0,0,null,0,1,0,brander-desktop,0,0
15:14:43,0,RAMfront1,,67.2,,true,0,0,0,0,null,0,1,0,brander-desktop,0,0
15:14:44,0,RAMfront2,,56.85,,true,0,0,0,0,null,0,1,0,brander-desktop,0,0
15:14:45,0,RAMfront3,,39.94,,true,0,0,0,0,null,0,1,0,brander-desktop,0,0
15:14:46,0,RAMfront4,,66.99,,true,0,0,0,0,null,0,1,0,brander-desktop,0,0
15:14:47,0,RAMcache,,92.84,,true,0,0,0,0,null,0,1,0,brander-desktop,0,0
15:14:48,0,RAMstatic,,97.65,,true,0,0,0,0,null,0,1,0,brander-desktop,0,0
15:14:49,0,RAMdb,,85.65,,true,0,0,0,0,null,0,1,0,brander-desktop,0,0
15:14:50,0,RAMfront1,,67.11,,true,0,0,0,0,null,0,1,0,brander-desktop,0,0
15:14:51,0,RAMfront2,,57.35,,true,0,0,0,0,null,0,1,0,brander-desktop,0,0
15:14:53,0,RAMfront3,,39.45,,true,0,0,0,0,null,0,1,0,brander-desktop,0,0
15:14:54,0,RAMfront4,,67.66,,true,0,0,0,0,null,0,1,0,brander-desktop,0,0
15:14:55,0,RAMcache,,92.85,,true,0,0,0,0,null,0,1,0,brander-desktop,0,0
15:14:56,0,RAMstatic,,97.66,,true,0,0,0,0,null,0,1,0,brander-desktop,0,0
15:14:57,0,RAMdb,,85.65,,true,0,0,0,0,null,0,1,0,brander-desktop,0,0
15:14:58,0,RAMfront1,,66.53,,true,0,0,0,0,null,0,1,0,brander-desktop,0,0
15:14:59,0,RAMfront2,,57.18,,true,0,0,0,0,null,0,1,0,brander-desktop,0,0
15:15:00,0,RAMfront3,,39.44,,true,0,0,0,0,null,0,1,0,brander-desktop,0,0
15:15:01,0,RAMfront4,,66.98,,true,0,0,0,0,null,0,1,0,brander-desktop,0,0
15:15:02,0,RAMcache,,92.85,,true,0,0,0,0,null,0,1,0,brander-desktop,0,0
15:15:03,0,RAMstatic,,97.62,,true,0,0,0,0,null,0,1,0,brander-desktop,0,0
15:15:04,0,RAMdb,,85.65,,true,0,0,0,0,null,0,1,0,brander-desktop,0,0
15:15:06,0,RAMfront1,,66.31,,true,0,0,0,0,null,0,1,0,brander-desktop,0,0
15:15:07,0,RAMfront2,,56.68,,true,0,0,0,0,null,0,1,0,brander-desktop,0,0
15:15:08,0,RAMfront3,,39.53,,true,0,0,0,0,null,0,1,0,brander-desktop,0,0
15:15:09,0,RAMfront4,,66.67,,true,0,0,0,0,null,0,1,0,brander-desktop,0,0
15:15:10,0,RAMcache,,88.56,,true,0,0,0,0,null,0,1,0,brander-desktop,0,0
15:15:11,0,RAMstatic,,97.62,,true,0,0,0,0,null,0,1,0,brander-desktop,0,0
15:15:12,0,RAMdb,,85.65,,true,0,0,0,0,null,0,1,0,brander-desktop,0,0
15:15:13,0,RAMfront1,,66.45,,true,0,0,0,0,null,0,1,0,brander-desktop,0,0
15:15:14,0,RAMfront2,,56.83,,true,0,0,0,0,null,0,1,0,brander-desktop,0,0
15:15:15,0,RAMfront3,,39.16,,true,0,0,0,0,null,0,1,0,brander-desktop,0,0
15:15:16,0,RAMfront4,,66.77,,true,0,0,0,0,null,0,1,0,brander-desktop,0,0
15:15:17,0,RAMcache,,88.55,,true,0,0,0,0,null,0,1,0,brander-desktop,0,0
15:15:19,0,RAMstatic,,97.64,,true,0,0,0,0,null,0,1,0,brander-desktop,0,0
15:15:20,0,RAMdb,,85.65,,true,0,0,0,0,null,0,1,0,brander-desktop,0,0
15:15:21,0,RAMfront1,,66.41,,true,0,0,0,0,null,0,1,0,brander-desktop,0,0
15:15:22,0,RAMfront2,,56.49,,true,0,0,0,0,null,0,1,0,brander-desktop,0,0
15:15:23,0,RAMfront3,,39.31,,true,0,0,0,0,null,0,1,0,brander-desktop,0,0
15:15:24,0,RAMfront4,,67.16,,true,0,0,0,0,null,0,1,0,brander-desktop,0,0
15:15:25,0,RAMcache,,88.56,,true,0,0,0,0,null,0,1,0,brander-desktop,0,0
15:15:26,0,RAMstatic,,97.69,,true,0,0,0,0,null,0,1,0,brander-desktop,0,0
15:15:27,0,RAMdb,,85.65,,true,0,0,0,0,null,0,1,0,brander-desktop,0,0
15:15:28,0,RAMfront1,,66.82,,true,0,0,0,0,null,0,1,0,brander-desktop,0,0
15:15:30,0,RAMfront2,,56.78,,true,0,0,0,0,null,0,1,0,brander-desktop,0,0
15:15:31,0,RAMfront3,,39.08,,true,0,0,0,0,null,0,1,0,brander-desktop,0,0
15:15:32,0,RAMfront4,,67.05,,true,0,0,0,0,null,0,1,0,brander-desktop,0,0
15:15:33,0,RAMcache,,88.56,,true,0,0,0,0,null,0,1,0,brander-desktop,0,0
15:15:34,0,RAMstatic,,97.63,,true,0,0,0,0,null,0,1,0,brander-desktop,0,0
15:15:35,0,RAMdb,,85.65,,true,0,0,0,0,null,0,1,0,brander-desktop,0,0
15:15:36,0,RAMfront1,,66.48,,true,0,0,0,0,null,0,1,0,brander-desktop,0,0
15:15:37,0,RAMfront2,,57.38,,true,0,0,0,0,null,0,1,0,brander-desktop,0,0
15:15:38,0,RAMfront3,,38.91,,true,0,0,0,0,null,0,1,0,brander-desktop,0,0
15:15:39,0,RAMfront4,,66.99,,true,0,0,0,0,null,0,1,0,brander-desktop,0,0
15:15:40,0,RAMcache,,88.56,,true,0,0,0,0,null,0,1,0,brander-desktop,0,0
15:15:42,0,RAMstatic,,97.65,,true,0,0,0,0,null,0,1,0,brander-desktop,0,0
15:15:43,0,RAMdb,,85.65,,true,0,0,0,0,null,0,1,0,brander-desktop,0,0
15:15:44,0,RAMfront1,,66.41,,true,0,0,0,0,null,0,1,0,brander-desktop,0,0
15:15:45,0,RAMfront2,,56.8,,true,0,0,0,0,null,0,1,0,brander-desktop,0,0
15:15:46,0,RAMfront3,,39.36,,true,0,0,0,0,null,0,1,0,brander-desktop,0,0
15:15:47,0,RAMfront4,,67.31,,true,0,0,0,0,null,0,1,0,brander-desktop,0,0
15:15:48,0,RAMcache,,88.56,,true,0,0,0,0,null,0,1,0,brander-desktop,0,0
15:15:49,0,RAMstatic,,97.66,,true,0,0,0,0,null,0,1,0,brander-desktop,0,0
15:15:50,0,RAMdb,,85.65,,true,0,0,0,0,null,0,1,0,brander-desktop,0,0
15:15:51,0,RAMfront1,,66.47,,true,0,0,0,0,null,0,1,0,brander-desktop,0,0
15:15:52,0,RAMfront2,,56.99,,true,0,0,0,0,null,0,1,0,brander-desktop,0,0
15:15:54,0,RAMfront3,,39.49,,true,0,0,0,0,null,0,1,0,brander-desktop,0,0
15:15:55,0,RAMfront4,,67.15,,true,0,0,0,0,null,0,1,0,brander-desktop,0,0
15:15:56,0,RAMcache,,88.56,,true,0,0,0,0,null,0,1,0,brander-desktop,0,0
15:15:57,0,RAMstatic,,97.64,,true,0,0,0,0,null,0,1,0,brander-desktop,0,0
15:15:58,0,RAMdb,,85.65,,true,0,0,0,0,null,0,1,0,brander-desktop,0,0
15:15:59,0,RAMfront1,,66.15,,true,0,0,0,0,null,0,1,0,brander-desktop,0,0
15:16:00,0,RAMfront2,,56.83,,true,0,0,0,0,null,0,1,0,brander-desktop,0,0
15:16:01,0,RAMfront3,,39.55,,true,0,0,0,0,null,0,1,0,brander-desktop,0,0
15:16:02,0,RAMfront4,,67.18,,true,0,0,0,0,null,0,1,0,brander-desktop,0,0
15:16:03,0,RAMcache,,88.56,,true,0,0,0,0,null,0,1,0,brander-desktop,0,0
15:16:04,0,RAMstatic,,97.63,,true,0,0,0,0,null,0,1,0,brander-desktop,0,0
15:16:06,0,RAMdb,,85.65,,true,0,0,0,0,null,0,1,0,brander-desktop,0,0
15:16:07,0,RAMfront1,,66.62,,true,0,0,0,0,null,0,1,0,brander-desktop,0,0
15:16:08,0,RAMfront2,,56.92,,true,0,0,0,0,null,0,1,0,brander-desktop,0,0
15:16:09,0,RAMfront3,,39.48,,true,0,0,0,0,null,0,1,0,brander-desktop,0,0
15:16:10,0,RAMfront4,,66.94,,true,0,0,0,0,null,0,1,0,brander-desktop,0,0
15:16:11,0,RAMcache,,88.86,,true,0,0,0,0,null,0,1,0,brander-desktop,0,0
15:16:12,0,RAMstatic,,97.63,,true,0,0,0,0,null,0,1,0,brander-desktop,0,0
15:16:13,0,RAMdb,,85.66,,true,0,0,0,0,null,0,1,0,brander-desktop,0,0
15:16:14,0,RAMfront1,,66.66,,true,0,0,0,0,null,0,1,0,brander-desktop,0,0
15:16:15,0,RAMfront2,,57.28,,true,0,0,0,0,null,0,1,0,brander-desktop,0,0
15:16:16,0,RAMfront3,,39.57,,true,0,0,0,0,null,0,1,0,brander-desktop,0,0
15:16:18,0,RAMfront4,,67.07,,true,0,0,0,0,null,0,1,0,brander-desktop,0,0
15:16:19,0,RAMcache,,90.63,,true,0,0,0,0,null,0,1,0,brander-desktop,0,0
15:16:20,0,RAMstatic,,97.68,,true,0,0,0,0,null,0,1,0,brander-desktop,0,0
15:16:21,0,RAMdb,,85.66,,true,0,0,0,0,null,0,1,0,brander-desktop,0,0
15:16:22,0,RAMfront1,,66.69,,true,0,0,0,0,null,0,1,0,brander-desktop,0,0
15:16:23,0,RAMfront2,,57.48,,true,0,0,0,0,null,0,1,0,brander-desktop,0,0
15:16:24,0,RAMfront3,,39.79,,true,0,0,0,0,null,0,1,0,brander-desktop,0,0
15:16:25,0,RAMfront4,,67.02,,true,0,0,0,0,null,0,1,0,brander-desktop,0,0
15:16:26,0,RAMcache,,92.18,,true,0,0,0,0,null,0,1,0,brander-desktop,0,0
15:16:27,0,RAMstatic,,97.66,,true,0,0,0,0,null,0,1,0,brander-desktop,0,0
15:16:28,0,RAMdb,,85.66,,true,0,0,0,0,null,0,1,0,brander-desktop,0,0
15:16:30,0,RAMfront1,,66.92,,true,0,0,0,0,null,0,1,0,brander-desktop,0,0
15:16:31,0,RAMfront2,,57.05,,true,0,0,0,0,null,0,1,0,brander-desktop,0,0
15:16:32,0,RAMfront3,,39.74,,true,0,0,0,0,null,0,1,0,brander-desktop,0,0
15:16:33,0,RAMfront4,,66.95,,true,0,0,0,0,null,0,1,0,brander-desktop,0,0
15:16:34,0,RAMcache,,92.31,,true,0,0,0,0,null,0,1,0,brander-desktop,0,0
15:16:35,0,RAMstatic,,97.68,,true,0,0,0,0,null,0,1,0,brander-desktop,0,0
15:16:36,0,RAMdb,,85.66,,true,0,0,0,0,null,0,1,0,brander-desktop,0,0
15:16:37,0,RAMfront1,,66.92,,true,0,0,0,0,null,0,1,0,brander-desktop,0,0
15:16:38,0,RAMfront2,,56.92,,true,0,0,0,0,null,0,1,0,brander-desktop,0,0
15:16:39,0,RAMfront3,,39.72,,true,0,0,0,0,null,0,1,0,brander-desktop,0,0
15:16:40,0,RAMfront4,,67.37,,true,0,0,0,0,null,0,1,0,brander-desktop,0,0
15:16:42,0,RAMcache,,92.34,,true,0,0,0,0,null,0,1,0,brander-desktop,0,0
15:16:43,0,RAMstatic,,97.71,,true,0,0,0,0,null,0,1,0,brander-desktop,0,0
15:16:44,0,RAMdb,,85.66,,true,0,0,0,0,null,0,1,0,brander-desktop,0,0
15:16:45,0,RAMfront1,,66.49,,true,0,0,0,0,null,0,1,0,brander-desktop,0,0
15:16:46,0,RAMfront2,,56.92,,true,0,0,0,0,null,0,1,0,brander-desktop,0,0
15:16:47,0,RAMfront3,,39.93,,true,0,0,0,0,null,0,1,0,brander-desktop,0,0
15:16:48,0,RAMfront4,,67.25,,true,0,0,0,0,null,0,1,0,brander-desktop,0,0
15:16:49,0,RAMcache,,92.39,,true,0,0,0,0,null,0,1,0,brander-desktop,0,0
15:16:50,0,RAMstatic,,97.71,,true,0,0,0,0,null,0,1,0,brander-desktop,0,0
15:16:51,0,RAMdb,,85.66,,true,0,0,0,0,null,0,1,0,brander-desktop,0,0
15:16:52,0,RAMfront1,,66.55,,true,0,0,0,0,null,0,1,0,brander-desktop,0,0
15:16:54,0,RAMfront2,,56.67,,true,0,0,0,0,null,0,1,0,brander-desktop,0,0
15:16:55,0,RAMfront3,,39.63,,true,0,0,0,0,null,0,1,0,brander-desktop,0,0
15:16:56,0,RAMfront4,,66.96,,true,0,0,0,0,null,0,1,0,brander-desktop,0,0
15:16:57,0,RAMcache,,92.42,,true,0,0,0,0,null,0,1,0,brander-desktop,0,0
15:16:58,0,RAMstatic,,97.7,,true,0,0,0,0,null,0,1,0,brander-desktop,0,0
15:16:59,0,RAMdb,,85.66,,true,0,0,0,0,null,0,1,0,brander-desktop,0,0
15:17:00,0,RAMfront1,,66.25,,true,0,0,0,0,null,0,1,0,brander-desktop,0,0
15:17:01,0,RAMfront2,,57.07,,true,0,0,0,0,null,0,1,0,brander-desktop,0,0
15:17:02,0,RAMfront3,,39.36,,true,0,0,0,0,null,0,1,0,brander-desktop,0,0
15:17:03,0,RAMfront4,,67.17,,true,0,0,0,0,null,0,1,0,brander-desktop,0,0
15:17:05,0,RAMcache,,92.44,,true,0,0,0,0,null,0,1,0,brander-desktop,0,0
15:17:06,0,RAMstatic,,97.73,,true,0,0,0,0,null,0,1,0,brander-desktop,0,0
15:17:07,0,RAMdb,,85.66,,true,0,0,0,0,null,0,1,0,brander-desktop,0,0
15:17:08,0,RAMfront1,,66.99,,true,0,0,0,0,null,0,1,0,brander-desktop,0,0
15:17:09,0,RAMfront2,,57.01,,true,0,0,0,0,null,0,1,0,brander-desktop,0,0
15:17:10,0,RAMfront3,,39.47,,true,0,0,0,0,null,0,1,0,brander-desktop,0,0
15:17:11,0,RAMfront4,,67.49,,true,0,0,0,0,null,0,1,0,brander-desktop,0,0
15:17:12,0,RAMcache,,92.47,,true,0,0,0,0,null,0,1,0,brander-desktop,0,0
15:17:13,0,RAMstatic,,97.76,,true,0,0,0,0,null,0,1,0,brander-desktop,0,0
15:17:14,0,RAMdb,,85.67,,true,0,0,0,0,null,0,1,0,brander-desktop,0,0
15:17:15,0,RAMfront1,,67.04,,true,0,0,0,0,null,0,1,0,brander-desktop,0,0
15:17:17,0,RAMfront2,,57.56,,true,0,0,0,0,null,0,1,0,brander-desktop,0,0
15:17:18,0,RAMfront3,,40.34,,true,0,0,0,0,null,0,1,0,brander-desktop,0,0
15:17:19,0,RAMfront4,,67.72,,true,0,0,0,0,null,0,1,0,brander-desktop,0,0
15:17:20,0,RAMcache,,92.51,,true,0,0,0,0,null,0,1,0,brander-desktop,0,0
15:17:21,0,RAMstatic,,97.75,,true,0,0,0,0,null,0,1,0,brander-desktop,0,0
15:17:22,0,RAMdb,,85.67,,true,0,0,0,0,null,0,1,0,brander-desktop,0,0
15:17:23,0,RAMfront1,,66.89,,true,0,0,0,0,null,0,1,0,brander-desktop,0,0
15:17:24,0,RAMfront2,,57.92,,true,0,0,0,0,null,0,1,0,brander-desktop,0,0
15:17:25,0,RAMfront3,,40.08,,true,0,0,0,0,null,0,1,0,brander-desktop,0,0
15:17:26,0,RAMfront4,,67.43,,true,0,0,0,0,null,0,1,0,brander-desktop,0,0
15:17:27,0,RAMcache,,92.54,,true,0,0,0,0,null,0,1,0,brander-desktop,0,0
15:17:29,0,RAMstatic,,97.74,,true,0,0,0,0,null,0,1,0,brander-desktop,0,0
15:17:30,0,RAMdb,,85.67,,true,0,0,0,0,null,0,1,0,brander-desktop,0,0
15:17:31,0,RAMfront1,,67.47,,true,0,0,0,0,null,0,1,0,brander-desktop,0,0
15:17:32,0,RAMfront2,,57.64,,true,0,0,0,0,null,0,1,0,brander-desktop,0,0
15:17:33,0,RAMfront3,,39.58,,true,0,0,0,0,null,0,1,0,brander-desktop,0,0
15:17:34,0,RAMfront4,,67.51,,true,0,0,0,0,null,0,1,0,brander-desktop,0,0
15:17:35,0,RAMcache,,92.58,,true,0,0,0,0,null,0,1,0,brander-desktop,0,0
15:17:36,0,RAMstatic,,97.71,,true,0,0,0,0,null,0,1,0,brander-desktop,0,0
15:17:37,0,RAMdb,,85.67,,true,0,0,0,0,null,0,1,0,brander-desktop,0,0
15:17:38,0,RAMfront1,,66.97,,true,0,0,0,0,null,0,1,0,brander-desktop,0,0
15:17:39,0,RAMfront2,,58.23,,true,0,0,0,0,null,0,1,0,brander-desktop,0,0
15:17:41,0,RAMfront3,,39.17,,true,0,0,0,0,null,0,1,0,brander-desktop,0,0
15:17:42,0,RAMfront4,,67.53,,true,0,0,0,0,null,0,1,0,brander-desktop,0,0
15:17:43,0,RAMcache,,92.61,,true,0,0,0,0,null,0,1,0,brander-desktop,0,0
15:17:44,0,RAMstatic,,97.71,,true,0,0,0,0,null,0,1,0,brander-desktop,0,0
15:17:45,0,RAMdb,,85.67,,true,0,0,0,0,null,0,1,0,brander-desktop,0,0
15:17:46,0,RAMfront1,,66.69,,true,0,0,0,0,null,0,1,0,brander-desktop,0,0
15:17:47,0,RAMfront2,,58.18,,true,0,0,0,0,null,0,1,0,brander-desktop,0,0
15:17:48,0,RAMfront3,,39.67,,true,0,0,0,0,null,0,1,0,brander-desktop,0,0
15:17:49,0,RAMfront4,,67.34,,true,0,0,0,0,null,0,1,0,brander-desktop,0,0
15:17:51,0,RAMcache,,92.63,,true,0,0,0,0,null,0,1,0,brander-desktop,0,0
15:17:52,0,RAMstatic,,97.76,,true,0,0,0,0,null,0,1,0,brander-desktop,0,0
15:17:53,0,RAMdb,,85.67,,true,0,0,0,0,null,0,1,0,brander-desktop,0,0
15:17:54,0,RAMfront1,,66.59,,true,0,0,0,0,null,0,1,0,brander-desktop,0,0
15:17:55,0,RAMfront2,,57.73,,true,0,0,0,0,null,0,1,0,brander-desktop,0,0
15:17:56,0,RAMfront3,,39.84,,true,0,0,0,0,null,0,1,0,brander-desktop,0,0
15:17:57,0,RAMfront4,,67.74,,true,0,0,0,0,null,0,1,0,brander-desktop,0,0
15:17:58,0,RAMcache,,92.66,,true,0,0,0,0,null,0,1,0,brander-desktop,0,0
15:17:59,0,RAMstatic,,97.72,,true,0,0,0,0,null,0,1,0,brander-desktop,0,0
15:18:00,0,RAMdb,,85.68,,true,0,0,0,0,null,0,1,0,brander-desktop,0,0
15:18:01,0,RAMfront1,,66.96,,true,0,0,0,0,null,0,1,0,brander-desktop,0,0
15:18:03,0,RAMfront2,,57.47,,true,0,0,0,0,null,0,1,0,brander-desktop,0,0
15:18:04,0,RAMfront3,,39.84,,true,0,0,0,0,null,0,1,0,brander-desktop,0,0
15:18:05,0,RAMfront4,,67.51,,true,0,0,0,0,null,0,1,0,brander-desktop,0,0
15:18:06,0,RAMcache,,92.69,,true,0,0,0,0,null,0,1,0,brander-desktop,0,0
15:18:07,0,RAMstatic,,97.73,,true,0,0,0,0,null,0,1,0,brander-desktop,0,0
15:18:08,0,RAMdb,,85.68,,true,0,0,0,0,null,0,1,0,brander-desktop,0,0
15:18:09,0,RAMfront1,,67.08,,true,0,0,0,0,null,0,1,0,brander-desktop,0,0
15:18:10,0,RAMfront2,,57.74,,true,0,0,0,0,null,0,1,0,brander-desktop,0,0
15:18:11,0,RAMfront3,,40.33,,true,0,0,0,0,null,0,1,0,brander-desktop,0,0
15:18:13,0,RAMfront4,,67.46,,true,0,0,0,0,null,0,1,0,brander-desktop,0,0
15:18:14,0,RAMcache,,92.71,,true,0,0,0,0,null,0,1,0,brander-desktop,0,0
15:18:15,0,RAMstatic,,97.76,,true,0,0,0,0,null,0,1,0,brander-desktop,0,0
15:18:16,0,RAMdb,,85.68,,true,0,0,0,0,null,0,1,0,brander-desktop,0,0
15:18:17,0,RAMfront1,,67.15,,true,0,0,0,0,null,0,1,0,brander-desktop,0,0
15:18:18,0,RAMfront2,,57.35,,true,0,0,0,0,null,0,1,0,brander-desktop,0,0
15:18:19,0,RAMfront3,,40.07,,true,0,0,0,0,null,0,1,0,brander-desktop,0,0
15:18:20,0,RAMfront4,,67.4,,true,0,0,0,0,null,0,1,0,brander-desktop,0,0
15:18:21,0,RAMcache,,92.73,,true,0,0,0,0,null,0,1,0,brander-desktop,0,0
15:18:22,0,RAMstatic,,97.75,,true,0,0,0,0,null,0,1,0,brander-desktop,0,0
15:18:24,0,RAMdb,,85.68,,true,0,0,0,0,null,0,1,0,brander-desktop,0,0
15:18:25,0,RAMfront1,,66.93,,true,0,0,0,0,null,0,1,0,brander-desktop,0,0
15:18:26,0,RAMfront2,,57.57,,true,0,0,0,0,null,0,1,0,brander-desktop,0,0
15:18:27,0,RAMfront3,,39.7,,true,0,0,0,0,null,0,1,0,brander-desktop,0,0
15:18:28,0,RAMfront4,,67.52,,true,0,0,0,0,null,0,1,0,brander-desktop,0,0
15:18:29,0,RAMcache,,92.75,,true,0,0,0,0,null,0,1,0,brander-desktop,0,0
15:18:30,0,RAMstatic,,97.81,,true,0,0,0,0,null,0,1,0,brander-desktop,0,0
15:18:31,0,RAMdb,,85.68,,true,0,0,0,0,null,0,1,0,brander-desktop,0,0
15:18:32,0,RAMfront1,,67.41,,true,0,0,0,0,null,0,1,0,brander-desktop,0,0
15:18:33,0,RAMfront2,,57.42,,true,0,0,0,0,null,0,1,0,brander-desktop,0,0
15:18:35,0,RAMfront3,,40.35,,true,0,0,0,0,null,0,1,0,brander-desktop,0,0
15:18:36,0,RAMfront4,,67.68,,true,0,0,0,0,null,0,1,0,brander-desktop,0,0
15:18:37,0,RAMcache,,92.78,,true,0,0,0,0,null,0,1,0,brander-desktop,0,0
15:18:38,0,RAMstatic,,97.81,,true,0,0,0,0,null,0,1,0,brander-desktop,0,0
15:18:39,0,RAMdb,,85.69,,true,0,0,0,0,null,0,1,0,brander-desktop,0,0
15:18:40,0,RAMfront1,,67.63,,true,0,0,0,0,null,0,1,0,brander-desktop,0,0
15:18:41,0,RAMfront2,,57.71,,true,0,0,0,0,null,0,1,0,brander-desktop,0,0
15:18:42,0,RAMfront3,,40.43,,true,0,0,0,0,null,0,1,0,brander-desktop,0,0
15:18:43,0,RAMfront4,,68.06,,true,0,0,0,0,null,0,1,0,brander-desktop,0,0
15:18:44,0,RAMcache,,92.8,,true,0,0,0,0,null,0,1,0,brander-desktop,0,0
15:18:46,0,RAMstatic,,97.79,,true,0,0,0,0,null,0,1,0,brander-desktop,0,0
15:18:47,0,RAMdb,,85.69,,true,0,0,0,0,null,0,1,0,brander-desktop,0,0
15:18:48,0,RAMfront1,,67.44,,true,0,0,0,0,null,0,1,0,brander-desktop,0,0
15:18:49,0,RAMfront2,,58.21,,true,0,0,0,0,null,0,1,0,brander-desktop,0,0
15:18:50,0,RAMfront3,,40.36,,true,0,0,0,0,null,0,1,0,brander-desktop,0,0
15:18:51,0,RAMfront4,,68.21,,true,0,0,0,0,null,0,1,0,brander-desktop,0,0
15:18:52,0,RAMcache,,92.82,,true,0,0,0,0,null,0,1,0,brander-desktop,0,0
15:18:53,0,RAMstatic,,97.78,,true,0,0,0,0,null,0,1,0,brander-desktop,0,0
15:18:54,0,RAMdb,,85.69,,true,0,0,0,0,null,0,1,0,brander-desktop,0,0
15:18:55,0,RAMfront1,,67.89,,true,0,0,0,0,null,0,1,0,brander-desktop,0,0
15:18:56,0,RAMfront2,,58.07,,true,0,0,0,0,null,0,1,0,brander-desktop,0,0
15:18:58,0,RAMfront3,,39.88,,true,0,0,0,0,null,0,1,0,brander-desktop,0,0
15:18:59,0,RAMfront4,,68.29,,true,0,0,0,0,null,0,1,0,brander-desktop,0,0
15:19:00,0,RAMcache,,92.84,,true,0,0,0,0,null,0,1,0,brander-desktop,0,0
15:19:01,0,RAMstatic,,97.82,,true,0,0,0,0,null,0,1,0,brander-desktop,0,0
15:19:02,0,RAMdb,,85.69,,true,0,0,0,0,null,0,1,0,brander-desktop,0,0
15:19:03,0,RAMfront1,,67.07,,true,0,0,0,0,null,0,1,0,brander-desktop,0,0
15:19:04,0,RAMfront2,,57.06,,true,0,0,0,0,null,0,1,0,brander-desktop,0,0
15:19:05,0,RAMfront3,,40.15,,true,0,0,0,0,null,0,1,0,brander-desktop,0,0
15:19:06,0,RAMfront4,,67.87,,true,0,0,0,0,null,0,1,0,brander-desktop,0,0
15:19:07,0,RAMcache,,92.86,,true,0,0,0,0,null,0,1,0,brander-desktop,0,0
15:19:09,0,RAMstatic,,97.71,,true,0,0,0,0,null,0,1,0,brander-desktop,0,0
15:19:10,0,RAMdb,,85.69,,true,0,0,0,0,null,0,1,0,brander-desktop,0,0
15:19:11,0,RAMfront1,,66.9,,true,0,0,0,0,null,0,1,0,brander-desktop,0,0
15:19:12,0,RAMfront2,,57.19,,true,0,0,0,0,null,0,1,0,brander-desktop,0,0
15:19:13,0,RAMfront3,,39.68,,true,0,0,0,0,null,0,1,0,brander-desktop,0,0
15:19:14,0,RAMfront4,,67.54,,true,0,0,0,0,null,0,1,0,brander-desktop,0,0
15:19:15,0,RAMcache,,92.88,,true,0,0,0,0,null,0,1,0,brander-desktop,0,0
15:19:16,0,RAMstatic,,97.78,,true,0,0,0,0,null,0,1,0,brander-desktop,0,0
15:19:17,0,RAMdb,,85.7,,true,0,0,0,0,null,0,1,0,brander-desktop,0,0
15:19:18,0,RAMfront1,,67.84,,true,0,0,0,0,null,0,1,0,brander-desktop,0,0
15:19:20,0,RAMfront2,,57.92,,true,0,0,0,0,null,0,1,0,brander-desktop,0,0
15:19:21,0,RAMfront3,,40.08,,true,0,0,0,0,null,0,1,0,brander-desktop,0,0
15:19:22,0,RAMfront4,,67.99,,true,0,0,0,0,null,0,1,0,brander-desktop,0,0
15:19:23,0,RAMcache,,92.9,,true,0,0,0,0,null,0,1,0,brander-desktop,0,0
15:19:24,0,RAMstatic,,97.76,,true,0,0,0,0,null,0,1,0,brander-desktop,0,0
15:19:25,0,RAMdb,,85.7,,true,0,0,0,0,null,0,1,0,brander-desktop,0,0
15:19:26,0,RAMfront1,,67.91,,true,0,0,0,0,null,0,1,0,brander-desktop,0,0
15:19:27,0,RAMfront2,,58.43,,true,0,0,0,0,null,0,1,0,brander-desktop,0,0
15:19:28,0,RAMfront3,,40.92,,true,0,0,0,0,null,0,1,0,brander-desktop,0,0
15:19:29,0,RAMfront4,,68.01,,true,0,0,0,0,null,0,1,0,brander-desktop,0,0
15:19:30,0,RAMcache,,92.92,,true,0,0,0,0,null,0,1,0,brander-desktop,0,0
15:19:32,0,RAMstatic,,97.78,,true,0,0,0,0,null,0,1,0,brander-desktop,0,0
15:19:33,0,RAMdb,,85.7,,true,0,0,0,0,null,0,1,0,brander-desktop,0,0
15:19:34,0,RAMfront1,,67.82,,true,0,0,0,0,null,0,1,0,brander-desktop,0,0
15:19:35,0,RAMfront2,,57.59,,true,0,0,0,0,null,0,1,0,brander-desktop,0,0
15:19:36,0,RAMfront3,,40.88,,true,0,0,0,0,null,0,1,0,brander-desktop,0,0
15:19:37,0,RAMfront4,,68.03,,true,0,0,0,0,null,0,1,0,brander-desktop,0,0
15:19:38,0,RAMcache,,92.94,,true,0,0,0,0,null,0,1,0,brander-desktop,0,0
15:19:39,0,RAMstatic,,97.79,,true,0,0,0,0,null,0,1,0,brander-desktop,0,0
15:19:40,0,RAMdb,,85.71,,true,0,0,0,0,null,0,1,0,brander-desktop,0,0
15:19:41,0,RAMfront1,,67.91,,true,0,0,0,0,null,0,1,0,brander-desktop,0,0
15:19:43,0,RAMfront2,,58.26,,true,0,0,0,0,null,0,1,0,brander-desktop,0,0
15:19:44,0,RAMfront3,,40.61,,true,0,0,0,0,null,0,1,0,brander-desktop,0,0
15:19:45,0,RAMfront4,,67.86,,true,0,0,0,0,null,0,1,0,brander-desktop,0,0
15:19:46,0,RAMcache,,92.96,,true,0,0,0,0,null,0,1,0,brander-desktop,0,0
15:19:47,0,RAMstatic,,97.81,,true,0,0,0,0,null,0,1,0,brander-desktop,0,0
15:19:48,0,RAMdb,,85.71,,true,0,0,0,0,null,0,1,0,brander-desktop,0,0
15:19:49,0,RAMfront1,,67.62,,true,0,0,0,0,null,0,1,0,brander-desktop,0,0
15:19:50,0,RAMfront2,,57.69,,true,0,0,0,0,null,0,1,0,brander-desktop,0,0
15:19:52,0,RAMfront3,,41.17,,true,0,0,0,0,null,0,1,0,brander-desktop,0,0
15:19:53,0,RAMfront4,,67.51,,true,0,0,0,0,null,0,1,0,brander-desktop,0,0
15:19:54,0,RAMcache,,92.98,,true,0,0,0,0,null,0,1,0,brander-desktop,0,0
15:19:55,0,RAMstatic,,97.84,,true,0,0,0,0,null,0,1,0,brander-desktop,0,0
15:19:56,0,RAMdb,,85.71,,true,0,0,0,0,null,0,1,0,brander-desktop,0,0
15:19:57,0,RAMfront1,,68.01,,true,0,0,0,0,null,0,1,0,brander-desktop,0,0
15:19:58,0,RAMfront2,,57.59,,true,0,0,0,0,null,0,1,0,brander-desktop,0,0
15:19:59,0,RAMfront3,,40.95,,true,0,0,0,0,null,0,1,0,brander-desktop,0,0
15:20:00,0,RAMfront4,,68.43,,true,0,0,0,0,null,0,1,0,brander-desktop,0,0
15:20:02,0,RAMcache,,92.99,,true,0,0,0,0,null,0,1,0,brander-desktop,0,0
15:20:03,0,RAMstatic,,97.84,,true,0,0,0,0,null,0,1,0,brander-desktop,0,0
15:20:04,0,RAMdb,,85.71,,true,0,0,0,0,null,0,1,0,brander-desktop,0,0
15:20:05,0,RAMfront1,,68.19,,true,0,0,0,0,null,0,1,0,brander-desktop,0,0
15:20:06,0,RAMfront2,,58.18,,true,0,0,0,0,null,0,1,0,brander-desktop,0,0
15:20:07,0,RAMfront3,,41.05,,true,0,0,0,0,null,0,1,0,brander-desktop,0,0
15:20:08,0,RAMfront4,,68.29,,true,0,0,0,0,null,0,1,0,brander-desktop,0,0
15:20:09,0,RAMcache,,93.02,,true,0,0,0,0,null,0,1,0,brander-desktop,0,0
15:20:10,0,RAMstatic,,97.85,,true,0,0,0,0,null,0,1,0,brander-desktop,0,0
15:20:12,0,RAMdb,,85.71,,true,0,0,0,0,null,0,1,0,brander-desktop,0,0
15:20:13,0,RAMfront1,,68.83,,true,0,0,0,0,null,0,1,0,brander-desktop,0,0
15:20:14,0,RAMfront2,,58.31,,true,0,0,0,0,null,0,1,0,brander-desktop,0,0
15:20:15,0,RAMfront3,,41.19,,true,0,0,0,0,null,0,1,0,brander-desktop,0,0
15:20:16,0,RAMfront4,,68.58,,true,0,0,0,0,null,0,1,0,brander-desktop,0,0
15:20:17,0,RAMcache,,93.04,,true,0,0,0,0,null,0,1,0,brander-desktop,0,0
15:20:18,0,RAMstatic,,97.87,,true,0,0,0,0,null,0,1,0,brander-desktop,0,0
15:20:19,0,RAMdb,,85.72,,true,0,0,0,0,null,0,1,0,brander-desktop,0,0
15:20:20,0,RAMfront1,,68.41,,true,0,0,0,0,null,0,1,0,brander-desktop,0,0
15:20:22,0,RAMfront2,,59.18,,true,0,0,0,0,null,0,1,0,brander-desktop,0,0
15:20:23,0,RAMfront3,,41.75,,true,0,0,0,0,null,0,1,0,brander-desktop,0,0
15:20:24,0,RAMfront4,,68.96,,true,0,0,0,0,null,0,1,0,brander-desktop,0,0
15:20:25,0,RAMcache,,88.62,,true,0,0,0,0,null,0,1,0,brander-desktop,0,0
15:20:26,0,RAMstatic,,97.9,,true,0,0,0,0,null,0,1,0,brander-desktop,0,0
15:20:27,0,RAMdb,,85.72,,true,0,0,0,0,null,0,1,0,brander-desktop,0,0
15:20:28,0,RAMfront1,,68.54,,true,0,0,0,0,null,0,1,0,brander-desktop,0,0
15:20:29,0,RAMfront2,,58.76,,true,0,0,0,0,null,0,1,0,brander-desktop,0,0
15:20:31,0,RAMfront3,,42.2,,true,0,0,0,0,null,0,1,0,brander-desktop,0,0
15:20:32,0,RAMfront4,,69.04,,true,0,0,0,0,null,0,1,0,brander-desktop,0,0
15:20:33,0,RAMcache,,88.63,,true,0,0,0,0,null,0,1,0,brander-desktop,0,0
15:20:34,0,RAMstatic,,97.91,,true,0,0,0,0,null,0,1,0,brander-desktop,0,0
15:20:35,0,RAMdb,,85.73,,true,0,0,0,0,null,0,1,0,brander-desktop,0,0
15:20:36,0,RAMfront1,,68.22,,true,0,0,0,0,null,0,1,0,brander-desktop,0,0
15:20:37,0,RAMfront2,,58.31,,true,0,0,0,0,null,0,1,0,brander-desktop,0,0
15:20:38,0,RAMfront3,,41.73,,true,0,0,0,0,null,0,1,0,brander-desktop,0,0
15:20:40,0,RAMfront4,,68.92,,true,0,0,0,0,null,0,1,0,brander-desktop,0,0
15:20:41,0,RAMcache,,88.62,,true,0,0,0,0,null,0,1,0,brander-desktop,0,0
15:20:42,0,RAMstatic,,97.88,,true,0,0,0,0,null,0,1,0,brander-desktop,0,0
15:20:43,0,RAMdb,,85.73,,true,0,0,0,0,null,0,1,0,brander-desktop,0,0
15:20:44,0,RAMfront1,,68.63,,true,0,0,0,0,null,0,1,0,brander-desktop,0,0
15:20:45,0,RAMfront2,,59.21,,true,0,0,0,0,null,0,1,0,brander-desktop,0,0
15:20:46,0,RAMfront3,,41.85,,true,0,0,0,0,null,0,1,0,brander-desktop,0,0
15:20:48,0,RAMfront4,,69.18,,true,0,0,0,0,null,0,1,0,brander-desktop,0,0
15:20:49,0,RAMcache,,88.63,,true,0,0,0,0,null,0,1,0,brander-desktop,0,0
15:20:50,0,RAMstatic,,97.9,,true,0,0,0,0,null,0,1,0,brander-desktop,0,0
15:20:51,0,RAMdb,,85.73,,true,0,0,0,0,null,0,1,0,brander-desktop,0,0
15:20:52,0,RAMfront1,,68.74,,true,0,0,0,0,null,0,1,0,brander-desktop,0,0
15:20:53,0,RAMfront2,,59.02,,true,0,0,0,0,null,0,1,0,brander-desktop,0,0
15:20:54,0,RAMfront3,,42.1,,true,0,0,0,0,null,0,1,0,brander-desktop,0,0
15:20:55,0,RAMfront4,,69.45,,true,0,0,0,0,null,0,1,0,brander-desktop,0,0
15:20:57,0,RAMcache,,88.63,,true,0,0,0,0,null,0,1,0,brander-desktop,0,0
15:20:58,0,RAMstatic,,97.95,,true,0,0,0,0,null,0,1,0,brander-desktop,0,0
15:20:59,0,RAMdb,,85.73,,true,0,0,0,0,null,0,1,0,brander-desktop,0,0
15:21:00,0,RAMfront1,,68.58,,true,0,0,0,0,null,0,1,0,brander-desktop,0,0
15:21:01,0,RAMfront2,,58.98,,true,0,0,0,0,null,0,1,0,brander-desktop,0,0
15:21:02,0,RAMfront3,,41.12,,true,0,0,0,0,null,0,1,0,brander-desktop,0,0
15:21:03,0,RAMfront4,,68.8,,true,0,0,0,0,null,0,1,0,brander-desktop,0,0
15:21:04,0,RAMcache,,88.63,,true,0,0,0,0,null,0,1,0,brander-desktop,0,0
15:21:05,0,RAMstatic,,98.0,,true,0,0,0,0,null,0,1,0,brander-desktop,0,0
15:21:07,0,RAMdb,,85.74,,true,0,0,0,0,null,0,1,0,brander-desktop,0,0
15:21:08,0,RAMfront1,,68.2,,true,0,0,0,0,null,0,1,0,brander-desktop,0,0
15:21:09,0,RAMfront2,,58.97,,true,0,0,0,0,null,0,1,0,brander-desktop,0,0
15:21:10,0,RAMfront3,,41.25,,true,0,0,0,0,null,0,1,0,brander-desktop,0,0
15:21:11,0,RAMfront4,,68.7,,true,0,0,0,0,null,0,1,0,brander-desktop,0,0
15:21:12,0,RAMcache,,88.63,,true,0,0,0,0,null,0,1,0,brander-desktop,0,0
15:21:13,0,RAMstatic,,97.96,,true,0,0,0,0,null,0,1,0,brander-desktop,0,0
15:21:14,0,RAMdb,,85.74,,true,0,0,0,0,null,0,1,0,brander-desktop,0,0
15:21:15,0,RAMfront1,,68.69,,true,0,0,0,0,null,0,1,0,brander-desktop,0,0
15:21:17,0,RAMfront2,,59.14,,true,0,0,0,0,null,0,1,0,brander-desktop,0,0
15:21:18,0,RAMfront3,,41.69,,true,0,0,0,0,null,0,1,0,brander-desktop,0,0
15:21:19,0,RAMfront4,,69.16,,true,0,0,0,0,null,0,1,0,brander-desktop,0,0
15:21:20,0,RAMcache,,88.64,,true,0,0,0,0,null,0,1,0,brander-desktop,0,0
15:21:21,0,RAMstatic,,97.97,,true,0,0,0,0,null,0,1,0,brander-desktop,0,0
15:21:22,0,RAMdb,,85.74,,true,0,0,0,0,null,0,1,0,brander-desktop,0,0
15:21:23,0,RAMfront1,,69.47,,true,0,0,0,0,null,0,1,0,brander-desktop,0,0
15:21:25,0,RAMfront2,,59.67,,true,0,0,0,0,null,0,1,0,brander-desktop,0,0
15:21:26,0,RAMfront3,,41.82,,true,0,0,0,0,null,0,1,0,brander-desktop,0,0
15:21:28,0,RAMfront4,,69.49,,true,0,0,0,0,null,0,1,0,brander-desktop,0,0
15:21:29,0,RAMcache,,90.21,,true,0,0,0,0,null,0,1,0,brander-desktop,0,0
15:21:31,0,RAMstatic,,98.05,,true,0,0,0,0,null,0,1,0,brander-desktop,0,0
15:21:32,0,RAMdb,,85.75,,true,0,0,0,0,null,0,1,0,brander-desktop,0,0
15:21:34,0,RAMfront1,,68.95,,true,0,0,0,0,null,0,1,0,brander-desktop,0,0
15:21:36,0,RAMfront2,,59.27,,true,0,0,0,0,null,0,1,0,brander-desktop,0,0
15:21:38,0,RAMfront3,,41.78,,true,0,0,0,0,null,0,1,0,brander-desktop,0,0
15:21:39,0,RAMfront4,,68.96,,true,0,0,0,0,null,0,1,0,brander-desktop,0,0
15:21:41,0,RAMcache,,92.58,,true,0,0,0,0,null,0,1,0,brander-desktop,0,0
15:21:43,0,RAMstatic,,98.03,,true,0,0,0,0,null,0,1,0,brander-desktop,0,0
15:21:44,0,RAMdb,,85.75,,true,0,0,0,0,null,0,1,0,brander-desktop,0,0
15:21:46,0,RAMfront1,,69.01,,true,0,0,0,0,null,0,1,0,brander-desktop,0,0
15:21:48,0,RAMfront2,,58.66,,true,0,0,0,0,null,0,1,0,brander-desktop,0,0
15:21:50,0,RAMfront3,,42.55,,true,0,0,0,0,null,0,1,0,brander-desktop,0,0
15:21:51,0,RAMfront4,,69.91,,true,0,0,0,0,null,0,1,0,brander-desktop,0,0
15:21:53,0,RAMcache,,92.7,,true,0,0,0,0,null,0,1,0,brander-desktop,0,0
15:21:55,0,RAMstatic,,98.22,,true,0,0,0,0,null,0,1,0,brander-desktop,0,0
15:21:57,0,RAMdb,,85.76,,true,0,0,0,0,null,0,1,0,brander-desktop,0,0
15:21:59,0,RAMfront1,,70.44,,true,0,0,0,0,null,0,1,0,brander-desktop,0,0
15:22:01,0,RAMfront2,,59.01,,true,0,0,0,0,null,0,1,0,brander-desktop,0,0
15:22:03,0,RAMfront3,,44.99,,true,0,0,0,0,null,0,1,0,brander-desktop,0,0
15:22:05,0,RAMfront4,,69.81,,true,0,0,0,0,null,0,1,0,brander-desktop,0,0
15:22:06,0,RAMcache,,92.78,,true,0,0,0,0,null,0,1,0,brander-desktop,0,0
15:22:08,0,RAMstatic,,98.36,,true,0,0,0,0,null,0,1,0,brander-desktop,0,0
15:22:10,0,RAMdb,,85.77,,true,0,0,0,0,null,0,1,0,brander-desktop,0,0
15:22:12,0,RAMfront1,,68.73,,true,0,0,0,0,null,0,1,0,brander-desktop,0,0
15:22:14,0,RAMfront2,,58.47,,true,0,0,0,0,null,0,1,0,brander-desktop,0,0
15:22:16,0,RAMfront3,,47.71,,true,0,0,0,0,null,0,1,0,brander-desktop,0,0
15:22:18,0,RAMfront4,,69.18,,true,0,0,0,0,null,0,1,0,brander-desktop,0,0
15:22:21,0,RAMcache,,92.86,,true,0,0,0,0,null,0,1,0,brander-desktop,0,0
15:22:23,0,RAMstatic,,98.5,,true,0,0,0,0,null,0,1,0,brander-desktop,0,0
15:22:25,0,RAMdb,,85.77,,true,0,0,0,0,null,0,1,0,brander-desktop,0,0
15:22:26,0,RAMfront1,,69.62,,true,0,0,0,0,null,0,1,0,brander-desktop,0,0
15:22:28,0,RAMfront2,,59.64,,true,0,0,0,0,null,0,1,0,brander-desktop,0,0
15:22:32,0,RAMfront3,,51.41,,true,0,0,0,0,null,0,1,0,brander-desktop,0,0
15:22:34,0,RAMfront4,,69.28,,true,0,0,0,0,null,0,1,0,brander-desktop,0,0
15:22:36,0,RAMcache,,92.93,,true,0,0,0,0,null,0,1,0,brander-desktop,0,0
15:22:40,0,RAMstatic,,98.62,,true,0,0,0,0,null,0,1,0,brander-desktop,0,0
15:22:42,0,RAMdb,,85.77,,true,0,0,0,0,null,0,1,0,brander-desktop,0,0
15:22:44,0,RAMfront1,,68.42,,true,0,0,0,0,null,0,1,0,brander-desktop,0,0
15:22:46,0,RAMfront2,,58.43,,true,0,0,0,0,null,0,1,0,brander-desktop,0,0
15:22:47,0,RAMfront3,,53.08,,true,0,0,0,0,null,0,1,0,brander-desktop,0,0
15:22:49,0,RAMfront4,,68.94,,true,0,0,0,0,null,0,1,0,brander-desktop,0,0
15:22:51,0,RAMcache,,92.97,,true,0,0,0,0,null,0,1,0,brander-desktop,0,0
15:22:54,0,RAMstatic,,98.55,,true,0,0,0,0,null,0,1,0,brander-desktop,0,0
15:22:56,0,RAMdb,,85.78,,true,0,0,0,0,null,0,1,0,brander-desktop,0,0
15:22:58,0,RAMfront1,,69.41,,true,0,0,0,0,null,0,1,0,brander-desktop,0,0
15:23:00,0,RAMfront2,,59.15,,true,0,0,0,0,null,0,1,0,brander-desktop,0,0
15:23:02,0,RAMfront3,,55.06,,true,0,0,0,0,null,0,1,0,brander-desktop,0,0
15:23:04,0,RAMfront4,,68.79,,true,0,0,0,0,null,0,1,0,brander-desktop,0,0
15:23:06,0,RAMcache,,93.02,,true,0,0,0,0,null,0,1,0,brander-desktop,0,0
15:23:08,0,RAMstatic,,98.51,,true,0,0,0,0,null,0,1,0,brander-desktop,0,0
15:23:10,0,RAMdb,,85.78,,true,0,0,0,0,null,0,1,0,brander-desktop,0,0
15:23:11,0,RAMfront1,,68.94,,true,0,0,0,0,null,0,1,0,brander-desktop,0,0
15:23:13,0,RAMfront2,,58.45,,true,0,0,0,0,null,0,1,0,brander-desktop,0,0
15:23:15,0,RAMfront3,,55.86,,true,0,0,0,0,null,0,1,0,brander-desktop,0,0
15:23:18,0,RAMfront4,,69.94,,true,0,0,0,0,null,0,1,0,brander-desktop,0,0
15:23:20,0,RAMcache,,93.07,,true,0,0,0,0,null,0,1,0,brander-desktop,0,0
15:23:21,0,RAMstatic,,98.56,,true,0,0,0,0,null,0,1,0,brander-desktop,0,0
15:23:23,0,RAMdb,,85.79,,true,0,0,0,0,null,0,1,0,brander-desktop,0,0
15:23:25,0,RAMfront1,,69.32,,true,0,0,0,0,null,0,1,0,brander-desktop,0,0
15:23:27,0,RAMfront2,,59.03,,true,0,0,0,0,null,0,1,0,brander-desktop,0,0
15:23:29,0,RAMfront3,,57.71,,true,0,0,0,0,null,0,1,0,brander-desktop,0,0
15:23:31,0,RAMfront4,,70.1,,true,0,0,0,0,null,0,1,0,brander-desktop,0,0
15:23:33,0,RAMcache,,93.09,,true,0,0,0,0,null,0,1,0,brander-desktop,0,0
15:23:34,0,RAMstatic,,98.47,,true,0,0,0,0,null,0,1,0,brander-desktop,0,0
15:23:36,0,RAMdb,,85.79,,true,0,0,0,0,null,0,1,0,brander-desktop,0,0
15:23:38,0,RAMfront1,,69.89,,true,0,0,0,0,null,0,1,0,brander-desktop,0,0
15:23:40,0,RAMfront2,,58.78,,true,0,0,0,0,null,0,1,0,brander-desktop,0,0
15:23:42,0,RAMfront3,,59.65,,true,0,0,0,0,null,0,1,0,brander-desktop,0,0
15:23:44,0,RAMfront4,,69.89,,true,0,0,0,0,null,0,1,0,brander-desktop,0,0
15:23:46,0,RAMcache,,93.14,,true,0,0,0,0,null,0,1,0,brander-desktop,0,0
15:23:47,0,RAMstatic,,98.48,,true,0,0,0,0,null,0,1,0,brander-desktop,0,0
15:23:49,0,RAMdb,,85.8,,true,0,0,0,0,null,0,1,0,brander-desktop,0,0
15:23:51,0,RAMfront1,,69.96,,true,0,0,0,0,null,0,1,0,brander-desktop,0,0
15:23:53,0,RAMfront2,,59.84,,true,0,0,0,0,null,0,1,0,brander-desktop,0,0
15:23:55,0,RAMfront3,,64.04,,true,0,0,0,0,null,0,1,0,brander-desktop,0,0
15:23:57,0,RAMfront4,,70.18,,true,0,0,0,0,null,0,1,0,brander-desktop,0,0
15:23:58,0,RAMcache,,93.18,,true,0,0,0,0,null,0,1,0,brander-desktop,0,0
15:24:00,0,RAMstatic,,98.59,,true,0,0,0,0,null,0,1,0,brander-desktop,0,0
15:24:02,0,RAMdb,,85.81,,true,0,0,0,0,null,0,1,0,brander-desktop,0,0
15:24:04,0,RAMfront1,,69.7,,true,0,0,0,0,null,0,1,0,brander-desktop,0,0
15:24:06,0,RAMfront2,,59.78,,true,0,0,0,0,null,0,1,0,brander-desktop,0,0
15:24:07,0,RAMfront3,,67.43,,true,0,0,0,0,null,0,1,0,brander-desktop,0,0
15:24:09,0,RAMfront4,,69.8,,true,0,0,0,0,null,0,1,0,brander-desktop,0,0
15:24:11,0,RAMcache,,93.21,,true,0,0,0,0,null,0,1,0,brander-desktop,0,0
15:24:13,0,RAMstatic,,98.66,,true,0,0,0,0,null,0,1,0,brander-desktop,0,0
15:24:15,0,RAMdb,,85.81,,true,0,0,0,0,null,0,1,0,brander-desktop,0,0
15:24:18,0,RAMfront1,,69.55,,true,0,0,0,0,null,0,1,0,brander-desktop,0,0
15:24:20,0,RAMfront2,,59.82,,true,0,0,0,0,null,0,1,0,brander-desktop,0,0
15:24:22,0,RAMfront3,,70.31,,true,0,0,0,0,null,0,1,0,brander-desktop,0,0
15:24:24,0,RAMfront4,,69.93,,true,0,0,0,0,null,0,1,0,brander-desktop,0,0
15:24:26,0,RAMcache,,93.24,,true,0,0,0,0,null,0,1,0,brander-desktop,0,0
15:24:28,0,RAMstatic,,98.79,,true,0,0,0,0,null,0,1,0,brander-desktop,0,0
15:24:30,0,RAMdb,,85.82,,true,0,0,0,0,null,0,1,0,brander-desktop,0,0
15:24:32,0,RAMfront1,,69.02,,true,0,0,0,0,null,0,1,0,brander-desktop,0,0
15:24:34,0,RAMfront2,,60.55,,true,0,0,0,0,null,0,1,0,brander-desktop,0,0
15:24:36,0,RAMfront3,,73.17,,true,0,0,0,0,null,0,1,0,brander-desktop,0,0
15:24:38,0,RAMfront4,,69.49,,true,0,0,0,0,null,0,1,0,brander-desktop,0,0
15:24:41,0,RAMcache,,93.28,,true,0,0,0,0,null,0,1,0,brander-desktop,0,0
15:24:43,0,RAMstatic,,99.03,,true,0,0,0,0,null,0,1,0,brander-desktop,0,0
15:24:46,0,RAMdb,,85.83,,true,0,0,0,0,null,0,1,0,brander-desktop,0,0
15:24:48,0,RAMfront1,,69.67,,true,0,0,0,0,null,0,1,0,brander-desktop,0,0
15:24:50,0,RAMfront2,,59.41,,true,0,0,0,0,null,0,1,0,brander-desktop,0,0
15:24:53,0,RAMfront3,,76.24,,true,0,0,0,0,null,0,1,0,brander-desktop,0,0
15:24:57,0,RAMfront4,,70.68,,true,0,0,0,0,null,0,1,0,brander-desktop,0,0
15:24:59,0,RAMcache,,93.33,,true,0,0,0,0,null,0,1,0,brander-desktop,0,0
15:25:00,0,RAMstatic,,98.45,,true,0,0,0,0,null,0,1,0,brander-desktop,0,0
15:25:02,0,RAMdb,,85.84,,true,0,0,0,0,null,0,1,0,brander-desktop,0,0
15:25:04,0,RAMfront1,,69.36,,true,0,0,0,0,null,0,1,0,brander-desktop,0,0
15:25:06,0,RAMfront2,,59.71,,true,0,0,0,0,null,0,1,0,brander-desktop,0,0
15:25:09,0,RAMfront3,,79.66,,true,0,0,0,0,null,0,1,0,brander-desktop,0,0
15:25:11,0,RAMfront4,,69.58,,true,0,0,0,0,null,0,1,0,brander-desktop,0,0
15:25:13,0,RAMcache,,93.36,,true,0,0,0,0,null,0,1,0,brander-desktop,0,0
15:25:15,0,RAMstatic,,98.45,,true,0,0,0,0,null,0,1,0,brander-desktop,0,0
15:25:18,0,RAMdb,,85.85,,true,0,0,0,0,null,0,1,0,brander-desktop,0,0
15:25:20,0,RAMfront1,,69.35,,true,0,0,0,0,null,0,1,0,brander-desktop,0,0
15:25:22,0,RAMfront2,,60.37,,true,0,0,0,0,null,0,1,0,brander-desktop,0,0
15:25:25,0,RAMfront3,,83.18,,true,0,0,0,0,null,0,1,0,brander-desktop,0,0
15:25:27,0,RAMfront4,,71.31,,true,0,0,0,0,null,0,1,0,brander-desktop,0,0
15:25:30,0,RAMcache,,93.39,,true,0,0,0,0,null,0,1,0,brander-desktop,0,0
15:25:31,0,RAMstatic,,98.49,,true,0,0,0,0,null,0,1,0,brander-desktop,0,0
15:25:33,0,RAMdb,,85.86,,true,0,0,0,0,null,0,1,0,brander-desktop,0,0
15:25:35,0,RAMfront1,,70.07,,true,0,0,0,0,null,0,1,0,brander-desktop,0,0
15:25:37,0,RAMfront2,,59.68,,true,0,0,0,0,null,0,1,0,brander-desktop,0,0
15:25:40,0,RAMfront3,,84.38,,true,0,0,0,0,null,0,1,0,brander-desktop,0,0
15:25:42,0,RAMfront4,,70.5,,true,0,0,0,0,null,0,1,0,brander-desktop,0,0
15:25:44,0,RAMcache,,88.86,,true,0,0,0,0,null,0,1,0,brander-desktop,0,0
15:25:46,0,RAMstatic,,98.43,,true,0,0,0,0,null,0,1,0,brander-desktop,0,0
15:25:48,0,RAMdb,,85.86,,true,0,0,0,0,null,0,1,0,brander-desktop,0,0
15:25:50,0,RAMfront1,,70.12,,true,0,0,0,0,null,0,1,0,brander-desktop,0,0
15:25:52,0,RAMfront2,,60.4,,true,0,0,0,0,null,0,1,0,brander-desktop,0,0
15:25:54,0,RAMfront3,,89.18,,true,0,0,0,0,null,0,1,0,brander-desktop,0,0
15:25:56,0,RAMfront4,,70.05,,true,0,0,0,0,null,0,1,0,brander-desktop,0,0
15:25:59,0,RAMcache,,88.87,,true,0,0,0,0,null,0,1,0,brander-desktop,0,0
15:26:01,0,RAMstatic,,98.43,,true,0,0,0,0,null,0,1,0,brander-desktop,0,0
15:26:04,0,RAMdb,,85.87,,true,0,0,0,0,null,0,1,0,brander-desktop,0,0
15:26:06,0,RAMfront1,,69.49,,true,0,0,0,0,null,0,1,0,brander-desktop,0,0
15:26:08,0,RAMfront2,,60.59,,true,0,0,0,0,null,0,1,0,brander-desktop,0,0
15:26:10,0,RAMfront3,,92.01,,true,0,0,0,0,null,0,1,0,brander-desktop,0,0
15:26:11,0,RAMfront4,,70.94,,true,0,0,0,0,null,0,1,0,brander-desktop,0,0
15:26:14,0,RAMcache,,88.88,,true,0,0,0,0,null,0,1,0,brander-desktop,0,0
15:26:21,0,RAMstatic,,98.43,,true,0,0,0,0,null,0,1,0,brander-desktop,0,0
15:26:44,0,RAMdb,,85.87,,true,0,0,0,0,null,0,1,0,brander-desktop,0,0
15:27:05,0,RAMfront1,,68.62,,true,0,0,0,0,null,0,1,0,brander-desktop,0,0
15:27:06,0,RAMfront2,,61.48,,true,0,0,0,0,null,0,1,0,brander-desktop,0,0
15:27:07,0,RAMfront3,,91.37,,true,0,0,0,0,null,0,1,0,brander-desktop,0,0
15:27:09,0,RAMfront4,,73.26,,true,0,0,0,0,null,0,1,0,brander-desktop,0,0
15:27:10,0,RAMcache,,93.1,,true,0,0,0,0,null,0,1,0,brander-desktop,0,0
15:27:12,0,RAMstatic,,97.93,,true,0,0,0,0,null,0,1,0,brander-desktop,0,0
15:27:13,0,RAMdb,,85.88,,true,0,0,0,0,null,0,1,0,brander-desktop,0,0
15:27:15,0,RAMfront1,,87.3,,true,0,0,0,0,null,0,1,0,brander-desktop,0,0
15:27:17,0,RAMfront2,,79.19,,true,0,0,0,0,null,0,1,0,brander-desktop,0,0
15:27:19,0,RAMfront3,,94.8,,true,0,0,0,0,null,0,1,0,brander-desktop,0,0
15:27:21,0,RAMfront4,,83.69,,true,0,0,0,0,null,0,1,0,brander-desktop,0,0
15:27:23,0,RAMcache,,93.27,,true,0,0,0,0,null,0,1,0,brander-desktop,0,0
15:27:25,0,RAMstatic,,98.5,,true,0,0,0,0,null,0,1,0,brander-desktop,0,0
15:27:27,0,RAMdb,,85.79,,true,0,0,0,0,null,0,1,0,brander-desktop,0,0
15:27:29,0,RAMfront1,,82.98,,true,0,0,0,0,null,0,1,0,brander-desktop,0,0
15:27:31,0,RAMfront2,,74.56,,true,0,0,0,0,null,0,1,0,brander-desktop,0,0
15:27:33,0,RAMfront3,,94.02,,true,0,0,0,0,null,0,1,0,brander-desktop,0,0
15:27:34,0,RAMfront4,,80.09,,true,0,0,0,0,null,0,1,0,brander-desktop,0,0
15:27:37,0,RAMcache,,93.33,,true,0,0,0,0,null,0,1,0,brander-desktop,0,0
15:27:39,0,RAMstatic,,98.4,,true,0,0,0,0,null,0,1,0,brander-desktop,0,0
15:27:41,0,RAMdb,,85.67,,true,0,0,0,0,null,0,1,0,brander-desktop,0,0
15:27:42,0,RAMfront1,,81.48,,true,0,0,0,0,null,0,1,0,brander-desktop,0,0
15:27:44,0,RAMfront2,,71.89,,true,0,0,0,0,null,0,1,0,brander-desktop,0,0
15:27:46,0,RAMfront3,,94.69,,true,0,0,0,0,null,0,1,0,brander-desktop,0,0
15:27:48,0,RAMfront4,,77.04,,true,0,0,0,0,null,0,1,0,brander-desktop,0,0
15:27:50,0,RAMcache,,93.36,,true,0,0,0,0,null,0,1,0,brander-desktop,0,0
15:27:51,0,RAMstatic,,97.98,,true,0,0,0,0,null,0,1,0,brander-desktop,0,0
15:27:53,0,RAMdb,,85.64,,true,0,0,0,0,null,0,1,0,brander-desktop,0,0
15:27:55,0,RAMfront1,,79.5,,true,0,0,0,0,null,0,1,0,brander-desktop,0,0
15:27:57,0,RAMfront2,,69.78,,true,0,0,0,0,null,0,1,0,brander-desktop,0,0
15:27:59,0,RAMfront3,,96.48,,true,0,0,0,0,null,0,1,0,brander-desktop,0,0
15:28:00,0,RAMfront4,,75.74,,true,0,0,0,0,null,0,1,0,brander-desktop,0,0
15:28:02,0,RAMcache,,93.39,,true,0,0,0,0,null,0,1,0,brander-desktop,0,0
15:28:03,0,RAMstatic,,97.82,,true,0,0,0,0,null,0,1,0,brander-desktop,0,0
15:28:05,0,RAMdb,,85.65,,true,0,0,0,0,null,0,1,0,brander-desktop,0,0
15:28:06,0,RAMfront1,,79.29,,true,0,0,0,0,null,0,1,0,brander-desktop,0,0
15:28:08,0,RAMfront2,,71.35,,true,0,0,0,0,null,0,1,0,brander-desktop,0,0
15:28:10,0,RAMfront3,,96.84,,true,0,0,0,0,null,0,1,0,brander-desktop,0,0
15:28:12,0,RAMfront4,,81.77,,true,0,0,0,0,null,0,1,0,brander-desktop,0,0
15:28:14,0,RAMcache,,93.4,,true,0,0,0,0,null,0,1,0,brander-desktop,0,0
15:28:16,0,RAMstatic,,98.21,,true,0,0,0,0,null,0,1,0,brander-desktop,0,0
15:28:18,0,RAMdb,,85.66,,true,0,0,0,0,null,0,1,0,brander-desktop,0,0
15:28:20,0,RAMfront1,,83.54,,true,0,0,0,0,null,0,1,0,brander-desktop,0,0
15:28:23,0,RAMfront2,,76.73,,true,0,0,0,0,null,0,1,0,brander-desktop,0,0
15:28:25,0,RAMfront3,,99.09,,true,0,0,0,0,null,0,1,0,brander-desktop,0,0
15:28:27,0,RAMfront4,,80.82,,true,0,0,0,0,null,0,1,0,brander-desktop,0,0
15:28:29,0,RAMcache,,93.58,,true,0,0,0,0,null,0,1,0,brander-desktop,0,0
