timeStamp,elapsed,label,responseCode,responseMessage,threadName,success,bytes,sentBytes,grpThreads,allThreads,URL,Latency,SampleCount,ErrorCount,Hostname,IdleTime,Connect
19:15:02,0,I/Ostatic,,0.0,,true,0,0,0,0,null,0,1,0,brander-desktop,0,0
19:15:03,0,I/Odb,,0.0,,true,0,0,0,0,null,0,1,0,brander-desktop,0,0
19:15:05,0,I/Ofront1,,0.0,,true,0,0,0,0,null,0,1,0,brander-desktop,0,0
19:15:06,0,I/Ostatic,,0.0,,true,0,0,0,0,null,0,1,0,brander-desktop,0,0
19:15:07,0,I/Odb,,8.0,,true,0,0,0,0,null,0,1,0,brander-desktop,0,0
19:15:08,0,I/Ofront1,,0.0,,true,0,0,0,0,null,0,1,0,brander-desktop,0,0
19:15:09,0,I/Ostatic,,2.0,,true,0,0,0,0,null,0,1,0,brander-desktop,0,0
19:15:10,0,I/Odb,,3.0,,true,0,0,0,0,null,0,1,0,brander-desktop,0,0
19:15:12,0,I/Ofront1,,0.0,,true,0,0,0,0,null,0,1,0,brander-desktop,0,0
19:15:13,0,I/Ostatic,,0.0,,true,0,0,0,0,null,0,1,0,brander-desktop,0,0
19:15:14,0,I/Odb,,0.0,,true,0,0,0,0,null,0,1,0,brander-desktop,0,0
19:15:15,0,I/Ofront1,,0.0,,true,0,0,0,0,null,0,1,0,brander-desktop,0,0
19:15:16,0,I/Ostatic,,0.0,,true,0,0,0,0,null,0,1,0,brander-desktop,0,0
19:15:17,0,I/Odb,,0.0,,true,0,0,0,0,null,0,1,0,brander-desktop,0,0
19:15:18,0,I/Ofront1,,0.0,,true,0,0,0,0,null,0,1,0,brander-desktop,0,0
19:15:19,0,I/Ostatic,,0.0,,true,0,0,0,0,null,0,1,0,brander-desktop,0,0
19:15:20,0,I/Odb,,0.0,,true,0,0,0,0,null,0,1,0,brander-desktop,0,0
19:15:21,0,I/Ofront1,,0.0,,true,0,0,0,0,null,0,1,0,brander-desktop,0,0
19:15:22,0,I/Ostatic,,0.0,,true,0,0,0,0,null,0,1,0,brander-desktop,0,0
19:15:23,0,I/Odb,,0.0,,true,0,0,0,0,null,0,1,0,brander-desktop,0,0
19:15:25,0,I/Ofront1,,0.0,,true,0,0,0,0,null,0,1,0,brander-desktop,0,0
19:15:26,0,I/Ostatic,,0.0,,true,0,0,0,0,null,0,1,0,brander-desktop,0,0
19:15:27,0,I/Odb,,0.0,,true,0,0,0,0,null,0,1,0,brander-desktop,0,0
19:15:28,0,I/Ofront1,,0.0,,true,0,0,0,0,null,0,1,0,brander-desktop,0,0
19:15:29,0,I/Ostatic,,0.0,,true,0,0,0,0,null,0,1,0,brander-desktop,0,0
19:15:30,0,I/Odb,,0.0,,true,0,0,0,0,null,0,1,0,brander-desktop,0,0
19:15:31,0,I/Ofront1,,1.0,,true,0,0,0,0,null,0,1,0,brander-desktop,0,0
19:15:32,0,I/Ostatic,,0.0,,true,0,0,0,0,null,0,1,0,brander-desktop,0,0
19:15:33,0,I/Odb,,3.0,,true,0,0,0,0,null,0,1,0,brander-desktop,0,0
19:15:34,0,I/Ofront1,,0.0,,true,0,0,0,0,null,0,1,0,brander-desktop,0,0
19:15:35,0,I/Ostatic,,0.0,,true,0,0,0,0,null,0,1,0,brander-desktop,0,0
19:15:36,0,I/Odb,,3.0,,true,0,0,0,0,null,0,1,0,brander-desktop,0,0
19:15:38,0,I/Ofront1,,0.0,,true,0,0,0,0,null,0,1,0,brander-desktop,0,0
19:15:39,0,I/Ostatic,,0.0,,true,0,0,0,0,null,0,1,0,brander-desktop,0,0
19:15:40,0,I/Odb,,0.0,,true,0,0,0,0,null,0,1,0,brander-desktop,0,0
19:15:41,0,I/Ofront1,,0.0,,true,0,0,0,0,null,0,1,0,brander-desktop,0,0
19:15:42,0,I/Ostatic,,0.0,,true,0,0,0,0,null,0,1,0,brander-desktop,0,0
19:15:43,0,I/Odb,,0.0,,true,0,0,0,0,null,0,1,0,brander-desktop,0,0
19:15:44,0,I/Ofront1,,0.0,,true,0,0,0,0,null,0,1,0,brander-desktop,0,0
19:15:45,0,I/Ostatic,,0.0,,true,0,0,0,0,null,0,1,0,brander-desktop,0,0
19:15:46,0,I/Odb,,0.0,,true,0,0,0,0,null,0,1,0,brander-desktop,0,0
19:15:47,0,I/Ofront1,,0.0,,true,0,0,0,0,null,0,1,0,brander-desktop,0,0
19:15:48,0,I/Ostatic,,0.0,,true,0,0,0,0,null,0,1,0,brander-desktop,0,0
19:15:49,0,I/Odb,,3.0,,true,0,0,0,0,null,0,1,0,brander-desktop,0,0
19:15:51,0,I/Ofront1,,0.0,,true,0,0,0,0,null,0,1,0,brander-desktop,0,0
19:15:52,0,I/Ostatic,,0.0,,true,0,0,0,0,null,0,1,0,brander-desktop,0,0
19:15:53,0,I/Odb,,0.0,,true,0,0,0,0,null,0,1,0,brander-desktop,0,0
19:15:54,0,I/Ofront1,,0.0,,true,0,0,0,0,null,0,1,0,brander-desktop,0,0
19:15:55,0,I/Ostatic,,0.0,,true,0,0,0,0,null,0,1,0,brander-desktop,0,0
19:15:56,0,I/Odb,,0.0,,true,0,0,0,0,null,0,1,0,brander-desktop,0,0
19:15:57,0,I/Ofront1,,0.0,,true,0,0,0,0,null,0,1,0,brander-desktop,0,0
19:15:58,0,I/Ostatic,,0.0,,true,0,0,0,0,null,0,1,0,brander-desktop,0,0
19:15:59,0,I/Odb,,0.0,,true,0,0,0,0,null,0,1,0,brander-desktop,0,0
19:16:00,0,I/Ofront1,,8.0,,true,0,0,0,0,null,0,1,0,brander-desktop,0,0
19:16:01,0,I/Ostatic,,0.0,,true,0,0,0,0,null,0,1,0,brander-desktop,0,0
19:16:02,0,I/Odb,,0.0,,true,0,0,0,0,null,0,1,0,brander-desktop,0,0
19:16:04,0,I/Ofront1,,0.0,,true,0,0,0,0,null,0,1,0,brander-desktop,0,0
19:16:05,0,I/Ostatic,,0.0,,true,0,0,0,0,null,0,1,0,brander-desktop,0,0
19:16:06,0,I/Odb,,2.0,,true,0,0,0,0,null,0,1,0,brander-desktop,0,0
19:16:07,0,I/Ofront1,,0.0,,true,0,0,0,0,null,0,1,0,brander-desktop,0,0
19:16:08,0,I/Ostatic,,0.0,,true,0,0,0,0,null,0,1,0,brander-desktop,0,0
19:16:09,0,I/Odb,,0.0,,true,0,0,0,0,null,0,1,0,brander-desktop,0,0
19:16:10,0,I/Ofront1,,0.0,,true,0,0,0,0,null,0,1,0,brander-desktop,0,0
19:16:11,0,I/Ostatic,,0.0,,true,0,0,0,0,null,0,1,0,brander-desktop,0,0
19:16:12,0,I/Odb,,139.6,,true,0,0,0,0,null,0,1,0,brander-desktop,0,0
19:16:13,0,I/Ofront1,,0.0,,true,0,0,0,0,null,0,1,0,brander-desktop,0,0
19:16:15,0,I/Ostatic,,0.0,,true,0,0,0,0,null,0,1,0,brander-desktop,0,0
19:16:16,0,I/Odb,,2.0,,true,0,0,0,0,null,0,1,0,brander-desktop,0,0
19:16:17,0,I/Ofront1,,0.0,,true,0,0,0,0,null,0,1,0,brander-desktop,0,0
19:16:18,0,I/Ostatic,,0.0,,true,0,0,0,0,null,0,1,0,brander-desktop,0,0
19:16:19,0,I/Odb,,0.0,,true,0,0,0,0,null,0,1,0,brander-desktop,0,0
19:16:20,0,I/Ofront1,,0.0,,true,0,0,0,0,null,0,1,0,brander-desktop,0,0
19:16:21,0,I/Ostatic,,0.0,,true,0,0,0,0,null,0,1,0,brander-desktop,0,0
19:16:22,0,I/Odb,,2.0,,true,0,0,0,0,null,0,1,0,brander-desktop,0,0
19:16:23,0,I/Ofront1,,0.0,,true,0,0,0,0,null,0,1,0,brander-desktop,0,0
19:16:25,0,I/Ostatic,,7.0,,true,0,0,0,0,null,0,1,0,brander-desktop,0,0
19:16:26,0,I/Odb,,3.0,,true,0,0,0,0,null,0,1,0,brander-desktop,0,0
19:16:27,0,I/Ofront1,,0.0,,true,0,0,0,0,null,0,1,0,brander-desktop,0,0
19:16:28,0,I/Ostatic,,0.0,,true,0,0,0,0,null,0,1,0,brander-desktop,0,0
19:16:29,0,I/Odb,,3.0,,true,0,0,0,0,null,0,1,0,brander-desktop,0,0
19:16:30,0,I/Ofront1,,0.0,,true,0,0,0,0,null,0,1,0,brander-desktop,0,0
19:16:31,0,I/Ostatic,,0.0,,true,0,0,0,0,null,0,1,0,brander-desktop,0,0
19:16:32,0,I/Odb,,38.0,,true,0,0,0,0,null,0,1,0,brander-desktop,0,0
19:16:33,0,I/Ofront1,,0.0,,true,0,0,0,0,null,0,1,0,brander-desktop,0,0
19:16:34,0,I/Ostatic,,1.0,,true,0,0,0,0,null,0,1,0,brander-desktop,0,0
19:16:35,0,I/Odb,,34.0,,true,0,0,0,0,null,0,1,0,brander-desktop,0,0
19:16:36,0,I/Ofront1,,0.0,,true,0,0,0,0,null,0,1,0,brander-desktop,0,0
19:16:38,0,I/Ostatic,,0.0,,true,0,0,0,0,null,0,1,0,brander-desktop,0,0
19:16:39,0,I/Odb,,10.0,,true,0,0,0,0,null,0,1,0,brander-desktop,0,0
19:16:40,0,I/Ofront1,,0.0,,true,0,0,0,0,null,0,1,0,brander-desktop,0,0
19:16:41,0,I/Ostatic,,0.0,,true,0,0,0,0,null,0,1,0,brander-desktop,0,0
19:16:42,0,I/Odb,,3.0,,true,0,0,0,0,null,0,1,0,brander-desktop,0,0
19:16:43,0,I/Ofront1,,0.0,,true,0,0,0,0,null,0,1,0,brander-desktop,0,0
19:16:44,0,I/Ostatic,,2.0,,true,0,0,0,0,null,0,1,0,brander-desktop,0,0
19:16:45,0,I/Odb,,3.0,,true,0,0,0,0,null,0,1,0,brander-desktop,0,0
19:16:46,0,I/Ofront1,,0.0,,true,0,0,0,0,null,0,1,0,brander-desktop,0,0
19:16:47,0,I/Ostatic,,0.0,,true,0,0,0,0,null,0,1,0,brander-desktop,0,0
19:16:48,0,I/Odb,,3.0,,true,0,0,0,0,null,0,1,0,brander-desktop,0,0
19:16:49,0,I/Ofront1,,0.0,,true,0,0,0,0,null,0,1,0,brander-desktop,0,0
19:16:51,0,I/Ostatic,,0.0,,true,0,0,0,0,null,0,1,0,brander-desktop,0,0
19:16:52,0,I/Odb,,2.0,,true,0,0,0,0,null,0,1,0,brander-desktop,0,0
19:16:53,0,I/Ofront1,,0.0,,true,0,0,0,0,null,0,1,0,brander-desktop,0,0
19:16:54,0,I/Ostatic,,1.0,,true,0,0,0,0,null,0,1,0,brander-desktop,0,0
19:16:55,0,I/Odb,,2.0,,true,0,0,0,0,null,0,1,0,brander-desktop,0,0
19:16:56,0,I/Ofront1,,7.0,,true,0,0,0,0,null,0,1,0,brander-desktop,0,0
19:16:57,0,I/Ostatic,,0.0,,true,0,0,0,0,null,0,1,0,brander-desktop,0,0
19:16:58,0,I/Odb,,82.0,,true,0,0,0,0,null,0,1,0,brander-desktop,0,0
19:16:59,0,I/Ofront1,,0.0,,true,0,0,0,0,null,0,1,0,brander-desktop,0,0
19:17:00,0,I/Ostatic,,0.0,,true,0,0,0,0,null,0,1,0,brander-desktop,0,0
19:17:01,0,I/Odb,,3.0,,true,0,0,0,0,null,0,1,0,brander-desktop,0,0
19:17:03,0,I/Ofront1,,0.0,,true,0,0,0,0,null,0,1,0,brander-desktop,0,0
19:17:04,0,I/Ostatic,,0.0,,true,0,0,0,0,null,0,1,0,brander-desktop,0,0
19:17:05,0,I/Odb,,2.0,,true,0,0,0,0,null,0,1,0,brander-desktop,0,0
19:17:06,0,I/Ofront1,,0.0,,true,0,0,0,0,null,0,1,0,brander-desktop,0,0
19:17:07,0,I/Ostatic,,0.0,,true,0,0,0,0,null,0,1,0,brander-desktop,0,0
19:17:08,0,I/Odb,,17.0,,true,0,0,0,0,null,0,1,0,brander-desktop,0,0
19:17:09,0,I/Ofront1,,0.0,,true,0,0,0,0,null,0,1,0,brander-desktop,0,0
19:17:10,0,I/Ostatic,,0.0,,true,0,0,0,0,null,0,1,0,brander-desktop,0,0
19:17:11,0,I/Odb,,2.0,,true,0,0,0,0,null,0,1,0,brander-desktop,0,0
19:17:12,0,I/Ofront1,,0.0,,true,0,0,0,0,null,0,1,0,brander-desktop,0,0
19:17:13,0,I/Ostatic,,0.0,,true,0,0,0,0,null,0,1,0,brander-desktop,0,0
19:17:15,0,I/Odb,,2.0,,true,0,0,0,0,null,0,1,0,brander-desktop,0,0
19:17:16,0,I/Ofront1,,0.0,,true,0,0,0,0,null,0,1,0,brander-desktop,0,0
19:17:17,0,I/Ostatic,,0.0,,true,0,0,0,0,null,0,1,0,brander-desktop,0,0
19:17:18,0,I/Odb,,2.0,,true,0,0,0,0,null,0,1,0,brander-desktop,0,0
19:17:19,0,I/Ofront1,,0.0,,true,0,0,0,0,null,0,1,0,brander-desktop,0,0
19:17:20,0,I/Ostatic,,0.0,,true,0,0,0,0,null,0,1,0,brander-desktop,0,0
19:17:21,0,I/Odb,,4.0,,true,0,0,0,0,null,0,1,0,brander-desktop,0,0
19:17:22,0,I/Ofront1,,0.0,,true,0,0,0,0,null,0,1,0,brander-desktop,0,0
19:17:23,0,I/Ostatic,,0.0,,true,0,0,0,0,null,0,1,0,brander-desktop,0,0
19:17:24,0,I/Odb,,2.0,,true,0,0,0,0,null,0,1,0,brander-desktop,0,0
19:17:26,0,I/Ofront1,,0.0,,true,0,0,0,0,null,0,1,0,brander-desktop,0,0
19:17:27,0,I/Ostatic,,0.0,,true,0,0,0,0,null,0,1,0,brander-desktop,0,0
19:17:28,0,I/Odb,,2.0,,true,0,0,0,0,null,0,1,0,brander-desktop,0,0
19:17:29,0,I/Ofront1,,0.0,,true,0,0,0,0,null,0,1,0,brander-desktop,0,0
19:17:30,0,I/Ostatic,,0.0,,true,0,0,0,0,null,0,1,0,brander-desktop,0,0
19:17:31,0,I/Odb,,2.0,,true,0,0,0,0,null,0,1,0,brander-desktop,0,0
19:17:32,0,I/Ofront1,,0.0,,true,0,0,0,0,null,0,1,0,brander-desktop,0,0
19:17:33,0,I/Ostatic,,0.0,,true,0,0,0,0,null,0,1,0,brander-desktop,0,0
19:17:34,0,I/Odb,,2.0,,true,0,0,0,0,null,0,1,0,brander-desktop,0,0
19:17:36,0,I/Ofront1,,0.0,,true,0,0,0,0,null,0,1,0,brander-desktop,0,0
19:17:37,0,I/Ostatic,,0.0,,true,0,0,0,0,null,0,1,0,brander-desktop,0,0
19:17:38,0,I/Odb,,2.0,,true,0,0,0,0,null,0,1,0,brander-desktop,0,0
19:17:39,0,I/Ofront1,,0.0,,true,0,0,0,0,null,0,1,0,brander-desktop,0,0
19:17:40,0,I/Ostatic,,0.0,,true,0,0,0,0,null,0,1,0,brander-desktop,0,0
19:17:41,0,I/Odb,,3.0,,true,0,0,0,0,null,0,1,0,brander-desktop,0,0
19:17:42,0,I/Ofront1,,0.0,,true,0,0,0,0,null,0,1,0,brander-desktop,0,0
19:17:43,0,I/Ostatic,,0.0,,true,0,0,0,0,null,0,1,0,brander-desktop,0,0
19:17:44,0,I/Odb,,3.0,,true,0,0,0,0,null,0,1,0,brander-desktop,0,0
19:17:45,0,I/Ofront1,,0.0,,true,0,0,0,0,null,0,1,0,brander-desktop,0,0
19:17:47,0,I/Ostatic,,0.0,,true,0,0,0,0,null,0,1,0,brander-desktop,0,0
19:17:48,0,I/Odb,,2.0,,true,0,0,0,0,null,0,1,0,brander-desktop,0,0
19:17:49,0,I/Ofront1,,0.0,,true,0,0,0,0,null,0,1,0,brander-desktop,0,0
19:17:50,0,I/Ostatic,,0.0,,true,0,0,0,0,null,0,1,0,brander-desktop,0,0
19:17:52,0,I/Odb,,2.0,,true,0,0,0,0,null,0,1,0,brander-desktop,0,0
19:17:53,0,I/Ofront1,,0.0,,true,0,0,0,0,null,0,1,0,brander-desktop,0,0
19:17:54,0,I/Ostatic,,2.0,,true,0,0,0,0,null,0,1,0,brander-desktop,0,0
19:17:55,0,I/Odb,,2.0,,true,0,0,0,0,null,0,1,0,brander-desktop,0,0
19:17:56,0,I/Ofront1,,6.0,,true,0,0,0,0,null,0,1,0,brander-desktop,0,0
19:17:58,0,I/Ostatic,,0.0,,true,0,0,0,0,null,0,1,0,brander-desktop,0,0
19:17:59,0,I/Odb,,2.0,,true,0,0,0,0,null,0,1,0,brander-desktop,0,0
19:18:00,0,I/Ofront1,,0.0,,true,0,0,0,0,null,0,1,0,brander-desktop,0,0
19:18:02,0,I/Ostatic,,0.0,,true,0,0,0,0,null,0,1,0,brander-desktop,0,0
19:18:03,0,I/Odb,,106.0,,true,0,0,0,0,null,0,1,0,brander-desktop,0,0
19:18:04,0,I/Ofront1,,0.0,,true,0,0,0,0,null,0,1,0,brander-desktop,0,0
19:18:06,0,I/Ostatic,,0.0,,true,0,0,0,0,null,0,1,0,brander-desktop,0,0
19:18:07,0,I/Odb,,121.0,,true,0,0,0,0,null,0,1,0,brander-desktop,0,0
19:18:08,0,I/Ofront1,,0.0,,true,0,0,0,0,null,0,1,0,brander-desktop,0,0
19:18:09,0,I/Ostatic,,11.0,,true,0,0,0,0,null,0,1,0,brander-desktop,0,0
19:18:10,0,I/Odb,,4.0,,true,0,0,0,0,null,0,1,0,brander-desktop,0,0
19:18:11,0,I/Ofront1,,0.0,,true,0,0,0,0,null,0,1,0,brander-desktop,0,0
19:18:13,0,I/Ostatic,,0.0,,true,0,0,0,0,null,0,1,0,brander-desktop,0,0
19:18:14,0,I/Odb,,2.0,,true,0,0,0,0,null,0,1,0,brander-desktop,0,0
19:18:15,0,I/Ofront1,,0.0,,true,0,0,0,0,null,0,1,0,brander-desktop,0,0
19:18:16,0,I/Ostatic,,7.0,,true,0,0,0,0,null,0,1,0,brander-desktop,0,0
19:18:17,0,I/Odb,,2.0,,true,0,0,0,0,null,0,1,0,brander-desktop,0,0
19:18:18,0,I/Ofront1,,0.0,,true,0,0,0,0,null,0,1,0,brander-desktop,0,0
19:18:19,0,I/Ostatic,,0.0,,true,0,0,0,0,null,0,1,0,brander-desktop,0,0
19:18:21,0,I/Odb,,2.0,,true,0,0,0,0,null,0,1,0,brander-desktop,0,0
19:18:22,0,I/Ofront1,,0.0,,true,0,0,0,0,null,0,1,0,brander-desktop,0,0
19:18:23,0,I/Ostatic,,4.0,,true,0,0,0,0,null,0,1,0,brander-desktop,0,0
19:18:24,0,I/Odb,,2.0,,true,0,0,0,0,null,0,1,0,brander-desktop,0,0
19:18:25,0,I/Ofront1,,0.0,,true,0,0,0,0,null,0,1,0,brander-desktop,0,0
19:18:26,0,I/Ostatic,,0.0,,true,0,0,0,0,null,0,1,0,brander-desktop,0,0
19:18:28,0,I/Odb,,3.0,,true,0,0,0,0,null,0,1,0,brander-desktop,0,0
19:18:29,0,I/Ofront1,,0.0,,true,0,0,0,0,null,0,1,0,brander-desktop,0,0
19:18:30,0,I/Ostatic,,1.0,,true,0,0,0,0,null,0,1,0,brander-desktop,0,0
19:18:31,0,I/Odb,,2.0,,true,0,0,0,0,null,0,1,0,brander-desktop,0,0
19:18:32,0,I/Ofront1,,0.0,,true,0,0,0,0,null,0,1,0,brander-desktop,0,0
19:18:33,0,I/Ostatic,,4.0,,true,0,0,0,0,null,0,1,0,brander-desktop,0,0
19:18:35,0,I/Odb,,2.0,,true,0,0,0,0,null,0,1,0,brander-desktop,0,0
19:18:36,0,I/Ofront1,,0.0,,true,0,0,0,0,null,0,1,0,brander-desktop,0,0
19:18:37,0,I/Ostatic,,1.0,,true,0,0,0,0,null,0,1,0,brander-desktop,0,0
19:18:38,0,I/Odb,,14.0,,true,0,0,0,0,null,0,1,0,brander-desktop,0,0
19:18:39,0,I/Ofront1,,0.0,,true,0,0,0,0,null,0,1,0,brander-desktop,0,0
19:18:41,0,I/Ostatic,,3.0,,true,0,0,0,0,null,0,1,0,brander-desktop,0,0
19:18:42,0,I/Odb,,2.0,,true,0,0,0,0,null,0,1,0,brander-desktop,0,0
19:18:43,0,I/Ofront1,,0.0,,true,0,0,0,0,null,0,1,0,brander-desktop,0,0
19:18:44,0,I/Ostatic,,0.0,,true,0,0,0,0,null,0,1,0,brander-desktop,0,0
19:18:45,0,I/Odb,,2.0,,true,0,0,0,0,null,0,1,0,brander-desktop,0,0
19:18:47,0,I/Ofront1,,0.0,,true,0,0,0,0,null,0,1,0,brander-desktop,0,0
19:18:48,0,I/Ostatic,,8.0,,true,0,0,0,0,null,0,1,0,brander-desktop,0,0
19:18:49,0,I/Odb,,0.0,,true,0,0,0,0,null,0,1,0,brander-desktop,0,0
19:18:50,0,I/Ofront1,,0.0,,true,0,0,0,0,null,0,1,0,brander-desktop,0,0
19:18:51,0,I/Ostatic,,0.0,,true,0,0,0,0,null,0,1,0,brander-desktop,0,0
19:18:52,0,I/Odb,,4.0,,true,0,0,0,0,null,0,1,0,brander-desktop,0,0
19:18:53,0,I/Ofront1,,0.0,,true,0,0,0,0,null,0,1,0,brander-desktop,0,0
19:18:54,0,I/Ostatic,,14.0,,true,0,0,0,0,null,0,1,0,brander-desktop,0,0
19:18:55,0,I/Odb,,2.0,,true,0,0,0,0,null,0,1,0,brander-desktop,0,0
19:18:57,0,I/Ofront1,,0.0,,true,0,0,0,0,null,0,1,0,brander-desktop,0,0
19:18:58,0,I/Ostatic,,13.0,,true,0,0,0,0,null,0,1,0,brander-desktop,0,0
19:18:59,0,I/Odb,,0.0,,true,0,0,0,0,null,0,1,0,brander-desktop,0,0
19:19:00,0,I/Ofront1,,0.0,,true,0,0,0,0,null,0,1,0,brander-desktop,0,0
19:19:01,0,I/Ostatic,,17.0,,true,0,0,0,0,null,0,1,0,brander-desktop,0,0
19:19:02,0,I/Odb,,2.0,,true,0,0,0,0,null,0,1,0,brander-desktop,0,0
19:19:03,0,I/Ofront1,,0.0,,true,0,0,0,0,null,0,1,0,brander-desktop,0,0
19:19:04,0,I/Ostatic,,14.0,,true,0,0,0,0,null,0,1,0,brander-desktop,0,0
19:19:05,0,I/Odb,,2.0,,true,0,0,0,0,null,0,1,0,brander-desktop,0,0
19:19:06,0,I/Ofront1,,0.0,,true,0,0,0,0,null,0,1,0,brander-desktop,0,0
19:19:08,0,I/Ostatic,,5.0,,true,0,0,0,0,null,0,1,0,brander-desktop,0,0
19:19:09,0,I/Odb,,19.0,,true,0,0,0,0,null,0,1,0,brander-desktop,0,0
19:19:10,0,I/Ofront1,,0.0,,true,0,0,0,0,null,0,1,0,brander-desktop,0,0
19:19:11,0,I/Ostatic,,6.0,,true,0,0,0,0,null,0,1,0,brander-desktop,0,0
19:19:12,0,I/Odb,,21.0,,true,0,0,0,0,null,0,1,0,brander-desktop,0,0
19:19:13,0,I/Ofront1,,0.0,,true,0,0,0,0,null,0,1,0,brander-desktop,0,0
19:19:15,0,I/Ostatic,,57.0,,true,0,0,0,0,null,0,1,0,brander-desktop,0,0
19:19:16,0,I/Odb,,2.0,,true,0,0,0,0,null,0,1,0,brander-desktop,0,0
19:19:17,0,I/Ofront1,,0.0,,true,0,0,0,0,null,0,1,0,brander-desktop,0,0
19:19:18,0,I/Ostatic,,2.0,,true,0,0,0,0,null,0,1,0,brander-desktop,0,0
19:19:20,0,I/Odb,,2.0,,true,0,0,0,0,null,0,1,0,brander-desktop,0,0
19:19:21,0,I/Ofront1,,0.0,,true,0,0,0,0,null,0,1,0,brander-desktop,0,0
19:19:22,0,I/Ostatic,,0.0,,true,0,0,0,0,null,0,1,0,brander-desktop,0,0
19:19:23,0,I/Odb,,2.0,,true,0,0,0,0,null,0,1,0,brander-desktop,0,0
19:19:25,0,I/Ofront1,,0.0,,true,0,0,0,0,null,0,1,0,brander-desktop,0,0
19:19:26,0,I/Ostatic,,0.0,,true,0,0,0,0,null,0,1,0,brander-desktop,0,0
19:19:27,0,I/Odb,,2.0,,true,0,0,0,0,null,0,1,0,brander-desktop,0,0
19:19:29,0,I/Ofront1,,0.0,,true,0,0,0,0,null,0,1,0,brander-desktop,0,0
19:19:30,0,I/Ostatic,,1.0,,true,0,0,0,0,null,0,1,0,brander-desktop,0,0
19:19:32,0,I/Odb,,2.0,,true,0,0,0,0,null,0,1,0,brander-desktop,0,0
19:19:33,0,I/Ofront1,,0.0,,true,0,0,0,0,null,0,1,0,brander-desktop,0,0
19:19:34,0,I/Ostatic,,9.0,,true,0,0,0,0,null,0,1,0,brander-desktop,0,0
19:19:36,0,I/Odb,,2.0,,true,0,0,0,0,null,0,1,0,brander-desktop,0,0
19:19:37,0,I/Ofront1,,0.0,,true,0,0,0,0,null,0,1,0,brander-desktop,0,0
19:19:38,0,I/Ostatic,,22.0,,true,0,0,0,0,null,0,1,0,brander-desktop,0,0
19:19:40,0,I/Odb,,2.0,,true,0,0,0,0,null,0,1,0,brander-desktop,0,0
19:19:41,0,I/Ofront1,,0.0,,true,0,0,0,0,null,0,1,0,brander-desktop,0,0
19:19:43,0,I/Ostatic,,4.0,,true,0,0,0,0,null,0,1,0,brander-desktop,0,0
19:19:44,0,I/Odb,,2.0,,true,0,0,0,0,null,0,1,0,brander-desktop,0,0
19:19:46,0,I/Ofront1,,0.0,,true,0,0,0,0,null,0,1,0,brander-desktop,0,0
19:19:47,0,I/Ostatic,,0.0,,true,0,0,0,0,null,0,1,0,brander-desktop,0,0
19:19:49,0,I/Odb,,2.0,,true,0,0,0,0,null,0,1,0,brander-desktop,0,0
19:19:51,0,I/Ofront1,,0.0,,true,0,0,0,0,null,0,1,0,brander-desktop,0,0
19:19:57,0,I/Ostatic,,0.0,,true,0,0,0,0,null,0,1,0,brander-desktop,0,0
19:20:03,0,I/Odb,,2.0,,true,0,0,0,0,null,0,1,0,brander-desktop,0,0
