timeStamp,elapsed,label,responseCode,responseMessage,threadName,success,bytes,sentBytes,grpThreads,allThreads,URL,Latency,SampleCount,ErrorCount,Hostname,IdleTime,Connect
11:31:42,0,I/Ostatic,,35.0,,true,0,0,0,0,null,0,1,0,brander-desktop,0,0
11:31:43,0,I/Odb,,12.0,,true,0,0,0,0,null,0,1,0,brander-desktop,0,0
11:31:45,0,I/Ofront1,,0.0,,true,0,0,0,0,null,0,1,0,brander-desktop,0,0
11:31:46,0,I/Ostatic,,82.0,,true,0,0,0,0,null,0,1,0,brander-desktop,0,0
11:31:47,0,I/Odb,,2.0,,true,0,0,0,0,null,0,1,0,brander-desktop,0,0
11:31:48,0,I/Ofront1,,0.0,,true,0,0,0,0,null,0,1,0,brander-desktop,0,0
11:31:49,0,I/Ostatic,,123.0,,true,0,0,0,0,null,0,1,0,brander-desktop,0,0
11:31:50,0,I/Odb,,2.0,,true,0,0,0,0,null,0,1,0,brander-desktop,0,0
11:31:51,0,I/Ofront1,,0.0,,true,0,0,0,0,null,0,1,0,brander-desktop,0,0
11:31:53,0,I/Ostatic,,139.0,,true,0,0,0,0,null,0,1,0,brander-desktop,0,0
11:31:54,0,I/Odb,,2.0,,true,0,0,0,0,null,0,1,0,brander-desktop,0,0
11:31:55,0,I/Ofront1,,0.0,,true,0,0,0,0,null,0,1,0,brander-desktop,0,0
11:31:56,0,I/Ostatic,,175.0,,true,0,0,0,0,null,0,1,0,brander-desktop,0,0
11:31:57,0,I/Odb,,2.0,,true,0,0,0,0,null,0,1,0,brander-desktop,0,0
11:31:58,0,I/Ofront1,,0.0,,true,0,0,0,0,null,0,1,0,brander-desktop,0,0
11:31:59,0,I/Ostatic,,165.0,,true,0,0,0,0,null,0,1,0,brander-desktop,0,0
11:32:00,0,I/Odb,,2.0,,true,0,0,0,0,null,0,1,0,brander-desktop,0,0
11:32:02,0,I/Ofront1,,0.0,,true,0,0,0,0,null,0,1,0,brander-desktop,0,0
11:32:03,0,I/Ostatic,,174.0,,true,0,0,0,0,null,0,1,0,brander-desktop,0,0
11:32:04,0,I/Odb,,2.0,,true,0,0,0,0,null,0,1,0,brander-desktop,0,0
11:32:05,0,I/Ofront1,,0.0,,true,0,0,0,0,null,0,1,0,brander-desktop,0,0
11:32:06,0,I/Ostatic,,147.0,,true,0,0,0,0,null,0,1,0,brander-desktop,0,0
11:32:07,0,I/Odb,,2.0,,true,0,0,0,0,null,0,1,0,brander-desktop,0,0
11:32:08,0,I/Ofront1,,0.0,,true,0,0,0,0,null,0,1,0,brander-desktop,0,0
11:32:09,0,I/Ostatic,,176.0,,true,0,0,0,0,null,0,1,0,brander-desktop,0,0
11:32:10,0,I/Odb,,3.0,,true,0,0,0,0,null,0,1,0,brander-desktop,0,0
11:32:11,0,I/Ofront1,,0.0,,true,0,0,0,0,null,0,1,0,brander-desktop,0,0
11:32:13,0,I/Ostatic,,152.0,,true,0,0,0,0,null,0,1,0,brander-desktop,0,0
11:32:14,0,I/Odb,,2.0,,true,0,0,0,0,null,0,1,0,brander-desktop,0,0
11:32:15,0,I/Ofront1,,4.0,,true,0,0,0,0,null,0,1,0,brander-desktop,0,0
11:32:16,0,I/Ostatic,,176.0,,true,0,0,0,0,null,0,1,0,brander-desktop,0,0
11:32:17,0,I/Odb,,2.0,,true,0,0,0,0,null,0,1,0,brander-desktop,0,0
11:32:18,0,I/Ofront1,,0.0,,true,0,0,0,0,null,0,1,0,brander-desktop,0,0
11:32:19,0,I/Ostatic,,92.0,,true,0,0,0,0,null,0,1,0,brander-desktop,0,0
11:32:21,0,I/Odb,,3.0,,true,0,0,0,0,null,0,1,0,brander-desktop,0,0
11:32:22,0,I/Ofront1,,1.0,,true,0,0,0,0,null,0,1,0,brander-desktop,0,0
11:32:23,0,I/Ostatic,,82.0,,true,0,0,0,0,null,0,1,0,brander-desktop,0,0
11:32:24,0,I/Odb,,4.0,,true,0,0,0,0,null,0,1,0,brander-desktop,0,0
11:32:25,0,I/Ofront1,,0.0,,true,0,0,0,0,null,0,1,0,brander-desktop,0,0
11:32:26,0,I/Ostatic,,189.0,,true,0,0,0,0,null,0,1,0,brander-desktop,0,0
11:32:27,0,I/Odb,,2.0,,true,0,0,0,0,null,0,1,0,brander-desktop,0,0
11:32:28,0,I/Ofront1,,0.0,,true,0,0,0,0,null,0,1,0,brander-desktop,0,0
11:32:29,0,I/Ostatic,,164.0,,true,0,0,0,0,null,0,1,0,brander-desktop,0,0
11:32:31,0,I/Odb,,2.0,,true,0,0,0,0,null,0,1,0,brander-desktop,0,0
11:32:32,0,I/Ofront1,,0.0,,true,0,0,0,0,null,0,1,0,brander-desktop,0,0
11:32:33,0,I/Ostatic,,162.0,,true,0,0,0,0,null,0,1,0,brander-desktop,0,0
11:32:34,0,I/Odb,,2.0,,true,0,0,0,0,null,0,1,0,brander-desktop,0,0
11:32:35,0,I/Ofront1,,2.0,,true,0,0,0,0,null,0,1,0,brander-desktop,0,0
11:32:36,0,I/Ostatic,,163.0,,true,0,0,0,0,null,0,1,0,brander-desktop,0,0
11:32:37,0,I/Odb,,2.0,,true,0,0,0,0,null,0,1,0,brander-desktop,0,0
11:32:38,0,I/Ofront1,,0.0,,true,0,0,0,0,null,0,1,0,brander-desktop,0,0
11:32:39,0,I/Ostatic,,150.0,,true,0,0,0,0,null,0,1,0,brander-desktop,0,0
11:32:40,0,I/Odb,,2.0,,true,0,0,0,0,null,0,1,0,brander-desktop,0,0
11:32:42,0,I/Ofront1,,0.0,,true,0,0,0,0,null,0,1,0,brander-desktop,0,0
11:32:43,0,I/Ostatic,,144.0,,true,0,0,0,0,null,0,1,0,brander-desktop,0,0
11:32:44,0,I/Odb,,2.0,,true,0,0,0,0,null,0,1,0,brander-desktop,0,0
11:32:45,0,I/Ofront1,,0.0,,true,0,0,0,0,null,0,1,0,brander-desktop,0,0
11:32:46,0,I/Ostatic,,162.0,,true,0,0,0,0,null,0,1,0,brander-desktop,0,0
11:32:47,0,I/Odb,,2.0,,true,0,0,0,0,null,0,1,0,brander-desktop,0,0
11:32:48,0,I/Ofront1,,0.0,,true,0,0,0,0,null,0,1,0,brander-desktop,0,0
11:32:49,0,I/Ostatic,,147.0,,true,0,0,0,0,null,0,1,0,brander-desktop,0,0
11:32:50,0,I/Odb,,2.0,,true,0,0,0,0,null,0,1,0,brander-desktop,0,0
11:32:51,0,I/Ofront1,,0.0,,true,0,0,0,0,null,0,1,0,brander-desktop,0,0
11:32:53,0,I/Ostatic,,158.0,,true,0,0,0,0,null,0,1,0,brander-desktop,0,0
11:32:54,0,I/Odb,,2.0,,true,0,0,0,0,null,0,1,0,brander-desktop,0,0
11:32:55,0,I/Ofront1,,0.0,,true,0,0,0,0,null,0,1,0,brander-desktop,0,0
11:32:56,0,I/Ostatic,,115.0,,true,0,0,0,0,null,0,1,0,brander-desktop,0,0
11:32:57,0,I/Odb,,2.0,,true,0,0,0,0,null,0,1,0,brander-desktop,0,0
11:32:58,0,I/Ofront1,,0.0,,true,0,0,0,0,null,0,1,0,brander-desktop,0,0
11:32:59,0,I/Ostatic,,137.0,,true,0,0,0,0,null,0,1,0,brander-desktop,0,0
11:33:00,0,I/Odb,,2.0,,true,0,0,0,0,null,0,1,0,brander-desktop,0,0
11:33:01,0,I/Ofront1,,0.0,,true,0,0,0,0,null,0,1,0,brander-desktop,0,0
11:33:02,0,I/Ostatic,,144.0,,true,0,0,0,0,null,0,1,0,brander-desktop,0,0
11:33:04,0,I/Odb,,3.0,,true,0,0,0,0,null,0,1,0,brander-desktop,0,0
11:33:05,0,I/Ofront1,,0.0,,true,0,0,0,0,null,0,1,0,brander-desktop,0,0
11:33:06,0,I/Ostatic,,155.0,,true,0,0,0,0,null,0,1,0,brander-desktop,0,0
11:33:07,0,I/Odb,,63.0,,true,0,0,0,0,null,0,1,0,brander-desktop,0,0
11:33:08,0,I/Ofront1,,0.0,,true,0,0,0,0,null,0,1,0,brander-desktop,0,0
11:33:09,0,I/Ostatic,,168.0,,true,0,0,0,0,null,0,1,0,brander-desktop,0,0
11:33:10,0,I/Odb,,2.0,,true,0,0,0,0,null,0,1,0,brander-desktop,0,0
11:33:12,0,I/Ofront1,,0.0,,true,0,0,0,0,null,0,1,0,brander-desktop,0,0
11:33:13,0,I/Ostatic,,153.0,,true,0,0,0,0,null,0,1,0,brander-desktop,0,0
11:33:14,0,I/Odb,,3.0,,true,0,0,0,0,null,0,1,0,brander-desktop,0,0
11:33:15,0,I/Ofront1,,0.0,,true,0,0,0,0,null,0,1,0,brander-desktop,0,0
11:33:16,0,I/Ostatic,,134.0,,true,0,0,0,0,null,0,1,0,brander-desktop,0,0
11:33:17,0,I/Odb,,2.0,,true,0,0,0,0,null,0,1,0,brander-desktop,0,0
11:33:18,0,I/Ofront1,,0.0,,true,0,0,0,0,null,0,1,0,brander-desktop,0,0
11:33:19,0,I/Ostatic,,164.0,,true,0,0,0,0,null,0,1,0,brander-desktop,0,0
11:33:20,0,I/Odb,,2.0,,true,0,0,0,0,null,0,1,0,brander-desktop,0,0
11:33:21,0,I/Ofront1,,0.0,,true,0,0,0,0,null,0,1,0,brander-desktop,0,0
11:33:23,0,I/Ostatic,,170.0,,true,0,0,0,0,null,0,1,0,brander-desktop,0,0
11:33:24,0,I/Odb,,2.0,,true,0,0,0,0,null,0,1,0,brander-desktop,0,0
11:33:25,0,I/Ofront1,,0.0,,true,0,0,0,0,null,0,1,0,brander-desktop,0,0
11:33:26,0,I/Ostatic,,156.0,,true,0,0,0,0,null,0,1,0,brander-desktop,0,0
11:33:27,0,I/Odb,,2.0,,true,0,0,0,0,null,0,1,0,brander-desktop,0,0
11:33:28,0,I/Ofront1,,0.0,,true,0,0,0,0,null,0,1,0,brander-desktop,0,0
11:33:29,0,I/Ostatic,,109.0,,true,0,0,0,0,null,0,1,0,brander-desktop,0,0
11:33:30,0,I/Odb,,2.0,,true,0,0,0,0,null,0,1,0,brander-desktop,0,0
11:33:31,0,I/Ofront1,,0.0,,true,0,0,0,0,null,0,1,0,brander-desktop,0,0
11:33:32,0,I/Ostatic,,155.0,,true,0,0,0,0,null,0,1,0,brander-desktop,0,0
11:33:34,0,I/Odb,,2.0,,true,0,0,0,0,null,0,1,0,brander-desktop,0,0
11:33:35,0,I/Ofront1,,0.0,,true,0,0,0,0,null,0,1,0,brander-desktop,0,0
11:33:36,0,I/Ostatic,,182.0,,true,0,0,0,0,null,0,1,0,brander-desktop,0,0
11:33:37,0,I/Odb,,78.0,,true,0,0,0,0,null,0,1,0,brander-desktop,0,0
11:33:38,0,I/Ofront1,,0.0,,true,0,0,0,0,null,0,1,0,brander-desktop,0,0
11:33:39,0,I/Ostatic,,129.0,,true,0,0,0,0,null,0,1,0,brander-desktop,0,0
11:33:40,0,I/Odb,,2.0,,true,0,0,0,0,null,0,1,0,brander-desktop,0,0
11:33:41,0,I/Ofront1,,0.0,,true,0,0,0,0,null,0,1,0,brander-desktop,0,0
11:33:42,0,I/Ostatic,,156.0,,true,0,0,0,0,null,0,1,0,brander-desktop,0,0
11:33:43,0,I/Odb,,0.0,,true,0,0,0,0,null,0,1,0,brander-desktop,0,0
11:33:45,0,I/Ofront1,,0.0,,true,0,0,0,0,null,0,1,0,brander-desktop,0,0
11:33:46,0,I/Ostatic,,110.0,,true,0,0,0,0,null,0,1,0,brander-desktop,0,0
11:33:47,0,I/Odb,,2.0,,true,0,0,0,0,null,0,1,0,brander-desktop,0,0
11:33:48,0,I/Ofront1,,0.0,,true,0,0,0,0,null,0,1,0,brander-desktop,0,0
11:33:49,0,I/Ostatic,,137.0,,true,0,0,0,0,null,0,1,0,brander-desktop,0,0
11:33:50,0,I/Odb,,2.0,,true,0,0,0,0,null,0,1,0,brander-desktop,0,0
11:33:52,0,I/Ofront1,,0.0,,true,0,0,0,0,null,0,1,0,brander-desktop,0,0
11:33:53,0,I/Ostatic,,194.0,,true,0,0,0,0,null,0,1,0,brander-desktop,0,0
11:33:55,0,I/Odb,,2.0,,true,0,0,0,0,null,0,1,0,brander-desktop,0,0
11:33:56,0,I/Ofront1,,0.0,,true,0,0,0,0,null,0,1,0,brander-desktop,0,0
11:33:58,0,I/Ostatic,,142.0,,true,0,0,0,0,null,0,1,0,brander-desktop,0,0
11:33:59,0,I/Odb,,2.0,,true,0,0,0,0,null,0,1,0,brander-desktop,0,0
11:34:01,0,I/Ofront1,,2.0,,true,0,0,0,0,null,0,1,0,brander-desktop,0,0
11:34:02,0,I/Ostatic,,125.0,,true,0,0,0,0,null,0,1,0,brander-desktop,0,0
11:34:03,0,I/Odb,,2.0,,true,0,0,0,0,null,0,1,0,brander-desktop,0,0
11:34:04,0,I/Ofront1,,0.0,,true,0,0,0,0,null,0,1,0,brander-desktop,0,0
11:34:05,0,I/Ostatic,,177.0,,true,0,0,0,0,null,0,1,0,brander-desktop,0,0
11:34:07,0,I/Odb,,61.0,,true,0,0,0,0,null,0,1,0,brander-desktop,0,0
11:34:08,0,I/Ofront1,,0.0,,true,0,0,0,0,null,0,1,0,brander-desktop,0,0
11:34:09,0,I/Ostatic,,170.0,,true,0,0,0,0,null,0,1,0,brander-desktop,0,0
11:34:10,0,I/Odb,,2.0,,true,0,0,0,0,null,0,1,0,brander-desktop,0,0
11:34:11,0,I/Ofront1,,0.0,,true,0,0,0,0,null,0,1,0,brander-desktop,0,0
11:34:12,0,I/Ostatic,,30.0,,true,0,0,0,0,null,0,1,0,brander-desktop,0,0
11:34:13,0,I/Odb,,2.0,,true,0,0,0,0,null,0,1,0,brander-desktop,0,0
11:34:14,0,I/Ofront1,,0.0,,true,0,0,0,0,null,0,1,0,brander-desktop,0,0
11:34:15,0,I/Ostatic,,118.0,,true,0,0,0,0,null,0,1,0,brander-desktop,0,0
11:34:17,0,I/Odb,,2.0,,true,0,0,0,0,null,0,1,0,brander-desktop,0,0
11:34:18,0,I/Ofront1,,0.0,,true,0,0,0,0,null,0,1,0,brander-desktop,0,0
11:34:19,0,I/Ostatic,,115.0,,true,0,0,0,0,null,0,1,0,brander-desktop,0,0
11:34:20,0,I/Odb,,2.0,,true,0,0,0,0,null,0,1,0,brander-desktop,0,0
11:34:21,0,I/Ofront1,,2.0,,true,0,0,0,0,null,0,1,0,brander-desktop,0,0
11:34:22,0,I/Ostatic,,214.0,,true,0,0,0,0,null,0,1,0,brander-desktop,0,0
11:34:23,0,I/Odb,,2.0,,true,0,0,0,0,null,0,1,0,brander-desktop,0,0
11:34:24,0,I/Ofront1,,0.0,,true,0,0,0,0,null,0,1,0,brander-desktop,0,0
11:34:25,0,I/Ostatic,,169.0,,true,0,0,0,0,null,0,1,0,brander-desktop,0,0
11:34:26,0,I/Odb,,3.0,,true,0,0,0,0,null,0,1,0,brander-desktop,0,0
11:34:28,0,I/Ofront1,,0.0,,true,0,0,0,0,null,0,1,0,brander-desktop,0,0
11:34:29,0,I/Ostatic,,99.0,,true,0,0,0,0,null,0,1,0,brander-desktop,0,0
11:34:30,0,I/Odb,,3.0,,true,0,0,0,0,null,0,1,0,brander-desktop,0,0
11:34:31,0,I/Ofront1,,6.0,,true,0,0,0,0,null,0,1,0,brander-desktop,0,0
11:34:32,0,I/Ostatic,,188.0,,true,0,0,0,0,null,0,1,0,brander-desktop,0,0
11:34:33,0,I/Odb,,3.0,,true,0,0,0,0,null,0,1,0,brander-desktop,0,0
11:34:34,0,I/Ofront1,,0.0,,true,0,0,0,0,null,0,1,0,brander-desktop,0,0
11:34:35,0,I/Ostatic,,148.0,,true,0,0,0,0,null,0,1,0,brander-desktop,0,0
11:34:36,0,I/Odb,,27.0,,true,0,0,0,0,null,0,1,0,brander-desktop,0,0
11:34:37,0,I/Ofront1,,0.0,,true,0,0,0,0,null,0,1,0,brander-desktop,0,0
11:34:38,0,I/Ostatic,,131.0,,true,0,0,0,0,null,0,1,0,brander-desktop,0,0
11:34:40,0,I/Odb,,2.0,,true,0,0,0,0,null,0,1,0,brander-desktop,0,0
11:34:41,0,I/Ofront1,,6.0,,true,0,0,0,0,null,0,1,0,brander-desktop,0,0
11:34:42,0,I/Ostatic,,102.0,,true,0,0,0,0,null,0,1,0,brander-desktop,0,0
11:34:43,0,I/Odb,,3.0,,true,0,0,0,0,null,0,1,0,brander-desktop,0,0
11:34:44,0,I/Ofront1,,0.0,,true,0,0,0,0,null,0,1,0,brander-desktop,0,0
11:34:45,0,I/Ostatic,,191.0,,true,0,0,0,0,null,0,1,0,brander-desktop,0,0
11:34:46,0,I/Odb,,4.0,,true,0,0,0,0,null,0,1,0,brander-desktop,0,0
11:34:47,0,I/Ofront1,,0.0,,true,0,0,0,0,null,0,1,0,brander-desktop,0,0
11:34:48,0,I/Ostatic,,138.0,,true,0,0,0,0,null,0,1,0,brander-desktop,0,0
11:34:49,0,I/Odb,,2.0,,true,0,0,0,0,null,0,1,0,brander-desktop,0,0
11:34:51,0,I/Ofront1,,0.0,,true,0,0,0,0,null,0,1,0,brander-desktop,0,0
11:34:52,0,I/Ostatic,,138.0,,true,0,0,0,0,null,0,1,0,brander-desktop,0,0
11:34:53,0,I/Odb,,3.0,,true,0,0,0,0,null,0,1,0,brander-desktop,0,0
11:34:54,0,I/Ofront1,,0.0,,true,0,0,0,0,null,0,1,0,brander-desktop,0,0
11:34:55,0,I/Ostatic,,184.0,,true,0,0,0,0,null,0,1,0,brander-desktop,0,0
11:34:56,0,I/Odb,,3.0,,true,0,0,0,0,null,0,1,0,brander-desktop,0,0
11:34:57,0,I/Ofront1,,0.0,,true,0,0,0,0,null,0,1,0,brander-desktop,0,0
11:34:59,0,I/Ostatic,,139.0,,true,0,0,0,0,null,0,1,0,brander-desktop,0,0
11:35:00,0,I/Odb,,2.0,,true,0,0,0,0,null,0,1,0,brander-desktop,0,0
11:35:01,0,I/Ofront1,,0.0,,true,0,0,0,0,null,0,1,0,brander-desktop,0,0
11:35:02,0,I/Ostatic,,74.0,,true,0,0,0,0,null,0,1,0,brander-desktop,0,0
11:35:03,0,I/Odb,,3.0,,true,0,0,0,0,null,0,1,0,brander-desktop,0,0
11:35:04,0,I/Ofront1,,0.0,,true,0,0,0,0,null,0,1,0,brander-desktop,0,0
11:35:05,0,I/Ostatic,,100.0,,true,0,0,0,0,null,0,1,0,brander-desktop,0,0
11:35:06,0,I/Odb,,63.0,,true,0,0,0,0,null,0,1,0,brander-desktop,0,0
11:35:08,0,I/Ofront1,,0.0,,true,0,0,0,0,null,0,1,0,brander-desktop,0,0
11:35:09,0,I/Ostatic,,188.0,,true,0,0,0,0,null,0,1,0,brander-desktop,0,0
11:35:10,0,I/Odb,,2.0,,true,0,0,0,0,null,0,1,0,brander-desktop,0,0
11:35:11,0,I/Ofront1,,0.0,,true,0,0,0,0,null,0,1,0,brander-desktop,0,0
11:35:12,0,I/Ostatic,,173.0,,true,0,0,0,0,null,0,1,0,brander-desktop,0,0
11:35:13,0,I/Odb,,3.0,,true,0,0,0,0,null,0,1,0,brander-desktop,0,0
11:35:14,0,I/Ofront1,,0.0,,true,0,0,0,0,null,0,1,0,brander-desktop,0,0
11:35:15,0,I/Ostatic,,156.0,,true,0,0,0,0,null,0,1,0,brander-desktop,0,0
11:35:17,0,I/Odb,,35.0,,true,0,0,0,0,null,0,1,0,brander-desktop,0,0
11:35:18,0,I/Ofront1,,0.0,,true,0,0,0,0,null,0,1,0,brander-desktop,0,0
11:35:19,0,I/Ostatic,,157.0,,true,0,0,0,0,null,0,1,0,brander-desktop,0,0
11:35:20,0,I/Odb,,2.0,,true,0,0,0,0,null,0,1,0,brander-desktop,0,0
11:35:21,0,I/Ofront1,,2.0,,true,0,0,0,0,null,0,1,0,brander-desktop,0,0
11:35:22,0,I/Ostatic,,59.0,,true,0,0,0,0,null,0,1,0,brander-desktop,0,0
11:35:23,0,I/Odb,,3.0,,true,0,0,0,0,null,0,1,0,brander-desktop,0,0
11:35:24,0,I/Ofront1,,0.0,,true,0,0,0,0,null,0,1,0,brander-desktop,0,0
11:35:25,0,I/Ostatic,,78.0,,true,0,0,0,0,null,0,1,0,brander-desktop,0,0
11:35:27,0,I/Odb,,19.0,,true,0,0,0,0,null,0,1,0,brander-desktop,0,0
11:35:28,0,I/Ofront1,,0.0,,true,0,0,0,0,null,0,1,0,brander-desktop,0,0
11:35:29,0,I/Ostatic,,59.0,,true,0,0,0,0,null,0,1,0,brander-desktop,0,0
11:35:30,0,I/Odb,,1.98,,true,0,0,0,0,null,0,1,0,brander-desktop,0,0
11:35:31,0,I/Ofront1,,0.0,,true,0,0,0,0,null,0,1,0,brander-desktop,0,0
11:35:32,0,I/Ostatic,,150.0,,true,0,0,0,0,null,0,1,0,brander-desktop,0,0
11:35:33,0,I/Odb,,2.0,,true,0,0,0,0,null,0,1,0,brander-desktop,0,0
11:35:34,0,I/Ofront1,,0.0,,true,0,0,0,0,null,0,1,0,brander-desktop,0,0
11:35:36,0,I/Ostatic,,182.0,,true,0,0,0,0,null,0,1,0,brander-desktop,0,0
11:35:37,0,I/Odb,,191.0,,true,0,0,0,0,null,0,1,0,brander-desktop,0,0
11:35:38,0,I/Ofront1,,0.0,,true,0,0,0,0,null,0,1,0,brander-desktop,0,0
11:35:39,0,I/Ostatic,,118.0,,true,0,0,0,0,null,0,1,0,brander-desktop,0,0
11:35:40,0,I/Odb,,2.0,,true,0,0,0,0,null,0,1,0,brander-desktop,0,0
11:35:41,0,I/Ofront1,,0.0,,true,0,0,0,0,null,0,1,0,brander-desktop,0,0
11:35:42,0,I/Ostatic,,146.0,,true,0,0,0,0,null,0,1,0,brander-desktop,0,0
11:35:43,0,I/Odb,,2.0,,true,0,0,0,0,null,0,1,0,brander-desktop,0,0
11:35:44,0,I/Ofront1,,0.0,,true,0,0,0,0,null,0,1,0,brander-desktop,0,0
11:35:46,0,I/Ostatic,,168.0,,true,0,0,0,0,null,0,1,0,brander-desktop,0,0
11:35:47,0,I/Odb,,2.0,,true,0,0,0,0,null,0,1,0,brander-desktop,0,0
11:35:48,0,I/Ofront1,,0.0,,true,0,0,0,0,null,0,1,0,brander-desktop,0,0
11:35:49,0,I/Ostatic,,106.0,,true,0,0,0,0,null,0,1,0,brander-desktop,0,0
11:35:50,0,I/Odb,,0.0,,true,0,0,0,0,null,0,1,0,brander-desktop,0,0
11:35:51,0,I/Ofront1,,0.0,,true,0,0,0,0,null,0,1,0,brander-desktop,0,0
11:35:52,0,I/Ostatic,,157.0,,true,0,0,0,0,null,0,1,0,brander-desktop,0,0
11:35:53,0,I/Odb,,2.0,,true,0,0,0,0,null,0,1,0,brander-desktop,0,0
11:35:54,0,I/Ofront1,,0.0,,true,0,0,0,0,null,0,1,0,brander-desktop,0,0
11:35:56,0,I/Ostatic,,171.0,,true,0,0,0,0,null,0,1,0,brander-desktop,0,0
11:35:57,0,I/Odb,,60.0,,true,0,0,0,0,null,0,1,0,brander-desktop,0,0
11:35:58,0,I/Ofront1,,0.0,,true,0,0,0,0,null,0,1,0,brander-desktop,0,0
11:35:59,0,I/Ostatic,,167.0,,true,0,0,0,0,null,0,1,0,brander-desktop,0,0
11:36:00,0,I/Odb,,2.0,,true,0,0,0,0,null,0,1,0,brander-desktop,0,0
11:36:01,0,I/Ofront1,,3.0,,true,0,0,0,0,null,0,1,0,brander-desktop,0,0
11:36:02,0,I/Ostatic,,81.0,,true,0,0,0,0,null,0,1,0,brander-desktop,0,0
11:36:03,0,I/Odb,,2.0,,true,0,0,0,0,null,0,1,0,brander-desktop,0,0
11:36:05,0,I/Ofront1,,0.0,,true,0,0,0,0,null,0,1,0,brander-desktop,0,0
11:36:06,0,I/Ostatic,,153.0,,true,0,0,0,0,null,0,1,0,brander-desktop,0,0
11:36:07,0,I/Odb,,59.0,,true,0,0,0,0,null,0,1,0,brander-desktop,0,0
11:36:08,0,I/Ofront1,,0.0,,true,0,0,0,0,null,0,1,0,brander-desktop,0,0
11:36:09,0,I/Ostatic,,96.0,,true,0,0,0,0,null,0,1,0,brander-desktop,0,0
11:36:10,0,I/Odb,,2.0,,true,0,0,0,0,null,0,1,0,brander-desktop,0,0
11:36:11,0,I/Ofront1,,0.0,,true,0,0,0,0,null,0,1,0,brander-desktop,0,0
11:36:12,0,I/Ostatic,,128.0,,true,0,0,0,0,null,0,1,0,brander-desktop,0,0
11:36:13,0,I/Odb,,3.0,,true,0,0,0,0,null,0,1,0,brander-desktop,0,0
11:36:15,0,I/Ofront1,,0.0,,true,0,0,0,0,null,0,1,0,brander-desktop,0,0
11:36:16,0,I/Ostatic,,182.0,,true,0,0,0,0,null,0,1,0,brander-desktop,0,0
11:36:17,0,I/Odb,,92.0,,true,0,0,0,0,null,0,1,0,brander-desktop,0,0
11:36:18,0,I/Ofront1,,0.0,,true,0,0,0,0,null,0,1,0,brander-desktop,0,0
11:36:19,0,I/Ostatic,,132.0,,true,0,0,0,0,null,0,1,0,brander-desktop,0,0
11:36:20,0,I/Odb,,2.0,,true,0,0,0,0,null,0,1,0,brander-desktop,0,0
11:36:21,0,I/Ofront1,,0.0,,true,0,0,0,0,null,0,1,0,brander-desktop,0,0
11:36:22,0,I/Ostatic,,108.0,,true,0,0,0,0,null,0,1,0,brander-desktop,0,0
11:36:24,0,I/Odb,,2.0,,true,0,0,0,0,null,0,1,0,brander-desktop,0,0
11:36:25,0,I/Ofront1,,0.0,,true,0,0,0,0,null,0,1,0,brander-desktop,0,0
11:36:26,0,I/Ostatic,,108.0,,true,0,0,0,0,null,0,1,0,brander-desktop,0,0
11:36:27,0,I/Odb,,48.0,,true,0,0,0,0,null,0,1,0,brander-desktop,0,0
11:36:28,0,I/Ofront1,,0.0,,true,0,0,0,0,null,0,1,0,brander-desktop,0,0
11:36:29,0,I/Ostatic,,184.0,,true,0,0,0,0,null,0,1,0,brander-desktop,0,0
11:36:30,0,I/Odb,,3.0,,true,0,0,0,0,null,0,1,0,brander-desktop,0,0
11:36:31,0,I/Ofront1,,1.0,,true,0,0,0,0,null,0,1,0,brander-desktop,0,0
11:36:33,0,I/Ostatic,,178.0,,true,0,0,0,0,null,0,1,0,brander-desktop,0,0
11:36:34,0,I/Odb,,2.0,,true,0,0,0,0,null,0,1,0,brander-desktop,0,0
11:36:35,0,I/Ofront1,,0.0,,true,0,0,0,0,null,0,1,0,brander-desktop,0,0
11:36:36,0,I/Ostatic,,55.0,,true,0,0,0,0,null,0,1,0,brander-desktop,0,0
11:36:37,0,I/Odb,,52.0,,true,0,0,0,0,null,0,1,0,brander-desktop,0,0
11:36:38,0,I/Ofront1,,0.0,,true,0,0,0,0,null,0,1,0,brander-desktop,0,0
11:36:39,0,I/Ostatic,,165.0,,true,0,0,0,0,null,0,1,0,brander-desktop,0,0
11:36:40,0,I/Odb,,2.0,,true,0,0,0,0,null,0,1,0,brander-desktop,0,0
11:36:41,0,I/Ofront1,,2.0,,true,0,0,0,0,null,0,1,0,brander-desktop,0,0
11:36:42,0,I/Ostatic,,103.0,,true,0,0,0,0,null,0,1,0,brander-desktop,0,0
11:36:44,0,I/Odb,,2.0,,true,0,0,0,0,null,0,1,0,brander-desktop,0,0
11:36:45,0,I/Ofront1,,0.0,,true,0,0,0,0,null,0,1,0,brander-desktop,0,0
11:36:46,0,I/Ostatic,,48.0,,true,0,0,0,0,null,0,1,0,brander-desktop,0,0
11:36:47,0,I/Odb,,3.0,,true,0,0,0,0,null,0,1,0,brander-desktop,0,0
11:36:48,0,I/Ofront1,,0.0,,true,0,0,0,0,null,0,1,0,brander-desktop,0,0
11:36:49,0,I/Ostatic,,171.0,,true,0,0,0,0,null,0,1,0,brander-desktop,0,0
11:36:50,0,I/Odb,,2.0,,true,0,0,0,0,null,0,1,0,brander-desktop,0,0
11:36:51,0,I/Ofront1,,0.0,,true,0,0,0,0,null,0,1,0,brander-desktop,0,0
11:36:52,0,I/Ostatic,,73.0,,true,0,0,0,0,null,0,1,0,brander-desktop,0,0
11:36:53,0,I/Odb,,3.0,,true,0,0,0,0,null,0,1,0,brander-desktop,0,0
11:36:55,0,I/Ofront1,,0.0,,true,0,0,0,0,null,0,1,0,brander-desktop,0,0
11:36:56,0,I/Ostatic,,113.0,,true,0,0,0,0,null,0,1,0,brander-desktop,0,0
11:36:57,0,I/Odb,,2.0,,true,0,0,0,0,null,0,1,0,brander-desktop,0,0
11:36:58,0,I/Ofront1,,0.0,,true,0,0,0,0,null,0,1,0,brander-desktop,0,0
11:36:59,0,I/Ostatic,,109.0,,true,0,0,0,0,null,0,1,0,brander-desktop,0,0
11:37:00,0,I/Odb,,3.0,,true,0,0,0,0,null,0,1,0,brander-desktop,0,0
11:37:01,0,I/Ofront1,,0.0,,true,0,0,0,0,null,0,1,0,brander-desktop,0,0
11:37:02,0,I/Ostatic,,150.0,,true,0,0,0,0,null,0,1,0,brander-desktop,0,0
11:37:04,0,I/Odb,,3.0,,true,0,0,0,0,null,0,1,0,brander-desktop,0,0
11:37:05,0,I/Ofront1,,0.0,,true,0,0,0,0,null,0,1,0,brander-desktop,0,0
11:37:06,0,I/Ostatic,,148.0,,true,0,0,0,0,null,0,1,0,brander-desktop,0,0
11:37:07,0,I/Odb,,43.0,,true,0,0,0,0,null,0,1,0,brander-desktop,0,0
11:37:08,0,I/Ofront1,,0.0,,true,0,0,0,0,null,0,1,0,brander-desktop,0,0
11:37:09,0,I/Ostatic,,119.0,,true,0,0,0,0,null,0,1,0,brander-desktop,0,0
11:37:10,0,I/Odb,,2.0,,true,0,0,0,0,null,0,1,0,brander-desktop,0,0
11:37:11,0,I/Ofront1,,3.0,,true,0,0,0,0,null,0,1,0,brander-desktop,0,0
11:37:12,0,I/Ostatic,,181.0,,true,0,0,0,0,null,0,1,0,brander-desktop,0,0
11:37:13,0,I/Odb,,3.0,,true,0,0,0,0,null,0,1,0,brander-desktop,0,0
11:37:15,0,I/Ofront1,,0.0,,true,0,0,0,0,null,0,1,0,brander-desktop,0,0
11:37:16,0,I/Ostatic,,161.0,,true,0,0,0,0,null,0,1,0,brander-desktop,0,0
11:37:17,0,I/Odb,,5.0,,true,0,0,0,0,null,0,1,0,brander-desktop,0,0
11:37:18,0,I/Ofront1,,0.0,,true,0,0,0,0,null,0,1,0,brander-desktop,0,0
11:37:19,0,I/Ostatic,,153.0,,true,0,0,0,0,null,0,1,0,brander-desktop,0,0
11:37:20,0,I/Odb,,2.0,,true,0,0,0,0,null,0,1,0,brander-desktop,0,0
11:37:21,0,I/Ofront1,,0.0,,true,0,0,0,0,null,0,1,0,brander-desktop,0,0
11:37:22,0,I/Ostatic,,149.0,,true,0,0,0,0,null,0,1,0,brander-desktop,0,0
11:37:23,0,I/Odb,,2.0,,true,0,0,0,0,null,0,1,0,brander-desktop,0,0
11:37:24,0,I/Ofront1,,0.0,,true,0,0,0,0,null,0,1,0,brander-desktop,0,0
11:37:26,0,I/Ostatic,,148.0,,true,0,0,0,0,null,0,1,0,brander-desktop,0,0
11:37:27,0,I/Odb,,2.0,,true,0,0,0,0,null,0,1,0,brander-desktop,0,0
11:37:28,0,I/Ofront1,,0.0,,true,0,0,0,0,null,0,1,0,brander-desktop,0,0
11:37:29,0,I/Ostatic,,144.0,,true,0,0,0,0,null,0,1,0,brander-desktop,0,0
11:37:30,0,I/Odb,,4.0,,true,0,0,0,0,null,0,1,0,brander-desktop,0,0
11:37:31,0,I/Ofront1,,0.0,,true,0,0,0,0,null,0,1,0,brander-desktop,0,0
11:37:32,0,I/Ostatic,,144.0,,true,0,0,0,0,null,0,1,0,brander-desktop,0,0
11:37:33,0,I/Odb,,3.0,,true,0,0,0,0,null,0,1,0,brander-desktop,0,0
11:37:34,0,I/Ofront1,,0.0,,true,0,0,0,0,null,0,1,0,brander-desktop,0,0
11:37:35,0,I/Ostatic,,149.0,,true,0,0,0,0,null,0,1,0,brander-desktop,0,0
11:37:36,0,I/Odb,,3.0,,true,0,0,0,0,null,0,1,0,brander-desktop,0,0
11:37:38,0,I/Ofront1,,0.0,,true,0,0,0,0,null,0,1,0,brander-desktop,0,0
11:37:39,0,I/Ostatic,,132.0,,true,0,0,0,0,null,0,1,0,brander-desktop,0,0
11:37:40,0,I/Odb,,3.0,,true,0,0,0,0,null,0,1,0,brander-desktop,0,0
11:37:41,0,I/Ofront1,,0.0,,true,0,0,0,0,null,0,1,0,brander-desktop,0,0
11:37:42,0,I/Ostatic,,171.0,,true,0,0,0,0,null,0,1,0,brander-desktop,0,0
11:37:43,0,I/Odb,,9.0,,true,0,0,0,0,null,0,1,0,brander-desktop,0,0
11:37:44,0,I/Ofront1,,0.0,,true,0,0,0,0,null,0,1,0,brander-desktop,0,0
11:37:45,0,I/Ostatic,,156.0,,true,0,0,0,0,null,0,1,0,brander-desktop,0,0
11:37:46,0,I/Odb,,2.0,,true,0,0,0,0,null,0,1,0,brander-desktop,0,0
11:37:47,0,I/Ofront1,,0.0,,true,0,0,0,0,null,0,1,0,brander-desktop,0,0
11:37:49,0,I/Ostatic,,150.0,,true,0,0,0,0,null,0,1,0,brander-desktop,0,0
11:37:50,0,I/Odb,,2.0,,true,0,0,0,0,null,0,1,0,brander-desktop,0,0
11:37:51,0,I/Ofront1,,0.0,,true,0,0,0,0,null,0,1,0,brander-desktop,0,0
11:37:52,0,I/Ostatic,,204.0,,true,0,0,0,0,null,0,1,0,brander-desktop,0,0
11:37:53,0,I/Odb,,2.0,,true,0,0,0,0,null,0,1,0,brander-desktop,0,0
11:37:54,0,I/Ofront1,,0.0,,true,0,0,0,0,null,0,1,0,brander-desktop,0,0
11:37:55,0,I/Ostatic,,142.0,,true,0,0,0,0,null,0,1,0,brander-desktop,0,0
11:37:56,0,I/Odb,,3.0,,true,0,0,0,0,null,0,1,0,brander-desktop,0,0
11:37:57,0,I/Ofront1,,0.0,,true,0,0,0,0,null,0,1,0,brander-desktop,0,0
11:37:58,0,I/Ostatic,,165.0,,true,0,0,0,0,null,0,1,0,brander-desktop,0,0
11:37:59,0,I/Odb,,3.0,,true,0,0,0,0,null,0,1,0,brander-desktop,0,0
11:38:01,0,I/Ofront1,,0.0,,true,0,0,0,0,null,0,1,0,brander-desktop,0,0
11:38:02,0,I/Ostatic,,158.0,,true,0,0,0,0,null,0,1,0,brander-desktop,0,0
11:38:03,0,I/Odb,,2.0,,true,0,0,0,0,null,0,1,0,brander-desktop,0,0
11:38:04,0,I/Ofront1,,0.0,,true,0,0,0,0,null,0,1,0,brander-desktop,0,0
11:38:05,0,I/Ostatic,,120.0,,true,0,0,0,0,null,0,1,0,brander-desktop,0,0
11:38:06,0,I/Odb,,2.0,,true,0,0,0,0,null,0,1,0,brander-desktop,0,0
11:38:07,0,I/Ofront1,,0.0,,true,0,0,0,0,null,0,1,0,brander-desktop,0,0
11:38:08,0,I/Ostatic,,161.0,,true,0,0,0,0,null,0,1,0,brander-desktop,0,0
11:38:09,0,I/Odb,,2.0,,true,0,0,0,0,null,0,1,0,brander-desktop,0,0
11:38:10,0,I/Ofront1,,0.0,,true,0,0,0,0,null,0,1,0,brander-desktop,0,0
11:38:11,0,I/Ostatic,,162.38,,true,0,0,0,0,null,0,1,0,brander-desktop,0,0
11:38:13,0,I/Odb,,3.0,,true,0,0,0,0,null,0,1,0,brander-desktop,0,0
11:38:14,0,I/Ofront1,,0.0,,true,0,0,0,0,null,0,1,0,brander-desktop,0,0
11:38:15,0,I/Ostatic,,119.0,,true,0,0,0,0,null,0,1,0,brander-desktop,0,0
11:38:16,0,I/Odb,,2.0,,true,0,0,0,0,null,0,1,0,brander-desktop,0,0
11:38:17,0,I/Ofront1,,3.0,,true,0,0,0,0,null,0,1,0,brander-desktop,0,0
11:38:18,0,I/Ostatic,,122.0,,true,0,0,0,0,null,0,1,0,brander-desktop,0,0
11:38:19,0,I/Odb,,2.0,,true,0,0,0,0,null,0,1,0,brander-desktop,0,0
11:38:20,0,I/Ofront1,,0.0,,true,0,0,0,0,null,0,1,0,brander-desktop,0,0
11:38:21,0,I/Ostatic,,150.0,,true,0,0,0,0,null,0,1,0,brander-desktop,0,0
11:38:22,0,I/Odb,,2.0,,true,0,0,0,0,null,0,1,0,brander-desktop,0,0
11:38:24,0,I/Ofront1,,2.0,,true,0,0,0,0,null,0,1,0,brander-desktop,0,0
11:38:25,0,I/Ostatic,,161.0,,true,0,0,0,0,null,0,1,0,brander-desktop,0,0
11:38:26,0,I/Odb,,2.0,,true,0,0,0,0,null,0,1,0,brander-desktop,0,0
11:38:27,0,I/Ofront1,,0.0,,true,0,0,0,0,null,0,1,0,brander-desktop,0,0
11:38:28,0,I/Ostatic,,159.41,,true,0,0,0,0,null,0,1,0,brander-desktop,0,0
11:38:29,0,I/Odb,,2.0,,true,0,0,0,0,null,0,1,0,brander-desktop,0,0
11:38:30,0,I/Ofront1,,0.0,,true,0,0,0,0,null,0,1,0,brander-desktop,0,0
11:38:31,0,I/Ostatic,,151.0,,true,0,0,0,0,null,0,1,0,brander-desktop,0,0
11:38:32,0,I/Odb,,2.0,,true,0,0,0,0,null,0,1,0,brander-desktop,0,0
11:38:33,0,I/Ofront1,,0.0,,true,0,0,0,0,null,0,1,0,brander-desktop,0,0
11:38:34,0,I/Ostatic,,155.0,,true,0,0,0,0,null,0,1,0,brander-desktop,0,0
11:38:36,0,I/Odb,,3.0,,true,0,0,0,0,null,0,1,0,brander-desktop,0,0
11:38:37,0,I/Ofront1,,0.0,,true,0,0,0,0,null,0,1,0,brander-desktop,0,0
11:38:38,0,I/Ostatic,,158.0,,true,0,0,0,0,null,0,1,0,brander-desktop,0,0
11:38:39,0,I/Odb,,2.0,,true,0,0,0,0,null,0,1,0,brander-desktop,0,0
11:38:40,0,I/Ofront1,,0.0,,true,0,0,0,0,null,0,1,0,brander-desktop,0,0
11:38:41,0,I/Ostatic,,138.0,,true,0,0,0,0,null,0,1,0,brander-desktop,0,0
11:38:42,0,I/Odb,,5.0,,true,0,0,0,0,null,0,1,0,brander-desktop,0,0
11:38:43,0,I/Ofront1,,0.0,,true,0,0,0,0,null,0,1,0,brander-desktop,0,0
11:38:44,0,I/Ostatic,,171.0,,true,0,0,0,0,null,0,1,0,brander-desktop,0,0
11:38:45,0,I/Odb,,2.0,,true,0,0,0,0,null,0,1,0,brander-desktop,0,0
11:38:47,0,I/Ofront1,,0.0,,true,0,0,0,0,null,0,1,0,brander-desktop,0,0
11:38:48,0,I/Ostatic,,168.0,,true,0,0,0,0,null,0,1,0,brander-desktop,0,0
11:38:49,0,I/Odb,,2.0,,true,0,0,0,0,null,0,1,0,brander-desktop,0,0
11:38:50,0,I/Ofront1,,0.0,,true,0,0,0,0,null,0,1,0,brander-desktop,0,0
11:38:51,0,I/Ostatic,,149.0,,true,0,0,0,0,null,0,1,0,brander-desktop,0,0
11:38:52,0,I/Odb,,2.0,,true,0,0,0,0,null,0,1,0,brander-desktop,0,0
11:38:54,0,I/Ofront1,,0.0,,true,0,0,0,0,null,0,1,0,brander-desktop,0,0
11:38:55,0,I/Ostatic,,124.0,,true,0,0,0,0,null,0,1,0,brander-desktop,0,0
11:38:56,0,I/Odb,,3.0,,true,0,0,0,0,null,0,1,0,brander-desktop,0,0
11:38:57,0,I/Ofront1,,0.0,,true,0,0,0,0,null,0,1,0,brander-desktop,0,0
11:38:58,0,I/Ostatic,,160.0,,true,0,0,0,0,null,0,1,0,brander-desktop,0,0
11:39:00,0,I/Odb,,2.0,,true,0,0,0,0,null,0,1,0,brander-desktop,0,0
11:39:01,0,I/Ofront1,,0.0,,true,0,0,0,0,null,0,1,0,brander-desktop,0,0
11:39:02,0,I/Ostatic,,135.0,,true,0,0,0,0,null,0,1,0,brander-desktop,0,0
11:39:03,0,I/Odb,,3.0,,true,0,0,0,0,null,0,1,0,brander-desktop,0,0
11:39:04,0,I/Ofront1,,0.0,,true,0,0,0,0,null,0,1,0,brander-desktop,0,0
11:39:05,0,I/Ostatic,,144.0,,true,0,0,0,0,null,0,1,0,brander-desktop,0,0
11:39:06,0,I/Odb,,3.0,,true,0,0,0,0,null,0,1,0,brander-desktop,0,0
11:39:07,0,I/Ofront1,,0.0,,true,0,0,0,0,null,0,1,0,brander-desktop,0,0
11:39:08,0,I/Ostatic,,134.0,,true,0,0,0,0,null,0,1,0,brander-desktop,0,0
11:39:10,0,I/Odb,,3.0,,true,0,0,0,0,null,0,1,0,brander-desktop,0,0
11:39:11,0,I/Ofront1,,0.0,,true,0,0,0,0,null,0,1,0,brander-desktop,0,0
11:39:12,0,I/Ostatic,,170.0,,true,0,0,0,0,null,0,1,0,brander-desktop,0,0
11:39:13,0,I/Odb,,7.0,,true,0,0,0,0,null,0,1,0,brander-desktop,0,0
11:39:14,0,I/Ofront1,,0.0,,true,0,0,0,0,null,0,1,0,brander-desktop,0,0
11:39:15,0,I/Ostatic,,151.0,,true,0,0,0,0,null,0,1,0,brander-desktop,0,0
11:39:16,0,I/Odb,,2.0,,true,0,0,0,0,null,0,1,0,brander-desktop,0,0
11:39:17,0,I/Ofront1,,0.0,,true,0,0,0,0,null,0,1,0,brander-desktop,0,0
11:39:18,0,I/Ostatic,,146.0,,true,0,0,0,0,null,0,1,0,brander-desktop,0,0
11:39:19,0,I/Odb,,3.0,,true,0,0,0,0,null,0,1,0,brander-desktop,0,0
11:39:20,0,I/Ofront1,,0.0,,true,0,0,0,0,null,0,1,0,brander-desktop,0,0
11:39:22,0,I/Ostatic,,204.0,,true,0,0,0,0,null,0,1,0,brander-desktop,0,0
11:39:23,0,I/Odb,,3.0,,true,0,0,0,0,null,0,1,0,brander-desktop,0,0
11:39:24,0,I/Ofront1,,1.0,,true,0,0,0,0,null,0,1,0,brander-desktop,0,0
11:39:25,0,I/Ostatic,,125.0,,true,0,0,0,0,null,0,1,0,brander-desktop,0,0
11:39:26,0,I/Odb,,3.0,,true,0,0,0,0,null,0,1,0,brander-desktop,0,0
11:39:27,0,I/Ofront1,,5.0,,true,0,0,0,0,null,0,1,0,brander-desktop,0,0
11:39:28,0,I/Ostatic,,128.0,,true,0,0,0,0,null,0,1,0,brander-desktop,0,0
11:39:29,0,I/Odb,,2.0,,true,0,0,0,0,null,0,1,0,brander-desktop,0,0
11:39:30,0,I/Ofront1,,0.0,,true,0,0,0,0,null,0,1,0,brander-desktop,0,0
11:39:31,0,I/Ostatic,,165.0,,true,0,0,0,0,null,0,1,0,brander-desktop,0,0
11:39:32,0,I/Odb,,3.0,,true,0,0,0,0,null,0,1,0,brander-desktop,0,0
11:39:34,0,I/Ofront1,,0.0,,true,0,0,0,0,null,0,1,0,brander-desktop,0,0
11:39:35,0,I/Ostatic,,80.0,,true,0,0,0,0,null,0,1,0,brander-desktop,0,0
11:39:36,0,I/Odb,,3.0,,true,0,0,0,0,null,0,1,0,brander-desktop,0,0
11:39:37,0,I/Ofront1,,0.0,,true,0,0,0,0,null,0,1,0,brander-desktop,0,0
11:39:38,0,I/Ostatic,,182.0,,true,0,0,0,0,null,0,1,0,brander-desktop,0,0
11:39:39,0,I/Odb,,3.0,,true,0,0,0,0,null,0,1,0,brander-desktop,0,0
11:39:40,0,I/Ofront1,,0.0,,true,0,0,0,0,null,0,1,0,brander-desktop,0,0
11:39:42,0,I/Ostatic,,169.0,,true,0,0,0,0,null,0,1,0,brander-desktop,0,0
11:39:43,0,I/Odb,,3.0,,true,0,0,0,0,null,0,1,0,brander-desktop,0,0
11:39:44,0,I/Ofront1,,0.0,,true,0,0,0,0,null,0,1,0,brander-desktop,0,0
11:39:45,0,I/Ostatic,,133.0,,true,0,0,0,0,null,0,1,0,brander-desktop,0,0
11:39:46,0,I/Odb,,2.0,,true,0,0,0,0,null,0,1,0,brander-desktop,0,0
11:39:47,0,I/Ofront1,,0.0,,true,0,0,0,0,null,0,1,0,brander-desktop,0,0
11:39:48,0,I/Ostatic,,134.0,,true,0,0,0,0,null,0,1,0,brander-desktop,0,0
11:39:49,0,I/Odb,,3.0,,true,0,0,0,0,null,0,1,0,brander-desktop,0,0
11:39:50,0,I/Ofront1,,0.0,,true,0,0,0,0,null,0,1,0,brander-desktop,0,0
11:39:52,0,I/Ostatic,,156.0,,true,0,0,0,0,null,0,1,0,brander-desktop,0,0
11:39:53,0,I/Odb,,2.0,,true,0,0,0,0,null,0,1,0,brander-desktop,0,0
11:39:54,0,I/Ofront1,,11.0,,true,0,0,0,0,null,0,1,0,brander-desktop,0,0
11:39:55,0,I/Ostatic,,99.0,,true,0,0,0,0,null,0,1,0,brander-desktop,0,0
11:39:57,0,I/Odb,,2.0,,true,0,0,0,0,null,0,1,0,brander-desktop,0,0
11:39:58,0,I/Ofront1,,0.0,,true,0,0,0,0,null,0,1,0,brander-desktop,0,0
11:39:59,0,I/Ostatic,,181.0,,true,0,0,0,0,null,0,1,0,brander-desktop,0,0
11:40:00,0,I/Odb,,1.98,,true,0,0,0,0,null,0,1,0,brander-desktop,0,0
11:40:02,0,I/Ofront1,,3.0,,true,0,0,0,0,null,0,1,0,brander-desktop,0,0
11:40:03,0,I/Ostatic,,194.0,,true,0,0,0,0,null,0,1,0,brander-desktop,0,0
11:40:04,0,I/Odb,,2.0,,true,0,0,0,0,null,0,1,0,brander-desktop,0,0
11:40:05,0,I/Ofront1,,0.0,,true,0,0,0,0,null,0,1,0,brander-desktop,0,0
11:40:06,0,I/Ostatic,,112.0,,true,0,0,0,0,null,0,1,0,brander-desktop,0,0
11:40:07,0,I/Odb,,41.0,,true,0,0,0,0,null,0,1,0,brander-desktop,0,0
11:40:09,0,I/Ofront1,,0.0,,true,0,0,0,0,null,0,1,0,brander-desktop,0,0
11:40:10,0,I/Ostatic,,152.0,,true,0,0,0,0,null,0,1,0,brander-desktop,0,0
11:40:11,0,I/Odb,,2.0,,true,0,0,0,0,null,0,1,0,brander-desktop,0,0
11:40:12,0,I/Ofront1,,2.0,,true,0,0,0,0,null,0,1,0,brander-desktop,0,0
11:40:13,0,I/Ostatic,,169.0,,true,0,0,0,0,null,0,1,0,brander-desktop,0,0
11:40:14,0,I/Odb,,3.0,,true,0,0,0,0,null,0,1,0,brander-desktop,0,0
11:40:16,0,I/Ofront1,,0.0,,true,0,0,0,0,null,0,1,0,brander-desktop,0,0
11:40:17,0,I/Ostatic,,140.0,,true,0,0,0,0,null,0,1,0,brander-desktop,0,0
11:40:18,0,I/Odb,,2.0,,true,0,0,0,0,null,0,1,0,brander-desktop,0,0
11:40:19,0,I/Ofront1,,0.0,,true,0,0,0,0,null,0,1,0,brander-desktop,0,0
11:40:20,0,I/Ostatic,,117.0,,true,0,0,0,0,null,0,1,0,brander-desktop,0,0
11:40:21,0,I/Odb,,1.98,,true,0,0,0,0,null,0,1,0,brander-desktop,0,0
11:40:22,0,I/Ofront1,,0.0,,true,0,0,0,0,null,0,1,0,brander-desktop,0,0
11:40:24,0,I/Ostatic,,159.0,,true,0,0,0,0,null,0,1,0,brander-desktop,0,0
11:40:25,0,I/Odb,,3.0,,true,0,0,0,0,null,0,1,0,brander-desktop,0,0
11:40:26,0,I/Ofront1,,0.0,,true,0,0,0,0,null,0,1,0,brander-desktop,0,0
11:40:27,0,I/Ostatic,,155.0,,true,0,0,0,0,null,0,1,0,brander-desktop,0,0
11:40:28,0,I/Odb,,2.0,,true,0,0,0,0,null,0,1,0,brander-desktop,0,0
11:40:29,0,I/Ofront1,,0.0,,true,0,0,0,0,null,0,1,0,brander-desktop,0,0
11:40:30,0,I/Ostatic,,147.0,,true,0,0,0,0,null,0,1,0,brander-desktop,0,0
11:40:31,0,I/Odb,,2.0,,true,0,0,0,0,null,0,1,0,brander-desktop,0,0
11:40:33,0,I/Ofront1,,0.0,,true,0,0,0,0,null,0,1,0,brander-desktop,0,0
11:40:34,0,I/Ostatic,,142.0,,true,0,0,0,0,null,0,1,0,brander-desktop,0,0
11:40:35,0,I/Odb,,5.0,,true,0,0,0,0,null,0,1,0,brander-desktop,0,0
11:40:36,0,I/Ofront1,,0.0,,true,0,0,0,0,null,0,1,0,brander-desktop,0,0
11:40:37,0,I/Ostatic,,135.0,,true,0,0,0,0,null,0,1,0,brander-desktop,0,0
11:40:38,0,I/Odb,,42.0,,true,0,0,0,0,null,0,1,0,brander-desktop,0,0
11:40:39,0,I/Ofront1,,0.0,,true,0,0,0,0,null,0,1,0,brander-desktop,0,0
11:40:40,0,I/Ostatic,,161.0,,true,0,0,0,0,null,0,1,0,brander-desktop,0,0
11:40:41,0,I/Odb,,0.0,,true,0,0,0,0,null,0,1,0,brander-desktop,0,0
11:40:43,0,I/Ofront1,,0.0,,true,0,0,0,0,null,0,1,0,brander-desktop,0,0
11:40:44,0,I/Ostatic,,147.0,,true,0,0,0,0,null,0,1,0,brander-desktop,0,0
11:40:45,0,I/Odb,,3.0,,true,0,0,0,0,null,0,1,0,brander-desktop,0,0
11:40:46,0,I/Ofront1,,0.0,,true,0,0,0,0,null,0,1,0,brander-desktop,0,0
11:40:47,0,I/Ostatic,,156.0,,true,0,0,0,0,null,0,1,0,brander-desktop,0,0
11:40:48,0,I/Odb,,2.0,,true,0,0,0,0,null,0,1,0,brander-desktop,0,0
11:40:49,0,I/Ofront1,,0.0,,true,0,0,0,0,null,0,1,0,brander-desktop,0,0
11:40:50,0,I/Ostatic,,171.0,,true,0,0,0,0,null,0,1,0,brander-desktop,0,0
11:40:51,0,I/Odb,,3.0,,true,0,0,0,0,null,0,1,0,brander-desktop,0,0
11:40:53,0,I/Ofront1,,0.0,,true,0,0,0,0,null,0,1,0,brander-desktop,0,0
11:40:54,0,I/Ostatic,,148.0,,true,0,0,0,0,null,0,1,0,brander-desktop,0,0
11:40:55,0,I/Odb,,2.0,,true,0,0,0,0,null,0,1,0,brander-desktop,0,0
11:40:56,0,I/Ofront1,,0.0,,true,0,0,0,0,null,0,1,0,brander-desktop,0,0
11:40:57,0,I/Ostatic,,141.0,,true,0,0,0,0,null,0,1,0,brander-desktop,0,0
11:40:58,0,I/Odb,,3.0,,true,0,0,0,0,null,0,1,0,brander-desktop,0,0
11:40:59,0,I/Ofront1,,0.0,,true,0,0,0,0,null,0,1,0,brander-desktop,0,0
11:41:00,0,I/Ostatic,,150.0,,true,0,0,0,0,null,0,1,0,brander-desktop,0,0
11:41:02,0,I/Odb,,2.0,,true,0,0,0,0,null,0,1,0,brander-desktop,0,0
11:41:03,0,I/Ofront1,,0.0,,true,0,0,0,0,null,0,1,0,brander-desktop,0,0
11:41:04,0,I/Ostatic,,118.0,,true,0,0,0,0,null,0,1,0,brander-desktop,0,0
11:41:05,0,I/Odb,,2.0,,true,0,0,0,0,null,0,1,0,brander-desktop,0,0
11:41:06,0,I/Ofront1,,0.0,,true,0,0,0,0,null,0,1,0,brander-desktop,0,0
11:41:07,0,I/Ostatic,,173.0,,true,0,0,0,0,null,0,1,0,brander-desktop,0,0
11:41:08,0,I/Odb,,45.0,,true,0,0,0,0,null,0,1,0,brander-desktop,0,0
11:41:09,0,I/Ofront1,,0.0,,true,0,0,0,0,null,0,1,0,brander-desktop,0,0
11:41:10,0,I/Ostatic,,174.0,,true,0,0,0,0,null,0,1,0,brander-desktop,0,0
11:41:11,0,I/Odb,,3.0,,true,0,0,0,0,null,0,1,0,brander-desktop,0,0
11:41:13,0,I/Ofront1,,0.0,,true,0,0,0,0,null,0,1,0,brander-desktop,0,0
11:41:14,0,I/Ostatic,,125.0,,true,0,0,0,0,null,0,1,0,brander-desktop,0,0
11:41:15,0,I/Odb,,2.0,,true,0,0,0,0,null,0,1,0,brander-desktop,0,0
11:41:16,0,I/Ofront1,,0.0,,true,0,0,0,0,null,0,1,0,brander-desktop,0,0
11:41:17,0,I/Ostatic,,139.0,,true,0,0,0,0,null,0,1,0,brander-desktop,0,0
11:41:18,0,I/Odb,,2.0,,true,0,0,0,0,null,0,1,0,brander-desktop,0,0
11:41:19,0,I/Ofront1,,0.0,,true,0,0,0,0,null,0,1,0,brander-desktop,0,0
11:41:21,0,I/Ostatic,,150.0,,true,0,0,0,0,null,0,1,0,brander-desktop,0,0
11:41:22,0,I/Odb,,3.0,,true,0,0,0,0,null,0,1,0,brander-desktop,0,0
11:41:23,0,I/Ofront1,,0.0,,true,0,0,0,0,null,0,1,0,brander-desktop,0,0
11:41:24,0,I/Ostatic,,149.0,,true,0,0,0,0,null,0,1,0,brander-desktop,0,0
11:41:25,0,I/Odb,,7.0,,true,0,0,0,0,null,0,1,0,brander-desktop,0,0
11:41:26,0,I/Ofront1,,0.0,,true,0,0,0,0,null,0,1,0,brander-desktop,0,0
11:41:27,0,I/Ostatic,,163.0,,true,0,0,0,0,null,0,1,0,brander-desktop,0,0
11:41:28,0,I/Odb,,2.0,,true,0,0,0,0,null,0,1,0,brander-desktop,0,0
11:41:29,0,I/Ofront1,,0.0,,true,0,0,0,0,null,0,1,0,brander-desktop,0,0
11:41:30,0,I/Ostatic,,147.0,,true,0,0,0,0,null,0,1,0,brander-desktop,0,0
11:41:31,0,I/Odb,,2.0,,true,0,0,0,0,null,0,1,0,brander-desktop,0,0
11:41:33,0,I/Ofront1,,0.0,,true,0,0,0,0,null,0,1,0,brander-desktop,0,0
11:41:34,0,I/Ostatic,,178.0,,true,0,0,0,0,null,0,1,0,brander-desktop,0,0
11:41:35,0,I/Odb,,8.0,,true,0,0,0,0,null,0,1,0,brander-desktop,0,0
11:41:36,0,I/Ofront1,,0.0,,true,0,0,0,0,null,0,1,0,brander-desktop,0,0
11:41:37,0,I/Ostatic,,172.0,,true,0,0,0,0,null,0,1,0,brander-desktop,0,0
11:41:38,0,I/Odb,,42.0,,true,0,0,0,0,null,0,1,0,brander-desktop,0,0
11:41:39,0,I/Ofront1,,0.0,,true,0,0,0,0,null,0,1,0,brander-desktop,0,0
11:41:40,0,I/Ostatic,,196.0,,true,0,0,0,0,null,0,1,0,brander-desktop,0,0
11:41:41,0,I/Odb,,2.0,,true,0,0,0,0,null,0,1,0,brander-desktop,0,0
11:41:42,0,I/Ofront1,,0.0,,true,0,0,0,0,null,0,1,0,brander-desktop,0,0
11:41:43,0,I/Ostatic,,116.0,,true,0,0,0,0,null,0,1,0,brander-desktop,0,0
11:41:45,0,I/Odb,,7.0,,true,0,0,0,0,null,0,1,0,brander-desktop,0,0
11:41:46,0,I/Ofront1,,0.0,,true,0,0,0,0,null,0,1,0,brander-desktop,0,0
11:41:47,0,I/Ostatic,,150.0,,true,0,0,0,0,null,0,1,0,brander-desktop,0,0
11:41:48,0,I/Odb,,2.0,,true,0,0,0,0,null,0,1,0,brander-desktop,0,0
11:41:49,0,I/Ofront1,,0.0,,true,0,0,0,0,null,0,1,0,brander-desktop,0,0
11:41:50,0,I/Ostatic,,124.0,,true,0,0,0,0,null,0,1,0,brander-desktop,0,0
11:41:51,0,I/Odb,,2.0,,true,0,0,0,0,null,0,1,0,brander-desktop,0,0
11:41:52,0,I/Ofront1,,1.0,,true,0,0,0,0,null,0,1,0,brander-desktop,0,0
11:41:53,0,I/Ostatic,,172.0,,true,0,0,0,0,null,0,1,0,brander-desktop,0,0
11:41:55,0,I/Odb,,7.0,,true,0,0,0,0,null,0,1,0,brander-desktop,0,0
11:41:56,0,I/Ofront1,,0.0,,true,0,0,0,0,null,0,1,0,brander-desktop,0,0
11:41:57,0,I/Ostatic,,149.0,,true,0,0,0,0,null,0,1,0,brander-desktop,0,0
11:41:58,0,I/Odb,,2.0,,true,0,0,0,0,null,0,1,0,brander-desktop,0,0
11:41:59,0,I/Ofront1,,0.0,,true,0,0,0,0,null,0,1,0,brander-desktop,0,0
11:42:00,0,I/Ostatic,,148.0,,true,0,0,0,0,null,0,1,0,brander-desktop,0,0
11:42:01,0,I/Odb,,2.0,,true,0,0,0,0,null,0,1,0,brander-desktop,0,0
11:42:03,0,I/Ofront1,,0.0,,true,0,0,0,0,null,0,1,0,brander-desktop,0,0
11:42:04,0,I/Ostatic,,188.0,,true,0,0,0,0,null,0,1,0,brander-desktop,0,0
11:42:05,0,I/Odb,,6.0,,true,0,0,0,0,null,0,1,0,brander-desktop,0,0
11:42:06,0,I/Ofront1,,0.0,,true,0,0,0,0,null,0,1,0,brander-desktop,0,0
11:42:07,0,I/Ostatic,,152.0,,true,0,0,0,0,null,0,1,0,brander-desktop,0,0
11:42:08,0,I/Odb,,39.0,,true,0,0,0,0,null,0,1,0,brander-desktop,0,0
11:42:09,0,I/Ofront1,,0.0,,true,0,0,0,0,null,0,1,0,brander-desktop,0,0
11:42:10,0,I/Ostatic,,125.0,,true,0,0,0,0,null,0,1,0,brander-desktop,0,0
11:42:11,0,I/Odb,,2.0,,true,0,0,0,0,null,0,1,0,brander-desktop,0,0
11:42:12,0,I/Ofront1,,0.0,,true,0,0,0,0,null,0,1,0,brander-desktop,0,0
11:42:14,0,I/Ostatic,,137.0,,true,0,0,0,0,null,0,1,0,brander-desktop,0,0
11:42:15,0,I/Odb,,3.0,,true,0,0,0,0,null,0,1,0,brander-desktop,0,0
11:42:16,0,I/Ofront1,,0.0,,true,0,0,0,0,null,0,1,0,brander-desktop,0,0
11:42:17,0,I/Ostatic,,98.0,,true,0,0,0,0,null,0,1,0,brander-desktop,0,0
11:42:18,0,I/Odb,,2.0,,true,0,0,0,0,null,0,1,0,brander-desktop,0,0
11:42:19,0,I/Ofront1,,0.0,,true,0,0,0,0,null,0,1,0,brander-desktop,0,0
11:42:20,0,I/Ostatic,,228.0,,true,0,0,0,0,null,0,1,0,brander-desktop,0,0
11:42:21,0,I/Odb,,2.0,,true,0,0,0,0,null,0,1,0,brander-desktop,0,0
11:42:22,0,I/Ofront1,,3.0,,true,0,0,0,0,null,0,1,0,brander-desktop,0,0
11:42:23,0,I/Ostatic,,135.0,,true,0,0,0,0,null,0,1,0,brander-desktop,0,0
11:42:25,0,I/Odb,,3.0,,true,0,0,0,0,null,0,1,0,brander-desktop,0,0
11:42:26,0,I/Ofront1,,0.0,,true,0,0,0,0,null,0,1,0,brander-desktop,0,0
11:42:27,0,I/Ostatic,,114.0,,true,0,0,0,0,null,0,1,0,brander-desktop,0,0
11:42:28,0,I/Odb,,2.0,,true,0,0,0,0,null,0,1,0,brander-desktop,0,0
11:42:29,0,I/Ofront1,,0.0,,true,0,0,0,0,null,0,1,0,brander-desktop,0,0
11:42:30,0,I/Ostatic,,106.0,,true,0,0,0,0,null,0,1,0,brander-desktop,0,0
11:42:32,0,I/Odb,,0.0,,true,0,0,0,0,null,0,1,0,brander-desktop,0,0
11:42:33,0,I/Ofront1,,0.0,,true,0,0,0,0,null,0,1,0,brander-desktop,0,0
11:42:34,0,I/Ostatic,,115.0,,true,0,0,0,0,null,0,1,0,brander-desktop,0,0
11:42:35,0,I/Odb,,2.0,,true,0,0,0,0,null,0,1,0,brander-desktop,0,0
11:42:36,0,I/Ofront1,,0.0,,true,0,0,0,0,null,0,1,0,brander-desktop,0,0
11:42:37,0,I/Ostatic,,133.0,,true,0,0,0,0,null,0,1,0,brander-desktop,0,0
11:42:38,0,I/Odb,,46.0,,true,0,0,0,0,null,0,1,0,brander-desktop,0,0
11:42:39,0,I/Ofront1,,0.0,,true,0,0,0,0,null,0,1,0,brander-desktop,0,0
11:42:40,0,I/Ostatic,,129.0,,true,0,0,0,0,null,0,1,0,brander-desktop,0,0
11:42:41,0,I/Odb,,3.0,,true,0,0,0,0,null,0,1,0,brander-desktop,0,0
11:42:43,0,I/Ofront1,,0.0,,true,0,0,0,0,null,0,1,0,brander-desktop,0,0
11:42:44,0,I/Ostatic,,161.0,,true,0,0,0,0,null,0,1,0,brander-desktop,0,0
11:42:45,0,I/Odb,,3.0,,true,0,0,0,0,null,0,1,0,brander-desktop,0,0
11:42:46,0,I/Ofront1,,0.0,,true,0,0,0,0,null,0,1,0,brander-desktop,0,0
11:42:47,0,I/Ostatic,,143.0,,true,0,0,0,0,null,0,1,0,brander-desktop,0,0
11:42:48,0,I/Odb,,2.0,,true,0,0,0,0,null,0,1,0,brander-desktop,0,0
11:42:49,0,I/Ofront1,,0.0,,true,0,0,0,0,null,0,1,0,brander-desktop,0,0
11:42:50,0,I/Ostatic,,142.0,,true,0,0,0,0,null,0,1,0,brander-desktop,0,0
11:42:52,0,I/Odb,,2.0,,true,0,0,0,0,null,0,1,0,brander-desktop,0,0
11:42:53,0,I/Ofront1,,0.0,,true,0,0,0,0,null,0,1,0,brander-desktop,0,0
11:42:54,0,I/Ostatic,,84.0,,true,0,0,0,0,null,0,1,0,brander-desktop,0,0
11:42:55,0,I/Odb,,3.0,,true,0,0,0,0,null,0,1,0,brander-desktop,0,0
11:42:57,0,I/Ofront1,,0.0,,true,0,0,0,0,null,0,1,0,brander-desktop,0,0
11:42:58,0,I/Ostatic,,217.0,,true,0,0,0,0,null,0,1,0,brander-desktop,0,0
11:42:59,0,I/Odb,,3.0,,true,0,0,0,0,null,0,1,0,brander-desktop,0,0
11:43:01,0,I/Ofront1,,0.0,,true,0,0,0,0,null,0,1,0,brander-desktop,0,0
11:43:02,0,I/Ostatic,,154.0,,true,0,0,0,0,null,0,1,0,brander-desktop,0,0
11:43:03,0,I/Odb,,2.0,,true,0,0,0,0,null,0,1,0,brander-desktop,0,0
11:43:04,0,I/Ofront1,,0.0,,true,0,0,0,0,null,0,1,0,brander-desktop,0,0
11:43:05,0,I/Ostatic,,157.0,,true,0,0,0,0,null,0,1,0,brander-desktop,0,0
11:43:07,0,I/Odb,,2.0,,true,0,0,0,0,null,0,1,0,brander-desktop,0,0
11:43:08,0,I/Ofront1,,0.0,,true,0,0,0,0,null,0,1,0,brander-desktop,0,0
11:43:09,0,I/Ostatic,,142.0,,true,0,0,0,0,null,0,1,0,brander-desktop,0,0
11:43:10,0,I/Odb,,3.0,,true,0,0,0,0,null,0,1,0,brander-desktop,0,0
11:43:12,0,I/Ofront1,,0.0,,true,0,0,0,0,null,0,1,0,brander-desktop,0,0
11:43:13,0,I/Ostatic,,120.0,,true,0,0,0,0,null,0,1,0,brander-desktop,0,0
11:43:15,0,I/Odb,,2.0,,true,0,0,0,0,null,0,1,0,brander-desktop,0,0
11:43:16,0,I/Ofront1,,0.0,,true,0,0,0,0,null,0,1,0,brander-desktop,0,0
11:43:17,0,I/Ostatic,,151.49,,true,0,0,0,0,null,0,1,0,brander-desktop,0,0
11:43:18,0,I/Odb,,2.0,,true,0,0,0,0,null,0,1,0,brander-desktop,0,0
11:43:20,0,I/Ofront1,,0.0,,true,0,0,0,0,null,0,1,0,brander-desktop,0,0
11:43:21,0,I/Ostatic,,157.0,,true,0,0,0,0,null,0,1,0,brander-desktop,0,0
11:43:22,0,I/Odb,,3.0,,true,0,0,0,0,null,0,1,0,brander-desktop,0,0
11:43:24,0,I/Ofront1,,1.0,,true,0,0,0,0,null,0,1,0,brander-desktop,0,0
11:43:25,0,I/Ostatic,,153.0,,true,0,0,0,0,null,0,1,0,brander-desktop,0,0
11:43:26,0,I/Odb,,3.0,,true,0,0,0,0,null,0,1,0,brander-desktop,0,0
11:43:27,0,I/Ofront1,,1.0,,true,0,0,0,0,null,0,1,0,brander-desktop,0,0
11:43:29,0,I/Ostatic,,120.0,,true,0,0,0,0,null,0,1,0,brander-desktop,0,0
11:43:30,0,I/Odb,,3.0,,true,0,0,0,0,null,0,1,0,brander-desktop,0,0
11:43:31,0,I/Ofront1,,0.0,,true,0,0,0,0,null,0,1,0,brander-desktop,0,0
11:43:33,0,I/Ostatic,,168.0,,true,0,0,0,0,null,0,1,0,brander-desktop,0,0
11:43:34,0,I/Odb,,3.0,,true,0,0,0,0,null,0,1,0,brander-desktop,0,0
11:43:35,0,I/Ofront1,,0.0,,true,0,0,0,0,null,0,1,0,brander-desktop,0,0
11:43:36,0,I/Ostatic,,144.0,,true,0,0,0,0,null,0,1,0,brander-desktop,0,0
11:43:38,0,I/Odb,,3.0,,true,0,0,0,0,null,0,1,0,brander-desktop,0,0
11:43:39,0,I/Ofront1,,0.0,,true,0,0,0,0,null,0,1,0,brander-desktop,0,0
11:43:40,0,I/Ostatic,,178.0,,true,0,0,0,0,null,0,1,0,brander-desktop,0,0
11:43:42,0,I/Odb,,7.0,,true,0,0,0,0,null,0,1,0,brander-desktop,0,0
11:43:43,0,I/Ofront1,,0.0,,true,0,0,0,0,null,0,1,0,brander-desktop,0,0
11:43:44,0,I/Ostatic,,90.0,,true,0,0,0,0,null,0,1,0,brander-desktop,0,0
11:43:46,0,I/Odb,,2.0,,true,0,0,0,0,null,0,1,0,brander-desktop,0,0
11:43:48,0,I/Ofront1,,0.0,,true,0,0,0,0,null,0,1,0,brander-desktop,0,0
11:43:49,0,I/Ostatic,,10.0,,true,0,0,0,0,null,0,1,0,brander-desktop,0,0
