timeStamp,elapsed,label,responseCode,responseMessage,threadName,success,bytes,sentBytes,grpThreads,allThreads,URL,Latency,SampleCount,ErrorCount,Hostname,IdleTime,Connect
18:31:20,0,I/Ostatic,,38.0,,true,0,0,0,0,null,0,1,0,brander-desktop,0,0
18:31:22,0,I/Odb,,2.0,,true,0,0,0,0,null,0,1,0,brander-desktop,0,0
18:31:24,0,I/Ofront1,,26.0,,true,0,0,0,0,null,0,1,0,brander-desktop,0,0
18:31:25,0,I/Ostatic,,72.0,,true,0,0,0,0,null,0,1,0,brander-desktop,0,0
18:31:26,0,I/Odb,,3.0,,true,0,0,0,0,null,0,1,0,brander-desktop,0,0
18:31:27,0,I/Ofront1,,18.0,,true,0,0,0,0,null,0,1,0,brander-desktop,0,0
18:31:28,0,I/Ostatic,,199.0,,true,0,0,0,0,null,0,1,0,brander-desktop,0,0
18:31:29,0,I/Odb,,2.0,,true,0,0,0,0,null,0,1,0,brander-desktop,0,0
18:31:30,0,I/Ofront1,,0.0,,true,0,0,0,0,null,0,1,0,brander-desktop,0,0
18:31:31,0,I/Ostatic,,158.0,,true,0,0,0,0,null,0,1,0,brander-desktop,0,0
18:31:32,0,I/Odb,,3.0,,true,0,0,0,0,null,0,1,0,brander-desktop,0,0
18:31:33,0,I/Ofront1,,0.0,,true,0,0,0,0,null,0,1,0,brander-desktop,0,0
18:31:35,0,I/Ostatic,,135.0,,true,0,0,0,0,null,0,1,0,brander-desktop,0,0
18:31:36,0,I/Odb,,2.0,,true,0,0,0,0,null,0,1,0,brander-desktop,0,0
18:31:37,0,I/Ofront1,,0.0,,true,0,0,0,0,null,0,1,0,brander-desktop,0,0
18:31:38,0,I/Ostatic,,134.0,,true,0,0,0,0,null,0,1,0,brander-desktop,0,0
18:31:39,0,I/Odb,,4.0,,true,0,0,0,0,null,0,1,0,brander-desktop,0,0
18:31:40,0,I/Ofront1,,1.0,,true,0,0,0,0,null,0,1,0,brander-desktop,0,0
18:31:41,0,I/Ostatic,,150.0,,true,0,0,0,0,null,0,1,0,brander-desktop,0,0
18:31:42,0,I/Odb,,5.0,,true,0,0,0,0,null,0,1,0,brander-desktop,0,0
18:31:43,0,I/Ofront1,,0.0,,true,0,0,0,0,null,0,1,0,brander-desktop,0,0
18:31:44,0,I/Ostatic,,182.0,,true,0,0,0,0,null,0,1,0,brander-desktop,0,0
18:31:45,0,I/Odb,,3.96,,true,0,0,0,0,null,0,1,0,brander-desktop,0,0
18:31:47,0,I/Ofront1,,0.0,,true,0,0,0,0,null,0,1,0,brander-desktop,0,0
18:31:48,0,I/Ostatic,,145.0,,true,0,0,0,0,null,0,1,0,brander-desktop,0,0
18:31:49,0,I/Odb,,3.0,,true,0,0,0,0,null,0,1,0,brander-desktop,0,0
18:31:50,0,I/Ofront1,,0.0,,true,0,0,0,0,null,0,1,0,brander-desktop,0,0
18:31:51,0,I/Ostatic,,121.0,,true,0,0,0,0,null,0,1,0,brander-desktop,0,0
18:31:52,0,I/Odb,,6.0,,true,0,0,0,0,null,0,1,0,brander-desktop,0,0
18:31:53,0,I/Ofront1,,0.0,,true,0,0,0,0,null,0,1,0,brander-desktop,0,0
18:31:54,0,I/Ostatic,,146.0,,true,0,0,0,0,null,0,1,0,brander-desktop,0,0
18:31:55,0,I/Odb,,16.0,,true,0,0,0,0,null,0,1,0,brander-desktop,0,0
18:31:56,0,I/Ofront1,,0.0,,true,0,0,0,0,null,0,1,0,brander-desktop,0,0
18:31:57,0,I/Ostatic,,152.0,,true,0,0,0,0,null,0,1,0,brander-desktop,0,0
18:31:59,0,I/Odb,,4.0,,true,0,0,0,0,null,0,1,0,brander-desktop,0,0
18:32:00,0,I/Ofront1,,0.0,,true,0,0,0,0,null,0,1,0,brander-desktop,0,0
18:32:01,0,I/Ostatic,,166.0,,true,0,0,0,0,null,0,1,0,brander-desktop,0,0
18:32:02,0,I/Odb,,2.0,,true,0,0,0,0,null,0,1,0,brander-desktop,0,0
18:32:03,0,I/Ofront1,,0.0,,true,0,0,0,0,null,0,1,0,brander-desktop,0,0
18:32:04,0,I/Ostatic,,127.0,,true,0,0,0,0,null,0,1,0,brander-desktop,0,0
18:32:05,0,I/Odb,,5.0,,true,0,0,0,0,null,0,1,0,brander-desktop,0,0
18:32:06,0,I/Ofront1,,0.0,,true,0,0,0,0,null,0,1,0,brander-desktop,0,0
18:32:07,0,I/Ostatic,,135.0,,true,0,0,0,0,null,0,1,0,brander-desktop,0,0
18:32:08,0,I/Odb,,3.0,,true,0,0,0,0,null,0,1,0,brander-desktop,0,0
18:32:09,0,I/Ofront1,,16.0,,true,0,0,0,0,null,0,1,0,brander-desktop,0,0
18:32:11,0,I/Ostatic,,143.0,,true,0,0,0,0,null,0,1,0,brander-desktop,0,0
18:32:12,0,I/Odb,,3.0,,true,0,0,0,0,null,0,1,0,brander-desktop,0,0
18:32:13,0,I/Ofront1,,0.0,,true,0,0,0,0,null,0,1,0,brander-desktop,0,0
18:32:14,0,I/Ostatic,,173.0,,true,0,0,0,0,null,0,1,0,brander-desktop,0,0
18:32:15,0,I/Odb,,3.0,,true,0,0,0,0,null,0,1,0,brander-desktop,0,0
18:32:16,0,I/Ofront1,,0.0,,true,0,0,0,0,null,0,1,0,brander-desktop,0,0
18:32:17,0,I/Ostatic,,148.0,,true,0,0,0,0,null,0,1,0,brander-desktop,0,0
18:32:18,0,I/Odb,,30.0,,true,0,0,0,0,null,0,1,0,brander-desktop,0,0
18:32:19,0,I/Ofront1,,0.0,,true,0,0,0,0,null,0,1,0,brander-desktop,0,0
18:32:20,0,I/Ostatic,,170.0,,true,0,0,0,0,null,0,1,0,brander-desktop,0,0
18:32:21,0,I/Odb,,5.0,,true,0,0,0,0,null,0,1,0,brander-desktop,0,0
18:32:22,0,I/Ofront1,,0.0,,true,0,0,0,0,null,0,1,0,brander-desktop,0,0
18:32:24,0,I/Ostatic,,158.42,,true,0,0,0,0,null,0,1,0,brander-desktop,0,0
18:32:25,0,I/Odb,,5.0,,true,0,0,0,0,null,0,1,0,brander-desktop,0,0
18:32:26,0,I/Ofront1,,0.0,,true,0,0,0,0,null,0,1,0,brander-desktop,0,0
18:32:27,0,I/Ostatic,,142.0,,true,0,0,0,0,null,0,1,0,brander-desktop,0,0
18:32:28,0,I/Odb,,2.0,,true,0,0,0,0,null,0,1,0,brander-desktop,0,0
18:32:29,0,I/Ofront1,,0.0,,true,0,0,0,0,null,0,1,0,brander-desktop,0,0
18:32:30,0,I/Ostatic,,161.0,,true,0,0,0,0,null,0,1,0,brander-desktop,0,0
18:32:31,0,I/Odb,,6.0,,true,0,0,0,0,null,0,1,0,brander-desktop,0,0
18:32:32,0,I/Ofront1,,0.0,,true,0,0,0,0,null,0,1,0,brander-desktop,0,0
18:32:33,0,I/Ostatic,,143.0,,true,0,0,0,0,null,0,1,0,brander-desktop,0,0
18:32:34,0,I/Odb,,4.0,,true,0,0,0,0,null,0,1,0,brander-desktop,0,0
18:32:36,0,I/Ofront1,,0.0,,true,0,0,0,0,null,0,1,0,brander-desktop,0,0
18:32:37,0,I/Ostatic,,132.67,,true,0,0,0,0,null,0,1,0,brander-desktop,0,0
18:32:38,0,I/Odb,,3.0,,true,0,0,0,0,null,0,1,0,brander-desktop,0,0
18:32:39,0,I/Ofront1,,0.0,,true,0,0,0,0,null,0,1,0,brander-desktop,0,0
18:32:40,0,I/Ostatic,,133.0,,true,0,0,0,0,null,0,1,0,brander-desktop,0,0
18:32:41,0,I/Odb,,5.0,,true,0,0,0,0,null,0,1,0,brander-desktop,0,0
18:32:42,0,I/Ofront1,,0.0,,true,0,0,0,0,null,0,1,0,brander-desktop,0,0
18:32:43,0,I/Ostatic,,173.0,,true,0,0,0,0,null,0,1,0,brander-desktop,0,0
18:32:44,0,I/Odb,,2.0,,true,0,0,0,0,null,0,1,0,brander-desktop,0,0
18:32:45,0,I/Ofront1,,0.0,,true,0,0,0,0,null,0,1,0,brander-desktop,0,0
18:32:46,0,I/Ostatic,,156.0,,true,0,0,0,0,null,0,1,0,brander-desktop,0,0
18:32:47,0,I/Odb,,26.0,,true,0,0,0,0,null,0,1,0,brander-desktop,0,0
18:32:49,0,I/Ofront1,,0.0,,true,0,0,0,0,null,0,1,0,brander-desktop,0,0
18:32:50,0,I/Ostatic,,150.0,,true,0,0,0,0,null,0,1,0,brander-desktop,0,0
18:32:51,0,I/Odb,,6.0,,true,0,0,0,0,null,0,1,0,brander-desktop,0,0
18:32:52,0,I/Ofront1,,0.0,,true,0,0,0,0,null,0,1,0,brander-desktop,0,0
18:32:53,0,I/Ostatic,,177.0,,true,0,0,0,0,null,0,1,0,brander-desktop,0,0
18:32:54,0,I/Odb,,40.0,,true,0,0,0,0,null,0,1,0,brander-desktop,0,0
18:32:55,0,I/Ofront1,,0.0,,true,0,0,0,0,null,0,1,0,brander-desktop,0,0
18:32:56,0,I/Ostatic,,146.0,,true,0,0,0,0,null,0,1,0,brander-desktop,0,0
18:32:57,0,I/Odb,,3.0,,true,0,0,0,0,null,0,1,0,brander-desktop,0,0
18:32:58,0,I/Ofront1,,0.0,,true,0,0,0,0,null,0,1,0,brander-desktop,0,0
18:32:59,0,I/Ostatic,,177.0,,true,0,0,0,0,null,0,1,0,brander-desktop,0,0
18:33:00,0,I/Odb,,5.0,,true,0,0,0,0,null,0,1,0,brander-desktop,0,0
18:33:02,0,I/Ofront1,,0.0,,true,0,0,0,0,null,0,1,0,brander-desktop,0,0
18:33:03,0,I/Ostatic,,176.0,,true,0,0,0,0,null,0,1,0,brander-desktop,0,0
18:33:04,0,I/Odb,,3.0,,true,0,0,0,0,null,0,1,0,brander-desktop,0,0
18:33:05,0,I/Ofront1,,5.0,,true,0,0,0,0,null,0,1,0,brander-desktop,0,0
18:33:06,0,I/Ostatic,,142.0,,true,0,0,0,0,null,0,1,0,brander-desktop,0,0
18:33:07,0,I/Odb,,3.0,,true,0,0,0,0,null,0,1,0,brander-desktop,0,0
18:33:08,0,I/Ofront1,,0.0,,true,0,0,0,0,null,0,1,0,brander-desktop,0,0
18:33:09,0,I/Ostatic,,142.0,,true,0,0,0,0,null,0,1,0,brander-desktop,0,0
18:33:10,0,I/Odb,,6.0,,true,0,0,0,0,null,0,1,0,brander-desktop,0,0
18:33:11,0,I/Ofront1,,0.0,,true,0,0,0,0,null,0,1,0,brander-desktop,0,0
18:33:12,0,I/Ostatic,,145.0,,true,0,0,0,0,null,0,1,0,brander-desktop,0,0
18:33:14,0,I/Odb,,2.0,,true,0,0,0,0,null,0,1,0,brander-desktop,0,0
18:33:15,0,I/Ofront1,,0.0,,true,0,0,0,0,null,0,1,0,brander-desktop,0,0
18:33:16,0,I/Ostatic,,151.0,,true,0,0,0,0,null,0,1,0,brander-desktop,0,0
18:33:17,0,I/Odb,,2.0,,true,0,0,0,0,null,0,1,0,brander-desktop,0,0
18:33:18,0,I/Ofront1,,0.0,,true,0,0,0,0,null,0,1,0,brander-desktop,0,0
18:33:19,0,I/Ostatic,,157.0,,true,0,0,0,0,null,0,1,0,brander-desktop,0,0
18:33:20,0,I/Odb,,4.0,,true,0,0,0,0,null,0,1,0,brander-desktop,0,0
18:33:21,0,I/Ofront1,,0.0,,true,0,0,0,0,null,0,1,0,brander-desktop,0,0
18:33:22,0,I/Ostatic,,160.0,,true,0,0,0,0,null,0,1,0,brander-desktop,0,0
18:33:23,0,I/Odb,,2.0,,true,0,0,0,0,null,0,1,0,brander-desktop,0,0
18:33:24,0,I/Ofront1,,0.0,,true,0,0,0,0,null,0,1,0,brander-desktop,0,0
18:33:25,0,I/Ostatic,,156.0,,true,0,0,0,0,null,0,1,0,brander-desktop,0,0
18:33:27,0,I/Odb,,2.0,,true,0,0,0,0,null,0,1,0,brander-desktop,0,0
18:33:28,0,I/Ofront1,,0.0,,true,0,0,0,0,null,0,1,0,brander-desktop,0,0
18:33:29,0,I/Ostatic,,149.0,,true,0,0,0,0,null,0,1,0,brander-desktop,0,0
18:33:30,0,I/Odb,,5.0,,true,0,0,0,0,null,0,1,0,brander-desktop,0,0
18:33:31,0,I/Ofront1,,0.0,,true,0,0,0,0,null,0,1,0,brander-desktop,0,0
18:33:32,0,I/Ostatic,,179.0,,true,0,0,0,0,null,0,1,0,brander-desktop,0,0
18:33:33,0,I/Odb,,5.0,,true,0,0,0,0,null,0,1,0,brander-desktop,0,0
18:33:34,0,I/Ofront1,,0.0,,true,0,0,0,0,null,0,1,0,brander-desktop,0,0
18:33:35,0,I/Ostatic,,148.0,,true,0,0,0,0,null,0,1,0,brander-desktop,0,0
18:33:36,0,I/Odb,,4.0,,true,0,0,0,0,null,0,1,0,brander-desktop,0,0
18:33:38,0,I/Ofront1,,0.0,,true,0,0,0,0,null,0,1,0,brander-desktop,0,0
18:33:39,0,I/Ostatic,,152.0,,true,0,0,0,0,null,0,1,0,brander-desktop,0,0
18:33:40,0,I/Odb,,13.0,,true,0,0,0,0,null,0,1,0,brander-desktop,0,0
18:33:41,0,I/Ofront1,,0.0,,true,0,0,0,0,null,0,1,0,brander-desktop,0,0
18:33:42,0,I/Ostatic,,170.0,,true,0,0,0,0,null,0,1,0,brander-desktop,0,0
18:33:43,0,I/Odb,,3.0,,true,0,0,0,0,null,0,1,0,brander-desktop,0,0
18:33:44,0,I/Ofront1,,0.0,,true,0,0,0,0,null,0,1,0,brander-desktop,0,0
18:33:45,0,I/Ostatic,,152.0,,true,0,0,0,0,null,0,1,0,brander-desktop,0,0
18:33:46,0,I/Odb,,2.0,,true,0,0,0,0,null,0,1,0,brander-desktop,0,0
18:33:47,0,I/Ofront1,,0.0,,true,0,0,0,0,null,0,1,0,brander-desktop,0,0
18:33:48,0,I/Ostatic,,151.0,,true,0,0,0,0,null,0,1,0,brander-desktop,0,0
18:33:49,0,I/Odb,,3.0,,true,0,0,0,0,null,0,1,0,brander-desktop,0,0
18:33:51,0,I/Ofront1,,6.0,,true,0,0,0,0,null,0,1,0,brander-desktop,0,0
18:33:52,0,I/Ostatic,,147.0,,true,0,0,0,0,null,0,1,0,brander-desktop,0,0
18:33:53,0,I/Odb,,6.0,,true,0,0,0,0,null,0,1,0,brander-desktop,0,0
18:33:54,0,I/Ofront1,,0.0,,true,0,0,0,0,null,0,1,0,brander-desktop,0,0
18:33:55,0,I/Ostatic,,163.0,,true,0,0,0,0,null,0,1,0,brander-desktop,0,0
18:33:56,0,I/Odb,,4.0,,true,0,0,0,0,null,0,1,0,brander-desktop,0,0
18:33:57,0,I/Ofront1,,0.0,,true,0,0,0,0,null,0,1,0,brander-desktop,0,0
18:33:58,0,I/Ostatic,,137.0,,true,0,0,0,0,null,0,1,0,brander-desktop,0,0
18:33:59,0,I/Odb,,2.0,,true,0,0,0,0,null,0,1,0,brander-desktop,0,0
18:34:00,0,I/Ofront1,,0.0,,true,0,0,0,0,null,0,1,0,brander-desktop,0,0
18:34:01,0,I/Ostatic,,149.0,,true,0,0,0,0,null,0,1,0,brander-desktop,0,0
18:34:03,0,I/Odb,,2.0,,true,0,0,0,0,null,0,1,0,brander-desktop,0,0
18:34:04,0,I/Ofront1,,0.0,,true,0,0,0,0,null,0,1,0,brander-desktop,0,0
18:34:05,0,I/Ostatic,,144.0,,true,0,0,0,0,null,0,1,0,brander-desktop,0,0
18:34:06,0,I/Odb,,7.0,,true,0,0,0,0,null,0,1,0,brander-desktop,0,0
18:34:07,0,I/Ofront1,,0.0,,true,0,0,0,0,null,0,1,0,brander-desktop,0,0
18:34:08,0,I/Ostatic,,160.0,,true,0,0,0,0,null,0,1,0,brander-desktop,0,0
18:34:09,0,I/Odb,,2.0,,true,0,0,0,0,null,0,1,0,brander-desktop,0,0
18:34:10,0,I/Ofront1,,2.0,,true,0,0,0,0,null,0,1,0,brander-desktop,0,0
18:34:11,0,I/Ostatic,,143.0,,true,0,0,0,0,null,0,1,0,brander-desktop,0,0
18:34:12,0,I/Odb,,2.0,,true,0,0,0,0,null,0,1,0,brander-desktop,0,0
18:34:13,0,I/Ofront1,,0.0,,true,0,0,0,0,null,0,1,0,brander-desktop,0,0
18:34:14,0,I/Ostatic,,138.0,,true,0,0,0,0,null,0,1,0,brander-desktop,0,0
18:34:16,0,I/Odb,,5.0,,true,0,0,0,0,null,0,1,0,brander-desktop,0,0
18:34:17,0,I/Ofront1,,0.0,,true,0,0,0,0,null,0,1,0,brander-desktop,0,0
18:34:18,0,I/Ostatic,,155.0,,true,0,0,0,0,null,0,1,0,brander-desktop,0,0
18:34:19,0,I/Odb,,2.0,,true,0,0,0,0,null,0,1,0,brander-desktop,0,0
18:34:20,0,I/Ofront1,,0.0,,true,0,0,0,0,null,0,1,0,brander-desktop,0,0
18:34:21,0,I/Ostatic,,148.0,,true,0,0,0,0,null,0,1,0,brander-desktop,0,0
18:34:22,0,I/Odb,,2.0,,true,0,0,0,0,null,0,1,0,brander-desktop,0,0
18:34:23,0,I/Ofront1,,0.0,,true,0,0,0,0,null,0,1,0,brander-desktop,0,0
18:34:24,0,I/Ostatic,,146.0,,true,0,0,0,0,null,0,1,0,brander-desktop,0,0
18:34:25,0,I/Odb,,19.0,,true,0,0,0,0,null,0,1,0,brander-desktop,0,0
18:34:26,0,I/Ofront1,,1.0,,true,0,0,0,0,null,0,1,0,brander-desktop,0,0
18:34:28,0,I/Ostatic,,143.0,,true,0,0,0,0,null,0,1,0,brander-desktop,0,0
18:34:29,0,I/Odb,,2.0,,true,0,0,0,0,null,0,1,0,brander-desktop,0,0
18:34:30,0,I/Ofront1,,0.0,,true,0,0,0,0,null,0,1,0,brander-desktop,0,0
18:34:31,0,I/Ostatic,,152.0,,true,0,0,0,0,null,0,1,0,brander-desktop,0,0
18:34:32,0,I/Odb,,3.0,,true,0,0,0,0,null,0,1,0,brander-desktop,0,0
18:34:33,0,I/Ofront1,,0.0,,true,0,0,0,0,null,0,1,0,brander-desktop,0,0
18:34:34,0,I/Ostatic,,145.0,,true,0,0,0,0,null,0,1,0,brander-desktop,0,0
18:34:35,0,I/Odb,,6.0,,true,0,0,0,0,null,0,1,0,brander-desktop,0,0
18:34:36,0,I/Ofront1,,0.0,,true,0,0,0,0,null,0,1,0,brander-desktop,0,0
18:34:38,0,I/Ostatic,,144.0,,true,0,0,0,0,null,0,1,0,brander-desktop,0,0
18:34:39,0,I/Odb,,3.0,,true,0,0,0,0,null,0,1,0,brander-desktop,0,0
18:34:40,0,I/Ofront1,,2.0,,true,0,0,0,0,null,0,1,0,brander-desktop,0,0
18:34:41,0,I/Ostatic,,136.0,,true,0,0,0,0,null,0,1,0,brander-desktop,0,0
18:34:42,0,I/Odb,,3.0,,true,0,0,0,0,null,0,1,0,brander-desktop,0,0
18:34:43,0,I/Ofront1,,0.0,,true,0,0,0,0,null,0,1,0,brander-desktop,0,0
18:34:44,0,I/Ostatic,,157.0,,true,0,0,0,0,null,0,1,0,brander-desktop,0,0
18:34:45,0,I/Odb,,5.0,,true,0,0,0,0,null,0,1,0,brander-desktop,0,0
18:34:46,0,I/Ofront1,,2.0,,true,0,0,0,0,null,0,1,0,brander-desktop,0,0
18:34:47,0,I/Ostatic,,156.0,,true,0,0,0,0,null,0,1,0,brander-desktop,0,0
18:34:48,0,I/Odb,,2.0,,true,0,0,0,0,null,0,1,0,brander-desktop,0,0
18:34:49,0,I/Ofront1,,0.0,,true,0,0,0,0,null,0,1,0,brander-desktop,0,0
18:34:51,0,I/Ostatic,,146.0,,true,0,0,0,0,null,0,1,0,brander-desktop,0,0
18:34:52,0,I/Odb,,3.0,,true,0,0,0,0,null,0,1,0,brander-desktop,0,0
18:34:53,0,I/Ofront1,,0.0,,true,0,0,0,0,null,0,1,0,brander-desktop,0,0
18:34:54,0,I/Ostatic,,138.0,,true,0,0,0,0,null,0,1,0,brander-desktop,0,0
18:34:55,0,I/Odb,,4.0,,true,0,0,0,0,null,0,1,0,brander-desktop,0,0
18:34:56,0,I/Ofront1,,0.0,,true,0,0,0,0,null,0,1,0,brander-desktop,0,0
18:34:57,0,I/Ostatic,,159.0,,true,0,0,0,0,null,0,1,0,brander-desktop,0,0
18:34:58,0,I/Odb,,2.0,,true,0,0,0,0,null,0,1,0,brander-desktop,0,0
18:34:59,0,I/Ofront1,,0.0,,true,0,0,0,0,null,0,1,0,brander-desktop,0,0
18:35:00,0,I/Ostatic,,182.0,,true,0,0,0,0,null,0,1,0,brander-desktop,0,0
18:35:01,0,I/Odb,,5.0,,true,0,0,0,0,null,0,1,0,brander-desktop,0,0
18:35:03,0,I/Ofront1,,0.0,,true,0,0,0,0,null,0,1,0,brander-desktop,0,0
18:35:04,0,I/Ostatic,,146.53,,true,0,0,0,0,null,0,1,0,brander-desktop,0,0
18:35:05,0,I/Odb,,3.0,,true,0,0,0,0,null,0,1,0,brander-desktop,0,0
18:35:06,0,I/Ofront1,,0.0,,true,0,0,0,0,null,0,1,0,brander-desktop,0,0
18:35:07,0,I/Ostatic,,150.0,,true,0,0,0,0,null,0,1,0,brander-desktop,0,0
18:35:08,0,I/Odb,,2.0,,true,0,0,0,0,null,0,1,0,brander-desktop,0,0
18:35:09,0,I/Ofront1,,0.0,,true,0,0,0,0,null,0,1,0,brander-desktop,0,0
18:35:10,0,I/Ostatic,,164.0,,true,0,0,0,0,null,0,1,0,brander-desktop,0,0
18:35:11,0,I/Odb,,3.0,,true,0,0,0,0,null,0,1,0,brander-desktop,0,0
18:35:12,0,I/Ofront1,,0.0,,true,0,0,0,0,null,0,1,0,brander-desktop,0,0
18:35:14,0,I/Ostatic,,146.0,,true,0,0,0,0,null,0,1,0,brander-desktop,0,0
18:35:15,0,I/Odb,,3.0,,true,0,0,0,0,null,0,1,0,brander-desktop,0,0
18:35:16,0,I/Ofront1,,0.0,,true,0,0,0,0,null,0,1,0,brander-desktop,0,0
18:35:17,0,I/Ostatic,,111.0,,true,0,0,0,0,null,0,1,0,brander-desktop,0,0
18:35:18,0,I/Odb,,2.0,,true,0,0,0,0,null,0,1,0,brander-desktop,0,0
18:35:19,0,I/Ofront1,,0.0,,true,0,0,0,0,null,0,1,0,brander-desktop,0,0
18:35:20,0,I/Ostatic,,153.0,,true,0,0,0,0,null,0,1,0,brander-desktop,0,0
18:35:21,0,I/Odb,,3.0,,true,0,0,0,0,null,0,1,0,brander-desktop,0,0
18:35:22,0,I/Ofront1,,0.0,,true,0,0,0,0,null,0,1,0,brander-desktop,0,0
18:35:23,0,I/Ostatic,,139.0,,true,0,0,0,0,null,0,1,0,brander-desktop,0,0
18:35:24,0,I/Odb,,43.0,,true,0,0,0,0,null,0,1,0,brander-desktop,0,0
18:35:26,0,I/Ofront1,,0.0,,true,0,0,0,0,null,0,1,0,brander-desktop,0,0
18:35:27,0,I/Ostatic,,143.0,,true,0,0,0,0,null,0,1,0,brander-desktop,0,0
18:35:28,0,I/Odb,,4.0,,true,0,0,0,0,null,0,1,0,brander-desktop,0,0
18:35:29,0,I/Ofront1,,0.0,,true,0,0,0,0,null,0,1,0,brander-desktop,0,0
18:35:30,0,I/Ostatic,,182.0,,true,0,0,0,0,null,0,1,0,brander-desktop,0,0
18:35:31,0,I/Odb,,10.0,,true,0,0,0,0,null,0,1,0,brander-desktop,0,0
18:35:32,0,I/Ofront1,,2.0,,true,0,0,0,0,null,0,1,0,brander-desktop,0,0
18:35:33,0,I/Ostatic,,152.0,,true,0,0,0,0,null,0,1,0,brander-desktop,0,0
18:35:34,0,I/Odb,,4.0,,true,0,0,0,0,null,0,1,0,brander-desktop,0,0
18:35:35,0,I/Ofront1,,0.0,,true,0,0,0,0,null,0,1,0,brander-desktop,0,0
18:35:36,0,I/Ostatic,,144.0,,true,0,0,0,0,null,0,1,0,brander-desktop,0,0
18:35:37,0,I/Odb,,3.0,,true,0,0,0,0,null,0,1,0,brander-desktop,0,0
18:35:39,0,I/Ofront1,,0.0,,true,0,0,0,0,null,0,1,0,brander-desktop,0,0
18:35:40,0,I/Ostatic,,144.0,,true,0,0,0,0,null,0,1,0,brander-desktop,0,0
18:35:41,0,I/Odb,,3.0,,true,0,0,0,0,null,0,1,0,brander-desktop,0,0
18:35:42,0,I/Ofront1,,2.0,,true,0,0,0,0,null,0,1,0,brander-desktop,0,0
18:35:43,0,I/Ostatic,,165.0,,true,0,0,0,0,null,0,1,0,brander-desktop,0,0
18:35:44,0,I/Odb,,3.0,,true,0,0,0,0,null,0,1,0,brander-desktop,0,0
18:35:45,0,I/Ofront1,,0.0,,true,0,0,0,0,null,0,1,0,brander-desktop,0,0
18:35:46,0,I/Ostatic,,159.0,,true,0,0,0,0,null,0,1,0,brander-desktop,0,0
18:35:47,0,I/Odb,,3.0,,true,0,0,0,0,null,0,1,0,brander-desktop,0,0
18:35:48,0,I/Ofront1,,0.0,,true,0,0,0,0,null,0,1,0,brander-desktop,0,0
18:35:49,0,I/Ostatic,,153.0,,true,0,0,0,0,null,0,1,0,brander-desktop,0,0
18:35:51,0,I/Odb,,5.0,,true,0,0,0,0,null,0,1,0,brander-desktop,0,0
18:35:52,0,I/Ofront1,,6.0,,true,0,0,0,0,null,0,1,0,brander-desktop,0,0
18:35:53,0,I/Ostatic,,141.0,,true,0,0,0,0,null,0,1,0,brander-desktop,0,0
18:35:54,0,I/Odb,,37.0,,true,0,0,0,0,null,0,1,0,brander-desktop,0,0
18:35:55,0,I/Ofront1,,0.0,,true,0,0,0,0,null,0,1,0,brander-desktop,0,0
18:35:56,0,I/Ostatic,,143.0,,true,0,0,0,0,null,0,1,0,brander-desktop,0,0
18:35:57,0,I/Odb,,3.0,,true,0,0,0,0,null,0,1,0,brander-desktop,0,0
18:35:58,0,I/Ofront1,,0.0,,true,0,0,0,0,null,0,1,0,brander-desktop,0,0
18:35:59,0,I/Ostatic,,130.0,,true,0,0,0,0,null,0,1,0,brander-desktop,0,0
18:36:00,0,I/Odb,,5.0,,true,0,0,0,0,null,0,1,0,brander-desktop,0,0
18:36:01,0,I/Ofront1,,0.0,,true,0,0,0,0,null,0,1,0,brander-desktop,0,0
18:36:03,0,I/Ostatic,,169.0,,true,0,0,0,0,null,0,1,0,brander-desktop,0,0
18:36:04,0,I/Odb,,4.0,,true,0,0,0,0,null,0,1,0,brander-desktop,0,0
18:36:05,0,I/Ofront1,,0.0,,true,0,0,0,0,null,0,1,0,brander-desktop,0,0
18:36:06,0,I/Ostatic,,151.0,,true,0,0,0,0,null,0,1,0,brander-desktop,0,0
18:36:07,0,I/Odb,,2.0,,true,0,0,0,0,null,0,1,0,brander-desktop,0,0
18:36:08,0,I/Ofront1,,0.0,,true,0,0,0,0,null,0,1,0,brander-desktop,0,0
18:36:09,0,I/Ostatic,,131.0,,true,0,0,0,0,null,0,1,0,brander-desktop,0,0
18:36:10,0,I/Odb,,3.0,,true,0,0,0,0,null,0,1,0,brander-desktop,0,0
18:36:11,0,I/Ofront1,,0.0,,true,0,0,0,0,null,0,1,0,brander-desktop,0,0
18:36:12,0,I/Ostatic,,157.0,,true,0,0,0,0,null,0,1,0,brander-desktop,0,0
18:36:13,0,I/Odb,,3.0,,true,0,0,0,0,null,0,1,0,brander-desktop,0,0
18:36:15,0,I/Ofront1,,0.0,,true,0,0,0,0,null,0,1,0,brander-desktop,0,0
18:36:16,0,I/Ostatic,,154.0,,true,0,0,0,0,null,0,1,0,brander-desktop,0,0
18:36:17,0,I/Odb,,2.0,,true,0,0,0,0,null,0,1,0,brander-desktop,0,0
18:36:18,0,I/Ofront1,,0.0,,true,0,0,0,0,null,0,1,0,brander-desktop,0,0
18:36:19,0,I/Ostatic,,137.0,,true,0,0,0,0,null,0,1,0,brander-desktop,0,0
18:36:20,0,I/Odb,,4.0,,true,0,0,0,0,null,0,1,0,brander-desktop,0,0
18:36:21,0,I/Ofront1,,0.0,,true,0,0,0,0,null,0,1,0,brander-desktop,0,0
18:36:22,0,I/Ostatic,,157.0,,true,0,0,0,0,null,0,1,0,brander-desktop,0,0
18:36:23,0,I/Odb,,2.0,,true,0,0,0,0,null,0,1,0,brander-desktop,0,0
18:36:24,0,I/Ofront1,,0.0,,true,0,0,0,0,null,0,1,0,brander-desktop,0,0
18:36:25,0,I/Ostatic,,149.0,,true,0,0,0,0,null,0,1,0,brander-desktop,0,0
18:36:27,0,I/Odb,,3.0,,true,0,0,0,0,null,0,1,0,brander-desktop,0,0
18:36:28,0,I/Ofront1,,0.0,,true,0,0,0,0,null,0,1,0,brander-desktop,0,0
18:36:29,0,I/Ostatic,,150.0,,true,0,0,0,0,null,0,1,0,brander-desktop,0,0
18:36:30,0,I/Odb,,6.0,,true,0,0,0,0,null,0,1,0,brander-desktop,0,0
18:36:31,0,I/Ofront1,,0.0,,true,0,0,0,0,null,0,1,0,brander-desktop,0,0
18:36:32,0,I/Ostatic,,141.0,,true,0,0,0,0,null,0,1,0,brander-desktop,0,0
18:36:33,0,I/Odb,,2.0,,true,0,0,0,0,null,0,1,0,brander-desktop,0,0
18:36:34,0,I/Ofront1,,0.0,,true,0,0,0,0,null,0,1,0,brander-desktop,0,0
18:36:35,0,I/Ostatic,,144.0,,true,0,0,0,0,null,0,1,0,brander-desktop,0,0
18:36:36,0,I/Odb,,3.0,,true,0,0,0,0,null,0,1,0,brander-desktop,0,0
18:36:37,0,I/Ofront1,,3.0,,true,0,0,0,0,null,0,1,0,brander-desktop,0,0
18:36:39,0,I/Ostatic,,149.0,,true,0,0,0,0,null,0,1,0,brander-desktop,0,0
18:36:40,0,I/Odb,,3.0,,true,0,0,0,0,null,0,1,0,brander-desktop,0,0
18:36:41,0,I/Ofront1,,0.0,,true,0,0,0,0,null,0,1,0,brander-desktop,0,0
18:36:42,0,I/Ostatic,,149.0,,true,0,0,0,0,null,0,1,0,brander-desktop,0,0
18:36:43,0,I/Odb,,3.0,,true,0,0,0,0,null,0,1,0,brander-desktop,0,0
18:36:44,0,I/Ofront1,,0.0,,true,0,0,0,0,null,0,1,0,brander-desktop,0,0
18:36:45,0,I/Ostatic,,140.0,,true,0,0,0,0,null,0,1,0,brander-desktop,0,0
18:36:46,0,I/Odb,,6.0,,true,0,0,0,0,null,0,1,0,brander-desktop,0,0
18:36:47,0,I/Ofront1,,0.0,,true,0,0,0,0,null,0,1,0,brander-desktop,0,0
18:36:48,0,I/Ostatic,,147.0,,true,0,0,0,0,null,0,1,0,brander-desktop,0,0
18:36:49,0,I/Odb,,4.0,,true,0,0,0,0,null,0,1,0,brander-desktop,0,0
18:36:50,0,I/Ofront1,,0.0,,true,0,0,0,0,null,0,1,0,brander-desktop,0,0
18:36:52,0,I/Ostatic,,161.0,,true,0,0,0,0,null,0,1,0,brander-desktop,0,0
18:36:53,0,I/Odb,,4.0,,true,0,0,0,0,null,0,1,0,brander-desktop,0,0
18:36:54,0,I/Ofront1,,0.0,,true,0,0,0,0,null,0,1,0,brander-desktop,0,0
18:36:55,0,I/Ostatic,,147.0,,true,0,0,0,0,null,0,1,0,brander-desktop,0,0
18:36:56,0,I/Odb,,2.0,,true,0,0,0,0,null,0,1,0,brander-desktop,0,0
18:36:57,0,I/Ofront1,,0.0,,true,0,0,0,0,null,0,1,0,brander-desktop,0,0
18:36:58,0,I/Ostatic,,155.0,,true,0,0,0,0,null,0,1,0,brander-desktop,0,0
18:36:59,0,I/Odb,,2.0,,true,0,0,0,0,null,0,1,0,brander-desktop,0,0
18:37:00,0,I/Ofront1,,0.0,,true,0,0,0,0,null,0,1,0,brander-desktop,0,0
18:37:01,0,I/Ostatic,,182.0,,true,0,0,0,0,null,0,1,0,brander-desktop,0,0
18:37:02,0,I/Odb,,3.0,,true,0,0,0,0,null,0,1,0,brander-desktop,0,0
18:37:04,0,I/Ofront1,,0.0,,true,0,0,0,0,null,0,1,0,brander-desktop,0,0
18:37:05,0,I/Ostatic,,175.0,,true,0,0,0,0,null,0,1,0,brander-desktop,0,0
18:37:06,0,I/Odb,,32.0,,true,0,0,0,0,null,0,1,0,brander-desktop,0,0
18:37:07,0,I/Ofront1,,0.0,,true,0,0,0,0,null,0,1,0,brander-desktop,0,0
18:37:08,0,I/Ostatic,,143.0,,true,0,0,0,0,null,0,1,0,brander-desktop,0,0
18:37:09,0,I/Odb,,2.0,,true,0,0,0,0,null,0,1,0,brander-desktop,0,0
18:37:10,0,I/Ofront1,,2.0,,true,0,0,0,0,null,0,1,0,brander-desktop,0,0
18:37:11,0,I/Ostatic,,148.0,,true,0,0,0,0,null,0,1,0,brander-desktop,0,0
18:37:12,0,I/Odb,,2.0,,true,0,0,0,0,null,0,1,0,brander-desktop,0,0
18:37:13,0,I/Ofront1,,0.0,,true,0,0,0,0,null,0,1,0,brander-desktop,0,0
18:37:14,0,I/Ostatic,,188.0,,true,0,0,0,0,null,0,1,0,brander-desktop,0,0
18:37:15,0,I/Odb,,5.0,,true,0,0,0,0,null,0,1,0,brander-desktop,0,0
18:37:17,0,I/Ofront1,,0.0,,true,0,0,0,0,null,0,1,0,brander-desktop,0,0
18:37:18,0,I/Ostatic,,151.0,,true,0,0,0,0,null,0,1,0,brander-desktop,0,0
18:37:19,0,I/Odb,,3.0,,true,0,0,0,0,null,0,1,0,brander-desktop,0,0
18:37:20,0,I/Ofront1,,0.0,,true,0,0,0,0,null,0,1,0,brander-desktop,0,0
18:37:21,0,I/Ostatic,,148.0,,true,0,0,0,0,null,0,1,0,brander-desktop,0,0
18:37:22,0,I/Odb,,2.0,,true,0,0,0,0,null,0,1,0,brander-desktop,0,0
18:37:23,0,I/Ofront1,,3.0,,true,0,0,0,0,null,0,1,0,brander-desktop,0,0
18:37:24,0,I/Ostatic,,150.0,,true,0,0,0,0,null,0,1,0,brander-desktop,0,0
18:37:25,0,I/Odb,,3.0,,true,0,0,0,0,null,0,1,0,brander-desktop,0,0
18:37:27,0,I/Ofront1,,0.0,,true,0,0,0,0,null,0,1,0,brander-desktop,0,0
18:37:28,0,I/Ostatic,,81.0,,true,0,0,0,0,null,0,1,0,brander-desktop,0,0
18:37:29,0,I/Odb,,3.0,,true,0,0,0,0,null,0,1,0,brander-desktop,0,0
18:37:30,0,I/Ofront1,,0.0,,true,0,0,0,0,null,0,1,0,brander-desktop,0,0
18:37:31,0,I/Ostatic,,146.0,,true,0,0,0,0,null,0,1,0,brander-desktop,0,0
18:37:32,0,I/Odb,,4.0,,true,0,0,0,0,null,0,1,0,brander-desktop,0,0
18:37:33,0,I/Ofront1,,0.0,,true,0,0,0,0,null,0,1,0,brander-desktop,0,0
18:37:34,0,I/Ostatic,,173.0,,true,0,0,0,0,null,0,1,0,brander-desktop,0,0
18:37:35,0,I/Odb,,3.0,,true,0,0,0,0,null,0,1,0,brander-desktop,0,0
18:37:36,0,I/Ofront1,,0.0,,true,0,0,0,0,null,0,1,0,brander-desktop,0,0
18:37:38,0,I/Ostatic,,153.0,,true,0,0,0,0,null,0,1,0,brander-desktop,0,0
18:37:39,0,I/Odb,,3.0,,true,0,0,0,0,null,0,1,0,brander-desktop,0,0
18:37:40,0,I/Ofront1,,0.0,,true,0,0,0,0,null,0,1,0,brander-desktop,0,0
18:37:41,0,I/Ostatic,,168.0,,true,0,0,0,0,null,0,1,0,brander-desktop,0,0
18:37:42,0,I/Odb,,3.0,,true,0,0,0,0,null,0,1,0,brander-desktop,0,0
18:37:43,0,I/Ofront1,,0.0,,true,0,0,0,0,null,0,1,0,brander-desktop,0,0
18:37:44,0,I/Ostatic,,151.0,,true,0,0,0,0,null,0,1,0,brander-desktop,0,0
18:37:45,0,I/Odb,,4.0,,true,0,0,0,0,null,0,1,0,brander-desktop,0,0
18:37:46,0,I/Ofront1,,0.0,,true,0,0,0,0,null,0,1,0,brander-desktop,0,0
18:37:47,0,I/Ostatic,,130.0,,true,0,0,0,0,null,0,1,0,brander-desktop,0,0
18:37:48,0,I/Odb,,2.0,,true,0,0,0,0,null,0,1,0,brander-desktop,0,0
18:37:49,0,I/Ofront1,,0.0,,true,0,0,0,0,null,0,1,0,brander-desktop,0,0
18:37:51,0,I/Ostatic,,139.0,,true,0,0,0,0,null,0,1,0,brander-desktop,0,0
18:37:52,0,I/Odb,,3.0,,true,0,0,0,0,null,0,1,0,brander-desktop,0,0
18:37:53,0,I/Ofront1,,1.0,,true,0,0,0,0,null,0,1,0,brander-desktop,0,0
18:37:54,0,I/Ostatic,,149.0,,true,0,0,0,0,null,0,1,0,brander-desktop,0,0
18:37:55,0,I/Odb,,3.0,,true,0,0,0,0,null,0,1,0,brander-desktop,0,0
18:37:56,0,I/Ofront1,,0.0,,true,0,0,0,0,null,0,1,0,brander-desktop,0,0
18:37:57,0,I/Ostatic,,140.0,,true,0,0,0,0,null,0,1,0,brander-desktop,0,0
18:37:58,0,I/Odb,,2.0,,true,0,0,0,0,null,0,1,0,brander-desktop,0,0
18:37:59,0,I/Ofront1,,0.0,,true,0,0,0,0,null,0,1,0,brander-desktop,0,0
18:38:01,0,I/Ostatic,,150.0,,true,0,0,0,0,null,0,1,0,brander-desktop,0,0
18:38:02,0,I/Odb,,4.0,,true,0,0,0,0,null,0,1,0,brander-desktop,0,0
18:38:03,0,I/Ofront1,,0.0,,true,0,0,0,0,null,0,1,0,brander-desktop,0,0
18:38:04,0,I/Ostatic,,104.0,,true,0,0,0,0,null,0,1,0,brander-desktop,0,0
18:38:05,0,I/Odb,,3.0,,true,0,0,0,0,null,0,1,0,brander-desktop,0,0
18:38:06,0,I/Ofront1,,0.0,,true,0,0,0,0,null,0,1,0,brander-desktop,0,0
18:38:07,0,I/Ostatic,,137.62,,true,0,0,0,0,null,0,1,0,brander-desktop,0,0
18:38:08,0,I/Odb,,2.0,,true,0,0,0,0,null,0,1,0,brander-desktop,0,0
18:38:09,0,I/Ofront1,,0.0,,true,0,0,0,0,null,0,1,0,brander-desktop,0,0
18:38:10,0,I/Ostatic,,159.0,,true,0,0,0,0,null,0,1,0,brander-desktop,0,0
18:38:11,0,I/Odb,,2.0,,true,0,0,0,0,null,0,1,0,brander-desktop,0,0
18:38:12,0,I/Ofront1,,0.0,,true,0,0,0,0,null,0,1,0,brander-desktop,0,0
18:38:14,0,I/Ostatic,,133.0,,true,0,0,0,0,null,0,1,0,brander-desktop,0,0
18:38:15,0,I/Odb,,3.0,,true,0,0,0,0,null,0,1,0,brander-desktop,0,0
18:38:16,0,I/Ofront1,,0.0,,true,0,0,0,0,null,0,1,0,brander-desktop,0,0
18:38:17,0,I/Ostatic,,162.0,,true,0,0,0,0,null,0,1,0,brander-desktop,0,0
18:38:19,0,I/Odb,,16.0,,true,0,0,0,0,null,0,1,0,brander-desktop,0,0
18:38:20,0,I/Ofront1,,0.0,,true,0,0,0,0,null,0,1,0,brander-desktop,0,0
18:38:21,0,I/Ostatic,,151.0,,true,0,0,0,0,null,0,1,0,brander-desktop,0,0
18:38:22,0,I/Odb,,18.0,,true,0,0,0,0,null,0,1,0,brander-desktop,0,0
18:38:23,0,I/Ofront1,,0.0,,true,0,0,0,0,null,0,1,0,brander-desktop,0,0
18:38:24,0,I/Ostatic,,152.0,,true,0,0,0,0,null,0,1,0,brander-desktop,0,0
18:38:25,0,I/Odb,,78.0,,true,0,0,0,0,null,0,1,0,brander-desktop,0,0
18:38:26,0,I/Ofront1,,0.0,,true,0,0,0,0,null,0,1,0,brander-desktop,0,0
18:38:27,0,I/Ostatic,,150.0,,true,0,0,0,0,null,0,1,0,brander-desktop,0,0
18:38:29,0,I/Odb,,3.0,,true,0,0,0,0,null,0,1,0,brander-desktop,0,0
18:38:30,0,I/Ofront1,,0.0,,true,0,0,0,0,null,0,1,0,brander-desktop,0,0
18:38:31,0,I/Ostatic,,147.0,,true,0,0,0,0,null,0,1,0,brander-desktop,0,0
18:38:32,0,I/Odb,,2.0,,true,0,0,0,0,null,0,1,0,brander-desktop,0,0
18:38:33,0,I/Ofront1,,5.0,,true,0,0,0,0,null,0,1,0,brander-desktop,0,0
18:38:34,0,I/Ostatic,,126.0,,true,0,0,0,0,null,0,1,0,brander-desktop,0,0
18:38:35,0,I/Odb,,2.0,,true,0,0,0,0,null,0,1,0,brander-desktop,0,0
18:38:36,0,I/Ofront1,,0.0,,true,0,0,0,0,null,0,1,0,brander-desktop,0,0
18:38:37,0,I/Ostatic,,164.0,,true,0,0,0,0,null,0,1,0,brander-desktop,0,0
18:38:38,0,I/Odb,,3.0,,true,0,0,0,0,null,0,1,0,brander-desktop,0,0
18:38:39,0,I/Ofront1,,0.0,,true,0,0,0,0,null,0,1,0,brander-desktop,0,0
18:38:41,0,I/Ostatic,,167.0,,true,0,0,0,0,null,0,1,0,brander-desktop,0,0
18:38:42,0,I/Odb,,2.0,,true,0,0,0,0,null,0,1,0,brander-desktop,0,0
18:38:43,0,I/Ofront1,,0.0,,true,0,0,0,0,null,0,1,0,brander-desktop,0,0
18:38:44,0,I/Ostatic,,142.57,,true,0,0,0,0,null,0,1,0,brander-desktop,0,0
18:38:45,0,I/Odb,,2.0,,true,0,0,0,0,null,0,1,0,brander-desktop,0,0
18:38:46,0,I/Ofront1,,0.0,,true,0,0,0,0,null,0,1,0,brander-desktop,0,0
18:38:47,0,I/Ostatic,,125.0,,true,0,0,0,0,null,0,1,0,brander-desktop,0,0
18:38:48,0,I/Odb,,2.0,,true,0,0,0,0,null,0,1,0,brander-desktop,0,0
18:38:49,0,I/Ofront1,,0.0,,true,0,0,0,0,null,0,1,0,brander-desktop,0,0
18:38:50,0,I/Ostatic,,132.0,,true,0,0,0,0,null,0,1,0,brander-desktop,0,0
18:38:51,0,I/Odb,,2.0,,true,0,0,0,0,null,0,1,0,brander-desktop,0,0
18:38:53,0,I/Ofront1,,0.0,,true,0,0,0,0,null,0,1,0,brander-desktop,0,0
18:38:54,0,I/Ostatic,,177.0,,true,0,0,0,0,null,0,1,0,brander-desktop,0,0
18:38:55,0,I/Odb,,42.0,,true,0,0,0,0,null,0,1,0,brander-desktop,0,0
18:38:56,0,I/Ofront1,,0.0,,true,0,0,0,0,null,0,1,0,brander-desktop,0,0
18:38:57,0,I/Ostatic,,164.0,,true,0,0,0,0,null,0,1,0,brander-desktop,0,0
18:38:58,0,I/Odb,,2.0,,true,0,0,0,0,null,0,1,0,brander-desktop,0,0
18:38:59,0,I/Ofront1,,0.0,,true,0,0,0,0,null,0,1,0,brander-desktop,0,0
18:39:00,0,I/Ostatic,,178.0,,true,0,0,0,0,null,0,1,0,brander-desktop,0,0
18:39:01,0,I/Odb,,2.0,,true,0,0,0,0,null,0,1,0,brander-desktop,0,0
18:39:02,0,I/Ofront1,,0.0,,true,0,0,0,0,null,0,1,0,brander-desktop,0,0
18:39:03,0,I/Ostatic,,147.0,,true,0,0,0,0,null,0,1,0,brander-desktop,0,0
18:39:05,0,I/Odb,,3.0,,true,0,0,0,0,null,0,1,0,brander-desktop,0,0
18:39:06,0,I/Ofront1,,0.0,,true,0,0,0,0,null,0,1,0,brander-desktop,0,0
18:39:07,0,I/Ostatic,,158.0,,true,0,0,0,0,null,0,1,0,brander-desktop,0,0
18:39:08,0,I/Odb,,2.0,,true,0,0,0,0,null,0,1,0,brander-desktop,0,0
18:39:09,0,I/Ofront1,,0.0,,true,0,0,0,0,null,0,1,0,brander-desktop,0,0
18:39:10,0,I/Ostatic,,172.0,,true,0,0,0,0,null,0,1,0,brander-desktop,0,0
18:39:11,0,I/Odb,,2.0,,true,0,0,0,0,null,0,1,0,brander-desktop,0,0
18:39:12,0,I/Ofront1,,0.0,,true,0,0,0,0,null,0,1,0,brander-desktop,0,0
18:39:13,0,I/Ostatic,,146.0,,true,0,0,0,0,null,0,1,0,brander-desktop,0,0
18:39:14,0,I/Odb,,2.0,,true,0,0,0,0,null,0,1,0,brander-desktop,0,0
18:39:15,0,I/Ofront1,,0.0,,true,0,0,0,0,null,0,1,0,brander-desktop,0,0
18:39:16,0,I/Ostatic,,150.0,,true,0,0,0,0,null,0,1,0,brander-desktop,0,0
18:39:18,0,I/Odb,,2.0,,true,0,0,0,0,null,0,1,0,brander-desktop,0,0
18:39:19,0,I/Ofront1,,0.0,,true,0,0,0,0,null,0,1,0,brander-desktop,0,0
18:39:20,0,I/Ostatic,,162.0,,true,0,0,0,0,null,0,1,0,brander-desktop,0,0
18:39:21,0,I/Odb,,25.0,,true,0,0,0,0,null,0,1,0,brander-desktop,0,0
18:39:22,0,I/Ofront1,,0.0,,true,0,0,0,0,null,0,1,0,brander-desktop,0,0
18:39:23,0,I/Ostatic,,158.0,,true,0,0,0,0,null,0,1,0,brander-desktop,0,0
18:39:24,0,I/Odb,,3.0,,true,0,0,0,0,null,0,1,0,brander-desktop,0,0
18:39:25,0,I/Ofront1,,0.0,,true,0,0,0,0,null,0,1,0,brander-desktop,0,0
18:39:26,0,I/Ostatic,,141.0,,true,0,0,0,0,null,0,1,0,brander-desktop,0,0
18:39:27,0,I/Odb,,2.0,,true,0,0,0,0,null,0,1,0,brander-desktop,0,0
18:39:28,0,I/Ofront1,,0.0,,true,0,0,0,0,null,0,1,0,brander-desktop,0,0
18:39:30,0,I/Ostatic,,146.0,,true,0,0,0,0,null,0,1,0,brander-desktop,0,0
18:39:31,0,I/Odb,,2.0,,true,0,0,0,0,null,0,1,0,brander-desktop,0,0
18:39:32,0,I/Ofront1,,0.0,,true,0,0,0,0,null,0,1,0,brander-desktop,0,0
18:39:33,0,I/Ostatic,,164.0,,true,0,0,0,0,null,0,1,0,brander-desktop,0,0
18:39:34,0,I/Odb,,2.0,,true,0,0,0,0,null,0,1,0,brander-desktop,0,0
18:39:35,0,I/Ofront1,,0.0,,true,0,0,0,0,null,0,1,0,brander-desktop,0,0
18:39:36,0,I/Ostatic,,166.0,,true,0,0,0,0,null,0,1,0,brander-desktop,0,0
18:39:37,0,I/Odb,,3.0,,true,0,0,0,0,null,0,1,0,brander-desktop,0,0
18:39:38,0,I/Ofront1,,1.0,,true,0,0,0,0,null,0,1,0,brander-desktop,0,0
18:39:39,0,I/Ostatic,,132.0,,true,0,0,0,0,null,0,1,0,brander-desktop,0,0
18:39:40,0,I/Odb,,3.0,,true,0,0,0,0,null,0,1,0,brander-desktop,0,0
18:39:41,0,I/Ofront1,,0.0,,true,0,0,0,0,null,0,1,0,brander-desktop,0,0
18:39:43,0,I/Ostatic,,162.0,,true,0,0,0,0,null,0,1,0,brander-desktop,0,0
18:39:44,0,I/Odb,,2.0,,true,0,0,0,0,null,0,1,0,brander-desktop,0,0
18:39:45,0,I/Ofront1,,0.0,,true,0,0,0,0,null,0,1,0,brander-desktop,0,0
18:39:46,0,I/Ostatic,,165.0,,true,0,0,0,0,null,0,1,0,brander-desktop,0,0
18:39:47,0,I/Odb,,2.0,,true,0,0,0,0,null,0,1,0,brander-desktop,0,0
18:39:48,0,I/Ofront1,,0.0,,true,0,0,0,0,null,0,1,0,brander-desktop,0,0
18:39:49,0,I/Ostatic,,145.0,,true,0,0,0,0,null,0,1,0,brander-desktop,0,0
18:39:50,0,I/Odb,,2.0,,true,0,0,0,0,null,0,1,0,brander-desktop,0,0
18:39:51,0,I/Ofront1,,0.0,,true,0,0,0,0,null,0,1,0,brander-desktop,0,0
18:39:52,0,I/Ostatic,,182.0,,true,0,0,0,0,null,0,1,0,brander-desktop,0,0
18:39:54,0,I/Odb,,2.0,,true,0,0,0,0,null,0,1,0,brander-desktop,0,0
18:39:55,0,I/Ofront1,,0.0,,true,0,0,0,0,null,0,1,0,brander-desktop,0,0
18:39:56,0,I/Ostatic,,146.0,,true,0,0,0,0,null,0,1,0,brander-desktop,0,0
18:39:57,0,I/Odb,,3.0,,true,0,0,0,0,null,0,1,0,brander-desktop,0,0
18:39:58,0,I/Ofront1,,1.0,,true,0,0,0,0,null,0,1,0,brander-desktop,0,0
18:39:59,0,I/Ostatic,,156.0,,true,0,0,0,0,null,0,1,0,brander-desktop,0,0
18:40:00,0,I/Odb,,2.0,,true,0,0,0,0,null,0,1,0,brander-desktop,0,0
18:40:01,0,I/Ofront1,,0.0,,true,0,0,0,0,null,0,1,0,brander-desktop,0,0
18:40:02,0,I/Ostatic,,149.0,,true,0,0,0,0,null,0,1,0,brander-desktop,0,0
18:40:03,0,I/Odb,,2.0,,true,0,0,0,0,null,0,1,0,brander-desktop,0,0
18:40:04,0,I/Ofront1,,0.0,,true,0,0,0,0,null,0,1,0,brander-desktop,0,0
18:40:05,0,I/Ostatic,,186.0,,true,0,0,0,0,null,0,1,0,brander-desktop,0,0
18:40:07,0,I/Odb,,2.0,,true,0,0,0,0,null,0,1,0,brander-desktop,0,0
18:40:08,0,I/Ofront1,,0.0,,true,0,0,0,0,null,0,1,0,brander-desktop,0,0
18:40:09,0,I/Ostatic,,147.0,,true,0,0,0,0,null,0,1,0,brander-desktop,0,0
18:40:10,0,I/Odb,,1.98,,true,0,0,0,0,null,0,1,0,brander-desktop,0,0
18:40:11,0,I/Ofront1,,1.0,,true,0,0,0,0,null,0,1,0,brander-desktop,0,0
18:40:12,0,I/Ostatic,,168.0,,true,0,0,0,0,null,0,1,0,brander-desktop,0,0
18:40:13,0,I/Odb,,2.0,,true,0,0,0,0,null,0,1,0,brander-desktop,0,0
18:40:14,0,I/Ofront1,,0.0,,true,0,0,0,0,null,0,1,0,brander-desktop,0,0
18:40:15,0,I/Ostatic,,168.0,,true,0,0,0,0,null,0,1,0,brander-desktop,0,0
18:40:16,0,I/Odb,,2.0,,true,0,0,0,0,null,0,1,0,brander-desktop,0,0
18:40:17,0,I/Ofront1,,0.0,,true,0,0,0,0,null,0,1,0,brander-desktop,0,0
18:40:19,0,I/Ostatic,,178.0,,true,0,0,0,0,null,0,1,0,brander-desktop,0,0
18:40:20,0,I/Odb,,3.0,,true,0,0,0,0,null,0,1,0,brander-desktop,0,0
18:40:21,0,I/Ofront1,,0.0,,true,0,0,0,0,null,0,1,0,brander-desktop,0,0
18:40:22,0,I/Ostatic,,142.0,,true,0,0,0,0,null,0,1,0,brander-desktop,0,0
18:40:23,0,I/Odb,,2.0,,true,0,0,0,0,null,0,1,0,brander-desktop,0,0
18:40:24,0,I/Ofront1,,0.0,,true,0,0,0,0,null,0,1,0,brander-desktop,0,0
18:40:25,0,I/Ostatic,,145.0,,true,0,0,0,0,null,0,1,0,brander-desktop,0,0
18:40:26,0,I/Odb,,8.0,,true,0,0,0,0,null,0,1,0,brander-desktop,0,0
18:40:27,0,I/Ofront1,,0.0,,true,0,0,0,0,null,0,1,0,brander-desktop,0,0
18:40:29,0,I/Ostatic,,148.0,,true,0,0,0,0,null,0,1,0,brander-desktop,0,0
18:40:30,0,I/Odb,,2.0,,true,0,0,0,0,null,0,1,0,brander-desktop,0,0
18:40:31,0,I/Ofront1,,0.0,,true,0,0,0,0,null,0,1,0,brander-desktop,0,0
18:40:32,0,I/Ostatic,,125.0,,true,0,0,0,0,null,0,1,0,brander-desktop,0,0
18:40:33,0,I/Odb,,2.0,,true,0,0,0,0,null,0,1,0,brander-desktop,0,0
18:40:34,0,I/Ofront1,,0.0,,true,0,0,0,0,null,0,1,0,brander-desktop,0,0
18:40:35,0,I/Ostatic,,166.0,,true,0,0,0,0,null,0,1,0,brander-desktop,0,0
18:40:36,0,I/Odb,,5.0,,true,0,0,0,0,null,0,1,0,brander-desktop,0,0
18:40:37,0,I/Ofront1,,0.0,,true,0,0,0,0,null,0,1,0,brander-desktop,0,0
18:40:38,0,I/Ostatic,,123.0,,true,0,0,0,0,null,0,1,0,brander-desktop,0,0
18:40:39,0,I/Odb,,2.0,,true,0,0,0,0,null,0,1,0,brander-desktop,0,0
18:40:41,0,I/Ofront1,,15.0,,true,0,0,0,0,null,0,1,0,brander-desktop,0,0
18:40:42,0,I/Ostatic,,163.0,,true,0,0,0,0,null,0,1,0,brander-desktop,0,0
18:40:43,0,I/Odb,,2.0,,true,0,0,0,0,null,0,1,0,brander-desktop,0,0
18:40:44,0,I/Ofront1,,0.0,,true,0,0,0,0,null,0,1,0,brander-desktop,0,0
18:40:45,0,I/Ostatic,,147.0,,true,0,0,0,0,null,0,1,0,brander-desktop,0,0
18:40:46,0,I/Odb,,9.0,,true,0,0,0,0,null,0,1,0,brander-desktop,0,0
18:40:47,0,I/Ofront1,,0.0,,true,0,0,0,0,null,0,1,0,brander-desktop,0,0
18:40:48,0,I/Ostatic,,152.0,,true,0,0,0,0,null,0,1,0,brander-desktop,0,0
18:40:49,0,I/Odb,,2.0,,true,0,0,0,0,null,0,1,0,brander-desktop,0,0
18:40:50,0,I/Ofront1,,0.0,,true,0,0,0,0,null,0,1,0,brander-desktop,0,0
18:40:51,0,I/Ostatic,,150.0,,true,0,0,0,0,null,0,1,0,brander-desktop,0,0
18:40:53,0,I/Odb,,3.0,,true,0,0,0,0,null,0,1,0,brander-desktop,0,0
18:40:54,0,I/Ofront1,,3.0,,true,0,0,0,0,null,0,1,0,brander-desktop,0,0
18:40:55,0,I/Ostatic,,149.0,,true,0,0,0,0,null,0,1,0,brander-desktop,0,0
18:40:56,0,I/Odb,,12.0,,true,0,0,0,0,null,0,1,0,brander-desktop,0,0
18:40:57,0,I/Ofront1,,0.0,,true,0,0,0,0,null,0,1,0,brander-desktop,0,0
18:40:58,0,I/Ostatic,,146.0,,true,0,0,0,0,null,0,1,0,brander-desktop,0,0
18:40:59,0,I/Odb,,4.0,,true,0,0,0,0,null,0,1,0,brander-desktop,0,0
18:41:00,0,I/Ofront1,,0.0,,true,0,0,0,0,null,0,1,0,brander-desktop,0,0
18:41:01,0,I/Ostatic,,152.0,,true,0,0,0,0,null,0,1,0,brander-desktop,0,0
18:41:02,0,I/Odb,,3.0,,true,0,0,0,0,null,0,1,0,brander-desktop,0,0
18:41:03,0,I/Ofront1,,0.0,,true,0,0,0,0,null,0,1,0,brander-desktop,0,0
18:41:04,0,I/Ostatic,,157.0,,true,0,0,0,0,null,0,1,0,brander-desktop,0,0
18:41:06,0,I/Odb,,3.0,,true,0,0,0,0,null,0,1,0,brander-desktop,0,0
18:41:07,0,I/Ofront1,,0.0,,true,0,0,0,0,null,0,1,0,brander-desktop,0,0
18:41:08,0,I/Ostatic,,152.0,,true,0,0,0,0,null,0,1,0,brander-desktop,0,0
18:41:09,0,I/Odb,,3.0,,true,0,0,0,0,null,0,1,0,brander-desktop,0,0
18:41:10,0,I/Ofront1,,0.0,,true,0,0,0,0,null,0,1,0,brander-desktop,0,0
18:41:11,0,I/Ostatic,,142.0,,true,0,0,0,0,null,0,1,0,brander-desktop,0,0
18:41:12,0,I/Odb,,2.0,,true,0,0,0,0,null,0,1,0,brander-desktop,0,0
18:41:13,0,I/Ofront1,,0.0,,true,0,0,0,0,null,0,1,0,brander-desktop,0,0
18:41:14,0,I/Ostatic,,143.0,,true,0,0,0,0,null,0,1,0,brander-desktop,0,0
18:41:15,0,I/Odb,,3.0,,true,0,0,0,0,null,0,1,0,brander-desktop,0,0
18:41:16,0,I/Ofront1,,0.0,,true,0,0,0,0,null,0,1,0,brander-desktop,0,0
18:41:18,0,I/Ostatic,,141.0,,true,0,0,0,0,null,0,1,0,brander-desktop,0,0
18:41:19,0,I/Odb,,3.0,,true,0,0,0,0,null,0,1,0,brander-desktop,0,0
18:41:20,0,I/Ofront1,,0.0,,true,0,0,0,0,null,0,1,0,brander-desktop,0,0
18:41:21,0,I/Ostatic,,165.0,,true,0,0,0,0,null,0,1,0,brander-desktop,0,0
18:41:22,0,I/Odb,,3.0,,true,0,0,0,0,null,0,1,0,brander-desktop,0,0
18:41:23,0,I/Ofront1,,0.0,,true,0,0,0,0,null,0,1,0,brander-desktop,0,0
18:41:24,0,I/Ostatic,,150.0,,true,0,0,0,0,null,0,1,0,brander-desktop,0,0
18:41:25,0,I/Odb,,41.0,,true,0,0,0,0,null,0,1,0,brander-desktop,0,0
18:41:26,0,I/Ofront1,,0.0,,true,0,0,0,0,null,0,1,0,brander-desktop,0,0
18:41:27,0,I/Ostatic,,147.0,,true,0,0,0,0,null,0,1,0,brander-desktop,0,0
18:41:28,0,I/Odb,,2.0,,true,0,0,0,0,null,0,1,0,brander-desktop,0,0
18:41:29,0,I/Ofront1,,0.0,,true,0,0,0,0,null,0,1,0,brander-desktop,0,0
18:41:31,0,I/Ostatic,,172.0,,true,0,0,0,0,null,0,1,0,brander-desktop,0,0
18:41:32,0,I/Odb,,8.0,,true,0,0,0,0,null,0,1,0,brander-desktop,0,0
18:41:33,0,I/Ofront1,,0.0,,true,0,0,0,0,null,0,1,0,brander-desktop,0,0
18:41:34,0,I/Ostatic,,122.0,,true,0,0,0,0,null,0,1,0,brander-desktop,0,0
18:41:35,0,I/Odb,,3.0,,true,0,0,0,0,null,0,1,0,brander-desktop,0,0
18:41:36,0,I/Ofront1,,0.0,,true,0,0,0,0,null,0,1,0,brander-desktop,0,0
18:41:37,0,I/Ostatic,,131.0,,true,0,0,0,0,null,0,1,0,brander-desktop,0,0
18:41:38,0,I/Odb,,2.0,,true,0,0,0,0,null,0,1,0,brander-desktop,0,0
18:41:39,0,I/Ofront1,,0.0,,true,0,0,0,0,null,0,1,0,brander-desktop,0,0
18:41:40,0,I/Ostatic,,141.0,,true,0,0,0,0,null,0,1,0,brander-desktop,0,0
18:41:41,0,I/Odb,,7.0,,true,0,0,0,0,null,0,1,0,brander-desktop,0,0
18:41:43,0,I/Ofront1,,0.0,,true,0,0,0,0,null,0,1,0,brander-desktop,0,0
18:41:44,0,I/Ostatic,,133.0,,true,0,0,0,0,null,0,1,0,brander-desktop,0,0
18:41:45,0,I/Odb,,3.0,,true,0,0,0,0,null,0,1,0,brander-desktop,0,0
18:41:46,0,I/Ofront1,,0.0,,true,0,0,0,0,null,0,1,0,brander-desktop,0,0
18:41:47,0,I/Ostatic,,148.0,,true,0,0,0,0,null,0,1,0,brander-desktop,0,0
18:41:48,0,I/Odb,,2.0,,true,0,0,0,0,null,0,1,0,brander-desktop,0,0
18:41:49,0,I/Ofront1,,0.0,,true,0,0,0,0,null,0,1,0,brander-desktop,0,0
18:41:50,0,I/Ostatic,,149.0,,true,0,0,0,0,null,0,1,0,brander-desktop,0,0
18:41:51,0,I/Odb,,2.0,,true,0,0,0,0,null,0,1,0,brander-desktop,0,0
18:41:52,0,I/Ofront1,,0.0,,true,0,0,0,0,null,0,1,0,brander-desktop,0,0
18:41:53,0,I/Ostatic,,146.0,,true,0,0,0,0,null,0,1,0,brander-desktop,0,0
18:41:55,0,I/Odb,,2.0,,true,0,0,0,0,null,0,1,0,brander-desktop,0,0
18:41:56,0,I/Ofront1,,0.0,,true,0,0,0,0,null,0,1,0,brander-desktop,0,0
18:41:57,0,I/Ostatic,,152.0,,true,0,0,0,0,null,0,1,0,brander-desktop,0,0
18:41:58,0,I/Odb,,2.0,,true,0,0,0,0,null,0,1,0,brander-desktop,0,0
18:41:59,0,I/Ofront1,,0.0,,true,0,0,0,0,null,0,1,0,brander-desktop,0,0
18:42:00,0,I/Ostatic,,164.0,,true,0,0,0,0,null,0,1,0,brander-desktop,0,0
18:42:01,0,I/Odb,,3.0,,true,0,0,0,0,null,0,1,0,brander-desktop,0,0
18:42:02,0,I/Ofront1,,0.0,,true,0,0,0,0,null,0,1,0,brander-desktop,0,0
18:42:03,0,I/Ostatic,,157.0,,true,0,0,0,0,null,0,1,0,brander-desktop,0,0
18:42:04,0,I/Odb,,3.0,,true,0,0,0,0,null,0,1,0,brander-desktop,0,0
18:42:05,0,I/Ofront1,,0.0,,true,0,0,0,0,null,0,1,0,brander-desktop,0,0
18:42:07,0,I/Ostatic,,168.0,,true,0,0,0,0,null,0,1,0,brander-desktop,0,0
18:42:08,0,I/Odb,,3.0,,true,0,0,0,0,null,0,1,0,brander-desktop,0,0
18:42:09,0,I/Ofront1,,0.0,,true,0,0,0,0,null,0,1,0,brander-desktop,0,0
18:42:10,0,I/Ostatic,,156.0,,true,0,0,0,0,null,0,1,0,brander-desktop,0,0
18:42:11,0,I/Odb,,2.0,,true,0,0,0,0,null,0,1,0,brander-desktop,0,0
18:42:12,0,I/Ofront1,,0.0,,true,0,0,0,0,null,0,1,0,brander-desktop,0,0
18:42:13,0,I/Ostatic,,134.0,,true,0,0,0,0,null,0,1,0,brander-desktop,0,0
18:42:14,0,I/Odb,,2.0,,true,0,0,0,0,null,0,1,0,brander-desktop,0,0
18:42:15,0,I/Ofront1,,0.0,,true,0,0,0,0,null,0,1,0,brander-desktop,0,0
18:42:16,0,I/Ostatic,,155.0,,true,0,0,0,0,null,0,1,0,brander-desktop,0,0
18:42:17,0,I/Odb,,2.0,,true,0,0,0,0,null,0,1,0,brander-desktop,0,0
18:42:19,0,I/Ofront1,,0.0,,true,0,0,0,0,null,0,1,0,brander-desktop,0,0
18:42:20,0,I/Ostatic,,149.0,,true,0,0,0,0,null,0,1,0,brander-desktop,0,0
18:42:21,0,I/Odb,,2.0,,true,0,0,0,0,null,0,1,0,brander-desktop,0,0
18:42:22,0,I/Ofront1,,0.0,,true,0,0,0,0,null,0,1,0,brander-desktop,0,0
18:42:23,0,I/Ostatic,,155.0,,true,0,0,0,0,null,0,1,0,brander-desktop,0,0
18:42:24,0,I/Odb,,4.0,,true,0,0,0,0,null,0,1,0,brander-desktop,0,0
18:42:25,0,I/Ofront1,,0.0,,true,0,0,0,0,null,0,1,0,brander-desktop,0,0
18:42:26,0,I/Ostatic,,151.0,,true,0,0,0,0,null,0,1,0,brander-desktop,0,0
18:42:27,0,I/Odb,,8.0,,true,0,0,0,0,null,0,1,0,brander-desktop,0,0
18:42:28,0,I/Ofront1,,1.0,,true,0,0,0,0,null,0,1,0,brander-desktop,0,0
18:42:29,0,I/Ostatic,,160.0,,true,0,0,0,0,null,0,1,0,brander-desktop,0,0
18:42:31,0,I/Odb,,2.0,,true,0,0,0,0,null,0,1,0,brander-desktop,0,0
18:42:32,0,I/Ofront1,,0.0,,true,0,0,0,0,null,0,1,0,brander-desktop,0,0
18:42:33,0,I/Ostatic,,137.0,,true,0,0,0,0,null,0,1,0,brander-desktop,0,0
18:42:34,0,I/Odb,,2.0,,true,0,0,0,0,null,0,1,0,brander-desktop,0,0
18:42:35,0,I/Ofront1,,0.0,,true,0,0,0,0,null,0,1,0,brander-desktop,0,0
18:42:36,0,I/Ostatic,,133.0,,true,0,0,0,0,null,0,1,0,brander-desktop,0,0
18:42:37,0,I/Odb,,2.0,,true,0,0,0,0,null,0,1,0,brander-desktop,0,0
18:42:38,0,I/Ofront1,,3.0,,true,0,0,0,0,null,0,1,0,brander-desktop,0,0
18:42:39,0,I/Ostatic,,150.0,,true,0,0,0,0,null,0,1,0,brander-desktop,0,0
18:42:40,0,I/Odb,,3.0,,true,0,0,0,0,null,0,1,0,brander-desktop,0,0
18:42:41,0,I/Ofront1,,2.0,,true,0,0,0,0,null,0,1,0,brander-desktop,0,0
18:42:43,0,I/Ostatic,,179.0,,true,0,0,0,0,null,0,1,0,brander-desktop,0,0
18:42:44,0,I/Odb,,3.0,,true,0,0,0,0,null,0,1,0,brander-desktop,0,0
18:42:45,0,I/Ofront1,,0.0,,true,0,0,0,0,null,0,1,0,brander-desktop,0,0
18:42:46,0,I/Ostatic,,147.0,,true,0,0,0,0,null,0,1,0,brander-desktop,0,0
18:42:47,0,I/Odb,,4.0,,true,0,0,0,0,null,0,1,0,brander-desktop,0,0
18:42:48,0,I/Ofront1,,0.0,,true,0,0,0,0,null,0,1,0,brander-desktop,0,0
18:42:49,0,I/Ostatic,,168.0,,true,0,0,0,0,null,0,1,0,brander-desktop,0,0
18:42:50,0,I/Odb,,3.0,,true,0,0,0,0,null,0,1,0,brander-desktop,0,0
18:42:51,0,I/Ofront1,,0.0,,true,0,0,0,0,null,0,1,0,brander-desktop,0,0
18:42:52,0,I/Ostatic,,161.0,,true,0,0,0,0,null,0,1,0,brander-desktop,0,0
18:42:53,0,I/Odb,,3.0,,true,0,0,0,0,null,0,1,0,brander-desktop,0,0
18:42:54,0,I/Ofront1,,0.0,,true,0,0,0,0,null,0,1,0,brander-desktop,0,0
18:42:56,0,I/Ostatic,,162.0,,true,0,0,0,0,null,0,1,0,brander-desktop,0,0
18:42:57,0,I/Odb,,2.0,,true,0,0,0,0,null,0,1,0,brander-desktop,0,0
18:42:58,0,I/Ofront1,,0.0,,true,0,0,0,0,null,0,1,0,brander-desktop,0,0
18:42:59,0,I/Ostatic,,131.0,,true,0,0,0,0,null,0,1,0,brander-desktop,0,0
18:43:00,0,I/Odb,,2.0,,true,0,0,0,0,null,0,1,0,brander-desktop,0,0
18:43:01,0,I/Ofront1,,0.0,,true,0,0,0,0,null,0,1,0,brander-desktop,0,0
18:43:02,0,I/Ostatic,,159.0,,true,0,0,0,0,null,0,1,0,brander-desktop,0,0
18:43:03,0,I/Odb,,2.0,,true,0,0,0,0,null,0,1,0,brander-desktop,0,0
18:43:04,0,I/Ofront1,,0.0,,true,0,0,0,0,null,0,1,0,brander-desktop,0,0
18:43:05,0,I/Ostatic,,169.0,,true,0,0,0,0,null,0,1,0,brander-desktop,0,0
18:43:06,0,I/Odb,,2.0,,true,0,0,0,0,null,0,1,0,brander-desktop,0,0
18:43:08,0,I/Ofront1,,0.0,,true,0,0,0,0,null,0,1,0,brander-desktop,0,0
18:43:09,0,I/Ostatic,,152.0,,true,0,0,0,0,null,0,1,0,brander-desktop,0,0
18:43:10,0,I/Odb,,2.0,,true,0,0,0,0,null,0,1,0,brander-desktop,0,0
18:43:11,0,I/Ofront1,,1.0,,true,0,0,0,0,null,0,1,0,brander-desktop,0,0
18:43:12,0,I/Ostatic,,159.0,,true,0,0,0,0,null,0,1,0,brander-desktop,0,0
18:43:13,0,I/Odb,,3.0,,true,0,0,0,0,null,0,1,0,brander-desktop,0,0
18:43:14,0,I/Ofront1,,0.0,,true,0,0,0,0,null,0,1,0,brander-desktop,0,0
18:43:15,0,I/Ostatic,,153.0,,true,0,0,0,0,null,0,1,0,brander-desktop,0,0
18:43:16,0,I/Odb,,3.0,,true,0,0,0,0,null,0,1,0,brander-desktop,0,0
18:43:17,0,I/Ofront1,,0.0,,true,0,0,0,0,null,0,1,0,brander-desktop,0,0
18:43:18,0,I/Ostatic,,156.0,,true,0,0,0,0,null,0,1,0,brander-desktop,0,0
18:43:20,0,I/Odb,,3.0,,true,0,0,0,0,null,0,1,0,brander-desktop,0,0
18:43:21,0,I/Ofront1,,0.0,,true,0,0,0,0,null,0,1,0,brander-desktop,0,0
18:43:22,0,I/Ostatic,,137.0,,true,0,0,0,0,null,0,1,0,brander-desktop,0,0
18:43:23,0,I/Odb,,1.98,,true,0,0,0,0,null,0,1,0,brander-desktop,0,0
18:43:24,0,I/Ofront1,,0.0,,true,0,0,0,0,null,0,1,0,brander-desktop,0,0
18:43:25,0,I/Ostatic,,62.0,,true,0,0,0,0,null,0,1,0,brander-desktop,0,0
18:43:26,0,I/Odb,,2.0,,true,0,0,0,0,null,0,1,0,brander-desktop,0,0
18:43:27,0,I/Ofront1,,0.0,,true,0,0,0,0,null,0,1,0,brander-desktop,0,0
18:43:28,0,I/Ostatic,,152.48,,true,0,0,0,0,null,0,1,0,brander-desktop,0,0
