timeStamp,elapsed,label,responseCode,responseMessage,threadName,success,bytes,sentBytes,grpThreads,allThreads,URL,Latency,SampleCount,ErrorCount,Hostname,IdleTime,Connect
19:29:00,0,I/Ostatic,,0.0,,true,0,0,0,0,null,0,1,0,brander-desktop,0,0
19:29:02,0,I/Odb,,4.0,,true,0,0,0,0,null,0,1,0,brander-desktop,0,0
19:29:04,0,I/Ofront1,,0.0,,true,0,0,0,0,null,0,1,0,brander-desktop,0,0
19:29:06,0,I/Ofront2,,0.0,,true,0,0,0,0,null,0,1,0,brander-desktop,0,0
19:29:07,0,I/Ofront3,,1.0,,true,0,0,0,0,null,0,1,0,brander-desktop,0,0
19:29:09,0,I/Ofront4,,0.0,,true,0,0,0,0,null,0,1,0,brander-desktop,0,0
19:29:11,0,I/Ocache,,9.0,,true,0,0,0,0,null,0,1,0,brander-desktop,0,0
19:29:12,0,I/Ostatic,,1.0,,true,0,0,0,0,null,0,1,0,brander-desktop,0,0
19:29:13,0,I/Odb,,8.0,,true,0,0,0,0,null,0,1,0,brander-desktop,0,0
19:29:14,0,I/Ofront1,,0.0,,true,0,0,0,0,null,0,1,0,brander-desktop,0,0
19:29:15,0,I/Ofront2,,0.0,,true,0,0,0,0,null,0,1,0,brander-desktop,0,0
19:29:16,0,I/Ofront3,,0.0,,true,0,0,0,0,null,0,1,0,brander-desktop,0,0
19:29:17,0,I/Ofront4,,0.0,,true,0,0,0,0,null,0,1,0,brander-desktop,0,0
19:29:18,0,I/Ocache,,10.0,,true,0,0,0,0,null,0,1,0,brander-desktop,0,0
19:29:19,0,I/Ostatic,,6.0,,true,0,0,0,0,null,0,1,0,brander-desktop,0,0
19:29:21,0,I/Odb,,3.0,,true,0,0,0,0,null,0,1,0,brander-desktop,0,0
19:29:22,0,I/Ofront1,,0.0,,true,0,0,0,0,null,0,1,0,brander-desktop,0,0
19:29:23,0,I/Ofront2,,0.0,,true,0,0,0,0,null,0,1,0,brander-desktop,0,0
19:29:24,0,I/Ofront3,,0.0,,true,0,0,0,0,null,0,1,0,brander-desktop,0,0
19:29:25,0,I/Ofront4,,0.0,,true,0,0,0,0,null,0,1,0,brander-desktop,0,0
19:29:26,0,I/Ocache,,9.0,,true,0,0,0,0,null,0,1,0,brander-desktop,0,0
19:29:27,0,I/Ostatic,,57.0,,true,0,0,0,0,null,0,1,0,brander-desktop,0,0
19:29:28,0,I/Odb,,11.0,,true,0,0,0,0,null,0,1,0,brander-desktop,0,0
19:29:29,0,I/Ofront1,,7.0,,true,0,0,0,0,null,0,1,0,brander-desktop,0,0
19:29:30,0,I/Ofront2,,0.0,,true,0,0,0,0,null,0,1,0,brander-desktop,0,0
19:29:32,0,I/Ofront3,,0.0,,true,0,0,0,0,null,0,1,0,brander-desktop,0,0
19:29:33,0,I/Ofront4,,2.0,,true,0,0,0,0,null,0,1,0,brander-desktop,0,0
19:29:34,0,I/Ocache,,10.0,,true,0,0,0,0,null,0,1,0,brander-desktop,0,0
19:29:35,0,I/Ostatic,,4.0,,true,0,0,0,0,null,0,1,0,brander-desktop,0,0
19:29:36,0,I/Odb,,3.0,,true,0,0,0,0,null,0,1,0,brander-desktop,0,0
19:29:37,0,I/Ofront1,,0.0,,true,0,0,0,0,null,0,1,0,brander-desktop,0,0
19:29:38,0,I/Ofront2,,0.0,,true,0,0,0,0,null,0,1,0,brander-desktop,0,0
19:29:39,0,I/Ofront3,,0.0,,true,0,0,0,0,null,0,1,0,brander-desktop,0,0
19:29:40,0,I/Ofront4,,0.0,,true,0,0,0,0,null,0,1,0,brander-desktop,0,0
19:29:41,0,I/Ocache,,8.0,,true,0,0,0,0,null,0,1,0,brander-desktop,0,0
19:29:43,0,I/Ostatic,,4.0,,true,0,0,0,0,null,0,1,0,brander-desktop,0,0
19:29:44,0,I/Odb,,26.0,,true,0,0,0,0,null,0,1,0,brander-desktop,0,0
19:29:45,0,I/Ofront1,,0.0,,true,0,0,0,0,null,0,1,0,brander-desktop,0,0
19:29:46,0,I/Ofront2,,0.0,,true,0,0,0,0,null,0,1,0,brander-desktop,0,0
19:29:47,0,I/Ofront3,,0.0,,true,0,0,0,0,null,0,1,0,brander-desktop,0,0
19:29:48,0,I/Ofront4,,0.0,,true,0,0,0,0,null,0,1,0,brander-desktop,0,0
19:29:49,0,I/Ocache,,10.0,,true,0,0,0,0,null,0,1,0,brander-desktop,0,0
19:29:50,0,I/Ostatic,,0.0,,true,0,0,0,0,null,0,1,0,brander-desktop,0,0
19:29:51,0,I/Odb,,3.0,,true,0,0,0,0,null,0,1,0,brander-desktop,0,0
19:29:52,0,I/Ofront1,,0.0,,true,0,0,0,0,null,0,1,0,brander-desktop,0,0
19:29:53,0,I/Ofront2,,0.0,,true,0,0,0,0,null,0,1,0,brander-desktop,0,0
19:29:55,0,I/Ofront3,,0.0,,true,0,0,0,0,null,0,1,0,brander-desktop,0,0
19:29:56,0,I/Ofront4,,0.0,,true,0,0,0,0,null,0,1,0,brander-desktop,0,0
19:29:57,0,I/Ocache,,12.0,,true,0,0,0,0,null,0,1,0,brander-desktop,0,0
19:29:58,0,I/Ostatic,,0.0,,true,0,0,0,0,null,0,1,0,brander-desktop,0,0
19:29:59,0,I/Odb,,4.0,,true,0,0,0,0,null,0,1,0,brander-desktop,0,0
19:30:00,0,I/Ofront1,,2.0,,true,0,0,0,0,null,0,1,0,brander-desktop,0,0
19:30:01,0,I/Ofront2,,0.0,,true,0,0,0,0,null,0,1,0,brander-desktop,0,0
19:30:02,0,I/Ofront3,,0.0,,true,0,0,0,0,null,0,1,0,brander-desktop,0,0
19:30:03,0,I/Ofront4,,0.0,,true,0,0,0,0,null,0,1,0,brander-desktop,0,0
19:30:04,0,I/Ocache,,10.0,,true,0,0,0,0,null,0,1,0,brander-desktop,0,0
19:30:06,0,I/Ostatic,,5.0,,true,0,0,0,0,null,0,1,0,brander-desktop,0,0
19:30:07,0,I/Odb,,3.0,,true,0,0,0,0,null,0,1,0,brander-desktop,0,0
19:30:08,0,I/Ofront1,,0.0,,true,0,0,0,0,null,0,1,0,brander-desktop,0,0
19:30:09,0,I/Ofront2,,0.0,,true,0,0,0,0,null,0,1,0,brander-desktop,0,0
19:30:10,0,I/Ofront3,,7.0,,true,0,0,0,0,null,0,1,0,brander-desktop,0,0
19:30:11,0,I/Ofront4,,0.0,,true,0,0,0,0,null,0,1,0,brander-desktop,0,0
19:30:12,0,I/Ocache,,9.0,,true,0,0,0,0,null,0,1,0,brander-desktop,0,0
19:30:13,0,I/Ostatic,,2.0,,true,0,0,0,0,null,0,1,0,brander-desktop,0,0
19:30:14,0,I/Odb,,4.0,,true,0,0,0,0,null,0,1,0,brander-desktop,0,0
19:30:15,0,I/Ofront1,,0.0,,true,0,0,0,0,null,0,1,0,brander-desktop,0,0
19:30:17,0,I/Ofront2,,1.0,,true,0,0,0,0,null,0,1,0,brander-desktop,0,0
19:30:18,0,I/Ofront3,,0.0,,true,0,0,0,0,null,0,1,0,brander-desktop,0,0
19:30:19,0,I/Ofront4,,0.0,,true,0,0,0,0,null,0,1,0,brander-desktop,0,0
19:30:20,0,I/Ocache,,9.0,,true,0,0,0,0,null,0,1,0,brander-desktop,0,0
19:30:21,0,I/Ostatic,,0.0,,true,0,0,0,0,null,0,1,0,brander-desktop,0,0
19:30:22,0,I/Odb,,4.0,,true,0,0,0,0,null,0,1,0,brander-desktop,0,0
19:30:23,0,I/Ofront1,,0.0,,true,0,0,0,0,null,0,1,0,brander-desktop,0,0
19:30:24,0,I/Ofront2,,4.0,,true,0,0,0,0,null,0,1,0,brander-desktop,0,0
19:30:25,0,I/Ofront3,,0.0,,true,0,0,0,0,null,0,1,0,brander-desktop,0,0
19:30:26,0,I/Ofront4,,0.0,,true,0,0,0,0,null,0,1,0,brander-desktop,0,0
19:30:27,0,I/Ocache,,9.0,,true,0,0,0,0,null,0,1,0,brander-desktop,0,0
19:30:29,0,I/Ostatic,,0.0,,true,0,0,0,0,null,0,1,0,brander-desktop,0,0
19:30:30,0,I/Odb,,3.0,,true,0,0,0,0,null,0,1,0,brander-desktop,0,0
19:30:31,0,I/Ofront1,,0.0,,true,0,0,0,0,null,0,1,0,brander-desktop,0,0
19:30:32,0,I/Ofront2,,0.0,,true,0,0,0,0,null,0,1,0,brander-desktop,0,0
19:30:33,0,I/Ofront3,,0.0,,true,0,0,0,0,null,0,1,0,brander-desktop,0,0
19:30:34,0,I/Ofront4,,0.0,,true,0,0,0,0,null,0,1,0,brander-desktop,0,0
19:30:35,0,I/Ocache,,9.0,,true,0,0,0,0,null,0,1,0,brander-desktop,0,0
19:30:36,0,I/Ostatic,,274.0,,true,0,0,0,0,null,0,1,0,brander-desktop,0,0
19:30:37,0,I/Odb,,3.0,,true,0,0,0,0,null,0,1,0,brander-desktop,0,0
19:30:38,0,I/Ofront1,,0.0,,true,0,0,0,0,null,0,1,0,brander-desktop,0,0
19:30:40,0,I/Ofront2,,0.0,,true,0,0,0,0,null,0,1,0,brander-desktop,0,0
19:30:41,0,I/Ofront3,,2.0,,true,0,0,0,0,null,0,1,0,brander-desktop,0,0
19:30:42,0,I/Ofront4,,0.0,,true,0,0,0,0,null,0,1,0,brander-desktop,0,0
19:30:43,0,I/Ocache,,11.0,,true,0,0,0,0,null,0,1,0,brander-desktop,0,0
19:30:44,0,I/Ostatic,,2.0,,true,0,0,0,0,null,0,1,0,brander-desktop,0,0
19:30:45,0,I/Odb,,3.0,,true,0,0,0,0,null,0,1,0,brander-desktop,0,0
19:30:46,0,I/Ofront1,,2.0,,true,0,0,0,0,null,0,1,0,brander-desktop,0,0
19:30:47,0,I/Ofront2,,0.0,,true,0,0,0,0,null,0,1,0,brander-desktop,0,0
19:30:48,0,I/Ofront3,,0.0,,true,0,0,0,0,null,0,1,0,brander-desktop,0,0
19:30:49,0,I/Ofront4,,0.0,,true,0,0,0,0,null,0,1,0,brander-desktop,0,0
19:30:50,0,I/Ocache,,9.0,,true,0,0,0,0,null,0,1,0,brander-desktop,0,0
19:30:52,0,I/Ostatic,,5.0,,true,0,0,0,0,null,0,1,0,brander-desktop,0,0
19:30:53,0,I/Odb,,3.0,,true,0,0,0,0,null,0,1,0,brander-desktop,0,0
19:30:54,0,I/Ofront1,,0.0,,true,0,0,0,0,null,0,1,0,brander-desktop,0,0
19:30:55,0,I/Ofront2,,8.0,,true,0,0,0,0,null,0,1,0,brander-desktop,0,0
19:30:56,0,I/Ofront3,,0.0,,true,0,0,0,0,null,0,1,0,brander-desktop,0,0
