timeStamp,elapsed,label,responseCode,responseMessage,threadName,success,bytes,sentBytes,grpThreads,allThreads,URL,Latency,SampleCount,ErrorCount,Hostname,IdleTime,Connect
03:01:27,0,eth0static,,1373.0,,true,0,0,0,0,null,0,1,0,brander-desktop,0,0
03:01:28,0,eth0db,,367.0,,true,0,0,0,0,null,0,1,0,brander-desktop,0,0
03:01:30,0,eth0front1,,513.0,,true,0,0,0,0,null,0,1,0,brander-desktop,0,0
03:01:32,0,eth0front2,,1084.0,,true,0,0,0,0,null,0,1,0,brander-desktop,0,0
03:01:33,0,eth0front3,,1076.0,,true,0,0,0,0,null,0,1,0,brander-desktop,0,0
03:01:35,0,eth0front4,,805.0,,true,0,0,0,0,null,0,1,0,brander-desktop,0,0
03:01:36,0,eth0static,,3368.0,,true,0,0,0,0,null,0,1,0,brander-desktop,0,0
03:01:37,0,eth0db,,2301.0,,true,0,0,0,0,null,0,1,0,brander-desktop,0,0
03:01:38,0,eth0front1,,1377.0,,true,0,0,0,0,null,0,1,0,brander-desktop,0,0
03:01:39,0,eth0front2,,1552.0,,true,0,0,0,0,null,0,1,0,brander-desktop,0,0
03:01:41,0,eth0front3,,826.0,,true,0,0,0,0,null,0,1,0,brander-desktop,0,0
03:01:42,0,eth0front4,,1780.0,,true,0,0,0,0,null,0,1,0,brander-desktop,0,0
03:01:43,0,eth0static,,4743.0,,true,0,0,0,0,null,0,1,0,brander-desktop,0,0
03:01:44,0,eth0db,,2581.0,,true,0,0,0,0,null,0,1,0,brander-desktop,0,0
03:01:45,0,eth0front1,,2037.0,,true,0,0,0,0,null,0,1,0,brander-desktop,0,0
03:01:46,0,eth0front2,,1934.0,,true,0,0,0,0,null,0,1,0,brander-desktop,0,0
03:01:47,0,eth0front3,,1084.0,,true,0,0,0,0,null,0,1,0,brander-desktop,0,0
03:01:48,0,eth0front4,,1970.0,,true,0,0,0,0,null,0,1,0,brander-desktop,0,0
03:01:49,0,eth0static,,5198.0,,true,0,0,0,0,null,0,1,0,brander-desktop,0,0
03:01:50,0,eth0db,,5556.0,,true,0,0,0,0,null,0,1,0,brander-desktop,0,0
03:01:51,0,eth0front1,,2337.0,,true,0,0,0,0,null,0,1,0,brander-desktop,0,0
03:01:53,0,eth0front2,,2404.0,,true,0,0,0,0,null,0,1,0,brander-desktop,0,0
03:01:54,0,eth0front3,,1466.0,,true,0,0,0,0,null,0,1,0,brander-desktop,0,0
03:01:55,0,eth0front4,,2598.0,,true,0,0,0,0,null,0,1,0,brander-desktop,0,0
03:01:56,0,eth0static,,7384.0,,true,0,0,0,0,null,0,1,0,brander-desktop,0,0
03:01:57,0,eth0db,,3439.0,,true,0,0,0,0,null,0,1,0,brander-desktop,0,0
03:01:58,0,eth0front1,,3452.0,,true,0,0,0,0,null,0,1,0,brander-desktop,0,0
03:01:59,0,eth0front2,,1952.0,,true,0,0,0,0,null,0,1,0,brander-desktop,0,0
03:02:01,0,eth0front3,,1638.0,,true,0,0,0,0,null,0,1,0,brander-desktop,0,0
03:02:02,0,eth0front4,,2184.0,,true,0,0,0,0,null,0,1,0,brander-desktop,0,0
03:02:03,0,eth0static,,7730.0,,true,0,0,0,0,null,0,1,0,brander-desktop,0,0
03:02:04,0,eth0db,,4301.0,,true,0,0,0,0,null,0,1,0,brander-desktop,0,0
03:02:05,0,eth0front1,,3869.0,,true,0,0,0,0,null,0,1,0,brander-desktop,0,0
03:02:06,0,eth0front2,,3191.0,,true,0,0,0,0,null,0,1,0,brander-desktop,0,0
03:02:08,0,eth0front3,,1354.0,,true,0,0,0,0,null,0,1,0,brander-desktop,0,0
03:02:09,0,eth0front4,,2838.0,,true,0,0,0,0,null,0,1,0,brander-desktop,0,0
03:02:10,0,eth0static,,7959.0,,true,0,0,0,0,null,0,1,0,brander-desktop,0,0
03:02:11,0,eth0db,,5280.0,,true,0,0,0,0,null,0,1,0,brander-desktop,0,0
03:02:12,0,eth0front1,,2742.0,,true,0,0,0,0,null,0,1,0,brander-desktop,0,0
03:02:13,0,eth0front2,,3501.0,,true,0,0,0,0,null,0,1,0,brander-desktop,0,0
03:02:15,0,eth0front3,,2234.0,,true,0,0,0,0,null,0,1,0,brander-desktop,0,0
03:02:16,0,eth0front4,,2566.0,,true,0,0,0,0,null,0,1,0,brander-desktop,0,0
03:02:17,0,eth0static,,7500.0,,true,0,0,0,0,null,0,1,0,brander-desktop,0,0
03:02:18,0,eth0db,,3009.0,,true,0,0,0,0,null,0,1,0,brander-desktop,0,0
03:02:20,0,eth0front1,,3507.0,,true,0,0,0,0,null,0,1,0,brander-desktop,0,0
03:02:21,0,eth0front2,,2410.0,,true,0,0,0,0,null,0,1,0,brander-desktop,0,0
03:02:22,0,eth0front3,,1764.0,,true,0,0,0,0,null,0,1,0,brander-desktop,0,0
03:02:24,0,eth0front4,,1973.0,,true,0,0,0,0,null,0,1,0,brander-desktop,0,0
03:02:25,0,eth0static,,9645.0,,true,0,0,0,0,null,0,1,0,brander-desktop,0,0
03:02:26,0,eth0db,,4978.0,,true,0,0,0,0,null,0,1,0,brander-desktop,0,0
03:02:28,0,eth0front1,,3234.0,,true,0,0,0,0,null,0,1,0,brander-desktop,0,0
03:02:29,0,eth0front2,,2813.0,,true,0,0,0,0,null,0,1,0,brander-desktop,0,0
03:02:30,0,eth0front3,,1699.0,,true,0,0,0,0,null,0,1,0,brander-desktop,0,0
03:02:32,0,eth0front4,,2857.0,,true,0,0,0,0,null,0,1,0,brander-desktop,0,0
03:02:33,0,eth0static,,7413.0,,true,0,0,0,0,null,0,1,0,brander-desktop,0,0
03:02:34,0,eth0db,,5659.41,,true,0,0,0,0,null,0,1,0,brander-desktop,0,0
03:02:36,0,eth0front1,,3019.0,,true,0,0,0,0,null,0,1,0,brander-desktop,0,0
03:02:37,0,eth0front2,,3143.0,,true,0,0,0,0,null,0,1,0,brander-desktop,0,0
03:02:39,0,eth0front3,,1744.0,,true,0,0,0,0,null,0,1,0,brander-desktop,0,0
03:02:40,0,eth0front4,,2781.0,,true,0,0,0,0,null,0,1,0,brander-desktop,0,0
03:02:42,0,eth0static,,7096.0,,true,0,0,0,0,null,0,1,0,brander-desktop,0,0
03:02:43,0,eth0db,,5184.0,,true,0,0,0,0,null,0,1,0,brander-desktop,0,0
03:02:44,0,eth0front1,,3714.0,,true,0,0,0,0,null,0,1,0,brander-desktop,0,0
03:02:46,0,eth0front2,,4423.0,,true,0,0,0,0,null,0,1,0,brander-desktop,0,0
03:02:47,0,eth0front3,,1065.0,,true,0,0,0,0,null,0,1,0,brander-desktop,0,0
03:02:49,0,eth0front4,,2281.0,,true,0,0,0,0,null,0,1,0,brander-desktop,0,0
03:02:50,0,eth0static,,6870.0,,true,0,0,0,0,null,0,1,0,brander-desktop,0,0
03:02:52,0,eth0db,,5026.0,,true,0,0,0,0,null,0,1,0,brander-desktop,0,0
03:02:53,0,eth0front1,,2101.0,,true,0,0,0,0,null,0,1,0,brander-desktop,0,0
03:02:55,0,eth0front2,,1841.0,,true,0,0,0,0,null,0,1,0,brander-desktop,0,0
03:02:57,0,eth0front3,,1415.0,,true,0,0,0,0,null,0,1,0,brander-desktop,0,0
03:02:58,0,eth0front4,,2188.0,,true,0,0,0,0,null,0,1,0,brander-desktop,0,0
03:03:00,0,eth0static,,7090.0,,true,0,0,0,0,null,0,1,0,brander-desktop,0,0
03:03:02,0,eth0db,,5253.0,,true,0,0,0,0,null,0,1,0,brander-desktop,0,0
03:03:03,0,eth0front1,,3581.0,,true,0,0,0,0,null,0,1,0,brander-desktop,0,0
03:03:05,0,eth0front2,,3520.0,,true,0,0,0,0,null,0,1,0,brander-desktop,0,0
03:03:06,0,eth0front3,,1912.0,,true,0,0,0,0,null,0,1,0,brander-desktop,0,0
03:03:08,0,eth0front4,,2898.0,,true,0,0,0,0,null,0,1,0,brander-desktop,0,0
03:03:10,0,eth0static,,7462.0,,true,0,0,0,0,null,0,1,0,brander-desktop,0,0
03:03:11,0,eth0db,,5959.0,,true,0,0,0,0,null,0,1,0,brander-desktop,0,0
03:03:13,0,eth0front1,,3882.0,,true,0,0,0,0,null,0,1,0,brander-desktop,0,0
03:03:15,0,eth0front2,,2955.0,,true,0,0,0,0,null,0,1,0,brander-desktop,0,0
03:03:16,0,eth0front3,,1747.0,,true,0,0,0,0,null,0,1,0,brander-desktop,0,0
03:03:18,0,eth0front4,,2441.0,,true,0,0,0,0,null,0,1,0,brander-desktop,0,0
03:03:20,0,eth0static,,7118.0,,true,0,0,0,0,null,0,1,0,brander-desktop,0,0
03:03:22,0,eth0db,,2854.0,,true,0,0,0,0,null,0,1,0,brander-desktop,0,0
03:03:24,0,eth0front1,,2331.0,,true,0,0,0,0,null,0,1,0,brander-desktop,0,0
03:03:25,0,eth0front2,,2902.0,,true,0,0,0,0,null,0,1,0,brander-desktop,0,0
03:03:27,0,eth0front3,,1323.0,,true,0,0,0,0,null,0,1,0,brander-desktop,0,0
03:03:29,0,eth0front4,,2717.0,,true,0,0,0,0,null,0,1,0,brander-desktop,0,0
03:03:31,0,eth0static,,7495.0,,true,0,0,0,0,null,0,1,0,brander-desktop,0,0
03:03:32,0,eth0db,,4259.0,,true,0,0,0,0,null,0,1,0,brander-desktop,0,0
03:03:34,0,eth0front1,,2523.0,,true,0,0,0,0,null,0,1,0,brander-desktop,0,0
03:03:36,0,eth0front2,,3160.0,,true,0,0,0,0,null,0,1,0,brander-desktop,0,0
03:03:38,0,eth0front3,,1732.0,,true,0,0,0,0,null,0,1,0,brander-desktop,0,0
03:03:40,0,eth0front4,,2372.0,,true,0,0,0,0,null,0,1,0,brander-desktop,0,0
03:03:42,0,eth0static,,7039.0,,true,0,0,0,0,null,0,1,0,brander-desktop,0,0
03:03:44,0,eth0db,,3436.0,,true,0,0,0,0,null,0,1,0,brander-desktop,0,0
03:03:46,0,eth0front1,,3080.0,,true,0,0,0,0,null,0,1,0,brander-desktop,0,0
03:03:47,0,eth0front2,,2621.0,,true,0,0,0,0,null,0,1,0,brander-desktop,0,0
03:03:49,0,eth0front3,,1642.0,,true,0,0,0,0,null,0,1,0,brander-desktop,0,0
03:03:51,0,eth0front4,,3807.0,,true,0,0,0,0,null,0,1,0,brander-desktop,0,0
03:03:53,0,eth0static,,6907.0,,true,0,0,0,0,null,0,1,0,brander-desktop,0,0
03:03:55,0,eth0db,,5131.0,,true,0,0,0,0,null,0,1,0,brander-desktop,0,0
03:03:57,0,eth0front1,,3093.0,,true,0,0,0,0,null,0,1,0,brander-desktop,0,0
03:03:59,0,eth0front2,,3236.0,,true,0,0,0,0,null,0,1,0,brander-desktop,0,0
03:04:01,0,eth0front3,,2149.0,,true,0,0,0,0,null,0,1,0,brander-desktop,0,0
03:04:02,0,eth0front4,,3125.0,,true,0,0,0,0,null,0,1,0,brander-desktop,0,0
03:04:04,0,eth0static,,10428.0,,true,0,0,0,0,null,0,1,0,brander-desktop,0,0
03:04:06,0,eth0db,,4410.0,,true,0,0,0,0,null,0,1,0,brander-desktop,0,0
03:04:08,0,eth0front1,,2625.0,,true,0,0,0,0,null,0,1,0,brander-desktop,0,0
03:04:10,0,eth0front2,,2897.0,,true,0,0,0,0,null,0,1,0,brander-desktop,0,0
03:04:12,0,eth0front3,,1830.0,,true,0,0,0,0,null,0,1,0,brander-desktop,0,0
03:04:14,0,eth0front4,,2295.0,,true,0,0,0,0,null,0,1,0,brander-desktop,0,0
03:04:16,0,eth0static,,7603.0,,true,0,0,0,0,null,0,1,0,brander-desktop,0,0
03:04:18,0,eth0db,,4646.0,,true,0,0,0,0,null,0,1,0,brander-desktop,0,0
03:04:19,0,eth0front1,,2109.0,,true,0,0,0,0,null,0,1,0,brander-desktop,0,0
03:04:21,0,eth0front2,,3593.0,,true,0,0,0,0,null,0,1,0,brander-desktop,0,0
03:04:23,0,eth0front3,,2091.0,,true,0,0,0,0,null,0,1,0,brander-desktop,0,0
03:04:25,0,eth0front4,,2650.0,,true,0,0,0,0,null,0,1,0,brander-desktop,0,0
03:04:27,0,eth0static,,8850.0,,true,0,0,0,0,null,0,1,0,brander-desktop,0,0
03:04:29,0,eth0db,,2792.0,,true,0,0,0,0,null,0,1,0,brander-desktop,0,0
03:04:31,0,eth0front1,,4109.0,,true,0,0,0,0,null,0,1,0,brander-desktop,0,0
03:04:33,0,eth0front2,,2980.0,,true,0,0,0,0,null,0,1,0,brander-desktop,0,0
03:04:34,0,eth0front3,,1216.0,,true,0,0,0,0,null,0,1,0,brander-desktop,0,0
03:04:36,0,eth0front4,,2595.0,,true,0,0,0,0,null,0,1,0,brander-desktop,0,0
03:04:38,0,eth0static,,7130.0,,true,0,0,0,0,null,0,1,0,brander-desktop,0,0
03:04:40,0,eth0db,,5101.0,,true,0,0,0,0,null,0,1,0,brander-desktop,0,0
03:04:42,0,eth0front1,,3118.0,,true,0,0,0,0,null,0,1,0,brander-desktop,0,0
03:04:44,0,eth0front2,,3743.0,,true,0,0,0,0,null,0,1,0,brander-desktop,0,0
03:04:46,0,eth0front3,,1927.0,,true,0,0,0,0,null,0,1,0,brander-desktop,0,0
03:04:47,0,eth0front4,,3754.0,,true,0,0,0,0,null,0,1,0,brander-desktop,0,0
03:04:49,0,eth0static,,6245.0,,true,0,0,0,0,null,0,1,0,brander-desktop,0,0
03:04:51,0,eth0db,,3152.0,,true,0,0,0,0,null,0,1,0,brander-desktop,0,0
03:04:53,0,eth0front1,,3047.0,,true,0,0,0,0,null,0,1,0,brander-desktop,0,0
03:04:55,0,eth0front2,,2640.0,,true,0,0,0,0,null,0,1,0,brander-desktop,0,0
03:04:56,0,eth0front3,,1689.0,,true,0,0,0,0,null,0,1,0,brander-desktop,0,0
03:04:58,0,eth0front4,,3349.0,,true,0,0,0,0,null,0,1,0,brander-desktop,0,0
03:05:00,0,eth0static,,7139.0,,true,0,0,0,0,null,0,1,0,brander-desktop,0,0
03:05:02,0,eth0db,,5945.0,,true,0,0,0,0,null,0,1,0,brander-desktop,0,0
03:05:03,0,eth0front1,,2801.0,,true,0,0,0,0,null,0,1,0,brander-desktop,0,0
03:05:05,0,eth0front2,,3462.38,,true,0,0,0,0,null,0,1,0,brander-desktop,0,0
03:05:07,0,eth0front3,,1862.0,,true,0,0,0,0,null,0,1,0,brander-desktop,0,0
03:05:09,0,eth0front4,,2172.0,,true,0,0,0,0,null,0,1,0,brander-desktop,0,0
03:05:10,0,eth0static,,7097.0,,true,0,0,0,0,null,0,1,0,brander-desktop,0,0
03:05:12,0,eth0db,,6303.0,,true,0,0,0,0,null,0,1,0,brander-desktop,0,0
03:05:14,0,eth0front1,,4163.0,,true,0,0,0,0,null,0,1,0,brander-desktop,0,0
03:05:16,0,eth0front2,,3378.0,,true,0,0,0,0,null,0,1,0,brander-desktop,0,0
03:05:18,0,eth0front3,,1738.0,,true,0,0,0,0,null,0,1,0,brander-desktop,0,0
03:05:19,0,eth0front4,,4774.0,,true,0,0,0,0,null,0,1,0,brander-desktop,0,0
03:05:21,0,eth0static,,6715.0,,true,0,0,0,0,null,0,1,0,brander-desktop,0,0
03:05:23,0,eth0db,,4019.0,,true,0,0,0,0,null,0,1,0,brander-desktop,0,0
03:05:25,0,eth0front1,,2283.0,,true,0,0,0,0,null,0,1,0,brander-desktop,0,0
03:05:26,0,eth0front2,,2440.0,,true,0,0,0,0,null,0,1,0,brander-desktop,0,0
03:05:28,0,eth0front3,,1438.0,,true,0,0,0,0,null,0,1,0,brander-desktop,0,0
03:05:30,0,eth0front4,,2351.0,,true,0,0,0,0,null,0,1,0,brander-desktop,0,0
03:05:31,0,eth0static,,6889.0,,true,0,0,0,0,null,0,1,0,brander-desktop,0,0
03:05:33,0,eth0db,,5434.0,,true,0,0,0,0,null,0,1,0,brander-desktop,0,0
03:05:34,0,eth0front1,,2826.0,,true,0,0,0,0,null,0,1,0,brander-desktop,0,0
03:05:36,0,eth0front2,,2842.0,,true,0,0,0,0,null,0,1,0,brander-desktop,0,0
03:05:37,0,eth0front3,,1325.0,,true,0,0,0,0,null,0,1,0,brander-desktop,0,0
03:05:39,0,eth0front4,,2403.0,,true,0,0,0,0,null,0,1,0,brander-desktop,0,0
03:05:40,0,eth0static,,6893.0,,true,0,0,0,0,null,0,1,0,brander-desktop,0,0
03:05:41,0,eth0db,,5007.0,,true,0,0,0,0,null,0,1,0,brander-desktop,0,0
03:05:42,0,eth0front1,,2112.0,,true,0,0,0,0,null,0,1,0,brander-desktop,0,0
03:05:44,0,eth0front2,,2986.0,,true,0,0,0,0,null,0,1,0,brander-desktop,0,0
03:05:45,0,eth0front3,,1200.0,,true,0,0,0,0,null,0,1,0,brander-desktop,0,0
03:05:46,0,eth0front4,,1958.0,,true,0,0,0,0,null,0,1,0,brander-desktop,0,0
03:05:47,0,eth0static,,7568.0,,true,0,0,0,0,null,0,1,0,brander-desktop,0,0
03:05:48,0,eth0db,,4928.0,,true,0,0,0,0,null,0,1,0,brander-desktop,0,0
03:05:50,0,eth0front1,,1729.0,,true,0,0,0,0,null,0,1,0,brander-desktop,0,0
03:05:51,0,eth0front2,,2269.0,,true,0,0,0,0,null,0,1,0,brander-desktop,0,0
03:05:52,0,eth0front3,,1799.01,,true,0,0,0,0,null,0,1,0,brander-desktop,0,0
03:05:53,0,eth0front4,,1996.0,,true,0,0,0,0,null,0,1,0,brander-desktop,0,0
03:05:54,0,eth0static,,6743.0,,true,0,0,0,0,null,0,1,0,brander-desktop,0,0
03:05:55,0,eth0db,,4941.0,,true,0,0,0,0,null,0,1,0,brander-desktop,0,0
03:05:57,0,eth0front1,,2570.0,,true,0,0,0,0,null,0,1,0,brander-desktop,0,0
03:05:58,0,eth0front2,,2945.0,,true,0,0,0,0,null,0,1,0,brander-desktop,0,0
03:05:59,0,eth0front3,,794.0,,true,0,0,0,0,null,0,1,0,brander-desktop,0,0
03:06:00,0,eth0front4,,2527.0,,true,0,0,0,0,null,0,1,0,brander-desktop,0,0
03:06:01,0,eth0static,,6058.0,,true,0,0,0,0,null,0,1,0,brander-desktop,0,0
03:06:02,0,eth0db,,5071.0,,true,0,0,0,0,null,0,1,0,brander-desktop,0,0
03:06:03,0,eth0front1,,3044.0,,true,0,0,0,0,null,0,1,0,brander-desktop,0,0
03:06:04,0,eth0front2,,3618.0,,true,0,0,0,0,null,0,1,0,brander-desktop,0,0
03:06:06,0,eth0front3,,2784.0,,true,0,0,0,0,null,0,1,0,brander-desktop,0,0
03:06:07,0,eth0front4,,3283.0,,true,0,0,0,0,null,0,1,0,brander-desktop,0,0
03:06:08,0,eth0static,,6706.0,,true,0,0,0,0,null,0,1,0,brander-desktop,0,0
03:06:10,0,eth0db,,5274.0,,true,0,0,0,0,null,0,1,0,brander-desktop,0,0
03:06:11,0,eth0front1,,3088.0,,true,0,0,0,0,null,0,1,0,brander-desktop,0,0
03:06:12,0,eth0front2,,2568.0,,true,0,0,0,0,null,0,1,0,brander-desktop,0,0
03:06:14,0,eth0front3,,1326.0,,true,0,0,0,0,null,0,1,0,brander-desktop,0,0
03:06:15,0,eth0front4,,2129.0,,true,0,0,0,0,null,0,1,0,brander-desktop,0,0
03:06:16,0,eth0static,,6828.0,,true,0,0,0,0,null,0,1,0,brander-desktop,0,0
03:06:17,0,eth0db,,5973.0,,true,0,0,0,0,null,0,1,0,brander-desktop,0,0
03:06:18,0,eth0front1,,2845.0,,true,0,0,0,0,null,0,1,0,brander-desktop,0,0
03:06:20,0,eth0front2,,2012.0,,true,0,0,0,0,null,0,1,0,brander-desktop,0,0
03:06:21,0,eth0front3,,1691.0,,true,0,0,0,0,null,0,1,0,brander-desktop,0,0
03:06:22,0,eth0front4,,3587.0,,true,0,0,0,0,null,0,1,0,brander-desktop,0,0
03:06:23,0,eth0static,,6488.0,,true,0,0,0,0,null,0,1,0,brander-desktop,0,0
03:06:24,0,eth0db,,5858.0,,true,0,0,0,0,null,0,1,0,brander-desktop,0,0
03:06:26,0,eth0front1,,3500.0,,true,0,0,0,0,null,0,1,0,brander-desktop,0,0
03:06:27,0,eth0front2,,2082.0,,true,0,0,0,0,null,0,1,0,brander-desktop,0,0
03:06:28,0,eth0front3,,1262.0,,true,0,0,0,0,null,0,1,0,brander-desktop,0,0
03:06:29,0,eth0front4,,3440.0,,true,0,0,0,0,null,0,1,0,brander-desktop,0,0
03:06:31,0,eth0static,,7921.0,,true,0,0,0,0,null,0,1,0,brander-desktop,0,0
03:06:32,0,eth0db,,4248.0,,true,0,0,0,0,null,0,1,0,brander-desktop,0,0
03:06:33,0,eth0front1,,2492.0,,true,0,0,0,0,null,0,1,0,brander-desktop,0,0
03:06:35,0,eth0front2,,2649.0,,true,0,0,0,0,null,0,1,0,brander-desktop,0,0
03:06:36,0,eth0front3,,1401.0,,true,0,0,0,0,null,0,1,0,brander-desktop,0,0
03:06:38,0,eth0front4,,2391.0,,true,0,0,0,0,null,0,1,0,brander-desktop,0,0
03:06:39,0,eth0static,,6571.0,,true,0,0,0,0,null,0,1,0,brander-desktop,0,0
03:06:42,0,eth0db,,5367.0,,true,0,0,0,0,null,0,1,0,brander-desktop,0,0
03:06:43,0,eth0front1,,3347.0,,true,0,0,0,0,null,0,1,0,brander-desktop,0,0
03:06:44,0,eth0front2,,3669.0,,true,0,0,0,0,null,0,1,0,brander-desktop,0,0
03:06:45,0,eth0front3,,2943.0,,true,0,0,0,0,null,0,1,0,brander-desktop,0,0
03:06:47,0,eth0front4,,2636.0,,true,0,0,0,0,null,0,1,0,brander-desktop,0,0
03:06:48,0,eth0static,,7113.0,,true,0,0,0,0,null,0,1,0,brander-desktop,0,0
03:06:49,0,eth0db,,3623.0,,true,0,0,0,0,null,0,1,0,brander-desktop,0,0
03:06:51,0,eth0front1,,3152.0,,true,0,0,0,0,null,0,1,0,brander-desktop,0,0
03:06:52,0,eth0front2,,3152.0,,true,0,0,0,0,null,0,1,0,brander-desktop,0,0
03:06:53,0,eth0front3,,1527.0,,true,0,0,0,0,null,0,1,0,brander-desktop,0,0
03:06:55,0,eth0front4,,3440.0,,true,0,0,0,0,null,0,1,0,brander-desktop,0,0
03:06:56,0,eth0static,,6411.0,,true,0,0,0,0,null,0,1,0,brander-desktop,0,0
03:06:57,0,eth0db,,4704.0,,true,0,0,0,0,null,0,1,0,brander-desktop,0,0
03:06:58,0,eth0front1,,4431.0,,true,0,0,0,0,null,0,1,0,brander-desktop,0,0
03:06:59,0,eth0front2,,2731.0,,true,0,0,0,0,null,0,1,0,brander-desktop,0,0
03:07:00,0,eth0front3,,1635.0,,true,0,0,0,0,null,0,1,0,brander-desktop,0,0
03:07:02,0,eth0front4,,3196.0,,true,0,0,0,0,null,0,1,0,brander-desktop,0,0
03:07:03,0,eth0static,,7212.0,,true,0,0,0,0,null,0,1,0,brander-desktop,0,0
03:07:04,0,eth0db,,3481.0,,true,0,0,0,0,null,0,1,0,brander-desktop,0,0
03:07:05,0,eth0front1,,2069.0,,true,0,0,0,0,null,0,1,0,brander-desktop,0,0
03:07:06,0,eth0front2,,2046.0,,true,0,0,0,0,null,0,1,0,brander-desktop,0,0
03:07:07,0,eth0front3,,936.0,,true,0,0,0,0,null,0,1,0,brander-desktop,0,0
03:07:08,0,eth0front4,,3883.0,,true,0,0,0,0,null,0,1,0,brander-desktop,0,0
03:07:09,0,eth0static,,6909.0,,true,0,0,0,0,null,0,1,0,brander-desktop,0,0
03:07:10,0,eth0db,,4943.0,,true,0,0,0,0,null,0,1,0,brander-desktop,0,0
03:07:11,0,eth0front1,,2043.0,,true,0,0,0,0,null,0,1,0,brander-desktop,0,0
03:07:13,0,eth0front2,,3198.0,,true,0,0,0,0,null,0,1,0,brander-desktop,0,0
03:07:14,0,eth0front3,,1104.0,,true,0,0,0,0,null,0,1,0,brander-desktop,0,0
03:07:15,0,eth0front4,,2065.0,,true,0,0,0,0,null,0,1,0,brander-desktop,0,0
03:07:16,0,eth0static,,4745.0,,true,0,0,0,0,null,0,1,0,brander-desktop,0,0
03:07:17,0,eth0db,,3528.0,,true,0,0,0,0,null,0,1,0,brander-desktop,0,0
03:07:18,0,eth0front1,,2131.0,,true,0,0,0,0,null,0,1,0,brander-desktop,0,0
03:07:19,0,eth0front2,,2156.0,,true,0,0,0,0,null,0,1,0,brander-desktop,0,0
03:07:20,0,eth0front3,,1357.43,,true,0,0,0,0,null,0,1,0,brander-desktop,0,0
03:07:21,0,eth0front4,,3090.0,,true,0,0,0,0,null,0,1,0,brander-desktop,0,0
03:07:22,0,eth0static,,5849.0,,true,0,0,0,0,null,0,1,0,brander-desktop,0,0
03:07:23,0,eth0db,,3790.0,,true,0,0,0,0,null,0,1,0,brander-desktop,0,0
03:07:25,0,eth0front1,,1707.0,,true,0,0,0,0,null,0,1,0,brander-desktop,0,0
03:07:26,0,eth0front2,,2739.0,,true,0,0,0,0,null,0,1,0,brander-desktop,0,0
03:07:27,0,eth0front3,,1557.0,,true,0,0,0,0,null,0,1,0,brander-desktop,0,0
03:07:28,0,eth0front4,,3090.0,,true,0,0,0,0,null,0,1,0,brander-desktop,0,0
03:07:29,0,eth0static,,6548.0,,true,0,0,0,0,null,0,1,0,brander-desktop,0,0
03:07:30,0,eth0db,,5405.0,,true,0,0,0,0,null,0,1,0,brander-desktop,0,0
03:07:31,0,eth0front1,,2306.0,,true,0,0,0,0,null,0,1,0,brander-desktop,0,0
03:07:32,0,eth0front2,,2693.0,,true,0,0,0,0,null,0,1,0,brander-desktop,0,0
03:07:34,0,eth0front3,,2127.0,,true,0,0,0,0,null,0,1,0,brander-desktop,0,0
03:07:35,0,eth0front4,,2941.0,,true,0,0,0,0,null,0,1,0,brander-desktop,0,0
03:07:36,0,eth0static,,6814.0,,true,0,0,0,0,null,0,1,0,brander-desktop,0,0
03:07:37,0,eth0db,,3003.0,,true,0,0,0,0,null,0,1,0,brander-desktop,0,0
03:07:38,0,eth0front1,,2095.0,,true,0,0,0,0,null,0,1,0,brander-desktop,0,0
03:07:39,0,eth0front2,,2533.0,,true,0,0,0,0,null,0,1,0,brander-desktop,0,0
03:07:40,0,eth0front3,,1598.0,,true,0,0,0,0,null,0,1,0,brander-desktop,0,0
03:07:41,0,eth0front4,,2480.0,,true,0,0,0,0,null,0,1,0,brander-desktop,0,0
03:07:43,0,eth0static,,6744.0,,true,0,0,0,0,null,0,1,0,brander-desktop,0,0
03:07:44,0,eth0db,,5809.0,,true,0,0,0,0,null,0,1,0,brander-desktop,0,0
03:07:45,0,eth0front1,,3306.0,,true,0,0,0,0,null,0,1,0,brander-desktop,0,0
03:07:46,0,eth0front2,,3259.0,,true,0,0,0,0,null,0,1,0,brander-desktop,0,0
03:07:47,0,eth0front3,,1811.0,,true,0,0,0,0,null,0,1,0,brander-desktop,0,0
03:07:48,0,eth0front4,,2849.0,,true,0,0,0,0,null,0,1,0,brander-desktop,0,0
03:07:49,0,eth0static,,7034.0,,true,0,0,0,0,null,0,1,0,brander-desktop,0,0
03:07:50,0,eth0db,,4025.0,,true,0,0,0,0,null,0,1,0,brander-desktop,0,0
03:07:52,0,eth0front1,,1746.0,,true,0,0,0,0,null,0,1,0,brander-desktop,0,0
03:07:53,0,eth0front2,,3060.0,,true,0,0,0,0,null,0,1,0,brander-desktop,0,0
03:07:54,0,eth0front3,,1524.0,,true,0,0,0,0,null,0,1,0,brander-desktop,0,0
03:07:55,0,eth0front4,,2761.0,,true,0,0,0,0,null,0,1,0,brander-desktop,0,0
03:07:56,0,eth0static,,6253.0,,true,0,0,0,0,null,0,1,0,brander-desktop,0,0
03:07:57,0,eth0db,,3936.0,,true,0,0,0,0,null,0,1,0,brander-desktop,0,0
03:07:58,0,eth0front1,,1504.0,,true,0,0,0,0,null,0,1,0,brander-desktop,0,0
03:08:00,0,eth0front2,,2116.0,,true,0,0,0,0,null,0,1,0,brander-desktop,0,0
03:08:01,0,eth0front3,,1062.0,,true,0,0,0,0,null,0,1,0,brander-desktop,0,0
03:08:02,0,eth0front4,,1681.0,,true,0,0,0,0,null,0,1,0,brander-desktop,0,0
03:08:03,0,eth0static,,6118.0,,true,0,0,0,0,null,0,1,0,brander-desktop,0,0
03:08:04,0,eth0db,,3618.0,,true,0,0,0,0,null,0,1,0,brander-desktop,0,0
03:08:05,0,eth0front1,,3181.0,,true,0,0,0,0,null,0,1,0,brander-desktop,0,0
03:08:06,0,eth0front2,,3624.0,,true,0,0,0,0,null,0,1,0,brander-desktop,0,0
03:08:07,0,eth0front3,,2841.0,,true,0,0,0,0,null,0,1,0,brander-desktop,0,0
03:08:08,0,eth0front4,,3118.0,,true,0,0,0,0,null,0,1,0,brander-desktop,0,0
03:08:10,0,eth0static,,7585.0,,true,0,0,0,0,null,0,1,0,brander-desktop,0,0
03:08:11,0,eth0db,,5619.0,,true,0,0,0,0,null,0,1,0,brander-desktop,0,0
03:08:12,0,eth0front1,,2743.0,,true,0,0,0,0,null,0,1,0,brander-desktop,0,0
03:08:14,0,eth0front2,,2441.0,,true,0,0,0,0,null,0,1,0,brander-desktop,0,0
03:08:15,0,eth0front3,,1075.0,,true,0,0,0,0,null,0,1,0,brander-desktop,0,0
03:08:16,0,eth0front4,,2351.0,,true,0,0,0,0,null,0,1,0,brander-desktop,0,0
03:08:18,0,eth0static,,7231.0,,true,0,0,0,0,null,0,1,0,brander-desktop,0,0
03:08:19,0,eth0db,,4436.0,,true,0,0,0,0,null,0,1,0,brander-desktop,0,0
03:08:21,0,eth0front1,,4034.0,,true,0,0,0,0,null,0,1,0,brander-desktop,0,0
03:08:22,0,eth0front2,,3546.0,,true,0,0,0,0,null,0,1,0,brander-desktop,0,0
03:08:23,0,eth0front3,,1308.0,,true,0,0,0,0,null,0,1,0,brander-desktop,0,0
03:08:25,0,eth0front4,,2015.0,,true,0,0,0,0,null,0,1,0,brander-desktop,0,0
03:08:26,0,eth0static,,9055.0,,true,0,0,0,0,null,0,1,0,brander-desktop,0,0
03:08:27,0,eth0db,,3820.0,,true,0,0,0,0,null,0,1,0,brander-desktop,0,0
03:08:29,0,eth0front1,,3496.0,,true,0,0,0,0,null,0,1,0,brander-desktop,0,0
03:08:30,0,eth0front2,,3232.0,,true,0,0,0,0,null,0,1,0,brander-desktop,0,0
03:08:31,0,eth0front3,,1750.0,,true,0,0,0,0,null,0,1,0,brander-desktop,0,0
03:08:32,0,eth0front4,,2263.0,,true,0,0,0,0,null,0,1,0,brander-desktop,0,0
03:08:33,0,eth0static,,6037.0,,true,0,0,0,0,null,0,1,0,brander-desktop,0,0
03:08:34,0,eth0db,,3092.0,,true,0,0,0,0,null,0,1,0,brander-desktop,0,0
03:08:35,0,eth0front1,,2339.0,,true,0,0,0,0,null,0,1,0,brander-desktop,0,0
03:08:37,0,eth0front2,,3741.0,,true,0,0,0,0,null,0,1,0,brander-desktop,0,0
03:08:38,0,eth0front3,,2067.0,,true,0,0,0,0,null,0,1,0,brander-desktop,0,0
03:08:39,0,eth0front4,,2312.0,,true,0,0,0,0,null,0,1,0,brander-desktop,0,0
03:08:40,0,eth0static,,6510.0,,true,0,0,0,0,null,0,1,0,brander-desktop,0,0
03:08:42,0,eth0db,,4907.0,,true,0,0,0,0,null,0,1,0,brander-desktop,0,0
03:08:43,0,eth0front1,,2364.0,,true,0,0,0,0,null,0,1,0,brander-desktop,0,0
03:08:44,0,eth0front2,,3913.0,,true,0,0,0,0,null,0,1,0,brander-desktop,0,0
03:08:45,0,eth0front3,,2504.0,,true,0,0,0,0,null,0,1,0,brander-desktop,0,0
03:08:47,0,eth0front4,,2760.0,,true,0,0,0,0,null,0,1,0,brander-desktop,0,0
03:08:48,0,eth0static,,6856.0,,true,0,0,0,0,null,0,1,0,brander-desktop,0,0
03:08:49,0,eth0db,,5165.0,,true,0,0,0,0,null,0,1,0,brander-desktop,0,0
03:08:50,0,eth0front1,,3162.0,,true,0,0,0,0,null,0,1,0,brander-desktop,0,0
03:08:52,0,eth0front2,,3640.0,,true,0,0,0,0,null,0,1,0,brander-desktop,0,0
03:08:53,0,eth0front3,,2506.0,,true,0,0,0,0,null,0,1,0,brander-desktop,0,0
03:08:54,0,eth0front4,,3634.0,,true,0,0,0,0,null,0,1,0,brander-desktop,0,0
03:08:56,0,eth0static,,6925.0,,true,0,0,0,0,null,0,1,0,brander-desktop,0,0
03:08:57,0,eth0db,,3755.0,,true,0,0,0,0,null,0,1,0,brander-desktop,0,0
03:08:58,0,eth0front1,,4000.0,,true,0,0,0,0,null,0,1,0,brander-desktop,0,0
03:09:00,0,eth0front2,,2631.0,,true,0,0,0,0,null,0,1,0,brander-desktop,0,0
03:09:01,0,eth0front3,,1742.0,,true,0,0,0,0,null,0,1,0,brander-desktop,0,0
03:09:03,0,eth0front4,,3723.0,,true,0,0,0,0,null,0,1,0,brander-desktop,0,0
03:09:04,0,eth0static,,7506.0,,true,0,0,0,0,null,0,1,0,brander-desktop,0,0
03:09:05,0,eth0db,,3945.0,,true,0,0,0,0,null,0,1,0,brander-desktop,0,0
03:09:07,0,eth0front1,,3688.0,,true,0,0,0,0,null,0,1,0,brander-desktop,0,0
03:09:08,0,eth0front2,,2722.0,,true,0,0,0,0,null,0,1,0,brander-desktop,0,0
03:09:09,0,eth0front3,,1400.0,,true,0,0,0,0,null,0,1,0,brander-desktop,0,0
03:09:11,0,eth0front4,,3930.69,,true,0,0,0,0,null,0,1,0,brander-desktop,0,0
03:09:12,0,eth0static,,7709.0,,true,0,0,0,0,null,0,1,0,brander-desktop,0,0
03:09:13,0,eth0db,,4242.0,,true,0,0,0,0,null,0,1,0,brander-desktop,0,0
03:09:15,0,eth0front1,,3276.0,,true,0,0,0,0,null,0,1,0,brander-desktop,0,0
03:09:16,0,eth0front2,,4604.0,,true,0,0,0,0,null,0,1,0,brander-desktop,0,0
03:09:17,0,eth0front3,,1777.0,,true,0,0,0,0,null,0,1,0,brander-desktop,0,0
03:09:19,0,eth0front4,,3090.0,,true,0,0,0,0,null,0,1,0,brander-desktop,0,0
03:09:20,0,eth0static,,7426.0,,true,0,0,0,0,null,0,1,0,brander-desktop,0,0
03:09:22,0,eth0db,,3991.0,,true,0,0,0,0,null,0,1,0,brander-desktop,0,0
03:09:23,0,eth0front1,,2639.0,,true,0,0,0,0,null,0,1,0,brander-desktop,0,0
03:09:25,0,eth0front2,,2553.0,,true,0,0,0,0,null,0,1,0,brander-desktop,0,0
03:09:26,0,eth0front3,,3552.0,,true,0,0,0,0,null,0,1,0,brander-desktop,0,0
03:09:28,0,eth0front4,,3552.0,,true,0,0,0,0,null,0,1,0,brander-desktop,0,0
03:09:29,0,eth0static,,6488.0,,true,0,0,0,0,null,0,1,0,brander-desktop,0,0
03:09:31,0,eth0db,,2494.0,,true,0,0,0,0,null,0,1,0,brander-desktop,0,0
03:09:32,0,eth0front1,,3285.0,,true,0,0,0,0,null,0,1,0,brander-desktop,0,0
03:09:34,0,eth0front2,,1678.0,,true,0,0,0,0,null,0,1,0,brander-desktop,0,0
03:09:35,0,eth0front3,,1999.0,,true,0,0,0,0,null,0,1,0,brander-desktop,0,0
03:09:37,0,eth0front4,,4648.0,,true,0,0,0,0,null,0,1,0,brander-desktop,0,0
03:09:38,0,eth0static,,7066.0,,true,0,0,0,0,null,0,1,0,brander-desktop,0,0
03:09:40,0,eth0db,,4805.0,,true,0,0,0,0,null,0,1,0,brander-desktop,0,0
03:09:41,0,eth0front1,,1977.0,,true,0,0,0,0,null,0,1,0,brander-desktop,0,0
03:09:43,0,eth0front2,,3622.0,,true,0,0,0,0,null,0,1,0,brander-desktop,0,0
03:09:44,0,eth0front3,,2278.0,,true,0,0,0,0,null,0,1,0,brander-desktop,0,0
03:09:46,0,eth0front4,,3041.0,,true,0,0,0,0,null,0,1,0,brander-desktop,0,0
03:09:47,0,eth0static,,6518.0,,true,0,0,0,0,null,0,1,0,brander-desktop,0,0
03:09:48,0,eth0db,,3270.3,,true,0,0,0,0,null,0,1,0,brander-desktop,0,0
03:09:50,0,eth0front1,,2858.0,,true,0,0,0,0,null,0,1,0,brander-desktop,0,0
03:09:51,0,eth0front2,,4178.0,,true,0,0,0,0,null,0,1,0,brander-desktop,0,0
03:09:53,0,eth0front3,,1610.0,,true,0,0,0,0,null,0,1,0,brander-desktop,0,0
03:09:54,0,eth0front4,,2945.0,,true,0,0,0,0,null,0,1,0,brander-desktop,0,0
03:09:55,0,eth0static,,6374.0,,true,0,0,0,0,null,0,1,0,brander-desktop,0,0
03:09:57,0,eth0db,,3794.0,,true,0,0,0,0,null,0,1,0,brander-desktop,0,0
03:09:58,0,eth0front1,,2657.0,,true,0,0,0,0,null,0,1,0,brander-desktop,0,0
03:09:59,0,eth0front2,,4006.0,,true,0,0,0,0,null,0,1,0,brander-desktop,0,0
03:10:01,0,eth0front3,,1073.0,,true,0,0,0,0,null,0,1,0,brander-desktop,0,0
03:10:02,0,eth0front4,,3345.0,,true,0,0,0,0,null,0,1,0,brander-desktop,0,0
03:10:03,0,eth0static,,7090.0,,true,0,0,0,0,null,0,1,0,brander-desktop,0,0
03:10:05,0,eth0db,,4186.0,,true,0,0,0,0,null,0,1,0,brander-desktop,0,0
03:10:06,0,eth0front1,,3931.0,,true,0,0,0,0,null,0,1,0,brander-desktop,0,0
03:10:07,0,eth0front2,,3442.0,,true,0,0,0,0,null,0,1,0,brander-desktop,0,0
03:10:09,0,eth0front3,,1140.0,,true,0,0,0,0,null,0,1,0,brander-desktop,0,0
03:10:10,0,eth0front4,,2162.0,,true,0,0,0,0,null,0,1,0,brander-desktop,0,0
03:10:11,0,eth0static,,6421.0,,true,0,0,0,0,null,0,1,0,brander-desktop,0,0
03:10:12,0,eth0db,,4395.0,,true,0,0,0,0,null,0,1,0,brander-desktop,0,0
03:10:14,0,eth0front1,,3229.0,,true,0,0,0,0,null,0,1,0,brander-desktop,0,0
03:10:15,0,eth0front2,,3878.0,,true,0,0,0,0,null,0,1,0,brander-desktop,0,0
03:10:16,0,eth0front3,,3431.0,,true,0,0,0,0,null,0,1,0,brander-desktop,0,0
03:10:18,0,eth0front4,,2647.0,,true,0,0,0,0,null,0,1,0,brander-desktop,0,0
03:10:19,0,eth0static,,7925.0,,true,0,0,0,0,null,0,1,0,brander-desktop,0,0
03:10:20,0,eth0db,,5207.0,,true,0,0,0,0,null,0,1,0,brander-desktop,0,0
03:10:22,0,eth0front1,,2218.0,,true,0,0,0,0,null,0,1,0,brander-desktop,0,0
03:10:23,0,eth0front2,,3902.0,,true,0,0,0,0,null,0,1,0,brander-desktop,0,0
03:10:25,0,eth0front3,,1328.0,,true,0,0,0,0,null,0,1,0,brander-desktop,0,0
03:10:26,0,eth0front4,,2365.0,,true,0,0,0,0,null,0,1,0,brander-desktop,0,0
03:10:27,0,eth0static,,8030.0,,true,0,0,0,0,null,0,1,0,brander-desktop,0,0
03:10:28,0,eth0db,,4332.0,,true,0,0,0,0,null,0,1,0,brander-desktop,0,0
03:10:29,0,eth0front1,,1252.0,,true,0,0,0,0,null,0,1,0,brander-desktop,0,0
03:10:30,0,eth0front2,,2794.0,,true,0,0,0,0,null,0,1,0,brander-desktop,0,0
03:10:31,0,eth0front3,,1369.0,,true,0,0,0,0,null,0,1,0,brander-desktop,0,0
03:10:33,0,eth0front4,,2028.0,,true,0,0,0,0,null,0,1,0,brander-desktop,0,0
03:10:34,0,eth0static,,6100.0,,true,0,0,0,0,null,0,1,0,brander-desktop,0,0
03:10:35,0,eth0db,,5214.0,,true,0,0,0,0,null,0,1,0,brander-desktop,0,0
03:10:36,0,eth0front1,,2396.0,,true,0,0,0,0,null,0,1,0,brander-desktop,0,0
03:10:37,0,eth0front2,,2539.0,,true,0,0,0,0,null,0,1,0,brander-desktop,0,0
03:10:38,0,eth0front3,,2073.0,,true,0,0,0,0,null,0,1,0,brander-desktop,0,0
03:10:39,0,eth0front4,,2064.0,,true,0,0,0,0,null,0,1,0,brander-desktop,0,0
03:10:40,0,eth0static,,5943.0,,true,0,0,0,0,null,0,1,0,brander-desktop,0,0
03:10:42,0,eth0db,,3547.0,,true,0,0,0,0,null,0,1,0,brander-desktop,0,0
03:10:43,0,eth0front1,,2227.0,,true,0,0,0,0,null,0,1,0,brander-desktop,0,0
03:10:44,0,eth0front2,,1510.0,,true,0,0,0,0,null,0,1,0,brander-desktop,0,0
03:10:45,0,eth0front3,,1339.0,,true,0,0,0,0,null,0,1,0,brander-desktop,0,0
03:10:46,0,eth0front4,,2569.0,,true,0,0,0,0,null,0,1,0,brander-desktop,0,0
03:10:47,0,eth0static,,6670.0,,true,0,0,0,0,null,0,1,0,brander-desktop,0,0
03:10:48,0,eth0db,,5264.0,,true,0,0,0,0,null,0,1,0,brander-desktop,0,0
03:10:49,0,eth0front1,,3271.0,,true,0,0,0,0,null,0,1,0,brander-desktop,0,0
03:10:51,0,eth0front2,,2639.0,,true,0,0,0,0,null,0,1,0,brander-desktop,0,0
03:10:52,0,eth0front3,,1843.0,,true,0,0,0,0,null,0,1,0,brander-desktop,0,0
03:10:53,0,eth0front4,,1798.0,,true,0,0,0,0,null,0,1,0,brander-desktop,0,0
03:10:54,0,eth0static,,6563.0,,true,0,0,0,0,null,0,1,0,brander-desktop,0,0
03:10:55,0,eth0db,,5720.0,,true,0,0,0,0,null,0,1,0,brander-desktop,0,0
03:10:56,0,eth0front1,,2512.0,,true,0,0,0,0,null,0,1,0,brander-desktop,0,0
03:10:57,0,eth0front2,,2971.0,,true,0,0,0,0,null,0,1,0,brander-desktop,0,0
03:10:58,0,eth0front3,,1129.0,,true,0,0,0,0,null,0,1,0,brander-desktop,0,0
03:11:00,0,eth0front4,,2946.0,,true,0,0,0,0,null,0,1,0,brander-desktop,0,0
03:11:01,0,eth0static,,7209.0,,true,0,0,0,0,null,0,1,0,brander-desktop,0,0
03:11:02,0,eth0db,,4131.0,,true,0,0,0,0,null,0,1,0,brander-desktop,0,0
03:11:03,0,eth0front1,,3253.0,,true,0,0,0,0,null,0,1,0,brander-desktop,0,0
03:11:04,0,eth0front2,,3060.0,,true,0,0,0,0,null,0,1,0,brander-desktop,0,0
03:11:05,0,eth0front3,,1275.0,,true,0,0,0,0,null,0,1,0,brander-desktop,0,0
03:11:07,0,eth0front4,,3481.0,,true,0,0,0,0,null,0,1,0,brander-desktop,0,0
03:11:08,0,eth0static,,7108.0,,true,0,0,0,0,null,0,1,0,brander-desktop,0,0
03:11:09,0,eth0db,,4132.0,,true,0,0,0,0,null,0,1,0,brander-desktop,0,0
03:11:11,0,eth0front1,,2727.0,,true,0,0,0,0,null,0,1,0,brander-desktop,0,0
03:11:12,0,eth0front2,,3214.0,,true,0,0,0,0,null,0,1,0,brander-desktop,0,0
03:11:13,0,eth0front3,,1825.0,,true,0,0,0,0,null,0,1,0,brander-desktop,0,0
03:11:15,0,eth0front4,,2155.0,,true,0,0,0,0,null,0,1,0,brander-desktop,0,0
03:11:16,0,eth0static,,6654.0,,true,0,0,0,0,null,0,1,0,brander-desktop,0,0
03:11:17,0,eth0db,,4064.0,,true,0,0,0,0,null,0,1,0,brander-desktop,0,0
03:11:19,0,eth0front1,,3393.0,,true,0,0,0,0,null,0,1,0,brander-desktop,0,0
03:11:20,0,eth0front2,,1563.0,,true,0,0,0,0,null,0,1,0,brander-desktop,0,0
03:11:21,0,eth0front3,,1492.0,,true,0,0,0,0,null,0,1,0,brander-desktop,0,0
03:11:22,0,eth0front4,,2395.0,,true,0,0,0,0,null,0,1,0,brander-desktop,0,0
03:11:24,0,eth0static,,6229.0,,true,0,0,0,0,null,0,1,0,brander-desktop,0,0
03:11:25,0,eth0db,,4607.0,,true,0,0,0,0,null,0,1,0,brander-desktop,0,0
03:11:26,0,eth0front1,,3252.0,,true,0,0,0,0,null,0,1,0,brander-desktop,0,0
03:11:27,0,eth0front2,,3155.0,,true,0,0,0,0,null,0,1,0,brander-desktop,0,0
03:11:29,0,eth0front3,,2313.0,,true,0,0,0,0,null,0,1,0,brander-desktop,0,0
03:11:30,0,eth0front4,,2892.0,,true,0,0,0,0,null,0,1,0,brander-desktop,0,0
03:11:31,0,eth0static,,6772.0,,true,0,0,0,0,null,0,1,0,brander-desktop,0,0
03:11:32,0,eth0db,,3559.41,,true,0,0,0,0,null,0,1,0,brander-desktop,0,0
03:11:33,0,eth0front1,,1561.0,,true,0,0,0,0,null,0,1,0,brander-desktop,0,0
03:11:34,0,eth0front2,,2768.0,,true,0,0,0,0,null,0,1,0,brander-desktop,0,0
03:11:35,0,eth0front3,,1608.0,,true,0,0,0,0,null,0,1,0,brander-desktop,0,0
03:11:36,0,eth0front4,,3382.0,,true,0,0,0,0,null,0,1,0,brander-desktop,0,0
03:11:38,0,eth0static,,6103.0,,true,0,0,0,0,null,0,1,0,brander-desktop,0,0
03:11:39,0,eth0db,,3896.0,,true,0,0,0,0,null,0,1,0,brander-desktop,0,0
03:11:40,0,eth0front1,,3316.0,,true,0,0,0,0,null,0,1,0,brander-desktop,0,0
03:11:41,0,eth0front2,,3091.0,,true,0,0,0,0,null,0,1,0,brander-desktop,0,0
03:11:42,0,eth0front3,,1840.0,,true,0,0,0,0,null,0,1,0,brander-desktop,0,0
03:11:43,0,eth0front4,,2295.0,,true,0,0,0,0,null,0,1,0,brander-desktop,0,0
03:11:44,0,eth0static,,6942.0,,true,0,0,0,0,null,0,1,0,brander-desktop,0,0
03:11:45,0,eth0db,,4998.0,,true,0,0,0,0,null,0,1,0,brander-desktop,0,0
03:11:47,0,eth0front1,,3879.0,,true,0,0,0,0,null,0,1,0,brander-desktop,0,0
03:11:48,0,eth0front2,,2594.0,,true,0,0,0,0,null,0,1,0,brander-desktop,0,0
03:11:49,0,eth0front3,,1415.0,,true,0,0,0,0,null,0,1,0,brander-desktop,0,0
03:11:50,0,eth0front4,,3027.0,,true,0,0,0,0,null,0,1,0,brander-desktop,0,0
03:11:51,0,eth0static,,6501.0,,true,0,0,0,0,null,0,1,0,brander-desktop,0,0
03:11:52,0,eth0db,,3256.0,,true,0,0,0,0,null,0,1,0,brander-desktop,0,0
03:11:54,0,eth0front1,,2474.0,,true,0,0,0,0,null,0,1,0,brander-desktop,0,0
03:11:55,0,eth0front2,,2159.0,,true,0,0,0,0,null,0,1,0,brander-desktop,0,0
03:11:56,0,eth0front3,,1275.0,,true,0,0,0,0,null,0,1,0,brander-desktop,0,0
03:11:57,0,eth0front4,,2220.0,,true,0,0,0,0,null,0,1,0,brander-desktop,0,0
03:11:58,0,eth0static,,5034.0,,true,0,0,0,0,null,0,1,0,brander-desktop,0,0
03:11:59,0,eth0db,,4676.0,,true,0,0,0,0,null,0,1,0,brander-desktop,0,0
03:12:00,0,eth0front1,,2678.0,,true,0,0,0,0,null,0,1,0,brander-desktop,0,0
03:12:01,0,eth0front2,,2075.0,,true,0,0,0,0,null,0,1,0,brander-desktop,0,0
03:12:02,0,eth0front3,,1541.0,,true,0,0,0,0,null,0,1,0,brander-desktop,0,0
03:12:04,0,eth0front4,,2240.0,,true,0,0,0,0,null,0,1,0,brander-desktop,0,0
03:12:05,0,eth0static,,6483.0,,true,0,0,0,0,null,0,1,0,brander-desktop,0,0
03:12:06,0,eth0db,,5994.0,,true,0,0,0,0,null,0,1,0,brander-desktop,0,0
03:12:07,0,eth0front1,,2214.0,,true,0,0,0,0,null,0,1,0,brander-desktop,0,0
03:12:08,0,eth0front2,,2025.0,,true,0,0,0,0,null,0,1,0,brander-desktop,0,0
03:12:09,0,eth0front3,,1477.0,,true,0,0,0,0,null,0,1,0,brander-desktop,0,0
03:12:10,0,eth0front4,,2351.0,,true,0,0,0,0,null,0,1,0,brander-desktop,0,0
03:12:12,0,eth0static,,6588.0,,true,0,0,0,0,null,0,1,0,brander-desktop,0,0
03:12:13,0,eth0db,,3393.0,,true,0,0,0,0,null,0,1,0,brander-desktop,0,0
03:12:14,0,eth0front1,,3335.0,,true,0,0,0,0,null,0,1,0,brander-desktop,0,0
03:12:15,0,eth0front2,,3969.0,,true,0,0,0,0,null,0,1,0,brander-desktop,0,0
03:12:16,0,eth0front3,,1593.0,,true,0,0,0,0,null,0,1,0,brander-desktop,0,0
03:12:18,0,eth0front4,,2331.0,,true,0,0,0,0,null,0,1,0,brander-desktop,0,0
03:12:19,0,eth0static,,7558.0,,true,0,0,0,0,null,0,1,0,brander-desktop,0,0
03:12:20,0,eth0db,,4974.0,,true,0,0,0,0,null,0,1,0,brander-desktop,0,0
03:12:21,0,eth0front1,,2626.0,,true,0,0,0,0,null,0,1,0,brander-desktop,0,0
03:12:22,0,eth0front2,,3194.0,,true,0,0,0,0,null,0,1,0,brander-desktop,0,0
03:12:23,0,eth0front3,,1872.0,,true,0,0,0,0,null,0,1,0,brander-desktop,0,0
03:12:25,0,eth0front4,,2767.0,,true,0,0,0,0,null,0,1,0,brander-desktop,0,0
03:12:26,0,eth0static,,8382.0,,true,0,0,0,0,null,0,1,0,brander-desktop,0,0
03:12:27,0,eth0db,,4330.0,,true,0,0,0,0,null,0,1,0,brander-desktop,0,0
03:12:28,0,eth0front1,,1897.0,,true,0,0,0,0,null,0,1,0,brander-desktop,0,0
03:12:30,0,eth0front2,,3699.0,,true,0,0,0,0,null,0,1,0,brander-desktop,0,0
03:12:31,0,eth0front3,,2379.0,,true,0,0,0,0,null,0,1,0,brander-desktop,0,0
03:12:32,0,eth0front4,,2620.0,,true,0,0,0,0,null,0,1,0,brander-desktop,0,0
03:12:33,0,eth0static,,6940.0,,true,0,0,0,0,null,0,1,0,brander-desktop,0,0
03:12:35,0,eth0db,,3321.0,,true,0,0,0,0,null,0,1,0,brander-desktop,0,0
03:12:36,0,eth0front1,,2774.0,,true,0,0,0,0,null,0,1,0,brander-desktop,0,0
03:12:37,0,eth0front2,,3731.0,,true,0,0,0,0,null,0,1,0,brander-desktop,0,0
03:12:38,0,eth0front3,,1262.0,,true,0,0,0,0,null,0,1,0,brander-desktop,0,0
03:12:39,0,eth0front4,,2182.0,,true,0,0,0,0,null,0,1,0,brander-desktop,0,0
03:12:40,0,eth0static,,6708.0,,true,0,0,0,0,null,0,1,0,brander-desktop,0,0
03:12:42,0,eth0db,,4213.0,,true,0,0,0,0,null,0,1,0,brander-desktop,0,0
03:12:43,0,eth0front1,,2647.0,,true,0,0,0,0,null,0,1,0,brander-desktop,0,0
03:12:44,0,eth0front2,,2451.0,,true,0,0,0,0,null,0,1,0,brander-desktop,0,0
03:12:45,0,eth0front3,,2024.0,,true,0,0,0,0,null,0,1,0,brander-desktop,0,0
03:12:46,0,eth0front4,,2814.0,,true,0,0,0,0,null,0,1,0,brander-desktop,0,0
03:12:47,0,eth0static,,6391.0,,true,0,0,0,0,null,0,1,0,brander-desktop,0,0
03:12:48,0,eth0db,,3664.0,,true,0,0,0,0,null,0,1,0,brander-desktop,0,0
03:12:49,0,eth0front1,,2406.0,,true,0,0,0,0,null,0,1,0,brander-desktop,0,0
03:12:51,0,eth0front2,,2207.0,,true,0,0,0,0,null,0,1,0,brander-desktop,0,0
03:12:52,0,eth0front3,,1934.0,,true,0,0,0,0,null,0,1,0,brander-desktop,0,0
03:12:53,0,eth0front4,,3122.0,,true,0,0,0,0,null,0,1,0,brander-desktop,0,0
03:12:54,0,eth0static,,6191.0,,true,0,0,0,0,null,0,1,0,brander-desktop,0,0
03:12:55,0,eth0db,,3576.0,,true,0,0,0,0,null,0,1,0,brander-desktop,0,0
03:12:56,0,eth0front1,,3909.0,,true,0,0,0,0,null,0,1,0,brander-desktop,0,0
03:12:58,0,eth0front2,,2721.0,,true,0,0,0,0,null,0,1,0,brander-desktop,0,0
03:12:59,0,eth0front3,,1800.0,,true,0,0,0,0,null,0,1,0,brander-desktop,0,0
03:13:00,0,eth0front4,,2290.0,,true,0,0,0,0,null,0,1,0,brander-desktop,0,0
03:13:01,0,eth0static,,6893.0,,true,0,0,0,0,null,0,1,0,brander-desktop,0,0
03:13:03,0,eth0db,,4392.0,,true,0,0,0,0,null,0,1,0,brander-desktop,0,0
03:13:04,0,eth0front1,,2990.0,,true,0,0,0,0,null,0,1,0,brander-desktop,0,0
03:13:05,0,eth0front2,,2836.0,,true,0,0,0,0,null,0,1,0,brander-desktop,0,0
03:13:07,0,eth0front3,,1196.0,,true,0,0,0,0,null,0,1,0,brander-desktop,0,0
03:13:08,0,eth0front4,,2352.0,,true,0,0,0,0,null,0,1,0,brander-desktop,0,0
03:13:09,0,eth0static,,6411.0,,true,0,0,0,0,null,0,1,0,brander-desktop,0,0
03:13:10,0,eth0db,,3701.0,,true,0,0,0,0,null,0,1,0,brander-desktop,0,0
03:13:12,0,eth0front1,,3401.0,,true,0,0,0,0,null,0,1,0,brander-desktop,0,0
03:13:13,0,eth0front2,,1720.0,,true,0,0,0,0,null,0,1,0,brander-desktop,0,0
03:13:14,0,eth0front3,,1329.0,,true,0,0,0,0,null,0,1,0,brander-desktop,0,0
03:13:15,0,eth0front4,,2160.0,,true,0,0,0,0,null,0,1,0,brander-desktop,0,0
03:13:16,0,eth0static,,6594.0,,true,0,0,0,0,null,0,1,0,brander-desktop,0,0
03:13:17,0,eth0db,,4804.0,,true,0,0,0,0,null,0,1,0,brander-desktop,0,0
03:13:19,0,eth0front1,,2820.0,,true,0,0,0,0,null,0,1,0,brander-desktop,0,0
03:13:20,0,eth0front2,,1548.0,,true,0,0,0,0,null,0,1,0,brander-desktop,0,0
03:13:21,0,eth0front3,,1517.0,,true,0,0,0,0,null,0,1,0,brander-desktop,0,0
03:13:22,0,eth0front4,,3245.0,,true,0,0,0,0,null,0,1,0,brander-desktop,0,0
03:13:23,0,eth0static,,6606.0,,true,0,0,0,0,null,0,1,0,brander-desktop,0,0
03:13:24,0,eth0db,,5436.0,,true,0,0,0,0,null,0,1,0,brander-desktop,0,0
03:13:25,0,eth0front1,,2343.0,,true,0,0,0,0,null,0,1,0,brander-desktop,0,0
03:13:26,0,eth0front2,,1292.0,,true,0,0,0,0,null,0,1,0,brander-desktop,0,0
03:13:28,0,eth0front3,,2164.0,,true,0,0,0,0,null,0,1,0,brander-desktop,0,0
03:13:29,0,eth0front4,,3404.0,,true,0,0,0,0,null,0,1,0,brander-desktop,0,0
03:13:30,0,eth0static,,6476.0,,true,0,0,0,0,null,0,1,0,brander-desktop,0,0
03:13:31,0,eth0db,,3257.0,,true,0,0,0,0,null,0,1,0,brander-desktop,0,0
03:13:32,0,eth0front1,,2438.0,,true,0,0,0,0,null,0,1,0,brander-desktop,0,0
03:13:34,0,eth0front2,,3233.0,,true,0,0,0,0,null,0,1,0,brander-desktop,0,0
03:13:35,0,eth0front3,,2710.0,,true,0,0,0,0,null,0,1,0,brander-desktop,0,0
03:13:36,0,eth0front4,,3414.0,,true,0,0,0,0,null,0,1,0,brander-desktop,0,0
03:13:38,0,eth0static,,6857.0,,true,0,0,0,0,null,0,1,0,brander-desktop,0,0
03:13:39,0,eth0db,,4122.0,,true,0,0,0,0,null,0,1,0,brander-desktop,0,0
03:13:40,0,eth0front1,,3085.0,,true,0,0,0,0,null,0,1,0,brander-desktop,0,0
03:13:41,0,eth0front2,,2845.0,,true,0,0,0,0,null,0,1,0,brander-desktop,0,0
03:13:43,0,eth0front3,,2212.0,,true,0,0,0,0,null,0,1,0,brander-desktop,0,0
03:13:44,0,eth0front4,,3668.0,,true,0,0,0,0,null,0,1,0,brander-desktop,0,0
03:13:45,0,eth0static,,7796.0,,true,0,0,0,0,null,0,1,0,brander-desktop,0,0
03:13:46,0,eth0db,,4757.0,,true,0,0,0,0,null,0,1,0,brander-desktop,0,0
03:13:48,0,eth0front1,,3631.0,,true,0,0,0,0,null,0,1,0,brander-desktop,0,0
03:13:49,0,eth0front2,,3165.0,,true,0,0,0,0,null,0,1,0,brander-desktop,0,0
03:13:50,0,eth0front3,,2205.0,,true,0,0,0,0,null,0,1,0,brander-desktop,0,0
03:13:52,0,eth0front4,,3691.0,,true,0,0,0,0,null,0,1,0,brander-desktop,0,0
03:13:53,0,eth0static,,6708.0,,true,0,0,0,0,null,0,1,0,brander-desktop,0,0
03:13:55,0,eth0db,,4586.0,,true,0,0,0,0,null,0,1,0,brander-desktop,0,0
03:13:56,0,eth0front1,,2510.0,,true,0,0,0,0,null,0,1,0,brander-desktop,0,0
03:13:58,0,eth0front2,,4027.0,,true,0,0,0,0,null,0,1,0,brander-desktop,0,0
03:13:59,0,eth0front3,,2701.0,,true,0,0,0,0,null,0,1,0,brander-desktop,0,0
03:14:01,0,eth0front4,,3873.0,,true,0,0,0,0,null,0,1,0,brander-desktop,0,0
03:14:02,0,eth0static,,7983.0,,true,0,0,0,0,null,0,1,0,brander-desktop,0,0
03:14:04,0,eth0db,,4078.22,,true,0,0,0,0,null,0,1,0,brander-desktop,0,0
03:14:06,0,eth0front1,,3011.0,,true,0,0,0,0,null,0,1,0,brander-desktop,0,0
03:14:07,0,eth0front2,,2849.0,,true,0,0,0,0,null,0,1,0,brander-desktop,0,0
03:14:08,0,eth0front3,,2514.0,,true,0,0,0,0,null,0,1,0,brander-desktop,0,0
03:14:10,0,eth0front4,,3441.0,,true,0,0,0,0,null,0,1,0,brander-desktop,0,0
03:14:11,0,eth0static,,6894.0,,true,0,0,0,0,null,0,1,0,brander-desktop,0,0
03:14:13,0,eth0db,,5241.0,,true,0,0,0,0,null,0,1,0,brander-desktop,0,0
03:14:14,0,eth0front1,,1852.0,,true,0,0,0,0,null,0,1,0,brander-desktop,0,0
03:14:15,0,eth0front2,,2196.0,,true,0,0,0,0,null,0,1,0,brander-desktop,0,0
03:14:17,0,eth0front3,,1907.0,,true,0,0,0,0,null,0,1,0,brander-desktop,0,0
03:14:18,0,eth0front4,,2433.0,,true,0,0,0,0,null,0,1,0,brander-desktop,0,0
03:14:23,0,eth0static,,6816.0,,true,0,0,0,0,null,0,1,0,brander-desktop,0,0
03:14:25,0,eth0db,,4512.0,,true,0,0,0,0,null,0,1,0,brander-desktop,0,0
03:14:27,0,eth0front1,,5421.0,,true,0,0,0,0,null,0,1,0,brander-desktop,0,0
03:14:28,0,eth0front2,,3996.0,,true,0,0,0,0,null,0,1,0,brander-desktop,0,0
03:14:29,0,eth0front3,,3214.0,,true,0,0,0,0,null,0,1,0,brander-desktop,0,0
03:14:31,0,eth0front4,,2038.0,,true,0,0,0,0,null,0,1,0,brander-desktop,0,0
03:14:33,0,eth0static,,5772.0,,true,0,0,0,0,null,0,1,0,brander-desktop,0,0
03:14:35,0,eth0db,,5018.0,,true,0,0,0,0,null,0,1,0,brander-desktop,0,0
03:14:36,0,eth0front1,,2306.0,,true,0,0,0,0,null,0,1,0,brander-desktop,0,0
03:14:38,0,eth0front2,,2940.0,,true,0,0,0,0,null,0,1,0,brander-desktop,0,0
03:14:39,0,eth0front3,,2343.0,,true,0,0,0,0,null,0,1,0,brander-desktop,0,0
03:14:41,0,eth0front4,,3443.0,,true,0,0,0,0,null,0,1,0,brander-desktop,0,0
03:14:42,0,eth0static,,6897.0,,true,0,0,0,0,null,0,1,0,brander-desktop,0,0
03:14:44,0,eth0db,,4517.0,,true,0,0,0,0,null,0,1,0,brander-desktop,0,0
03:14:45,0,eth0front1,,2813.0,,true,0,0,0,0,null,0,1,0,brander-desktop,0,0
03:14:47,0,eth0front2,,2521.0,,true,0,0,0,0,null,0,1,0,brander-desktop,0,0
03:14:48,0,eth0front3,,1983.0,,true,0,0,0,0,null,0,1,0,brander-desktop,0,0
03:14:50,0,eth0front4,,3591.0,,true,0,0,0,0,null,0,1,0,brander-desktop,0,0
03:14:52,0,eth0static,,6360.0,,true,0,0,0,0,null,0,1,0,brander-desktop,0,0
03:14:53,0,eth0db,,4006.0,,true,0,0,0,0,null,0,1,0,brander-desktop,0,0
03:14:55,0,eth0front1,,2068.0,,true,0,0,0,0,null,0,1,0,brander-desktop,0,0
03:14:56,0,eth0front2,,3263.0,,true,0,0,0,0,null,0,1,0,brander-desktop,0,0
03:14:57,0,eth0front3,,1857.0,,true,0,0,0,0,null,0,1,0,brander-desktop,0,0
03:14:59,0,eth0front4,,1411.0,,true,0,0,0,0,null,0,1,0,brander-desktop,0,0
03:15:00,0,eth0static,,7428.0,,true,0,0,0,0,null,0,1,0,brander-desktop,0,0
03:15:02,0,eth0db,,4840.0,,true,0,0,0,0,null,0,1,0,brander-desktop,0,0
03:15:03,0,eth0front1,,944.0,,true,0,0,0,0,null,0,1,0,brander-desktop,0,0
03:15:05,0,eth0front2,,2611.0,,true,0,0,0,0,null,0,1,0,brander-desktop,0,0
03:15:06,0,eth0front3,,2456.0,,true,0,0,0,0,null,0,1,0,brander-desktop,0,0
03:15:08,0,eth0front4,,4126.0,,true,0,0,0,0,null,0,1,0,brander-desktop,0,0
03:15:09,0,eth0static,,6906.0,,true,0,0,0,0,null,0,1,0,brander-desktop,0,0
03:15:10,0,eth0db,,4603.0,,true,0,0,0,0,null,0,1,0,brander-desktop,0,0
03:15:12,0,eth0front1,,2928.0,,true,0,0,0,0,null,0,1,0,brander-desktop,0,0
03:15:13,0,eth0front2,,1843.0,,true,0,0,0,0,null,0,1,0,brander-desktop,0,0
03:15:15,0,eth0front3,,1623.76,,true,0,0,0,0,null,0,1,0,brander-desktop,0,0
03:15:16,0,eth0front4,,3719.0,,true,0,0,0,0,null,0,1,0,brander-desktop,0,0
03:15:18,0,eth0static,,7199.0,,true,0,0,0,0,null,0,1,0,brander-desktop,0,0
03:15:19,0,eth0db,,5443.0,,true,0,0,0,0,null,0,1,0,brander-desktop,0,0
03:15:21,0,eth0front1,,2916.0,,true,0,0,0,0,null,0,1,0,brander-desktop,0,0
03:15:22,0,eth0front2,,2225.0,,true,0,0,0,0,null,0,1,0,brander-desktop,0,0
03:15:23,0,eth0front3,,608.0,,true,0,0,0,0,null,0,1,0,brander-desktop,0,0
03:15:25,0,eth0front4,,2952.0,,true,0,0,0,0,null,0,1,0,brander-desktop,0,0
03:15:27,0,eth0static,,7122.0,,true,0,0,0,0,null,0,1,0,brander-desktop,0,0
03:15:28,0,eth0db,,4727.0,,true,0,0,0,0,null,0,1,0,brander-desktop,0,0
03:15:30,0,eth0front1,,4277.0,,true,0,0,0,0,null,0,1,0,brander-desktop,0,0
03:15:31,0,eth0front2,,2749.0,,true,0,0,0,0,null,0,1,0,brander-desktop,0,0
03:15:32,0,eth0front3,,2420.0,,true,0,0,0,0,null,0,1,0,brander-desktop,0,0
03:15:34,0,eth0front4,,894.0,,true,0,0,0,0,null,0,1,0,brander-desktop,0,0
03:15:35,0,eth0static,,6385.0,,true,0,0,0,0,null,0,1,0,brander-desktop,0,0
03:15:36,0,eth0db,,6141.0,,true,0,0,0,0,null,0,1,0,brander-desktop,0,0
03:15:37,0,eth0front1,,3182.0,,true,0,0,0,0,null,0,1,0,brander-desktop,0,0
03:15:39,0,eth0front2,,3178.0,,true,0,0,0,0,null,0,1,0,brander-desktop,0,0
03:15:40,0,eth0front3,,2198.0,,true,0,0,0,0,null,0,1,0,brander-desktop,0,0
03:15:42,0,eth0front4,,2858.0,,true,0,0,0,0,null,0,1,0,brander-desktop,0,0
03:15:43,0,eth0static,,7545.0,,true,0,0,0,0,null,0,1,0,brander-desktop,0,0
03:15:45,0,eth0db,,5990.0,,true,0,0,0,0,null,0,1,0,brander-desktop,0,0
03:15:46,0,eth0front1,,1512.0,,true,0,0,0,0,null,0,1,0,brander-desktop,0,0
03:15:48,0,eth0front2,,2758.0,,true,0,0,0,0,null,0,1,0,brander-desktop,0,0
03:15:49,0,eth0front3,,933.0,,true,0,0,0,0,null,0,1,0,brander-desktop,0,0
03:15:51,0,eth0front4,,2680.0,,true,0,0,0,0,null,0,1,0,brander-desktop,0,0
03:15:52,0,eth0static,,5914.0,,true,0,0,0,0,null,0,1,0,brander-desktop,0,0
03:15:53,0,eth0db,,4415.0,,true,0,0,0,0,null,0,1,0,brander-desktop,0,0
03:15:55,0,eth0front1,,4751.0,,true,0,0,0,0,null,0,1,0,brander-desktop,0,0
03:15:56,0,eth0front2,,3030.0,,true,0,0,0,0,null,0,1,0,brander-desktop,0,0
03:15:57,0,eth0front3,,1503.0,,true,0,0,0,0,null,0,1,0,brander-desktop,0,0
03:15:59,0,eth0front4,,2088.0,,true,0,0,0,0,null,0,1,0,brander-desktop,0,0
03:16:00,0,eth0static,,6738.0,,true,0,0,0,0,null,0,1,0,brander-desktop,0,0
03:16:01,0,eth0db,,5214.0,,true,0,0,0,0,null,0,1,0,brander-desktop,0,0
03:16:03,0,eth0front1,,1815.0,,true,0,0,0,0,null,0,1,0,brander-desktop,0,0
03:16:04,0,eth0front2,,2700.0,,true,0,0,0,0,null,0,1,0,brander-desktop,0,0
03:16:05,0,eth0front3,,1450.0,,true,0,0,0,0,null,0,1,0,brander-desktop,0,0
03:16:06,0,eth0front4,,3102.0,,true,0,0,0,0,null,0,1,0,brander-desktop,0,0
03:16:08,0,eth0static,,5060.0,,true,0,0,0,0,null,0,1,0,brander-desktop,0,0
03:16:09,0,eth0db,,4202.0,,true,0,0,0,0,null,0,1,0,brander-desktop,0,0
03:16:10,0,eth0front1,,3711.0,,true,0,0,0,0,null,0,1,0,brander-desktop,0,0
03:16:11,0,eth0front2,,2076.0,,true,0,0,0,0,null,0,1,0,brander-desktop,0,0
03:16:13,0,eth0front3,,1645.0,,true,0,0,0,0,null,0,1,0,brander-desktop,0,0
03:16:14,0,eth0front4,,2269.0,,true,0,0,0,0,null,0,1,0,brander-desktop,0,0
03:16:16,0,eth0static,,4493.0,,true,0,0,0,0,null,0,1,0,brander-desktop,0,0
03:16:17,0,eth0db,,4827.0,,true,0,0,0,0,null,0,1,0,brander-desktop,0,0
03:16:18,0,eth0front1,,2808.0,,true,0,0,0,0,null,0,1,0,brander-desktop,0,0
03:16:19,0,eth0front2,,3670.0,,true,0,0,0,0,null,0,1,0,brander-desktop,0,0
03:16:20,0,eth0front3,,1858.0,,true,0,0,0,0,null,0,1,0,brander-desktop,0,0
03:16:21,0,eth0front4,,3187.0,,true,0,0,0,0,null,0,1,0,brander-desktop,0,0
03:16:23,0,eth0static,,5159.0,,true,0,0,0,0,null,0,1,0,brander-desktop,0,0
03:16:24,0,eth0db,,3867.0,,true,0,0,0,0,null,0,1,0,brander-desktop,0,0
03:16:26,0,eth0front1,,1946.0,,true,0,0,0,0,null,0,1,0,brander-desktop,0,0
03:16:28,0,eth0front2,,5169.0,,true,0,0,0,0,null,0,1,0,brander-desktop,0,0
03:16:30,0,eth0front3,,2352.0,,true,0,0,0,0,null,0,1,0,brander-desktop,0,0
03:16:32,0,eth0front4,,2001.0,,true,0,0,0,0,null,0,1,0,brander-desktop,0,0
03:16:33,0,eth0static,,6701.0,,true,0,0,0,0,null,0,1,0,brander-desktop,0,0
03:16:34,0,eth0db,,7009.0,,true,0,0,0,0,null,0,1,0,brander-desktop,0,0
03:16:35,0,eth0front1,,2400.0,,true,0,0,0,0,null,0,1,0,brander-desktop,0,0
03:16:37,0,eth0front2,,3579.0,,true,0,0,0,0,null,0,1,0,brander-desktop,0,0
03:16:38,0,eth0front3,,2593.0,,true,0,0,0,0,null,0,1,0,brander-desktop,0,0
03:16:41,0,eth0front4,,3059.0,,true,0,0,0,0,null,0,1,0,brander-desktop,0,0
03:16:42,0,eth0static,,6230.0,,true,0,0,0,0,null,0,1,0,brander-desktop,0,0
03:16:43,0,eth0db,,6753.0,,true,0,0,0,0,null,0,1,0,brander-desktop,0,0
03:16:45,0,eth0front1,,4014.0,,true,0,0,0,0,null,0,1,0,brander-desktop,0,0
03:16:46,0,eth0front2,,4209.0,,true,0,0,0,0,null,0,1,0,brander-desktop,0,0
03:16:47,0,eth0front3,,1076.0,,true,0,0,0,0,null,0,1,0,brander-desktop,0,0
03:16:49,0,eth0front4,,2702.0,,true,0,0,0,0,null,0,1,0,brander-desktop,0,0
03:16:50,0,eth0static,,7305.0,,true,0,0,0,0,null,0,1,0,brander-desktop,0,0
03:16:51,0,eth0db,,4898.0,,true,0,0,0,0,null,0,1,0,brander-desktop,0,0
03:16:53,0,eth0front1,,4774.0,,true,0,0,0,0,null,0,1,0,brander-desktop,0,0
03:16:54,0,eth0front2,,4176.0,,true,0,0,0,0,null,0,1,0,brander-desktop,0,0
03:16:56,0,eth0front3,,2289.0,,true,0,0,0,0,null,0,1,0,brander-desktop,0,0
03:16:57,0,eth0front4,,1318.0,,true,0,0,0,0,null,0,1,0,brander-desktop,0,0
03:16:59,0,eth0static,,6601.0,,true,0,0,0,0,null,0,1,0,brander-desktop,0,0
03:17:00,0,eth0db,,3834.0,,true,0,0,0,0,null,0,1,0,brander-desktop,0,0
03:17:01,0,eth0front1,,3880.0,,true,0,0,0,0,null,0,1,0,brander-desktop,0,0
03:17:03,0,eth0front2,,3759.0,,true,0,0,0,0,null,0,1,0,brander-desktop,0,0
03:17:04,0,eth0front3,,1472.0,,true,0,0,0,0,null,0,1,0,brander-desktop,0,0
03:17:06,0,eth0front4,,2665.0,,true,0,0,0,0,null,0,1,0,brander-desktop,0,0
03:17:07,0,eth0static,,3799.0,,true,0,0,0,0,null,0,1,0,brander-desktop,0,0
03:17:09,0,eth0db,,4877.0,,true,0,0,0,0,null,0,1,0,brander-desktop,0,0
03:17:10,0,eth0front1,,1982.0,,true,0,0,0,0,null,0,1,0,brander-desktop,0,0
03:17:11,0,eth0front2,,2880.0,,true,0,0,0,0,null,0,1,0,brander-desktop,0,0
03:17:12,0,eth0front3,,1302.0,,true,0,0,0,0,null,0,1,0,brander-desktop,0,0
03:17:13,0,eth0front4,,2332.0,,true,0,0,0,0,null,0,1,0,brander-desktop,0,0
03:17:14,0,eth0static,,6504.0,,true,0,0,0,0,null,0,1,0,brander-desktop,0,0
03:17:15,0,eth0db,,5896.0,,true,0,0,0,0,null,0,1,0,brander-desktop,0,0
03:17:17,0,eth0front1,,3144.0,,true,0,0,0,0,null,0,1,0,brander-desktop,0,0
03:17:18,0,eth0front2,,2613.0,,true,0,0,0,0,null,0,1,0,brander-desktop,0,0
03:17:19,0,eth0front3,,2069.0,,true,0,0,0,0,null,0,1,0,brander-desktop,0,0
03:17:20,0,eth0front4,,2645.0,,true,0,0,0,0,null,0,1,0,brander-desktop,0,0
03:17:21,0,eth0static,,8589.0,,true,0,0,0,0,null,0,1,0,brander-desktop,0,0
03:17:23,0,eth0db,,6296.0,,true,0,0,0,0,null,0,1,0,brander-desktop,0,0
03:17:24,0,eth0front1,,2550.0,,true,0,0,0,0,null,0,1,0,brander-desktop,0,0
03:17:25,0,eth0front2,,3798.0,,true,0,0,0,0,null,0,1,0,brander-desktop,0,0
03:17:26,0,eth0front3,,2019.0,,true,0,0,0,0,null,0,1,0,brander-desktop,0,0
03:17:27,0,eth0front4,,3228.0,,true,0,0,0,0,null,0,1,0,brander-desktop,0,0
03:17:28,0,eth0static,,5875.0,,true,0,0,0,0,null,0,1,0,brander-desktop,0,0
03:17:30,0,eth0db,,5810.0,,true,0,0,0,0,null,0,1,0,brander-desktop,0,0
03:17:31,0,eth0front1,,2938.0,,true,0,0,0,0,null,0,1,0,brander-desktop,0,0
03:17:32,0,eth0front2,,3999.0,,true,0,0,0,0,null,0,1,0,brander-desktop,0,0
03:17:33,0,eth0front3,,988.0,,true,0,0,0,0,null,0,1,0,brander-desktop,0,0
03:17:35,0,eth0front4,,3582.0,,true,0,0,0,0,null,0,1,0,brander-desktop,0,0
03:17:36,0,eth0static,,6691.0,,true,0,0,0,0,null,0,1,0,brander-desktop,0,0
03:17:38,0,eth0db,,4953.0,,true,0,0,0,0,null,0,1,0,brander-desktop,0,0
03:17:39,0,eth0front1,,4716.0,,true,0,0,0,0,null,0,1,0,brander-desktop,0,0
03:17:41,0,eth0front2,,3454.0,,true,0,0,0,0,null,0,1,0,brander-desktop,0,0
03:17:42,0,eth0front3,,1630.0,,true,0,0,0,0,null,0,1,0,brander-desktop,0,0
03:17:43,0,eth0front4,,3248.0,,true,0,0,0,0,null,0,1,0,brander-desktop,0,0
03:17:45,0,eth0static,,5947.0,,true,0,0,0,0,null,0,1,0,brander-desktop,0,0
03:17:46,0,eth0db,,3972.0,,true,0,0,0,0,null,0,1,0,brander-desktop,0,0
03:17:47,0,eth0front1,,2387.0,,true,0,0,0,0,null,0,1,0,brander-desktop,0,0
03:17:48,0,eth0front2,,3981.0,,true,0,0,0,0,null,0,1,0,brander-desktop,0,0
03:17:49,0,eth0front3,,1707.0,,true,0,0,0,0,null,0,1,0,brander-desktop,0,0
03:17:50,0,eth0front4,,1986.0,,true,0,0,0,0,null,0,1,0,brander-desktop,0,0
03:17:52,0,eth0static,,6695.0,,true,0,0,0,0,null,0,1,0,brander-desktop,0,0
03:17:53,0,eth0db,,3607.0,,true,0,0,0,0,null,0,1,0,brander-desktop,0,0
03:17:54,0,eth0front1,,3435.0,,true,0,0,0,0,null,0,1,0,brander-desktop,0,0
03:17:55,0,eth0front2,,2535.0,,true,0,0,0,0,null,0,1,0,brander-desktop,0,0
03:17:56,0,eth0front3,,1019.0,,true,0,0,0,0,null,0,1,0,brander-desktop,0,0
03:17:57,0,eth0front4,,2212.0,,true,0,0,0,0,null,0,1,0,brander-desktop,0,0
03:17:58,0,eth0static,,4487.0,,true,0,0,0,0,null,0,1,0,brander-desktop,0,0
03:17:59,0,eth0db,,4194.0,,true,0,0,0,0,null,0,1,0,brander-desktop,0,0
03:18:01,0,eth0front1,,2926.0,,true,0,0,0,0,null,0,1,0,brander-desktop,0,0
03:18:02,0,eth0front2,,2188.0,,true,0,0,0,0,null,0,1,0,brander-desktop,0,0
03:18:03,0,eth0front3,,1944.0,,true,0,0,0,0,null,0,1,0,brander-desktop,0,0
03:18:04,0,eth0front4,,2805.0,,true,0,0,0,0,null,0,1,0,brander-desktop,0,0
03:18:05,0,eth0static,,6117.0,,true,0,0,0,0,null,0,1,0,brander-desktop,0,0
03:18:07,0,eth0db,,5258.0,,true,0,0,0,0,null,0,1,0,brander-desktop,0,0
03:18:08,0,eth0front1,,2827.0,,true,0,0,0,0,null,0,1,0,brander-desktop,0,0
03:18:09,0,eth0front2,,2310.0,,true,0,0,0,0,null,0,1,0,brander-desktop,0,0
03:18:10,0,eth0front3,,990.0,,true,0,0,0,0,null,0,1,0,brander-desktop,0,0
03:18:11,0,eth0front4,,3670.0,,true,0,0,0,0,null,0,1,0,brander-desktop,0,0
03:18:12,0,eth0static,,5890.0,,true,0,0,0,0,null,0,1,0,brander-desktop,0,0
03:18:14,0,eth0db,,4725.0,,true,0,0,0,0,null,0,1,0,brander-desktop,0,0
03:18:15,0,eth0front1,,2355.0,,true,0,0,0,0,null,0,1,0,brander-desktop,0,0
03:18:17,0,eth0front2,,2569.0,,true,0,0,0,0,null,0,1,0,brander-desktop,0,0
03:18:19,0,eth0front3,,2518.0,,true,0,0,0,0,null,0,1,0,brander-desktop,0,0
03:18:20,0,eth0front4,,2305.0,,true,0,0,0,0,null,0,1,0,brander-desktop,0,0
03:18:21,0,eth0static,,7589.0,,true,0,0,0,0,null,0,1,0,brander-desktop,0,0
03:18:22,0,eth0db,,6109.0,,true,0,0,0,0,null,0,1,0,brander-desktop,0,0
03:18:23,0,eth0front1,,5019.0,,true,0,0,0,0,null,0,1,0,brander-desktop,0,0
03:18:25,0,eth0front2,,3821.0,,true,0,0,0,0,null,0,1,0,brander-desktop,0,0
03:18:26,0,eth0front3,,1666.0,,true,0,0,0,0,null,0,1,0,brander-desktop,0,0
03:18:27,0,eth0front4,,2431.0,,true,0,0,0,0,null,0,1,0,brander-desktop,0,0
03:18:29,0,eth0static,,6213.0,,true,0,0,0,0,null,0,1,0,brander-desktop,0,0
03:18:30,0,eth0db,,4716.0,,true,0,0,0,0,null,0,1,0,brander-desktop,0,0
03:18:31,0,eth0front1,,2740.0,,true,0,0,0,0,null,0,1,0,brander-desktop,0,0
03:18:32,0,eth0front2,,3662.0,,true,0,0,0,0,null,0,1,0,brander-desktop,0,0
03:18:33,0,eth0front3,,1740.0,,true,0,0,0,0,null,0,1,0,brander-desktop,0,0
03:18:34,0,eth0front4,,4226.0,,true,0,0,0,0,null,0,1,0,brander-desktop,0,0
03:18:35,0,eth0static,,5096.0,,true,0,0,0,0,null,0,1,0,brander-desktop,0,0
03:18:37,0,eth0db,,6221.0,,true,0,0,0,0,null,0,1,0,brander-desktop,0,0
03:18:38,0,eth0front1,,3421.0,,true,0,0,0,0,null,0,1,0,brander-desktop,0,0
03:18:39,0,eth0front2,,1984.0,,true,0,0,0,0,null,0,1,0,brander-desktop,0,0
03:18:41,0,eth0front3,,1313.0,,true,0,0,0,0,null,0,1,0,brander-desktop,0,0
03:18:44,0,eth0front4,,3129.0,,true,0,0,0,0,null,0,1,0,brander-desktop,0,0
03:18:45,0,eth0static,,6688.0,,true,0,0,0,0,null,0,1,0,brander-desktop,0,0
03:18:46,0,eth0db,,6272.0,,true,0,0,0,0,null,0,1,0,brander-desktop,0,0
03:18:48,0,eth0front1,,3717.0,,true,0,0,0,0,null,0,1,0,brander-desktop,0,0
03:18:49,0,eth0front2,,3664.0,,true,0,0,0,0,null,0,1,0,brander-desktop,0,0
03:18:50,0,eth0front3,,2928.0,,true,0,0,0,0,null,0,1,0,brander-desktop,0,0
03:18:51,0,eth0front4,,3588.0,,true,0,0,0,0,null,0,1,0,brander-desktop,0,0
03:18:53,0,eth0static,,6589.0,,true,0,0,0,0,null,0,1,0,brander-desktop,0,0
03:18:54,0,eth0db,,4439.0,,true,0,0,0,0,null,0,1,0,brander-desktop,0,0
03:18:55,0,eth0front1,,2875.0,,true,0,0,0,0,null,0,1,0,brander-desktop,0,0
03:18:57,0,eth0front2,,2667.0,,true,0,0,0,0,null,0,1,0,brander-desktop,0,0
03:18:58,0,eth0front3,,1544.0,,true,0,0,0,0,null,0,1,0,brander-desktop,0,0
03:19:00,0,eth0front4,,3458.0,,true,0,0,0,0,null,0,1,0,brander-desktop,0,0
03:19:01,0,eth0static,,7164.0,,true,0,0,0,0,null,0,1,0,brander-desktop,0,0
03:19:04,0,eth0db,,3958.0,,true,0,0,0,0,null,0,1,0,brander-desktop,0,0
03:19:06,0,eth0front1,,4673.0,,true,0,0,0,0,null,0,1,0,brander-desktop,0,0
03:19:07,0,eth0front2,,4333.0,,true,0,0,0,0,null,0,1,0,brander-desktop,0,0
03:19:09,0,eth0front3,,2907.0,,true,0,0,0,0,null,0,1,0,brander-desktop,0,0
03:19:10,0,eth0front4,,3642.0,,true,0,0,0,0,null,0,1,0,brander-desktop,0,0
03:19:11,0,eth0static,,6866.0,,true,0,0,0,0,null,0,1,0,brander-desktop,0,0
03:19:13,0,eth0db,,4531.0,,true,0,0,0,0,null,0,1,0,brander-desktop,0,0
03:19:14,0,eth0front1,,2037.0,,true,0,0,0,0,null,0,1,0,brander-desktop,0,0
03:19:15,0,eth0front2,,2593.0,,true,0,0,0,0,null,0,1,0,brander-desktop,0,0
03:19:16,0,eth0front3,,1813.0,,true,0,0,0,0,null,0,1,0,brander-desktop,0,0
03:19:18,0,eth0front4,,3838.0,,true,0,0,0,0,null,0,1,0,brander-desktop,0,0
03:19:19,0,eth0static,,9739.0,,true,0,0,0,0,null,0,1,0,brander-desktop,0,0
03:19:20,0,eth0db,,5645.0,,true,0,0,0,0,null,0,1,0,brander-desktop,0,0
03:19:21,0,eth0front1,,3104.0,,true,0,0,0,0,null,0,1,0,brander-desktop,0,0
03:19:23,0,eth0front2,,5081.0,,true,0,0,0,0,null,0,1,0,brander-desktop,0,0
03:19:24,0,eth0front3,,1763.0,,true,0,0,0,0,null,0,1,0,brander-desktop,0,0
03:19:25,0,eth0front4,,2695.0,,true,0,0,0,0,null,0,1,0,brander-desktop,0,0
03:19:26,0,eth0static,,7249.0,,true,0,0,0,0,null,0,1,0,brander-desktop,0,0
03:19:27,0,eth0db,,6605.0,,true,0,0,0,0,null,0,1,0,brander-desktop,0,0
03:19:28,0,eth0front1,,5040.0,,true,0,0,0,0,null,0,1,0,brander-desktop,0,0
03:19:30,0,eth0front2,,2942.0,,true,0,0,0,0,null,0,1,0,brander-desktop,0,0
03:19:31,0,eth0front3,,3016.0,,true,0,0,0,0,null,0,1,0,brander-desktop,0,0
03:19:32,0,eth0front4,,2912.0,,true,0,0,0,0,null,0,1,0,brander-desktop,0,0
03:19:34,0,eth0static,,7040.0,,true,0,0,0,0,null,0,1,0,brander-desktop,0,0
03:19:35,0,eth0db,,3684.0,,true,0,0,0,0,null,0,1,0,brander-desktop,0,0
03:19:36,0,eth0front1,,3891.0,,true,0,0,0,0,null,0,1,0,brander-desktop,0,0
03:19:37,0,eth0front2,,4280.0,,true,0,0,0,0,null,0,1,0,brander-desktop,0,0
03:19:38,0,eth0front3,,3156.0,,true,0,0,0,0,null,0,1,0,brander-desktop,0,0
03:19:40,0,eth0front4,,3891.0,,true,0,0,0,0,null,0,1,0,brander-desktop,0,0
03:19:41,0,eth0static,,6773.0,,true,0,0,0,0,null,0,1,0,brander-desktop,0,0
03:19:42,0,eth0db,,3601.0,,true,0,0,0,0,null,0,1,0,brander-desktop,0,0
03:19:43,0,eth0front1,,2873.0,,true,0,0,0,0,null,0,1,0,brander-desktop,0,0
03:19:44,0,eth0front2,,1949.0,,true,0,0,0,0,null,0,1,0,brander-desktop,0,0
03:19:46,0,eth0front3,,2067.0,,true,0,0,0,0,null,0,1,0,brander-desktop,0,0
03:19:47,0,eth0front4,,2049.0,,true,0,0,0,0,null,0,1,0,brander-desktop,0,0
03:19:48,0,eth0static,,6971.0,,true,0,0,0,0,null,0,1,0,brander-desktop,0,0
03:19:50,0,eth0db,,4557.0,,true,0,0,0,0,null,0,1,0,brander-desktop,0,0
03:19:51,0,eth0front1,,2470.0,,true,0,0,0,0,null,0,1,0,brander-desktop,0,0
03:19:52,0,eth0front2,,2154.0,,true,0,0,0,0,null,0,1,0,brander-desktop,0,0
03:19:53,0,eth0front3,,2650.0,,true,0,0,0,0,null,0,1,0,brander-desktop,0,0
03:19:54,0,eth0front4,,2662.0,,true,0,0,0,0,null,0,1,0,brander-desktop,0,0
03:19:56,0,eth0static,,6388.0,,true,0,0,0,0,null,0,1,0,brander-desktop,0,0
03:19:57,0,eth0db,,4561.0,,true,0,0,0,0,null,0,1,0,brander-desktop,0,0
03:19:58,0,eth0front1,,3028.0,,true,0,0,0,0,null,0,1,0,brander-desktop,0,0
03:19:59,0,eth0front2,,5446.0,,true,0,0,0,0,null,0,1,0,brander-desktop,0,0
03:20:00,0,eth0front3,,1562.0,,true,0,0,0,0,null,0,1,0,brander-desktop,0,0
03:20:01,0,eth0front4,,3098.0,,true,0,0,0,0,null,0,1,0,brander-desktop,0,0
03:20:02,0,eth0static,,4980.0,,true,0,0,0,0,null,0,1,0,brander-desktop,0,0
03:20:04,0,eth0db,,6014.0,,true,0,0,0,0,null,0,1,0,brander-desktop,0,0
03:20:05,0,eth0front1,,1466.0,,true,0,0,0,0,null,0,1,0,brander-desktop,0,0
03:20:06,0,eth0front2,,2764.0,,true,0,0,0,0,null,0,1,0,brander-desktop,0,0
03:20:08,0,eth0front3,,1346.0,,true,0,0,0,0,null,0,1,0,brander-desktop,0,0
03:20:09,0,eth0front4,,3359.0,,true,0,0,0,0,null,0,1,0,brander-desktop,0,0
03:20:10,0,eth0static,,7248.0,,true,0,0,0,0,null,0,1,0,brander-desktop,0,0
03:20:11,0,eth0db,,4411.0,,true,0,0,0,0,null,0,1,0,brander-desktop,0,0
03:20:12,0,eth0front1,,3521.0,,true,0,0,0,0,null,0,1,0,brander-desktop,0,0
03:20:14,0,eth0front2,,3195.0,,true,0,0,0,0,null,0,1,0,brander-desktop,0,0
03:20:15,0,eth0front3,,1651.0,,true,0,0,0,0,null,0,1,0,brander-desktop,0,0
03:20:16,0,eth0front4,,2042.0,,true,0,0,0,0,null,0,1,0,brander-desktop,0,0
03:20:17,0,eth0static,,6270.0,,true,0,0,0,0,null,0,1,0,brander-desktop,0,0
03:20:18,0,eth0db,,5038.0,,true,0,0,0,0,null,0,1,0,brander-desktop,0,0
03:20:19,0,eth0front1,,2552.0,,true,0,0,0,0,null,0,1,0,brander-desktop,0,0
03:20:21,0,eth0front2,,4555.0,,true,0,0,0,0,null,0,1,0,brander-desktop,0,0
03:20:22,0,eth0front3,,1297.0,,true,0,0,0,0,null,0,1,0,brander-desktop,0,0
03:20:23,0,eth0front4,,3463.0,,true,0,0,0,0,null,0,1,0,brander-desktop,0,0
03:20:25,0,eth0static,,6760.0,,true,0,0,0,0,null,0,1,0,brander-desktop,0,0
03:20:26,0,eth0db,,5560.0,,true,0,0,0,0,null,0,1,0,brander-desktop,0,0
03:20:27,0,eth0front1,,2893.0,,true,0,0,0,0,null,0,1,0,brander-desktop,0,0
03:20:29,0,eth0front2,,2247.0,,true,0,0,0,0,null,0,1,0,brander-desktop,0,0
03:20:30,0,eth0front3,,1920.0,,true,0,0,0,0,null,0,1,0,brander-desktop,0,0
03:20:31,0,eth0front4,,2504.0,,true,0,0,0,0,null,0,1,0,brander-desktop,0,0
03:20:33,0,eth0static,,7015.0,,true,0,0,0,0,null,0,1,0,brander-desktop,0,0
03:20:34,0,eth0db,,6716.0,,true,0,0,0,0,null,0,1,0,brander-desktop,0,0
03:20:35,0,eth0front1,,4570.0,,true,0,0,0,0,null,0,1,0,brander-desktop,0,0
03:20:36,0,eth0front2,,2561.0,,true,0,0,0,0,null,0,1,0,brander-desktop,0,0
03:20:38,0,eth0front3,,1614.0,,true,0,0,0,0,null,0,1,0,brander-desktop,0,0
03:20:39,0,eth0front4,,4795.0,,true,0,0,0,0,null,0,1,0,brander-desktop,0,0
03:20:40,0,eth0static,,7419.0,,true,0,0,0,0,null,0,1,0,brander-desktop,0,0
03:20:42,0,eth0db,,6548.0,,true,0,0,0,0,null,0,1,0,brander-desktop,0,0
03:20:43,0,eth0front1,,2861.0,,true,0,0,0,0,null,0,1,0,brander-desktop,0,0
03:20:44,0,eth0front2,,2894.0,,true,0,0,0,0,null,0,1,0,brander-desktop,0,0
03:20:46,0,eth0front3,,1084.0,,true,0,0,0,0,null,0,1,0,brander-desktop,0,0
03:20:47,0,eth0front4,,3544.0,,true,0,0,0,0,null,0,1,0,brander-desktop,0,0
03:20:48,0,eth0static,,6859.0,,true,0,0,0,0,null,0,1,0,brander-desktop,0,0
03:20:50,0,eth0db,,4552.48,,true,0,0,0,0,null,0,1,0,brander-desktop,0,0
03:20:51,0,eth0front1,,2128.0,,true,0,0,0,0,null,0,1,0,brander-desktop,0,0
03:20:52,0,eth0front2,,2645.0,,true,0,0,0,0,null,0,1,0,brander-desktop,0,0
03:20:54,0,eth0front3,,1866.0,,true,0,0,0,0,null,0,1,0,brander-desktop,0,0
03:20:55,0,eth0front4,,2692.0,,true,0,0,0,0,null,0,1,0,brander-desktop,0,0
03:20:56,0,eth0static,,7056.0,,true,0,0,0,0,null,0,1,0,brander-desktop,0,0
03:20:57,0,eth0db,,6038.0,,true,0,0,0,0,null,0,1,0,brander-desktop,0,0
03:20:58,0,eth0front1,,2751.0,,true,0,0,0,0,null,0,1,0,brander-desktop,0,0
03:21:00,0,eth0front2,,2425.0,,true,0,0,0,0,null,0,1,0,brander-desktop,0,0
03:21:01,0,eth0front3,,2414.0,,true,0,0,0,0,null,0,1,0,brander-desktop,0,0
03:21:02,0,eth0front4,,2447.0,,true,0,0,0,0,null,0,1,0,brander-desktop,0,0
03:21:03,0,eth0static,,7776.0,,true,0,0,0,0,null,0,1,0,brander-desktop,0,0
03:21:05,0,eth0db,,5421.0,,true,0,0,0,0,null,0,1,0,brander-desktop,0,0
03:21:06,0,eth0front1,,2584.0,,true,0,0,0,0,null,0,1,0,brander-desktop,0,0
03:21:07,0,eth0front2,,3437.0,,true,0,0,0,0,null,0,1,0,brander-desktop,0,0
03:21:08,0,eth0front3,,678.0,,true,0,0,0,0,null,0,1,0,brander-desktop,0,0
03:21:10,0,eth0front4,,3176.0,,true,0,0,0,0,null,0,1,0,brander-desktop,0,0
03:21:11,0,eth0static,,6249.0,,true,0,0,0,0,null,0,1,0,brander-desktop,0,0
03:21:12,0,eth0db,,5108.0,,true,0,0,0,0,null,0,1,0,brander-desktop,0,0
03:21:13,0,eth0front1,,1984.0,,true,0,0,0,0,null,0,1,0,brander-desktop,0,0
03:21:14,0,eth0front2,,2150.0,,true,0,0,0,0,null,0,1,0,brander-desktop,0,0
03:21:15,0,eth0front3,,2406.0,,true,0,0,0,0,null,0,1,0,brander-desktop,0,0
03:21:17,0,eth0front4,,2703.0,,true,0,0,0,0,null,0,1,0,brander-desktop,0,0
03:21:18,0,eth0static,,6100.0,,true,0,0,0,0,null,0,1,0,brander-desktop,0,0
03:21:19,0,eth0db,,4011.0,,true,0,0,0,0,null,0,1,0,brander-desktop,0,0
03:21:20,0,eth0front1,,2132.0,,true,0,0,0,0,null,0,1,0,brander-desktop,0,0
03:21:21,0,eth0front2,,1975.0,,true,0,0,0,0,null,0,1,0,brander-desktop,0,0
03:21:22,0,eth0front3,,1603.0,,true,0,0,0,0,null,0,1,0,brander-desktop,0,0
03:21:24,0,eth0front4,,3008.0,,true,0,0,0,0,null,0,1,0,brander-desktop,0,0
03:21:25,0,eth0static,,6563.0,,true,0,0,0,0,null,0,1,0,brander-desktop,0,0
03:21:26,0,eth0db,,3711.0,,true,0,0,0,0,null,0,1,0,brander-desktop,0,0
03:21:27,0,eth0front1,,2597.0,,true,0,0,0,0,null,0,1,0,brander-desktop,0,0
03:21:28,0,eth0front2,,1703.0,,true,0,0,0,0,null,0,1,0,brander-desktop,0,0
03:21:30,0,eth0front3,,1231.0,,true,0,0,0,0,null,0,1,0,brander-desktop,0,0
03:21:31,0,eth0front4,,2964.0,,true,0,0,0,0,null,0,1,0,brander-desktop,0,0
03:21:32,0,eth0static,,6968.0,,true,0,0,0,0,null,0,1,0,brander-desktop,0,0
03:21:33,0,eth0db,,6055.0,,true,0,0,0,0,null,0,1,0,brander-desktop,0,0
03:21:34,0,eth0front1,,1992.0,,true,0,0,0,0,null,0,1,0,brander-desktop,0,0
03:21:35,0,eth0front2,,2238.0,,true,0,0,0,0,null,0,1,0,brander-desktop,0,0
03:21:37,0,eth0front3,,1268.0,,true,0,0,0,0,null,0,1,0,brander-desktop,0,0
03:21:38,0,eth0front4,,1975.0,,true,0,0,0,0,null,0,1,0,brander-desktop,0,0
03:21:39,0,eth0static,,6691.0,,true,0,0,0,0,null,0,1,0,brander-desktop,0,0
03:21:41,0,eth0db,,5114.0,,true,0,0,0,0,null,0,1,0,brander-desktop,0,0
03:21:42,0,eth0front1,,4068.0,,true,0,0,0,0,null,0,1,0,brander-desktop,0,0
03:21:43,0,eth0front2,,2016.0,,true,0,0,0,0,null,0,1,0,brander-desktop,0,0
03:21:44,0,eth0front3,,1496.0,,true,0,0,0,0,null,0,1,0,brander-desktop,0,0
03:21:46,0,eth0front4,,2228.0,,true,0,0,0,0,null,0,1,0,brander-desktop,0,0
03:21:47,0,eth0static,,6080.0,,true,0,0,0,0,null,0,1,0,brander-desktop,0,0
03:21:48,0,eth0db,,5163.0,,true,0,0,0,0,null,0,1,0,brander-desktop,0,0
03:21:50,0,eth0front1,,5652.0,,true,0,0,0,0,null,0,1,0,brander-desktop,0,0
03:21:51,0,eth0front2,,3256.0,,true,0,0,0,0,null,0,1,0,brander-desktop,0,0
03:21:52,0,eth0front3,,1788.0,,true,0,0,0,0,null,0,1,0,brander-desktop,0,0
03:21:53,0,eth0front4,,4373.0,,true,0,0,0,0,null,0,1,0,brander-desktop,0,0
03:21:55,0,eth0static,,6857.0,,true,0,0,0,0,null,0,1,0,brander-desktop,0,0
03:21:56,0,eth0db,,7261.0,,true,0,0,0,0,null,0,1,0,brander-desktop,0,0
03:21:57,0,eth0front1,,3418.0,,true,0,0,0,0,null,0,1,0,brander-desktop,0,0
03:21:59,0,eth0front2,,3006.0,,true,0,0,0,0,null,0,1,0,brander-desktop,0,0
03:22:00,0,eth0front3,,1301.0,,true,0,0,0,0,null,0,1,0,brander-desktop,0,0
03:22:01,0,eth0front4,,3148.0,,true,0,0,0,0,null,0,1,0,brander-desktop,0,0
03:22:02,0,eth0static,,8015.0,,true,0,0,0,0,null,0,1,0,brander-desktop,0,0
03:22:04,0,eth0db,,4913.86,,true,0,0,0,0,null,0,1,0,brander-desktop,0,0
03:22:05,0,eth0front1,,2811.0,,true,0,0,0,0,null,0,1,0,brander-desktop,0,0
03:22:06,0,eth0front2,,2461.0,,true,0,0,0,0,null,0,1,0,brander-desktop,0,0
03:22:07,0,eth0front3,,2326.0,,true,0,0,0,0,null,0,1,0,brander-desktop,0,0
03:22:09,0,eth0front4,,3867.0,,true,0,0,0,0,null,0,1,0,brander-desktop,0,0
03:22:10,0,eth0static,,6314.0,,true,0,0,0,0,null,0,1,0,brander-desktop,0,0
03:22:11,0,eth0db,,6736.0,,true,0,0,0,0,null,0,1,0,brander-desktop,0,0
03:22:12,0,eth0front1,,2068.0,,true,0,0,0,0,null,0,1,0,brander-desktop,0,0
03:22:14,0,eth0front2,,2067.0,,true,0,0,0,0,null,0,1,0,brander-desktop,0,0
03:22:15,0,eth0front3,,974.0,,true,0,0,0,0,null,0,1,0,brander-desktop,0,0
03:22:16,0,eth0front4,,1984.0,,true,0,0,0,0,null,0,1,0,brander-desktop,0,0
03:22:17,0,eth0static,,6748.0,,true,0,0,0,0,null,0,1,0,brander-desktop,0,0
03:22:18,0,eth0db,,6016.0,,true,0,0,0,0,null,0,1,0,brander-desktop,0,0
03:22:19,0,eth0front1,,2813.0,,true,0,0,0,0,null,0,1,0,brander-desktop,0,0
03:22:20,0,eth0front2,,3326.0,,true,0,0,0,0,null,0,1,0,brander-desktop,0,0
03:22:22,0,eth0front3,,1077.0,,true,0,0,0,0,null,0,1,0,brander-desktop,0,0
03:22:23,0,eth0front4,,3394.0,,true,0,0,0,0,null,0,1,0,brander-desktop,0,0
03:22:24,0,eth0static,,7148.0,,true,0,0,0,0,null,0,1,0,brander-desktop,0,0
03:22:25,0,eth0db,,5138.0,,true,0,0,0,0,null,0,1,0,brander-desktop,0,0
03:22:26,0,eth0front1,,1636.0,,true,0,0,0,0,null,0,1,0,brander-desktop,0,0
03:22:27,0,eth0front2,,2841.0,,true,0,0,0,0,null,0,1,0,brander-desktop,0,0
03:22:28,0,eth0front3,,1299.0,,true,0,0,0,0,null,0,1,0,brander-desktop,0,0
03:22:30,0,eth0front4,,2952.0,,true,0,0,0,0,null,0,1,0,brander-desktop,0,0
03:22:31,0,eth0static,,6226.0,,true,0,0,0,0,null,0,1,0,brander-desktop,0,0
03:22:32,0,eth0db,,6619.0,,true,0,0,0,0,null,0,1,0,brander-desktop,0,0
03:22:33,0,eth0front1,,2632.0,,true,0,0,0,0,null,0,1,0,brander-desktop,0,0
03:22:34,0,eth0front2,,3346.0,,true,0,0,0,0,null,0,1,0,brander-desktop,0,0
03:22:35,0,eth0front3,,1941.0,,true,0,0,0,0,null,0,1,0,brander-desktop,0,0
03:22:36,0,eth0front4,,3383.0,,true,0,0,0,0,null,0,1,0,brander-desktop,0,0
03:22:37,0,eth0static,,6619.0,,true,0,0,0,0,null,0,1,0,brander-desktop,0,0
03:22:39,0,eth0db,,5937.0,,true,0,0,0,0,null,0,1,0,brander-desktop,0,0
03:22:40,0,eth0front1,,3422.0,,true,0,0,0,0,null,0,1,0,brander-desktop,0,0
03:22:41,0,eth0front2,,3882.0,,true,0,0,0,0,null,0,1,0,brander-desktop,0,0
03:22:42,0,eth0front3,,2007.92,,true,0,0,0,0,null,0,1,0,brander-desktop,0,0
03:22:43,0,eth0front4,,3509.0,,true,0,0,0,0,null,0,1,0,brander-desktop,0,0
03:22:44,0,eth0static,,7751.0,,true,0,0,0,0,null,0,1,0,brander-desktop,0,0
03:22:45,0,eth0db,,5675.0,,true,0,0,0,0,null,0,1,0,brander-desktop,0,0
03:22:47,0,eth0front1,,2310.0,,true,0,0,0,0,null,0,1,0,brander-desktop,0,0
03:22:48,0,eth0front2,,2513.0,,true,0,0,0,0,null,0,1,0,brander-desktop,0,0
03:22:49,0,eth0front3,,561.0,,true,0,0,0,0,null,0,1,0,brander-desktop,0,0
03:22:50,0,eth0front4,,3736.0,,true,0,0,0,0,null,0,1,0,brander-desktop,0,0
03:22:51,0,eth0static,,6622.0,,true,0,0,0,0,null,0,1,0,brander-desktop,0,0
03:22:52,0,eth0db,,5830.0,,true,0,0,0,0,null,0,1,0,brander-desktop,0,0
03:22:53,0,eth0front1,,2888.0,,true,0,0,0,0,null,0,1,0,brander-desktop,0,0
03:22:54,0,eth0front2,,2327.0,,true,0,0,0,0,null,0,1,0,brander-desktop,0,0
03:22:55,0,eth0front3,,1887.0,,true,0,0,0,0,null,0,1,0,brander-desktop,0,0
03:22:57,0,eth0front4,,3545.0,,true,0,0,0,0,null,0,1,0,brander-desktop,0,0
03:22:58,0,eth0static,,5635.0,,true,0,0,0,0,null,0,1,0,brander-desktop,0,0
03:22:59,0,eth0db,,5078.0,,true,0,0,0,0,null,0,1,0,brander-desktop,0,0
03:23:00,0,eth0front1,,2900.0,,true,0,0,0,0,null,0,1,0,brander-desktop,0,0
03:23:01,0,eth0front2,,4532.0,,true,0,0,0,0,null,0,1,0,brander-desktop,0,0
03:23:02,0,eth0front3,,2239.0,,true,0,0,0,0,null,0,1,0,brander-desktop,0,0
03:23:03,0,eth0front4,,3393.0,,true,0,0,0,0,null,0,1,0,brander-desktop,0,0
03:23:05,0,eth0static,,9756.0,,true,0,0,0,0,null,0,1,0,brander-desktop,0,0
03:23:06,0,eth0db,,7044.0,,true,0,0,0,0,null,0,1,0,brander-desktop,0,0
03:23:07,0,eth0front1,,2725.0,,true,0,0,0,0,null,0,1,0,brander-desktop,0,0
03:23:08,0,eth0front2,,3458.0,,true,0,0,0,0,null,0,1,0,brander-desktop,0,0
03:23:09,0,eth0front3,,1447.0,,true,0,0,0,0,null,0,1,0,brander-desktop,0,0
03:23:10,0,eth0front4,,3195.0,,true,0,0,0,0,null,0,1,0,brander-desktop,0,0
03:23:12,0,eth0static,,7216.0,,true,0,0,0,0,null,0,1,0,brander-desktop,0,0
03:23:13,0,eth0db,,6399.0,,true,0,0,0,0,null,0,1,0,brander-desktop,0,0
03:23:14,0,eth0front1,,2600.0,,true,0,0,0,0,null,0,1,0,brander-desktop,0,0
03:23:15,0,eth0front2,,2647.0,,true,0,0,0,0,null,0,1,0,brander-desktop,0,0
03:23:16,0,eth0front3,,1192.0,,true,0,0,0,0,null,0,1,0,brander-desktop,0,0
03:23:17,0,eth0front4,,3756.0,,true,0,0,0,0,null,0,1,0,brander-desktop,0,0
03:23:18,0,eth0static,,7296.0,,true,0,0,0,0,null,0,1,0,brander-desktop,0,0
03:23:20,0,eth0db,,4216.0,,true,0,0,0,0,null,0,1,0,brander-desktop,0,0
03:23:21,0,eth0front1,,3213.0,,true,0,0,0,0,null,0,1,0,brander-desktop,0,0
03:23:22,0,eth0front2,,2657.0,,true,0,0,0,0,null,0,1,0,brander-desktop,0,0
03:23:23,0,eth0front3,,2840.0,,true,0,0,0,0,null,0,1,0,brander-desktop,0,0
03:23:24,0,eth0front4,,3298.0,,true,0,0,0,0,null,0,1,0,brander-desktop,0,0
03:23:25,0,eth0static,,6279.0,,true,0,0,0,0,null,0,1,0,brander-desktop,0,0
03:23:27,0,eth0db,,3398.0,,true,0,0,0,0,null,0,1,0,brander-desktop,0,0
03:23:28,0,eth0front1,,3571.0,,true,0,0,0,0,null,0,1,0,brander-desktop,0,0
03:23:29,0,eth0front2,,2509.0,,true,0,0,0,0,null,0,1,0,brander-desktop,0,0
03:23:31,0,eth0front3,,1772.0,,true,0,0,0,0,null,0,1,0,brander-desktop,0,0
03:23:32,0,eth0front4,,3377.0,,true,0,0,0,0,null,0,1,0,brander-desktop,0,0
03:23:33,0,eth0static,,5326.0,,true,0,0,0,0,null,0,1,0,brander-desktop,0,0
03:23:34,0,eth0db,,5165.0,,true,0,0,0,0,null,0,1,0,brander-desktop,0,0
03:23:35,0,eth0front1,,3087.0,,true,0,0,0,0,null,0,1,0,brander-desktop,0,0
03:23:36,0,eth0front2,,2900.0,,true,0,0,0,0,null,0,1,0,brander-desktop,0,0
03:23:37,0,eth0front3,,2394.0,,true,0,0,0,0,null,0,1,0,brander-desktop,0,0
03:23:39,0,eth0front4,,3511.0,,true,0,0,0,0,null,0,1,0,brander-desktop,0,0
03:23:40,0,eth0static,,6093.0,,true,0,0,0,0,null,0,1,0,brander-desktop,0,0
03:23:41,0,eth0db,,5869.0,,true,0,0,0,0,null,0,1,0,brander-desktop,0,0
03:23:42,0,eth0front1,,2873.0,,true,0,0,0,0,null,0,1,0,brander-desktop,0,0
03:23:43,0,eth0front2,,3404.0,,true,0,0,0,0,null,0,1,0,brander-desktop,0,0
03:23:45,0,eth0front3,,1781.0,,true,0,0,0,0,null,0,1,0,brander-desktop,0,0
03:23:46,0,eth0front4,,2372.0,,true,0,0,0,0,null,0,1,0,brander-desktop,0,0
03:23:47,0,eth0static,,6939.0,,true,0,0,0,0,null,0,1,0,brander-desktop,0,0
03:23:48,0,eth0db,,5738.0,,true,0,0,0,0,null,0,1,0,brander-desktop,0,0
03:23:49,0,eth0front1,,2662.0,,true,0,0,0,0,null,0,1,0,brander-desktop,0,0
03:23:50,0,eth0front2,,2532.0,,true,0,0,0,0,null,0,1,0,brander-desktop,0,0
03:23:51,0,eth0front3,,1111.0,,true,0,0,0,0,null,0,1,0,brander-desktop,0,0
03:23:52,0,eth0front4,,3600.0,,true,0,0,0,0,null,0,1,0,brander-desktop,0,0
03:23:53,0,eth0static,,7551.0,,true,0,0,0,0,null,0,1,0,brander-desktop,0,0
03:23:55,0,eth0db,,4719.0,,true,0,0,0,0,null,0,1,0,brander-desktop,0,0
03:23:56,0,eth0front1,,3143.0,,true,0,0,0,0,null,0,1,0,brander-desktop,0,0
03:23:57,0,eth0front2,,2261.0,,true,0,0,0,0,null,0,1,0,brander-desktop,0,0
03:23:58,0,eth0front3,,2680.0,,true,0,0,0,0,null,0,1,0,brander-desktop,0,0
03:23:59,0,eth0front4,,2253.0,,true,0,0,0,0,null,0,1,0,brander-desktop,0,0
03:24:00,0,eth0static,,6908.0,,true,0,0,0,0,null,0,1,0,brander-desktop,0,0
03:24:02,0,eth0db,,5992.0,,true,0,0,0,0,null,0,1,0,brander-desktop,0,0
03:24:03,0,eth0front1,,3933.0,,true,0,0,0,0,null,0,1,0,brander-desktop,0,0
03:24:04,0,eth0front2,,4005.0,,true,0,0,0,0,null,0,1,0,brander-desktop,0,0
03:24:05,0,eth0front3,,1831.0,,true,0,0,0,0,null,0,1,0,brander-desktop,0,0
03:24:06,0,eth0front4,,2309.0,,true,0,0,0,0,null,0,1,0,brander-desktop,0,0
03:24:07,0,eth0static,,7170.0,,true,0,0,0,0,null,0,1,0,brander-desktop,0,0
03:24:09,0,eth0db,,6064.0,,true,0,0,0,0,null,0,1,0,brander-desktop,0,0
03:24:10,0,eth0front1,,2096.0,,true,0,0,0,0,null,0,1,0,brander-desktop,0,0
03:24:12,0,eth0front2,,2911.0,,true,0,0,0,0,null,0,1,0,brander-desktop,0,0
03:24:13,0,eth0front3,,1528.0,,true,0,0,0,0,null,0,1,0,brander-desktop,0,0
03:24:14,0,eth0front4,,2921.0,,true,0,0,0,0,null,0,1,0,brander-desktop,0,0
03:24:16,0,eth0static,,6262.0,,true,0,0,0,0,null,0,1,0,brander-desktop,0,0
03:24:17,0,eth0db,,5585.0,,true,0,0,0,0,null,0,1,0,brander-desktop,0,0
03:24:19,0,eth0front1,,4347.0,,true,0,0,0,0,null,0,1,0,brander-desktop,0,0
03:24:20,0,eth0front2,,3234.0,,true,0,0,0,0,null,0,1,0,brander-desktop,0,0
03:24:22,0,eth0front3,,1532.0,,true,0,0,0,0,null,0,1,0,brander-desktop,0,0
03:24:23,0,eth0front4,,3939.0,,true,0,0,0,0,null,0,1,0,brander-desktop,0,0
03:24:24,0,eth0static,,9361.0,,true,0,0,0,0,null,0,1,0,brander-desktop,0,0
03:24:26,0,eth0db,,4201.0,,true,0,0,0,0,null,0,1,0,brander-desktop,0,0
03:24:27,0,eth0front1,,2614.0,,true,0,0,0,0,null,0,1,0,brander-desktop,0,0
03:24:28,0,eth0front2,,1729.0,,true,0,0,0,0,null,0,1,0,brander-desktop,0,0
03:24:29,0,eth0front3,,1493.0,,true,0,0,0,0,null,0,1,0,brander-desktop,0,0
03:24:31,0,eth0front4,,2300.0,,true,0,0,0,0,null,0,1,0,brander-desktop,0,0
03:24:32,0,eth0static,,6351.0,,true,0,0,0,0,null,0,1,0,brander-desktop,0,0
03:24:33,0,eth0db,,5023.0,,true,0,0,0,0,null,0,1,0,brander-desktop,0,0
03:24:34,0,eth0front1,,2781.0,,true,0,0,0,0,null,0,1,0,brander-desktop,0,0
03:24:35,0,eth0front2,,2235.0,,true,0,0,0,0,null,0,1,0,brander-desktop,0,0
03:24:36,0,eth0front3,,1084.0,,true,0,0,0,0,null,0,1,0,brander-desktop,0,0
03:24:38,0,eth0front4,,3230.0,,true,0,0,0,0,null,0,1,0,brander-desktop,0,0
03:24:39,0,eth0static,,6650.0,,true,0,0,0,0,null,0,1,0,brander-desktop,0,0
03:24:40,0,eth0db,,6607.0,,true,0,0,0,0,null,0,1,0,brander-desktop,0,0
03:24:41,0,eth0front1,,1894.06,,true,0,0,0,0,null,0,1,0,brander-desktop,0,0
03:24:42,0,eth0front2,,4168.0,,true,0,0,0,0,null,0,1,0,brander-desktop,0,0
03:24:43,0,eth0front3,,2877.0,,true,0,0,0,0,null,0,1,0,brander-desktop,0,0
03:24:45,0,eth0front4,,3237.0,,true,0,0,0,0,null,0,1,0,brander-desktop,0,0
03:24:46,0,eth0static,,7573.0,,true,0,0,0,0,null,0,1,0,brander-desktop,0,0
03:24:47,0,eth0db,,5821.0,,true,0,0,0,0,null,0,1,0,brander-desktop,0,0
03:24:48,0,eth0front1,,3338.0,,true,0,0,0,0,null,0,1,0,brander-desktop,0,0
03:24:49,0,eth0front2,,3674.0,,true,0,0,0,0,null,0,1,0,brander-desktop,0,0
03:24:50,0,eth0front3,,2556.0,,true,0,0,0,0,null,0,1,0,brander-desktop,0,0
03:24:51,0,eth0front4,,1738.0,,true,0,0,0,0,null,0,1,0,brander-desktop,0,0
03:24:53,0,eth0static,,6556.0,,true,0,0,0,0,null,0,1,0,brander-desktop,0,0
03:24:54,0,eth0db,,6374.0,,true,0,0,0,0,null,0,1,0,brander-desktop,0,0
03:24:55,0,eth0front1,,3077.0,,true,0,0,0,0,null,0,1,0,brander-desktop,0,0
03:24:56,0,eth0front2,,2799.0,,true,0,0,0,0,null,0,1,0,brander-desktop,0,0
03:24:57,0,eth0front3,,2307.0,,true,0,0,0,0,null,0,1,0,brander-desktop,0,0
03:24:58,0,eth0front4,,1766.0,,true,0,0,0,0,null,0,1,0,brander-desktop,0,0
03:24:59,0,eth0static,,5051.0,,true,0,0,0,0,null,0,1,0,brander-desktop,0,0
03:25:01,0,eth0db,,5173.0,,true,0,0,0,0,null,0,1,0,brander-desktop,0,0
03:25:02,0,eth0front1,,3311.0,,true,0,0,0,0,null,0,1,0,brander-desktop,0,0
03:25:03,0,eth0front2,,3167.0,,true,0,0,0,0,null,0,1,0,brander-desktop,0,0
03:25:04,0,eth0front3,,2179.21,,true,0,0,0,0,null,0,1,0,brander-desktop,0,0
03:25:05,0,eth0front4,,3246.0,,true,0,0,0,0,null,0,1,0,brander-desktop,0,0
03:25:06,0,eth0static,,6237.0,,true,0,0,0,0,null,0,1,0,brander-desktop,0,0
03:25:07,0,eth0db,,7352.0,,true,0,0,0,0,null,0,1,0,brander-desktop,0,0
03:25:09,0,eth0front1,,2313.0,,true,0,0,0,0,null,0,1,0,brander-desktop,0,0
03:25:10,0,eth0front2,,4153.0,,true,0,0,0,0,null,0,1,0,brander-desktop,0,0
03:25:11,0,eth0front3,,2194.0,,true,0,0,0,0,null,0,1,0,brander-desktop,0,0
03:25:12,0,eth0front4,,3253.0,,true,0,0,0,0,null,0,1,0,brander-desktop,0,0
03:25:13,0,eth0static,,6498.0,,true,0,0,0,0,null,0,1,0,brander-desktop,0,0
03:25:15,0,eth0db,,7082.0,,true,0,0,0,0,null,0,1,0,brander-desktop,0,0
03:25:16,0,eth0front1,,2529.0,,true,0,0,0,0,null,0,1,0,brander-desktop,0,0
03:25:17,0,eth0front2,,3005.0,,true,0,0,0,0,null,0,1,0,brander-desktop,0,0
03:25:18,0,eth0front3,,2545.0,,true,0,0,0,0,null,0,1,0,brander-desktop,0,0
03:25:19,0,eth0front4,,3127.0,,true,0,0,0,0,null,0,1,0,brander-desktop,0,0
03:25:21,0,eth0static,,7625.0,,true,0,0,0,0,null,0,1,0,brander-desktop,0,0
03:25:22,0,eth0db,,5882.0,,true,0,0,0,0,null,0,1,0,brander-desktop,0,0
03:25:23,0,eth0front1,,2354.0,,true,0,0,0,0,null,0,1,0,brander-desktop,0,0
03:25:25,0,eth0front2,,1691.0,,true,0,0,0,0,null,0,1,0,brander-desktop,0,0
03:25:26,0,eth0front3,,1666.0,,true,0,0,0,0,null,0,1,0,brander-desktop,0,0
03:25:27,0,eth0front4,,3392.0,,true,0,0,0,0,null,0,1,0,brander-desktop,0,0
03:25:29,0,eth0static,,8698.0,,true,0,0,0,0,null,0,1,0,brander-desktop,0,0
03:25:30,0,eth0db,,6112.0,,true,0,0,0,0,null,0,1,0,brander-desktop,0,0
03:25:31,0,eth0front1,,3604.0,,true,0,0,0,0,null,0,1,0,brander-desktop,0,0
03:25:32,0,eth0front2,,3035.0,,true,0,0,0,0,null,0,1,0,brander-desktop,0,0
03:25:33,0,eth0front3,,1776.0,,true,0,0,0,0,null,0,1,0,brander-desktop,0,0
03:25:34,0,eth0front4,,2865.0,,true,0,0,0,0,null,0,1,0,brander-desktop,0,0
03:25:36,0,eth0static,,7730.0,,true,0,0,0,0,null,0,1,0,brander-desktop,0,0
03:25:37,0,eth0db,,4499.0,,true,0,0,0,0,null,0,1,0,brander-desktop,0,0
03:25:39,0,eth0front1,,3478.0,,true,0,0,0,0,null,0,1,0,brander-desktop,0,0
03:25:40,0,eth0front2,,3665.0,,true,0,0,0,0,null,0,1,0,brander-desktop,0,0
03:25:41,0,eth0front3,,1768.0,,true,0,0,0,0,null,0,1,0,brander-desktop,0,0
03:25:43,0,eth0front4,,3386.0,,true,0,0,0,0,null,0,1,0,brander-desktop,0,0
03:25:44,0,eth0static,,7542.0,,true,0,0,0,0,null,0,1,0,brander-desktop,0,0
03:25:45,0,eth0db,,5023.0,,true,0,0,0,0,null,0,1,0,brander-desktop,0,0
03:25:46,0,eth0front1,,3996.0,,true,0,0,0,0,null,0,1,0,brander-desktop,0,0
03:25:47,0,eth0front2,,4913.0,,true,0,0,0,0,null,0,1,0,brander-desktop,0,0
03:25:48,0,eth0front3,,1800.0,,true,0,0,0,0,null,0,1,0,brander-desktop,0,0
03:25:50,0,eth0front4,,3316.0,,true,0,0,0,0,null,0,1,0,brander-desktop,0,0
03:25:51,0,eth0static,,6420.0,,true,0,0,0,0,null,0,1,0,brander-desktop,0,0
03:25:52,0,eth0db,,5521.0,,true,0,0,0,0,null,0,1,0,brander-desktop,0,0
03:25:53,0,eth0front1,,1425.0,,true,0,0,0,0,null,0,1,0,brander-desktop,0,0
03:25:54,0,eth0front2,,3196.0,,true,0,0,0,0,null,0,1,0,brander-desktop,0,0
03:25:55,0,eth0front3,,2608.0,,true,0,0,0,0,null,0,1,0,brander-desktop,0,0
03:25:56,0,eth0front4,,2443.0,,true,0,0,0,0,null,0,1,0,brander-desktop,0,0
03:25:57,0,eth0static,,6425.0,,true,0,0,0,0,null,0,1,0,brander-desktop,0,0
03:25:59,0,eth0db,,4896.0,,true,0,0,0,0,null,0,1,0,brander-desktop,0,0
03:26:00,0,eth0front1,,3583.0,,true,0,0,0,0,null,0,1,0,brander-desktop,0,0
03:26:01,0,eth0front2,,3183.0,,true,0,0,0,0,null,0,1,0,brander-desktop,0,0
03:26:02,0,eth0front3,,1876.0,,true,0,0,0,0,null,0,1,0,brander-desktop,0,0
03:26:03,0,eth0front4,,3064.0,,true,0,0,0,0,null,0,1,0,brander-desktop,0,0
03:26:05,0,eth0static,,7452.0,,true,0,0,0,0,null,0,1,0,brander-desktop,0,0
03:26:06,0,eth0db,,6021.0,,true,0,0,0,0,null,0,1,0,brander-desktop,0,0
03:26:07,0,eth0front1,,3633.0,,true,0,0,0,0,null,0,1,0,brander-desktop,0,0
03:26:08,0,eth0front2,,4194.0,,true,0,0,0,0,null,0,1,0,brander-desktop,0,0
03:26:10,0,eth0front3,,3126.0,,true,0,0,0,0,null,0,1,0,brander-desktop,0,0
03:26:11,0,eth0front4,,3337.0,,true,0,0,0,0,null,0,1,0,brander-desktop,0,0
03:26:12,0,eth0static,,6747.0,,true,0,0,0,0,null,0,1,0,brander-desktop,0,0
03:26:13,0,eth0db,,5165.0,,true,0,0,0,0,null,0,1,0,brander-desktop,0,0
03:26:15,0,eth0front1,,3331.0,,true,0,0,0,0,null,0,1,0,brander-desktop,0,0
03:26:16,0,eth0front2,,4144.0,,true,0,0,0,0,null,0,1,0,brander-desktop,0,0
03:26:17,0,eth0front3,,2603.0,,true,0,0,0,0,null,0,1,0,brander-desktop,0,0
03:26:19,0,eth0front4,,3497.0,,true,0,0,0,0,null,0,1,0,brander-desktop,0,0
03:26:20,0,eth0static,,7303.0,,true,0,0,0,0,null,0,1,0,brander-desktop,0,0
03:26:21,0,eth0db,,4866.0,,true,0,0,0,0,null,0,1,0,brander-desktop,0,0
03:26:22,0,eth0front1,,4108.0,,true,0,0,0,0,null,0,1,0,brander-desktop,0,0
03:26:24,0,eth0front2,,2919.0,,true,0,0,0,0,null,0,1,0,brander-desktop,0,0
03:26:25,0,eth0front3,,2041.0,,true,0,0,0,0,null,0,1,0,brander-desktop,0,0
03:26:26,0,eth0front4,,3369.0,,true,0,0,0,0,null,0,1,0,brander-desktop,0,0
03:26:27,0,eth0static,,6765.0,,true,0,0,0,0,null,0,1,0,brander-desktop,0,0
03:26:29,0,eth0db,,5856.0,,true,0,0,0,0,null,0,1,0,brander-desktop,0,0
03:26:30,0,eth0front1,,3247.0,,true,0,0,0,0,null,0,1,0,brander-desktop,0,0
03:26:31,0,eth0front2,,2983.17,,true,0,0,0,0,null,0,1,0,brander-desktop,0,0
03:26:32,0,eth0front3,,1798.0,,true,0,0,0,0,null,0,1,0,brander-desktop,0,0
03:26:33,0,eth0front4,,2784.0,,true,0,0,0,0,null,0,1,0,brander-desktop,0,0
03:26:34,0,eth0static,,5358.0,,true,0,0,0,0,null,0,1,0,brander-desktop,0,0
03:26:36,0,eth0db,,2658.0,,true,0,0,0,0,null,0,1,0,brander-desktop,0,0
03:26:37,0,eth0front1,,2961.0,,true,0,0,0,0,null,0,1,0,brander-desktop,0,0
03:26:38,0,eth0front2,,1679.0,,true,0,0,0,0,null,0,1,0,brander-desktop,0,0
03:26:39,0,eth0front3,,1469.0,,true,0,0,0,0,null,0,1,0,brander-desktop,0,0
03:26:40,0,eth0front4,,3537.0,,true,0,0,0,0,null,0,1,0,brander-desktop,0,0
03:26:41,0,eth0static,,7039.0,,true,0,0,0,0,null,0,1,0,brander-desktop,0,0
03:26:42,0,eth0db,,5604.0,,true,0,0,0,0,null,0,1,0,brander-desktop,0,0
03:26:43,0,eth0front1,,2442.0,,true,0,0,0,0,null,0,1,0,brander-desktop,0,0
03:26:45,0,eth0front2,,4703.0,,true,0,0,0,0,null,0,1,0,brander-desktop,0,0
03:26:46,0,eth0front3,,2496.0,,true,0,0,0,0,null,0,1,0,brander-desktop,0,0
03:26:47,0,eth0front4,,1530.0,,true,0,0,0,0,null,0,1,0,brander-desktop,0,0
03:26:48,0,eth0static,,6818.0,,true,0,0,0,0,null,0,1,0,brander-desktop,0,0
03:26:50,0,eth0db,,4566.0,,true,0,0,0,0,null,0,1,0,brander-desktop,0,0
03:26:51,0,eth0front1,,2537.0,,true,0,0,0,0,null,0,1,0,brander-desktop,0,0
03:26:52,0,eth0front2,,3016.0,,true,0,0,0,0,null,0,1,0,brander-desktop,0,0
03:26:53,0,eth0front3,,1721.0,,true,0,0,0,0,null,0,1,0,brander-desktop,0,0
03:26:55,0,eth0front4,,2986.0,,true,0,0,0,0,null,0,1,0,brander-desktop,0,0
03:26:56,0,eth0static,,6417.0,,true,0,0,0,0,null,0,1,0,brander-desktop,0,0
03:26:58,0,eth0db,,4965.0,,true,0,0,0,0,null,0,1,0,brander-desktop,0,0
03:26:59,0,eth0front1,,3339.0,,true,0,0,0,0,null,0,1,0,brander-desktop,0,0
03:27:00,0,eth0front2,,4094.0,,true,0,0,0,0,null,0,1,0,brander-desktop,0,0
03:27:02,0,eth0front3,,2579.0,,true,0,0,0,0,null,0,1,0,brander-desktop,0,0
03:27:03,0,eth0front4,,3583.0,,true,0,0,0,0,null,0,1,0,brander-desktop,0,0
03:27:05,0,eth0static,,8321.0,,true,0,0,0,0,null,0,1,0,brander-desktop,0,0
03:27:06,0,eth0db,,5588.0,,true,0,0,0,0,null,0,1,0,brander-desktop,0,0
03:27:08,0,eth0front1,,2106.0,,true,0,0,0,0,null,0,1,0,brander-desktop,0,0
03:27:09,0,eth0front2,,3019.0,,true,0,0,0,0,null,0,1,0,brander-desktop,0,0
03:27:10,0,eth0front3,,2225.0,,true,0,0,0,0,null,0,1,0,brander-desktop,0,0
03:27:12,0,eth0front4,,3429.0,,true,0,0,0,0,null,0,1,0,brander-desktop,0,0
03:27:13,0,eth0static,,5213.0,,true,0,0,0,0,null,0,1,0,brander-desktop,0,0
03:27:15,0,eth0db,,4150.0,,true,0,0,0,0,null,0,1,0,brander-desktop,0,0
03:27:17,0,eth0front1,,3728.0,,true,0,0,0,0,null,0,1,0,brander-desktop,0,0
03:27:18,0,eth0front2,,2815.0,,true,0,0,0,0,null,0,1,0,brander-desktop,0,0
03:27:20,0,eth0front3,,2160.0,,true,0,0,0,0,null,0,1,0,brander-desktop,0,0
03:27:22,0,eth0front4,,2547.0,,true,0,0,0,0,null,0,1,0,brander-desktop,0,0
03:27:24,0,eth0static,,7270.0,,true,0,0,0,0,null,0,1,0,brander-desktop,0,0
03:27:26,0,eth0db,,7983.0,,true,0,0,0,0,null,0,1,0,brander-desktop,0,0
03:27:27,0,eth0front1,,4060.0,,true,0,0,0,0,null,0,1,0,brander-desktop,0,0
03:27:29,0,eth0front2,,1952.0,,true,0,0,0,0,null,0,1,0,brander-desktop,0,0
03:27:31,0,eth0front3,,831.0,,true,0,0,0,0,null,0,1,0,brander-desktop,0,0
03:27:33,0,eth0front4,,2596.0,,true,0,0,0,0,null,0,1,0,brander-desktop,0,0
03:27:35,0,eth0static,,6510.0,,true,0,0,0,0,null,0,1,0,brander-desktop,0,0
03:27:37,0,eth0db,,5487.0,,true,0,0,0,0,null,0,1,0,brander-desktop,0,0
03:27:39,0,eth0front1,,1122.0,,true,0,0,0,0,null,0,1,0,brander-desktop,0,0
03:27:41,0,eth0front2,,2400.0,,true,0,0,0,0,null,0,1,0,brander-desktop,0,0
03:27:43,0,eth0front3,,1457.0,,true,0,0,0,0,null,0,1,0,brander-desktop,0,0
03:27:45,0,eth0front4,,3342.0,,true,0,0,0,0,null,0,1,0,brander-desktop,0,0
03:27:46,0,eth0static,,5715.0,,true,0,0,0,0,null,0,1,0,brander-desktop,0,0
03:27:48,0,eth0db,,2704.0,,true,0,0,0,0,null,0,1,0,brander-desktop,0,0
03:27:50,0,eth0front1,,2071.0,,true,0,0,0,0,null,0,1,0,brander-desktop,0,0
03:27:52,0,eth0front2,,4314.0,,true,0,0,0,0,null,0,1,0,brander-desktop,0,0
03:27:53,0,eth0front3,,2652.0,,true,0,0,0,0,null,0,1,0,brander-desktop,0,0
03:27:55,0,eth0front4,,3115.0,,true,0,0,0,0,null,0,1,0,brander-desktop,0,0
03:27:57,0,eth0static,,8658.0,,true,0,0,0,0,null,0,1,0,brander-desktop,0,0
03:27:59,0,eth0db,,5495.0,,true,0,0,0,0,null,0,1,0,brander-desktop,0,0
03:28:01,0,eth0front1,,2745.0,,true,0,0,0,0,null,0,1,0,brander-desktop,0,0
03:28:03,0,eth0front2,,3077.0,,true,0,0,0,0,null,0,1,0,brander-desktop,0,0
03:28:05,0,eth0front3,,2014.0,,true,0,0,0,0,null,0,1,0,brander-desktop,0,0
03:28:08,0,eth0front4,,2699.0,,true,0,0,0,0,null,0,1,0,brander-desktop,0,0
03:28:09,0,eth0static,,6199.0,,true,0,0,0,0,null,0,1,0,brander-desktop,0,0
03:28:12,0,eth0db,,5530.0,,true,0,0,0,0,null,0,1,0,brander-desktop,0,0
03:28:14,0,eth0front1,,3364.0,,true,0,0,0,0,null,0,1,0,brander-desktop,0,0
03:28:15,0,eth0front2,,5394.0,,true,0,0,0,0,null,0,1,0,brander-desktop,0,0
03:28:17,0,eth0front3,,2585.0,,true,0,0,0,0,null,0,1,0,brander-desktop,0,0
03:28:19,0,eth0front4,,3824.0,,true,0,0,0,0,null,0,1,0,brander-desktop,0,0
03:28:20,0,eth0static,,6657.0,,true,0,0,0,0,null,0,1,0,brander-desktop,0,0
03:28:23,0,eth0db,,4528.0,,true,0,0,0,0,null,0,1,0,brander-desktop,0,0
03:28:24,0,eth0front1,,2982.0,,true,0,0,0,0,null,0,1,0,brander-desktop,0,0
03:28:26,0,eth0front2,,2140.0,,true,0,0,0,0,null,0,1,0,brander-desktop,0,0
03:28:28,0,eth0front3,,2100.0,,true,0,0,0,0,null,0,1,0,brander-desktop,0,0
03:28:29,0,eth0front4,,2701.0,,true,0,0,0,0,null,0,1,0,brander-desktop,0,0
03:28:31,0,eth0static,,7512.0,,true,0,0,0,0,null,0,1,0,brander-desktop,0,0
03:28:32,0,eth0db,,5318.0,,true,0,0,0,0,null,0,1,0,brander-desktop,0,0
03:28:34,0,eth0front1,,3168.0,,true,0,0,0,0,null,0,1,0,brander-desktop,0,0
03:28:35,0,eth0front2,,3260.0,,true,0,0,0,0,null,0,1,0,brander-desktop,0,0
03:28:37,0,eth0front3,,2099.0,,true,0,0,0,0,null,0,1,0,brander-desktop,0,0
03:28:38,0,eth0front4,,3620.0,,true,0,0,0,0,null,0,1,0,brander-desktop,0,0
03:28:40,0,eth0static,,6915.0,,true,0,0,0,0,null,0,1,0,brander-desktop,0,0
03:28:41,0,eth0db,,4648.0,,true,0,0,0,0,null,0,1,0,brander-desktop,0,0
03:28:43,0,eth0front1,,2718.0,,true,0,0,0,0,null,0,1,0,brander-desktop,0,0
03:28:45,0,eth0front2,,2410.0,,true,0,0,0,0,null,0,1,0,brander-desktop,0,0
03:28:46,0,eth0front3,,1864.0,,true,0,0,0,0,null,0,1,0,brander-desktop,0,0
03:28:48,0,eth0front4,,3266.0,,true,0,0,0,0,null,0,1,0,brander-desktop,0,0
03:28:49,0,eth0static,,6998.0,,true,0,0,0,0,null,0,1,0,brander-desktop,0,0
03:28:51,0,eth0db,,5479.0,,true,0,0,0,0,null,0,1,0,brander-desktop,0,0
03:28:52,0,eth0front1,,4274.0,,true,0,0,0,0,null,0,1,0,brander-desktop,0,0
03:28:54,0,eth0front2,,3779.0,,true,0,0,0,0,null,0,1,0,brander-desktop,0,0
03:28:55,0,eth0front3,,2380.0,,true,0,0,0,0,null,0,1,0,brander-desktop,0,0
03:28:57,0,eth0front4,,3495.0,,true,0,0,0,0,null,0,1,0,brander-desktop,0,0
03:28:59,0,eth0static,,6674.0,,true,0,0,0,0,null,0,1,0,brander-desktop,0,0
03:29:00,0,eth0db,,5631.0,,true,0,0,0,0,null,0,1,0,brander-desktop,0,0
03:29:02,0,eth0front1,,3371.0,,true,0,0,0,0,null,0,1,0,brander-desktop,0,0
03:29:03,0,eth0front2,,2966.0,,true,0,0,0,0,null,0,1,0,brander-desktop,0,0
03:29:05,0,eth0front3,,2930.0,,true,0,0,0,0,null,0,1,0,brander-desktop,0,0
03:29:06,0,eth0front4,,1878.0,,true,0,0,0,0,null,0,1,0,brander-desktop,0,0
03:29:08,0,eth0static,,6823.0,,true,0,0,0,0,null,0,1,0,brander-desktop,0,0
03:29:09,0,eth0db,,5344.0,,true,0,0,0,0,null,0,1,0,brander-desktop,0,0
03:29:10,0,eth0front1,,4500.0,,true,0,0,0,0,null,0,1,0,brander-desktop,0,0
03:29:12,0,eth0front2,,3607.0,,true,0,0,0,0,null,0,1,0,brander-desktop,0,0
03:29:13,0,eth0front3,,1441.0,,true,0,0,0,0,null,0,1,0,brander-desktop,0,0
03:29:15,0,eth0front4,,2856.0,,true,0,0,0,0,null,0,1,0,brander-desktop,0,0
03:29:16,0,eth0static,,6652.0,,true,0,0,0,0,null,0,1,0,brander-desktop,0,0
03:29:17,0,eth0db,,5467.0,,true,0,0,0,0,null,0,1,0,brander-desktop,0,0
03:29:19,0,eth0front1,,3673.0,,true,0,0,0,0,null,0,1,0,brander-desktop,0,0
03:29:20,0,eth0front2,,2025.0,,true,0,0,0,0,null,0,1,0,brander-desktop,0,0
03:29:21,0,eth0front3,,1411.0,,true,0,0,0,0,null,0,1,0,brander-desktop,0,0
03:29:22,0,eth0front4,,2749.0,,true,0,0,0,0,null,0,1,0,brander-desktop,0,0
03:29:23,0,eth0static,,7301.0,,true,0,0,0,0,null,0,1,0,brander-desktop,0,0
03:29:24,0,eth0db,,6232.0,,true,0,0,0,0,null,0,1,0,brander-desktop,0,0
03:29:26,0,eth0front1,,3644.0,,true,0,0,0,0,null,0,1,0,brander-desktop,0,0
03:29:27,0,eth0front2,,2779.0,,true,0,0,0,0,null,0,1,0,brander-desktop,0,0
03:29:28,0,eth0front3,,1895.0,,true,0,0,0,0,null,0,1,0,brander-desktop,0,0
03:29:29,0,eth0front4,,3103.0,,true,0,0,0,0,null,0,1,0,brander-desktop,0,0
03:29:30,0,eth0static,,6597.0,,true,0,0,0,0,null,0,1,0,brander-desktop,0,0
03:29:31,0,eth0db,,5384.0,,true,0,0,0,0,null,0,1,0,brander-desktop,0,0
03:29:32,0,eth0front1,,3479.0,,true,0,0,0,0,null,0,1,0,brander-desktop,0,0
03:29:34,0,eth0front2,,3125.0,,true,0,0,0,0,null,0,1,0,brander-desktop,0,0
03:29:35,0,eth0front3,,2903.0,,true,0,0,0,0,null,0,1,0,brander-desktop,0,0
03:29:36,0,eth0front4,,4848.0,,true,0,0,0,0,null,0,1,0,brander-desktop,0,0
03:29:37,0,eth0static,,7110.0,,true,0,0,0,0,null,0,1,0,brander-desktop,0,0
03:29:38,0,eth0db,,6032.0,,true,0,0,0,0,null,0,1,0,brander-desktop,0,0
03:29:39,0,eth0front1,,4199.0,,true,0,0,0,0,null,0,1,0,brander-desktop,0,0
03:29:40,0,eth0front2,,3010.0,,true,0,0,0,0,null,0,1,0,brander-desktop,0,0
03:29:42,0,eth0front3,,2037.0,,true,0,0,0,0,null,0,1,0,brander-desktop,0,0
03:29:43,0,eth0front4,,4135.0,,true,0,0,0,0,null,0,1,0,brander-desktop,0,0
03:29:44,0,eth0static,,6615.0,,true,0,0,0,0,null,0,1,0,brander-desktop,0,0
03:29:45,0,eth0db,,5099.0,,true,0,0,0,0,null,0,1,0,brander-desktop,0,0
03:29:46,0,eth0front1,,2479.0,,true,0,0,0,0,null,0,1,0,brander-desktop,0,0
03:29:47,0,eth0front2,,4825.0,,true,0,0,0,0,null,0,1,0,brander-desktop,0,0
03:29:49,0,eth0front3,,1480.0,,true,0,0,0,0,null,0,1,0,brander-desktop,0,0
03:29:50,0,eth0front4,,3330.0,,true,0,0,0,0,null,0,1,0,brander-desktop,0,0
03:29:51,0,eth0static,,7551.0,,true,0,0,0,0,null,0,1,0,brander-desktop,0,0
03:29:52,0,eth0db,,5776.0,,true,0,0,0,0,null,0,1,0,brander-desktop,0,0
03:29:53,0,eth0front1,,1997.0,,true,0,0,0,0,null,0,1,0,brander-desktop,0,0
03:29:54,0,eth0front2,,3288.0,,true,0,0,0,0,null,0,1,0,brander-desktop,0,0
03:29:56,0,eth0front3,,2556.0,,true,0,0,0,0,null,0,1,0,brander-desktop,0,0
03:29:57,0,eth0front4,,3683.0,,true,0,0,0,0,null,0,1,0,brander-desktop,0,0
03:29:58,0,eth0static,,6632.0,,true,0,0,0,0,null,0,1,0,brander-desktop,0,0
03:29:59,0,eth0db,,6504.0,,true,0,0,0,0,null,0,1,0,brander-desktop,0,0
03:30:00,0,eth0front1,,3384.0,,true,0,0,0,0,null,0,1,0,brander-desktop,0,0
03:30:01,0,eth0front2,,2732.0,,true,0,0,0,0,null,0,1,0,brander-desktop,0,0
03:30:02,0,eth0front3,,2579.0,,true,0,0,0,0,null,0,1,0,brander-desktop,0,0
03:30:03,0,eth0front4,,2749.0,,true,0,0,0,0,null,0,1,0,brander-desktop,0,0
03:30:05,0,eth0static,,7796.0,,true,0,0,0,0,null,0,1,0,brander-desktop,0,0
03:30:06,0,eth0db,,5184.0,,true,0,0,0,0,null,0,1,0,brander-desktop,0,0
03:30:07,0,eth0front1,,4875.0,,true,0,0,0,0,null,0,1,0,brander-desktop,0,0
03:30:08,0,eth0front2,,3767.0,,true,0,0,0,0,null,0,1,0,brander-desktop,0,0
03:30:09,0,eth0front3,,2015.0,,true,0,0,0,0,null,0,1,0,brander-desktop,0,0
03:30:11,0,eth0front4,,2868.0,,true,0,0,0,0,null,0,1,0,brander-desktop,0,0
03:30:12,0,eth0static,,6719.0,,true,0,0,0,0,null,0,1,0,brander-desktop,0,0
03:30:13,0,eth0db,,5402.0,,true,0,0,0,0,null,0,1,0,brander-desktop,0,0
03:30:14,0,eth0front1,,2655.0,,true,0,0,0,0,null,0,1,0,brander-desktop,0,0
03:30:15,0,eth0front2,,3124.0,,true,0,0,0,0,null,0,1,0,brander-desktop,0,0
03:30:17,0,eth0front3,,2431.0,,true,0,0,0,0,null,0,1,0,brander-desktop,0,0
03:30:18,0,eth0front4,,4097.0,,true,0,0,0,0,null,0,1,0,brander-desktop,0,0
03:30:19,0,eth0static,,8110.0,,true,0,0,0,0,null,0,1,0,brander-desktop,0,0
03:30:20,0,eth0db,,7288.0,,true,0,0,0,0,null,0,1,0,brander-desktop,0,0
03:30:22,0,eth0front1,,3303.0,,true,0,0,0,0,null,0,1,0,brander-desktop,0,0
03:30:23,0,eth0front2,,2232.0,,true,0,0,0,0,null,0,1,0,brander-desktop,0,0
03:30:24,0,eth0front3,,1794.0,,true,0,0,0,0,null,0,1,0,brander-desktop,0,0
03:30:26,0,eth0front4,,3464.0,,true,0,0,0,0,null,0,1,0,brander-desktop,0,0
03:30:27,0,eth0static,,8003.0,,true,0,0,0,0,null,0,1,0,brander-desktop,0,0
03:30:28,0,eth0db,,5425.0,,true,0,0,0,0,null,0,1,0,brander-desktop,0,0
03:30:30,0,eth0front1,,4530.0,,true,0,0,0,0,null,0,1,0,brander-desktop,0,0
03:30:31,0,eth0front2,,1595.0,,true,0,0,0,0,null,0,1,0,brander-desktop,0,0
03:30:32,0,eth0front3,,1811.0,,true,0,0,0,0,null,0,1,0,brander-desktop,0,0
03:30:33,0,eth0front4,,3855.0,,true,0,0,0,0,null,0,1,0,brander-desktop,0,0
03:30:34,0,eth0static,,7569.0,,true,0,0,0,0,null,0,1,0,brander-desktop,0,0
03:30:36,0,eth0db,,4503.0,,true,0,0,0,0,null,0,1,0,brander-desktop,0,0
03:30:37,0,eth0front1,,1530.0,,true,0,0,0,0,null,0,1,0,brander-desktop,0,0
