timeStamp,elapsed,label,responseCode,responseMessage,threadName,success,bytes,sentBytes,grpThreads,allThreads,URL,Latency,SampleCount,ErrorCount,Hostname,IdleTime,Connect
03:13:45,0,eth0static,,752.0,,true,0,0,0,0,null,0,1,0,brander-desktop,0,0
03:13:46,0,eth0db,,1033.0,,true,0,0,0,0,null,0,1,0,brander-desktop,0,0
03:13:48,0,eth0front1,,1136.0,,true,0,0,0,0,null,0,1,0,brander-desktop,0,0
03:13:49,0,eth0front2,,1899.0,,true,0,0,0,0,null,0,1,0,brander-desktop,0,0
03:13:51,0,eth0front3,,2081.0,,true,0,0,0,0,null,0,1,0,brander-desktop,0,0
03:13:53,0,eth0front4,,1171.0,,true,0,0,0,0,null,0,1,0,brander-desktop,0,0
03:13:54,0,eth0cache,,405.0,,true,0,0,0,0,null,0,1,0,brander-desktop,0,0
03:13:56,0,eth0static,,186.0,,true,0,0,0,0,null,0,1,0,brander-desktop,0,0
03:13:57,0,eth0db,,44.0,,true,0,0,0,0,null,0,1,0,brander-desktop,0,0
03:13:58,0,eth0front1,,770.0,,true,0,0,0,0,null,0,1,0,brander-desktop,0,0
03:13:59,0,eth0front2,,2039.0,,true,0,0,0,0,null,0,1,0,brander-desktop,0,0
03:14:00,0,eth0front3,,835.0,,true,0,0,0,0,null,0,1,0,brander-desktop,0,0
03:14:01,0,eth0front4,,729.0,,true,0,0,0,0,null,0,1,0,brander-desktop,0,0
03:14:02,0,eth0cache,,379.0,,true,0,0,0,0,null,0,1,0,brander-desktop,0,0
03:14:03,0,eth0static,,1528.0,,true,0,0,0,0,null,0,1,0,brander-desktop,0,0
03:14:04,0,eth0db,,147.0,,true,0,0,0,0,null,0,1,0,brander-desktop,0,0
03:14:05,0,eth0front1,,13.0,,true,0,0,0,0,null,0,1,0,brander-desktop,0,0
03:14:06,0,eth0front2,,2143.0,,true,0,0,0,0,null,0,1,0,brander-desktop,0,0
03:14:08,0,eth0front3,,380.0,,true,0,0,0,0,null,0,1,0,brander-desktop,0,0
03:14:09,0,eth0front4,,2186.0,,true,0,0,0,0,null,0,1,0,brander-desktop,0,0
03:14:10,0,eth0cache,,1318.0,,true,0,0,0,0,null,0,1,0,brander-desktop,0,0
03:14:11,0,eth0static,,967.0,,true,0,0,0,0,null,0,1,0,brander-desktop,0,0
03:14:12,0,eth0db,,313.0,,true,0,0,0,0,null,0,1,0,brander-desktop,0,0
03:14:13,0,eth0front1,,2793.0,,true,0,0,0,0,null,0,1,0,brander-desktop,0,0
03:14:14,0,eth0front2,,271.0,,true,0,0,0,0,null,0,1,0,brander-desktop,0,0
03:14:15,0,eth0front3,,813.0,,true,0,0,0,0,null,0,1,0,brander-desktop,0,0
03:14:16,0,eth0front4,,336.0,,true,0,0,0,0,null,0,1,0,brander-desktop,0,0
03:14:17,0,eth0cache,,321.0,,true,0,0,0,0,null,0,1,0,brander-desktop,0,0
03:14:18,0,eth0static,,412.0,,true,0,0,0,0,null,0,1,0,brander-desktop,0,0
03:14:19,0,eth0db,,75.0,,true,0,0,0,0,null,0,1,0,brander-desktop,0,0
03:14:21,0,eth0front1,,674.0,,true,0,0,0,0,null,0,1,0,brander-desktop,0,0
03:14:22,0,eth0front2,,1235.0,,true,0,0,0,0,null,0,1,0,brander-desktop,0,0
03:14:23,0,eth0front3,,14.0,,true,0,0,0,0,null,0,1,0,brander-desktop,0,0
03:14:24,0,eth0front4,,267.0,,true,0,0,0,0,null,0,1,0,brander-desktop,0,0
03:14:25,0,eth0cache,,1029.0,,true,0,0,0,0,null,0,1,0,brander-desktop,0,0
03:14:26,0,eth0static,,943.0,,true,0,0,0,0,null,0,1,0,brander-desktop,0,0
03:14:27,0,eth0db,,604.0,,true,0,0,0,0,null,0,1,0,brander-desktop,0,0
03:14:28,0,eth0front1,,16.0,,true,0,0,0,0,null,0,1,0,brander-desktop,0,0
03:14:29,0,eth0front2,,673.0,,true,0,0,0,0,null,0,1,0,brander-desktop,0,0
03:14:30,0,eth0front3,,1719.0,,true,0,0,0,0,null,0,1,0,brander-desktop,0,0
03:14:31,0,eth0front4,,13.0,,true,0,0,0,0,null,0,1,0,brander-desktop,0,0
03:14:32,0,eth0cache,,650.0,,true,0,0,0,0,null,0,1,0,brander-desktop,0,0
03:14:34,0,eth0static,,588.0,,true,0,0,0,0,null,0,1,0,brander-desktop,0,0
03:14:35,0,eth0db,,112.0,,true,0,0,0,0,null,0,1,0,brander-desktop,0,0
03:14:36,0,eth0front1,,919.0,,true,0,0,0,0,null,0,1,0,brander-desktop,0,0
03:14:37,0,eth0front2,,959.0,,true,0,0,0,0,null,0,1,0,brander-desktop,0,0
03:14:38,0,eth0front3,,878.0,,true,0,0,0,0,null,0,1,0,brander-desktop,0,0
03:14:39,0,eth0front4,,327.0,,true,0,0,0,0,null,0,1,0,brander-desktop,0,0
03:14:40,0,eth0cache,,936.0,,true,0,0,0,0,null,0,1,0,brander-desktop,0,0
03:14:41,0,eth0static,,932.0,,true,0,0,0,0,null,0,1,0,brander-desktop,0,0
03:14:42,0,eth0db,,775.0,,true,0,0,0,0,null,0,1,0,brander-desktop,0,0
03:14:43,0,eth0front1,,355.0,,true,0,0,0,0,null,0,1,0,brander-desktop,0,0
03:14:44,0,eth0front2,,758.0,,true,0,0,0,0,null,0,1,0,brander-desktop,0,0
03:14:45,0,eth0front3,,488.0,,true,0,0,0,0,null,0,1,0,brander-desktop,0,0
03:14:47,0,eth0front4,,729.0,,true,0,0,0,0,null,0,1,0,brander-desktop,0,0
03:14:48,0,eth0cache,,949.0,,true,0,0,0,0,null,0,1,0,brander-desktop,0,0
03:14:49,0,eth0static,,1987.0,,true,0,0,0,0,null,0,1,0,brander-desktop,0,0
03:14:50,0,eth0db,,479.0,,true,0,0,0,0,null,0,1,0,brander-desktop,0,0
03:14:51,0,eth0front1,,923.0,,true,0,0,0,0,null,0,1,0,brander-desktop,0,0
03:14:52,0,eth0front2,,1436.0,,true,0,0,0,0,null,0,1,0,brander-desktop,0,0
03:14:53,0,eth0front3,,268.0,,true,0,0,0,0,null,0,1,0,brander-desktop,0,0
03:14:54,0,eth0front4,,1546.0,,true,0,0,0,0,null,0,1,0,brander-desktop,0,0
03:14:55,0,eth0cache,,1175.0,,true,0,0,0,0,null,0,1,0,brander-desktop,0,0
03:14:56,0,eth0static,,2375.0,,true,0,0,0,0,null,0,1,0,brander-desktop,0,0
03:14:57,0,eth0db,,1810.0,,true,0,0,0,0,null,0,1,0,brander-desktop,0,0
03:14:59,0,eth0front1,,662.0,,true,0,0,0,0,null,0,1,0,brander-desktop,0,0
03:15:00,0,eth0front2,,1029.0,,true,0,0,0,0,null,0,1,0,brander-desktop,0,0
03:15:01,0,eth0front3,,1667.0,,true,0,0,0,0,null,0,1,0,brander-desktop,0,0
03:15:02,0,eth0front4,,601.0,,true,0,0,0,0,null,0,1,0,brander-desktop,0,0
03:15:03,0,eth0cache,,956.0,,true,0,0,0,0,null,0,1,0,brander-desktop,0,0
03:15:04,0,eth0static,,2990.0,,true,0,0,0,0,null,0,1,0,brander-desktop,0,0
03:15:05,0,eth0db,,1362.0,,true,0,0,0,0,null,0,1,0,brander-desktop,0,0
03:15:06,0,eth0front1,,425.0,,true,0,0,0,0,null,0,1,0,brander-desktop,0,0
03:15:07,0,eth0front2,,730.0,,true,0,0,0,0,null,0,1,0,brander-desktop,0,0
03:15:08,0,eth0front3,,29.0,,true,0,0,0,0,null,0,1,0,brander-desktop,0,0
03:15:10,0,eth0front4,,759.0,,true,0,0,0,0,null,0,1,0,brander-desktop,0,0
03:15:11,0,eth0cache,,521.0,,true,0,0,0,0,null,0,1,0,brander-desktop,0,0
03:15:12,0,eth0static,,1788.0,,true,0,0,0,0,null,0,1,0,brander-desktop,0,0
03:15:13,0,eth0db,,592.0,,true,0,0,0,0,null,0,1,0,brander-desktop,0,0
03:15:14,0,eth0front1,,299.0,,true,0,0,0,0,null,0,1,0,brander-desktop,0,0
03:15:15,0,eth0front2,,341.0,,true,0,0,0,0,null,0,1,0,brander-desktop,0,0
03:15:16,0,eth0front3,,569.0,,true,0,0,0,0,null,0,1,0,brander-desktop,0,0
03:15:17,0,eth0front4,,303.0,,true,0,0,0,0,null,0,1,0,brander-desktop,0,0
03:15:18,0,eth0cache,,615.0,,true,0,0,0,0,null,0,1,0,brander-desktop,0,0
03:15:19,0,eth0static,,1827.0,,true,0,0,0,0,null,0,1,0,brander-desktop,0,0
03:15:20,0,eth0db,,565.0,,true,0,0,0,0,null,0,1,0,brander-desktop,0,0
03:15:21,0,eth0front1,,747.0,,true,0,0,0,0,null,0,1,0,brander-desktop,0,0
03:15:23,0,eth0front2,,173.0,,true,0,0,0,0,null,0,1,0,brander-desktop,0,0
03:15:24,0,eth0front3,,635.0,,true,0,0,0,0,null,0,1,0,brander-desktop,0,0
03:15:25,0,eth0front4,,568.0,,true,0,0,0,0,null,0,1,0,brander-desktop,0,0
03:15:26,0,eth0cache,,773.0,,true,0,0,0,0,null,0,1,0,brander-desktop,0,0
03:15:27,0,eth0static,,1828.0,,true,0,0,0,0,null,0,1,0,brander-desktop,0,0
03:15:28,0,eth0db,,792.0,,true,0,0,0,0,null,0,1,0,brander-desktop,0,0
03:15:29,0,eth0front1,,373.0,,true,0,0,0,0,null,0,1,0,brander-desktop,0,0
03:15:30,0,eth0front2,,1297.0,,true,0,0,0,0,null,0,1,0,brander-desktop,0,0
03:15:31,0,eth0front3,,781.0,,true,0,0,0,0,null,0,1,0,brander-desktop,0,0
03:15:32,0,eth0front4,,534.0,,true,0,0,0,0,null,0,1,0,brander-desktop,0,0
03:15:33,0,eth0cache,,890.0,,true,0,0,0,0,null,0,1,0,brander-desktop,0,0
03:15:35,0,eth0static,,2546.0,,true,0,0,0,0,null,0,1,0,brander-desktop,0,0
03:15:36,0,eth0db,,819.0,,true,0,0,0,0,null,0,1,0,brander-desktop,0,0
03:15:37,0,eth0front1,,489.0,,true,0,0,0,0,null,0,1,0,brander-desktop,0,0
03:15:38,0,eth0front2,,456.0,,true,0,0,0,0,null,0,1,0,brander-desktop,0,0
03:15:39,0,eth0front3,,108.0,,true,0,0,0,0,null,0,1,0,brander-desktop,0,0
03:15:40,0,eth0front4,,732.0,,true,0,0,0,0,null,0,1,0,brander-desktop,0,0
03:15:41,0,eth0cache,,824.0,,true,0,0,0,0,null,0,1,0,brander-desktop,0,0
03:15:42,0,eth0static,,1934.0,,true,0,0,0,0,null,0,1,0,brander-desktop,0,0
03:15:43,0,eth0db,,705.0,,true,0,0,0,0,null,0,1,0,brander-desktop,0,0
03:15:44,0,eth0front1,,891.0,,true,0,0,0,0,null,0,1,0,brander-desktop,0,0
03:15:45,0,eth0front2,,1055.0,,true,0,0,0,0,null,0,1,0,brander-desktop,0,0
03:15:47,0,eth0front3,,736.0,,true,0,0,0,0,null,0,1,0,brander-desktop,0,0
03:15:48,0,eth0front4,,956.0,,true,0,0,0,0,null,0,1,0,brander-desktop,0,0
03:15:49,0,eth0cache,,1498.0,,true,0,0,0,0,null,0,1,0,brander-desktop,0,0
03:15:50,0,eth0static,,2889.0,,true,0,0,0,0,null,0,1,0,brander-desktop,0,0
03:15:51,0,eth0db,,1360.0,,true,0,0,0,0,null,0,1,0,brander-desktop,0,0
03:15:52,0,eth0front1,,1525.0,,true,0,0,0,0,null,0,1,0,brander-desktop,0,0
03:15:53,0,eth0front2,,867.0,,true,0,0,0,0,null,0,1,0,brander-desktop,0,0
03:15:54,0,eth0front3,,525.0,,true,0,0,0,0,null,0,1,0,brander-desktop,0,0
03:15:55,0,eth0front4,,1137.0,,true,0,0,0,0,null,0,1,0,brander-desktop,0,0
03:15:56,0,eth0cache,,1434.0,,true,0,0,0,0,null,0,1,0,brander-desktop,0,0
03:15:57,0,eth0static,,3269.0,,true,0,0,0,0,null,0,1,0,brander-desktop,0,0
03:15:59,0,eth0db,,583.0,,true,0,0,0,0,null,0,1,0,brander-desktop,0,0
03:16:00,0,eth0front1,,1105.0,,true,0,0,0,0,null,0,1,0,brander-desktop,0,0
03:16:01,0,eth0front2,,1065.0,,true,0,0,0,0,null,0,1,0,brander-desktop,0,0
03:16:02,0,eth0front3,,670.0,,true,0,0,0,0,null,0,1,0,brander-desktop,0,0
03:16:03,0,eth0front4,,506.0,,true,0,0,0,0,null,0,1,0,brander-desktop,0,0
03:16:04,0,eth0cache,,1077.0,,true,0,0,0,0,null,0,1,0,brander-desktop,0,0
03:16:05,0,eth0static,,2715.0,,true,0,0,0,0,null,0,1,0,brander-desktop,0,0
03:16:06,0,eth0db,,1359.0,,true,0,0,0,0,null,0,1,0,brander-desktop,0,0
03:16:07,0,eth0front1,,1237.0,,true,0,0,0,0,null,0,1,0,brander-desktop,0,0
03:16:08,0,eth0front2,,531.0,,true,0,0,0,0,null,0,1,0,brander-desktop,0,0
03:16:09,0,eth0front3,,313.0,,true,0,0,0,0,null,0,1,0,brander-desktop,0,0
03:16:11,0,eth0front4,,1259.0,,true,0,0,0,0,null,0,1,0,brander-desktop,0,0
03:16:12,0,eth0cache,,966.0,,true,0,0,0,0,null,0,1,0,brander-desktop,0,0
03:16:13,0,eth0static,,2532.0,,true,0,0,0,0,null,0,1,0,brander-desktop,0,0
03:16:14,0,eth0db,,807.0,,true,0,0,0,0,null,0,1,0,brander-desktop,0,0
03:16:15,0,eth0front1,,1398.0,,true,0,0,0,0,null,0,1,0,brander-desktop,0,0
03:16:16,0,eth0front2,,580.0,,true,0,0,0,0,null,0,1,0,brander-desktop,0,0
03:16:17,0,eth0front3,,664.0,,true,0,0,0,0,null,0,1,0,brander-desktop,0,0
03:16:18,0,eth0front4,,958.0,,true,0,0,0,0,null,0,1,0,brander-desktop,0,0
03:16:19,0,eth0cache,,1464.0,,true,0,0,0,0,null,0,1,0,brander-desktop,0,0
03:16:20,0,eth0static,,3076.0,,true,0,0,0,0,null,0,1,0,brander-desktop,0,0
03:16:22,0,eth0db,,1396.0,,true,0,0,0,0,null,0,1,0,brander-desktop,0,0
03:16:23,0,eth0front1,,1192.0,,true,0,0,0,0,null,0,1,0,brander-desktop,0,0
03:16:24,0,eth0front2,,512.0,,true,0,0,0,0,null,0,1,0,brander-desktop,0,0
03:16:25,0,eth0front3,,379.0,,true,0,0,0,0,null,0,1,0,brander-desktop,0,0
03:16:26,0,eth0front4,,565.0,,true,0,0,0,0,null,0,1,0,brander-desktop,0,0
03:16:27,0,eth0cache,,963.0,,true,0,0,0,0,null,0,1,0,brander-desktop,0,0
03:16:28,0,eth0static,,2353.0,,true,0,0,0,0,null,0,1,0,brander-desktop,0,0
03:16:29,0,eth0db,,731.0,,true,0,0,0,0,null,0,1,0,brander-desktop,0,0
03:16:30,0,eth0front1,,1119.0,,true,0,0,0,0,null,0,1,0,brander-desktop,0,0
03:16:31,0,eth0front2,,1264.0,,true,0,0,0,0,null,0,1,0,brander-desktop,0,0
03:16:32,0,eth0front3,,629.0,,true,0,0,0,0,null,0,1,0,brander-desktop,0,0
03:16:33,0,eth0front4,,760.0,,true,0,0,0,0,null,0,1,0,brander-desktop,0,0
03:16:35,0,eth0cache,,1530.0,,true,0,0,0,0,null,0,1,0,brander-desktop,0,0
03:16:36,0,eth0static,,4427.0,,true,0,0,0,0,null,0,1,0,brander-desktop,0,0
03:16:37,0,eth0db,,1118.0,,true,0,0,0,0,null,0,1,0,brander-desktop,0,0
03:16:38,0,eth0front1,,777.0,,true,0,0,0,0,null,0,1,0,brander-desktop,0,0
03:16:39,0,eth0front2,,1095.0,,true,0,0,0,0,null,0,1,0,brander-desktop,0,0
03:16:40,0,eth0front3,,608.0,,true,0,0,0,0,null,0,1,0,brander-desktop,0,0
03:16:41,0,eth0front4,,714.0,,true,0,0,0,0,null,0,1,0,brander-desktop,0,0
03:16:42,0,eth0cache,,1291.0,,true,0,0,0,0,null,0,1,0,brander-desktop,0,0
03:16:43,0,eth0static,,2385.0,,true,0,0,0,0,null,0,1,0,brander-desktop,0,0
03:16:44,0,eth0db,,1130.0,,true,0,0,0,0,null,0,1,0,brander-desktop,0,0
03:16:45,0,eth0front1,,1874.0,,true,0,0,0,0,null,0,1,0,brander-desktop,0,0
03:16:47,0,eth0front2,,964.0,,true,0,0,0,0,null,0,1,0,brander-desktop,0,0
03:16:48,0,eth0front3,,513.0,,true,0,0,0,0,null,0,1,0,brander-desktop,0,0
03:16:49,0,eth0front4,,1044.0,,true,0,0,0,0,null,0,1,0,brander-desktop,0,0
03:16:50,0,eth0cache,,1675.0,,true,0,0,0,0,null,0,1,0,brander-desktop,0,0
03:16:51,0,eth0static,,3747.0,,true,0,0,0,0,null,0,1,0,brander-desktop,0,0
03:16:52,0,eth0db,,1928.0,,true,0,0,0,0,null,0,1,0,brander-desktop,0,0
03:16:53,0,eth0front1,,2981.0,,true,0,0,0,0,null,0,1,0,brander-desktop,0,0
03:16:54,0,eth0front2,,1960.0,,true,0,0,0,0,null,0,1,0,brander-desktop,0,0
03:16:55,0,eth0front3,,1268.0,,true,0,0,0,0,null,0,1,0,brander-desktop,0,0
03:16:56,0,eth0front4,,734.0,,true,0,0,0,0,null,0,1,0,brander-desktop,0,0
03:16:57,0,eth0cache,,1735.0,,true,0,0,0,0,null,0,1,0,brander-desktop,0,0
03:16:59,0,eth0static,,3288.0,,true,0,0,0,0,null,0,1,0,brander-desktop,0,0
03:17:00,0,eth0db,,1241.0,,true,0,0,0,0,null,0,1,0,brander-desktop,0,0
03:17:01,0,eth0front1,,1381.0,,true,0,0,0,0,null,0,1,0,brander-desktop,0,0
03:17:02,0,eth0front2,,1153.0,,true,0,0,0,0,null,0,1,0,brander-desktop,0,0
03:17:03,0,eth0front3,,726.0,,true,0,0,0,0,null,0,1,0,brander-desktop,0,0
03:17:04,0,eth0front4,,1286.0,,true,0,0,0,0,null,0,1,0,brander-desktop,0,0
03:17:05,0,eth0cache,,2657.0,,true,0,0,0,0,null,0,1,0,brander-desktop,0,0
03:17:06,0,eth0static,,4791.0,,true,0,0,0,0,null,0,1,0,brander-desktop,0,0
03:17:07,0,eth0db,,1269.0,,true,0,0,0,0,null,0,1,0,brander-desktop,0,0
03:17:08,0,eth0front1,,506.0,,true,0,0,0,0,null,0,1,0,brander-desktop,0,0
03:17:10,0,eth0front2,,1858.0,,true,0,0,0,0,null,0,1,0,brander-desktop,0,0
03:17:11,0,eth0front3,,1538.0,,true,0,0,0,0,null,0,1,0,brander-desktop,0,0
03:17:12,0,eth0front4,,839.0,,true,0,0,0,0,null,0,1,0,brander-desktop,0,0
03:17:13,0,eth0cache,,1623.0,,true,0,0,0,0,null,0,1,0,brander-desktop,0,0
03:17:14,0,eth0static,,2943.0,,true,0,0,0,0,null,0,1,0,brander-desktop,0,0
03:17:15,0,eth0db,,1500.0,,true,0,0,0,0,null,0,1,0,brander-desktop,0,0
03:17:16,0,eth0front1,,1092.0,,true,0,0,0,0,null,0,1,0,brander-desktop,0,0
03:17:17,0,eth0front2,,661.0,,true,0,0,0,0,null,0,1,0,brander-desktop,0,0
03:17:18,0,eth0front3,,1126.0,,true,0,0,0,0,null,0,1,0,brander-desktop,0,0
03:17:19,0,eth0front4,,664.0,,true,0,0,0,0,null,0,1,0,brander-desktop,0,0
03:17:20,0,eth0cache,,1422.0,,true,0,0,0,0,null,0,1,0,brander-desktop,0,0
03:17:22,0,eth0static,,3009.0,,true,0,0,0,0,null,0,1,0,brander-desktop,0,0
03:17:23,0,eth0db,,1940.0,,true,0,0,0,0,null,0,1,0,brander-desktop,0,0
03:17:24,0,eth0front1,,1866.0,,true,0,0,0,0,null,0,1,0,brander-desktop,0,0
03:17:25,0,eth0front2,,974.0,,true,0,0,0,0,null,0,1,0,brander-desktop,0,0
03:17:26,0,eth0front3,,1138.0,,true,0,0,0,0,null,0,1,0,brander-desktop,0,0
03:17:27,0,eth0front4,,1448.0,,true,0,0,0,0,null,0,1,0,brander-desktop,0,0
03:17:28,0,eth0cache,,1713.0,,true,0,0,0,0,null,0,1,0,brander-desktop,0,0
03:17:29,0,eth0static,,4010.0,,true,0,0,0,0,null,0,1,0,brander-desktop,0,0
03:17:30,0,eth0db,,2021.0,,true,0,0,0,0,null,0,1,0,brander-desktop,0,0
03:17:31,0,eth0front1,,1519.0,,true,0,0,0,0,null,0,1,0,brander-desktop,0,0
03:17:33,0,eth0front2,,1209.0,,true,0,0,0,0,null,0,1,0,brander-desktop,0,0
03:17:34,0,eth0front3,,1230.0,,true,0,0,0,0,null,0,1,0,brander-desktop,0,0
03:17:35,0,eth0front4,,884.0,,true,0,0,0,0,null,0,1,0,brander-desktop,0,0
03:17:36,0,eth0cache,,1699.0,,true,0,0,0,0,null,0,1,0,brander-desktop,0,0
03:17:37,0,eth0static,,3157.0,,true,0,0,0,0,null,0,1,0,brander-desktop,0,0
03:17:38,0,eth0db,,1210.0,,true,0,0,0,0,null,0,1,0,brander-desktop,0,0
03:17:39,0,eth0front1,,1495.0,,true,0,0,0,0,null,0,1,0,brander-desktop,0,0
03:17:40,0,eth0front2,,1201.0,,true,0,0,0,0,null,0,1,0,brander-desktop,0,0
03:17:41,0,eth0front3,,812.0,,true,0,0,0,0,null,0,1,0,brander-desktop,0,0
03:17:42,0,eth0front4,,1122.0,,true,0,0,0,0,null,0,1,0,brander-desktop,0,0
03:17:43,0,eth0cache,,1719.0,,true,0,0,0,0,null,0,1,0,brander-desktop,0,0
03:17:45,0,eth0static,,4057.0,,true,0,0,0,0,null,0,1,0,brander-desktop,0,0
03:17:46,0,eth0db,,1882.0,,true,0,0,0,0,null,0,1,0,brander-desktop,0,0
03:17:47,0,eth0front1,,1128.0,,true,0,0,0,0,null,0,1,0,brander-desktop,0,0
03:17:48,0,eth0front2,,1365.0,,true,0,0,0,0,null,0,1,0,brander-desktop,0,0
03:17:49,0,eth0front3,,831.0,,true,0,0,0,0,null,0,1,0,brander-desktop,0,0
03:17:51,0,eth0front4,,996.0,,true,0,0,0,0,null,0,1,0,brander-desktop,0,0
03:17:52,0,eth0cache,,1981.0,,true,0,0,0,0,null,0,1,0,brander-desktop,0,0
03:17:53,0,eth0static,,4340.0,,true,0,0,0,0,null,0,1,0,brander-desktop,0,0
03:17:54,0,eth0db,,1964.0,,true,0,0,0,0,null,0,1,0,brander-desktop,0,0
03:17:55,0,eth0front1,,3422.0,,true,0,0,0,0,null,0,1,0,brander-desktop,0,0
03:17:56,0,eth0front2,,2171.0,,true,0,0,0,0,null,0,1,0,brander-desktop,0,0
03:17:57,0,eth0front3,,921.0,,true,0,0,0,0,null,0,1,0,brander-desktop,0,0
03:17:59,0,eth0front4,,1432.0,,true,0,0,0,0,null,0,1,0,brander-desktop,0,0
03:18:00,0,eth0cache,,2367.0,,true,0,0,0,0,null,0,1,0,brander-desktop,0,0
03:18:01,0,eth0static,,4795.0,,true,0,0,0,0,null,0,1,0,brander-desktop,0,0
03:18:02,0,eth0db,,1979.0,,true,0,0,0,0,null,0,1,0,brander-desktop,0,0
03:18:03,0,eth0front1,,1388.0,,true,0,0,0,0,null,0,1,0,brander-desktop,0,0
03:18:04,0,eth0front2,,1250.0,,true,0,0,0,0,null,0,1,0,brander-desktop,0,0
03:18:05,0,eth0front3,,645.0,,true,0,0,0,0,null,0,1,0,brander-desktop,0,0
03:18:06,0,eth0front4,,1962.0,,true,0,0,0,0,null,0,1,0,brander-desktop,0,0
03:18:07,0,eth0cache,,2147.0,,true,0,0,0,0,null,0,1,0,brander-desktop,0,0
03:18:08,0,eth0static,,5300.0,,true,0,0,0,0,null,0,1,0,brander-desktop,0,0
03:18:10,0,eth0db,,2108.0,,true,0,0,0,0,null,0,1,0,brander-desktop,0,0
03:18:11,0,eth0front1,,1740.0,,true,0,0,0,0,null,0,1,0,brander-desktop,0,0
03:18:12,0,eth0front2,,1263.0,,true,0,0,0,0,null,0,1,0,brander-desktop,0,0
03:18:13,0,eth0front3,,1442.0,,true,0,0,0,0,null,0,1,0,brander-desktop,0,0
03:18:14,0,eth0front4,,1072.0,,true,0,0,0,0,null,0,1,0,brander-desktop,0,0
03:18:15,0,eth0cache,,1662.0,,true,0,0,0,0,null,0,1,0,brander-desktop,0,0
03:18:16,0,eth0static,,4327.0,,true,0,0,0,0,null,0,1,0,brander-desktop,0,0
03:18:17,0,eth0db,,1684.0,,true,0,0,0,0,null,0,1,0,brander-desktop,0,0
03:18:18,0,eth0front1,,1914.0,,true,0,0,0,0,null,0,1,0,brander-desktop,0,0
03:18:19,0,eth0front2,,1635.0,,true,0,0,0,0,null,0,1,0,brander-desktop,0,0
03:18:21,0,eth0front3,,1464.0,,true,0,0,0,0,null,0,1,0,brander-desktop,0,0
03:18:22,0,eth0front4,,2025.0,,true,0,0,0,0,null,0,1,0,brander-desktop,0,0
03:18:23,0,eth0cache,,2227.0,,true,0,0,0,0,null,0,1,0,brander-desktop,0,0
03:18:24,0,eth0static,,5222.0,,true,0,0,0,0,null,0,1,0,brander-desktop,0,0
03:18:25,0,eth0db,,1726.0,,true,0,0,0,0,null,0,1,0,brander-desktop,0,0
03:18:26,0,eth0front1,,938.0,,true,0,0,0,0,null,0,1,0,brander-desktop,0,0
03:18:27,0,eth0front2,,1730.0,,true,0,0,0,0,null,0,1,0,brander-desktop,0,0
03:18:28,0,eth0front3,,670.0,,true,0,0,0,0,null,0,1,0,brander-desktop,0,0
03:18:29,0,eth0front4,,1483.17,,true,0,0,0,0,null,0,1,0,brander-desktop,0,0
03:18:30,0,eth0cache,,1897.0,,true,0,0,0,0,null,0,1,0,brander-desktop,0,0
03:18:32,0,eth0static,,4575.0,,true,0,0,0,0,null,0,1,0,brander-desktop,0,0
03:18:33,0,eth0db,,2347.0,,true,0,0,0,0,null,0,1,0,brander-desktop,0,0
03:18:34,0,eth0front1,,2165.0,,true,0,0,0,0,null,0,1,0,brander-desktop,0,0
03:18:35,0,eth0front2,,2984.0,,true,0,0,0,0,null,0,1,0,brander-desktop,0,0
03:18:36,0,eth0front3,,734.0,,true,0,0,0,0,null,0,1,0,brander-desktop,0,0
03:18:37,0,eth0front4,,2975.0,,true,0,0,0,0,null,0,1,0,brander-desktop,0,0
03:18:38,0,eth0cache,,1885.0,,true,0,0,0,0,null,0,1,0,brander-desktop,0,0
03:18:39,0,eth0static,,3447.0,,true,0,0,0,0,null,0,1,0,brander-desktop,0,0
03:18:40,0,eth0db,,2246.0,,true,0,0,0,0,null,0,1,0,brander-desktop,0,0
03:18:41,0,eth0front1,,2178.0,,true,0,0,0,0,null,0,1,0,brander-desktop,0,0
03:18:42,0,eth0front2,,1590.0,,true,0,0,0,0,null,0,1,0,brander-desktop,0,0
03:18:44,0,eth0front3,,1060.0,,true,0,0,0,0,null,0,1,0,brander-desktop,0,0
03:18:45,0,eth0front4,,1177.0,,true,0,0,0,0,null,0,1,0,brander-desktop,0,0
03:18:46,0,eth0cache,,2516.0,,true,0,0,0,0,null,0,1,0,brander-desktop,0,0
03:18:47,0,eth0static,,4303.0,,true,0,0,0,0,null,0,1,0,brander-desktop,0,0
03:18:48,0,eth0db,,2708.0,,true,0,0,0,0,null,0,1,0,brander-desktop,0,0
03:18:49,0,eth0front1,,1285.0,,true,0,0,0,0,null,0,1,0,brander-desktop,0,0
03:18:50,0,eth0front2,,1983.0,,true,0,0,0,0,null,0,1,0,brander-desktop,0,0
03:18:51,0,eth0front3,,1288.0,,true,0,0,0,0,null,0,1,0,brander-desktop,0,0
03:18:52,0,eth0front4,,2619.0,,true,0,0,0,0,null,0,1,0,brander-desktop,0,0
03:18:53,0,eth0cache,,3165.0,,true,0,0,0,0,null,0,1,0,brander-desktop,0,0
03:18:55,0,eth0static,,5753.0,,true,0,0,0,0,null,0,1,0,brander-desktop,0,0
03:18:56,0,eth0db,,3069.0,,true,0,0,0,0,null,0,1,0,brander-desktop,0,0
03:18:57,0,eth0front1,,2153.0,,true,0,0,0,0,null,0,1,0,brander-desktop,0,0
03:18:58,0,eth0front2,,3176.0,,true,0,0,0,0,null,0,1,0,brander-desktop,0,0
03:18:59,0,eth0front3,,1447.0,,true,0,0,0,0,null,0,1,0,brander-desktop,0,0
03:19:00,0,eth0front4,,1546.0,,true,0,0,0,0,null,0,1,0,brander-desktop,0,0
03:19:01,0,eth0cache,,2898.0,,true,0,0,0,0,null,0,1,0,brander-desktop,0,0
03:19:02,0,eth0static,,6287.0,,true,0,0,0,0,null,0,1,0,brander-desktop,0,0
03:19:03,0,eth0db,,3560.0,,true,0,0,0,0,null,0,1,0,brander-desktop,0,0
03:19:04,0,eth0front1,,3436.0,,true,0,0,0,0,null,0,1,0,brander-desktop,0,0
03:19:06,0,eth0front2,,1896.0,,true,0,0,0,0,null,0,1,0,brander-desktop,0,0
03:19:07,0,eth0front3,,1442.0,,true,0,0,0,0,null,0,1,0,brander-desktop,0,0
03:19:08,0,eth0front4,,1768.0,,true,0,0,0,0,null,0,1,0,brander-desktop,0,0
03:19:09,0,eth0cache,,2592.0,,true,0,0,0,0,null,0,1,0,brander-desktop,0,0
03:19:10,0,eth0static,,5400.0,,true,0,0,0,0,null,0,1,0,brander-desktop,0,0
03:19:11,0,eth0db,,3847.0,,true,0,0,0,0,null,0,1,0,brander-desktop,0,0
03:19:12,0,eth0front1,,1851.49,,true,0,0,0,0,null,0,1,0,brander-desktop,0,0
03:19:13,0,eth0front2,,3989.0,,true,0,0,0,0,null,0,1,0,brander-desktop,0,0
03:19:14,0,eth0front3,,1407.0,,true,0,0,0,0,null,0,1,0,brander-desktop,0,0
03:19:15,0,eth0front4,,2879.0,,true,0,0,0,0,null,0,1,0,brander-desktop,0,0
03:19:16,0,eth0cache,,2188.0,,true,0,0,0,0,null,0,1,0,brander-desktop,0,0
03:19:18,0,eth0static,,4803.0,,true,0,0,0,0,null,0,1,0,brander-desktop,0,0
03:19:19,0,eth0db,,4539.0,,true,0,0,0,0,null,0,1,0,brander-desktop,0,0
03:19:20,0,eth0front1,,2311.0,,true,0,0,0,0,null,0,1,0,brander-desktop,0,0
03:19:21,0,eth0front2,,2947.0,,true,0,0,0,0,null,0,1,0,brander-desktop,0,0
03:19:22,0,eth0front3,,1455.0,,true,0,0,0,0,null,0,1,0,brander-desktop,0,0
03:19:23,0,eth0front4,,2235.0,,true,0,0,0,0,null,0,1,0,brander-desktop,0,0
03:19:24,0,eth0cache,,2564.0,,true,0,0,0,0,null,0,1,0,brander-desktop,0,0
03:19:25,0,eth0static,,4509.0,,true,0,0,0,0,null,0,1,0,brander-desktop,0,0
03:19:26,0,eth0db,,3624.0,,true,0,0,0,0,null,0,1,0,brander-desktop,0,0
03:19:27,0,eth0front1,,1707.0,,true,0,0,0,0,null,0,1,0,brander-desktop,0,0
03:19:29,0,eth0front2,,2802.0,,true,0,0,0,0,null,0,1,0,brander-desktop,0,0
03:19:30,0,eth0front3,,1441.0,,true,0,0,0,0,null,0,1,0,brander-desktop,0,0
03:19:31,0,eth0front4,,2063.0,,true,0,0,0,0,null,0,1,0,brander-desktop,0,0
03:19:32,0,eth0cache,,2766.0,,true,0,0,0,0,null,0,1,0,brander-desktop,0,0
03:19:33,0,eth0static,,4634.0,,true,0,0,0,0,null,0,1,0,brander-desktop,0,0
03:19:34,0,eth0db,,5195.0,,true,0,0,0,0,null,0,1,0,brander-desktop,0,0
03:19:35,0,eth0front1,,2297.0,,true,0,0,0,0,null,0,1,0,brander-desktop,0,0
03:19:36,0,eth0front2,,1989.0,,true,0,0,0,0,null,0,1,0,brander-desktop,0,0
03:19:37,0,eth0front3,,1058.0,,true,0,0,0,0,null,0,1,0,brander-desktop,0,0
03:19:38,0,eth0front4,,2504.0,,true,0,0,0,0,null,0,1,0,brander-desktop,0,0
03:19:40,0,eth0cache,,2681.0,,true,0,0,0,0,null,0,1,0,brander-desktop,0,0
03:19:41,0,eth0static,,5384.0,,true,0,0,0,0,null,0,1,0,brander-desktop,0,0
03:19:42,0,eth0db,,4116.0,,true,0,0,0,0,null,0,1,0,brander-desktop,0,0
03:19:43,0,eth0front1,,2567.0,,true,0,0,0,0,null,0,1,0,brander-desktop,0,0
03:19:44,0,eth0front2,,3084.0,,true,0,0,0,0,null,0,1,0,brander-desktop,0,0
03:19:45,0,eth0front3,,1220.0,,true,0,0,0,0,null,0,1,0,brander-desktop,0,0
03:19:46,0,eth0front4,,2558.0,,true,0,0,0,0,null,0,1,0,brander-desktop,0,0
03:19:47,0,eth0cache,,2746.0,,true,0,0,0,0,null,0,1,0,brander-desktop,0,0
03:19:48,0,eth0static,,5537.0,,true,0,0,0,0,null,0,1,0,brander-desktop,0,0
03:19:49,0,eth0db,,4016.0,,true,0,0,0,0,null,0,1,0,brander-desktop,0,0
03:19:51,0,eth0front1,,2209.0,,true,0,0,0,0,null,0,1,0,brander-desktop,0,0
03:19:52,0,eth0front2,,2706.0,,true,0,0,0,0,null,0,1,0,brander-desktop,0,0
03:19:53,0,eth0front3,,1036.63,,true,0,0,0,0,null,0,1,0,brander-desktop,0,0
03:19:54,0,eth0front4,,2514.0,,true,0,0,0,0,null,0,1,0,brander-desktop,0,0
03:19:55,0,eth0cache,,3333.0,,true,0,0,0,0,null,0,1,0,brander-desktop,0,0
03:19:56,0,eth0static,,5329.0,,true,0,0,0,0,null,0,1,0,brander-desktop,0,0
03:19:57,0,eth0db,,5579.0,,true,0,0,0,0,null,0,1,0,brander-desktop,0,0
03:19:58,0,eth0front1,,3325.0,,true,0,0,0,0,null,0,1,0,brander-desktop,0,0
03:19:59,0,eth0front2,,4330.0,,true,0,0,0,0,null,0,1,0,brander-desktop,0,0
03:20:01,0,eth0front3,,1419.0,,true,0,0,0,0,null,0,1,0,brander-desktop,0,0
03:20:02,0,eth0front4,,3963.0,,true,0,0,0,0,null,0,1,0,brander-desktop,0,0
03:20:03,0,eth0cache,,3295.0,,true,0,0,0,0,null,0,1,0,brander-desktop,0,0
03:20:04,0,eth0static,,6652.0,,true,0,0,0,0,null,0,1,0,brander-desktop,0,0
03:20:05,0,eth0db,,3782.0,,true,0,0,0,0,null,0,1,0,brander-desktop,0,0
03:20:06,0,eth0front1,,2122.0,,true,0,0,0,0,null,0,1,0,brander-desktop,0,0
03:20:07,0,eth0front2,,3744.0,,true,0,0,0,0,null,0,1,0,brander-desktop,0,0
03:20:08,0,eth0front3,,2426.0,,true,0,0,0,0,null,0,1,0,brander-desktop,0,0
03:20:09,0,eth0front4,,2537.0,,true,0,0,0,0,null,0,1,0,brander-desktop,0,0
03:20:11,0,eth0cache,,3443.0,,true,0,0,0,0,null,0,1,0,brander-desktop,0,0
03:20:12,0,eth0static,,5738.0,,true,0,0,0,0,null,0,1,0,brander-desktop,0,0
03:20:13,0,eth0db,,4598.0,,true,0,0,0,0,null,0,1,0,brander-desktop,0,0
03:20:14,0,eth0front1,,3173.0,,true,0,0,0,0,null,0,1,0,brander-desktop,0,0
03:20:15,0,eth0front2,,3218.0,,true,0,0,0,0,null,0,1,0,brander-desktop,0,0
03:20:16,0,eth0front3,,1421.0,,true,0,0,0,0,null,0,1,0,brander-desktop,0,0
03:20:17,0,eth0front4,,2841.0,,true,0,0,0,0,null,0,1,0,brander-desktop,0,0
03:20:18,0,eth0cache,,2929.0,,true,0,0,0,0,null,0,1,0,brander-desktop,0,0
03:20:19,0,eth0static,,6328.0,,true,0,0,0,0,null,0,1,0,brander-desktop,0,0
03:20:20,0,eth0db,,5118.0,,true,0,0,0,0,null,0,1,0,brander-desktop,0,0
03:20:22,0,eth0front1,,2479.0,,true,0,0,0,0,null,0,1,0,brander-desktop,0,0
03:20:23,0,eth0front2,,3269.0,,true,0,0,0,0,null,0,1,0,brander-desktop,0,0
03:20:24,0,eth0front3,,1256.0,,true,0,0,0,0,null,0,1,0,brander-desktop,0,0
03:20:25,0,eth0front4,,2766.0,,true,0,0,0,0,null,0,1,0,brander-desktop,0,0
03:20:26,0,eth0cache,,3229.0,,true,0,0,0,0,null,0,1,0,brander-desktop,0,0
03:20:27,0,eth0static,,7169.0,,true,0,0,0,0,null,0,1,0,brander-desktop,0,0
03:20:28,0,eth0db,,3619.0,,true,0,0,0,0,null,0,1,0,brander-desktop,0,0
03:20:29,0,eth0front1,,2425.0,,true,0,0,0,0,null,0,1,0,brander-desktop,0,0
03:20:30,0,eth0front2,,3381.19,,true,0,0,0,0,null,0,1,0,brander-desktop,0,0
03:20:32,0,eth0front3,,2475.0,,true,0,0,0,0,null,0,1,0,brander-desktop,0,0
03:20:33,0,eth0front4,,3206.0,,true,0,0,0,0,null,0,1,0,brander-desktop,0,0
03:20:34,0,eth0cache,,3446.0,,true,0,0,0,0,null,0,1,0,brander-desktop,0,0
03:20:35,0,eth0static,,6258.0,,true,0,0,0,0,null,0,1,0,brander-desktop,0,0
03:20:36,0,eth0db,,5799.0,,true,0,0,0,0,null,0,1,0,brander-desktop,0,0
03:20:37,0,eth0front1,,2708.0,,true,0,0,0,0,null,0,1,0,brander-desktop,0,0
03:20:38,0,eth0front2,,1936.0,,true,0,0,0,0,null,0,1,0,brander-desktop,0,0
03:20:39,0,eth0front3,,1836.0,,true,0,0,0,0,null,0,1,0,brander-desktop,0,0
03:20:40,0,eth0front4,,2920.0,,true,0,0,0,0,null,0,1,0,brander-desktop,0,0
03:20:41,0,eth0cache,,2948.0,,true,0,0,0,0,null,0,1,0,brander-desktop,0,0
03:20:43,0,eth0static,,5447.0,,true,0,0,0,0,null,0,1,0,brander-desktop,0,0
03:20:44,0,eth0db,,4886.0,,true,0,0,0,0,null,0,1,0,brander-desktop,0,0
03:20:45,0,eth0front1,,2524.0,,true,0,0,0,0,null,0,1,0,brander-desktop,0,0
03:20:46,0,eth0front2,,3039.0,,true,0,0,0,0,null,0,1,0,brander-desktop,0,0
03:20:47,0,eth0front3,,2113.0,,true,0,0,0,0,null,0,1,0,brander-desktop,0,0
03:20:48,0,eth0front4,,2459.0,,true,0,0,0,0,null,0,1,0,brander-desktop,0,0
03:20:49,0,eth0cache,,2994.0,,true,0,0,0,0,null,0,1,0,brander-desktop,0,0
03:20:50,0,eth0static,,5427.0,,true,0,0,0,0,null,0,1,0,brander-desktop,0,0
03:20:51,0,eth0db,,4997.0,,true,0,0,0,0,null,0,1,0,brander-desktop,0,0
03:20:53,0,eth0front1,,3260.0,,true,0,0,0,0,null,0,1,0,brander-desktop,0,0
03:20:54,0,eth0front2,,2093.0,,true,0,0,0,0,null,0,1,0,brander-desktop,0,0
03:20:55,0,eth0front3,,2186.0,,true,0,0,0,0,null,0,1,0,brander-desktop,0,0
03:20:56,0,eth0front4,,2194.0,,true,0,0,0,0,null,0,1,0,brander-desktop,0,0
03:20:57,0,eth0cache,,3439.0,,true,0,0,0,0,null,0,1,0,brander-desktop,0,0
03:20:58,0,eth0static,,6834.0,,true,0,0,0,0,null,0,1,0,brander-desktop,0,0
03:21:00,0,eth0db,,6049.0,,true,0,0,0,0,null,0,1,0,brander-desktop,0,0
03:21:01,0,eth0front1,,2678.0,,true,0,0,0,0,null,0,1,0,brander-desktop,0,0
03:21:02,0,eth0front2,,3972.0,,true,0,0,0,0,null,0,1,0,brander-desktop,0,0
03:21:04,0,eth0front3,,1837.0,,true,0,0,0,0,null,0,1,0,brander-desktop,0,0
03:21:05,0,eth0front4,,4468.32,,true,0,0,0,0,null,0,1,0,brander-desktop,0,0
03:21:06,0,eth0cache,,4596.0,,true,0,0,0,0,null,0,1,0,brander-desktop,0,0
03:21:08,0,eth0static,,7069.0,,true,0,0,0,0,null,0,1,0,brander-desktop,0,0
03:21:10,0,eth0db,,4288.0,,true,0,0,0,0,null,0,1,0,brander-desktop,0,0
03:21:11,0,eth0front1,,3181.0,,true,0,0,0,0,null,0,1,0,brander-desktop,0,0
03:21:13,0,eth0front2,,3226.0,,true,0,0,0,0,null,0,1,0,brander-desktop,0,0
03:21:15,0,eth0front3,,1307.0,,true,0,0,0,0,null,0,1,0,brander-desktop,0,0
03:21:17,0,eth0front4,,3069.0,,true,0,0,0,0,null,0,1,0,brander-desktop,0,0
03:21:19,0,eth0cache,,2993.0,,true,0,0,0,0,null,0,1,0,brander-desktop,0,0
03:21:21,0,eth0static,,7341.0,,true,0,0,0,0,null,0,1,0,brander-desktop,0,0
03:21:22,0,eth0db,,6443.0,,true,0,0,0,0,null,0,1,0,brander-desktop,0,0
03:21:24,0,eth0front1,,3860.0,,true,0,0,0,0,null,0,1,0,brander-desktop,0,0
03:21:26,0,eth0front2,,1825.0,,true,0,0,0,0,null,0,1,0,brander-desktop,0,0
03:21:29,0,eth0front3,,1227.0,,true,0,0,0,0,null,0,1,0,brander-desktop,0,0
03:21:31,0,eth0front4,,2745.0,,true,0,0,0,0,null,0,1,0,brander-desktop,0,0
03:21:33,0,eth0cache,,2759.0,,true,0,0,0,0,null,0,1,0,brander-desktop,0,0
03:21:35,0,eth0static,,6594.0,,true,0,0,0,0,null,0,1,0,brander-desktop,0,0
03:21:37,0,eth0db,,5108.0,,true,0,0,0,0,null,0,1,0,brander-desktop,0,0
03:21:39,0,eth0front1,,3401.0,,true,0,0,0,0,null,0,1,0,brander-desktop,0,0
03:21:41,0,eth0front2,,3668.0,,true,0,0,0,0,null,0,1,0,brander-desktop,0,0
03:21:42,0,eth0front3,,1873.0,,true,0,0,0,0,null,0,1,0,brander-desktop,0,0
03:21:44,0,eth0front4,,2643.0,,true,0,0,0,0,null,0,1,0,brander-desktop,0,0
03:21:46,0,eth0cache,,2445.0,,true,0,0,0,0,null,0,1,0,brander-desktop,0,0
03:21:48,0,eth0static,,7505.0,,true,0,0,0,0,null,0,1,0,brander-desktop,0,0
03:21:50,0,eth0db,,5506.0,,true,0,0,0,0,null,0,1,0,brander-desktop,0,0
03:21:51,0,eth0front1,,2779.0,,true,0,0,0,0,null,0,1,0,brander-desktop,0,0
03:21:53,0,eth0front2,,3030.0,,true,0,0,0,0,null,0,1,0,brander-desktop,0,0
03:21:55,0,eth0front3,,1173.0,,true,0,0,0,0,null,0,1,0,brander-desktop,0,0
03:21:57,0,eth0front4,,1653.0,,true,0,0,0,0,null,0,1,0,brander-desktop,0,0
03:21:58,0,eth0cache,,4124.0,,true,0,0,0,0,null,0,1,0,brander-desktop,0,0
03:22:00,0,eth0static,,8054.0,,true,0,0,0,0,null,0,1,0,brander-desktop,0,0
03:22:01,0,eth0db,,5351.0,,true,0,0,0,0,null,0,1,0,brander-desktop,0,0
03:22:03,0,eth0front1,,2238.0,,true,0,0,0,0,null,0,1,0,brander-desktop,0,0
03:22:04,0,eth0front2,,1551.0,,true,0,0,0,0,null,0,1,0,brander-desktop,0,0
03:22:05,0,eth0front3,,985.0,,true,0,0,0,0,null,0,1,0,brander-desktop,0,0
03:22:07,0,eth0front4,,2768.0,,true,0,0,0,0,null,0,1,0,brander-desktop,0,0
03:22:08,0,eth0cache,,2910.0,,true,0,0,0,0,null,0,1,0,brander-desktop,0,0
03:22:09,0,eth0static,,6076.0,,true,0,0,0,0,null,0,1,0,brander-desktop,0,0
03:22:10,0,eth0db,,4767.0,,true,0,0,0,0,null,0,1,0,brander-desktop,0,0
03:22:11,0,eth0front1,,3153.0,,true,0,0,0,0,null,0,1,0,brander-desktop,0,0
03:22:12,0,eth0front2,,1815.0,,true,0,0,0,0,null,0,1,0,brander-desktop,0,0
03:22:13,0,eth0front3,,892.0,,true,0,0,0,0,null,0,1,0,brander-desktop,0,0
03:22:14,0,eth0front4,,3389.0,,true,0,0,0,0,null,0,1,0,brander-desktop,0,0
03:22:16,0,eth0cache,,2944.0,,true,0,0,0,0,null,0,1,0,brander-desktop,0,0
03:22:17,0,eth0static,,6790.0,,true,0,0,0,0,null,0,1,0,brander-desktop,0,0
03:22:18,0,eth0db,,6348.0,,true,0,0,0,0,null,0,1,0,brander-desktop,0,0
03:22:19,0,eth0front1,,5481.0,,true,0,0,0,0,null,0,1,0,brander-desktop,0,0
03:22:20,0,eth0front2,,1913.0,,true,0,0,0,0,null,0,1,0,brander-desktop,0,0
03:22:21,0,eth0front3,,2337.0,,true,0,0,0,0,null,0,1,0,brander-desktop,0,0
03:22:22,0,eth0front4,,2502.0,,true,0,0,0,0,null,0,1,0,brander-desktop,0,0
03:22:23,0,eth0cache,,3366.0,,true,0,0,0,0,null,0,1,0,brander-desktop,0,0
03:22:24,0,eth0static,,5426.0,,true,0,0,0,0,null,0,1,0,brander-desktop,0,0
03:22:26,0,eth0db,,5291.0,,true,0,0,0,0,null,0,1,0,brander-desktop,0,0
03:22:27,0,eth0front1,,2436.0,,true,0,0,0,0,null,0,1,0,brander-desktop,0,0
03:22:28,0,eth0front2,,1815.0,,true,0,0,0,0,null,0,1,0,brander-desktop,0,0
03:22:29,0,eth0front3,,1073.0,,true,0,0,0,0,null,0,1,0,brander-desktop,0,0
03:22:30,0,eth0front4,,3372.0,,true,0,0,0,0,null,0,1,0,brander-desktop,0,0
03:22:31,0,eth0cache,,2687.0,,true,0,0,0,0,null,0,1,0,brander-desktop,0,0
03:22:32,0,eth0static,,4654.0,,true,0,0,0,0,null,0,1,0,brander-desktop,0,0
03:22:33,0,eth0db,,4379.0,,true,0,0,0,0,null,0,1,0,brander-desktop,0,0
03:22:34,0,eth0front1,,3242.0,,true,0,0,0,0,null,0,1,0,brander-desktop,0,0
03:22:36,0,eth0front2,,3848.0,,true,0,0,0,0,null,0,1,0,brander-desktop,0,0
03:22:37,0,eth0front3,,1992.0,,true,0,0,0,0,null,0,1,0,brander-desktop,0,0
03:22:38,0,eth0front4,,3013.0,,true,0,0,0,0,null,0,1,0,brander-desktop,0,0
03:22:39,0,eth0cache,,2051.0,,true,0,0,0,0,null,0,1,0,brander-desktop,0,0
03:22:40,0,eth0static,,7191.0,,true,0,0,0,0,null,0,1,0,brander-desktop,0,0
03:22:41,0,eth0db,,4708.0,,true,0,0,0,0,null,0,1,0,brander-desktop,0,0
03:22:43,0,eth0front1,,2379.0,,true,0,0,0,0,null,0,1,0,brander-desktop,0,0
03:22:44,0,eth0front2,,3123.0,,true,0,0,0,0,null,0,1,0,brander-desktop,0,0
03:22:45,0,eth0front3,,1798.0,,true,0,0,0,0,null,0,1,0,brander-desktop,0,0
03:22:46,0,eth0front4,,3134.0,,true,0,0,0,0,null,0,1,0,brander-desktop,0,0
03:22:48,0,eth0cache,,3675.0,,true,0,0,0,0,null,0,1,0,brander-desktop,0,0
03:22:49,0,eth0static,,6915.0,,true,0,0,0,0,null,0,1,0,brander-desktop,0,0
03:22:50,0,eth0db,,4999.0,,true,0,0,0,0,null,0,1,0,brander-desktop,0,0
03:22:51,0,eth0front1,,2142.0,,true,0,0,0,0,null,0,1,0,brander-desktop,0,0
03:22:53,0,eth0front2,,3366.0,,true,0,0,0,0,null,0,1,0,brander-desktop,0,0
03:22:54,0,eth0front3,,1641.0,,true,0,0,0,0,null,0,1,0,brander-desktop,0,0
03:22:55,0,eth0front4,,2802.0,,true,0,0,0,0,null,0,1,0,brander-desktop,0,0
03:22:56,0,eth0cache,,3874.0,,true,0,0,0,0,null,0,1,0,brander-desktop,0,0
03:22:58,0,eth0static,,6423.0,,true,0,0,0,0,null,0,1,0,brander-desktop,0,0
03:22:59,0,eth0db,,5543.0,,true,0,0,0,0,null,0,1,0,brander-desktop,0,0
03:23:00,0,eth0front1,,3423.0,,true,0,0,0,0,null,0,1,0,brander-desktop,0,0
03:23:02,0,eth0front2,,3997.0,,true,0,0,0,0,null,0,1,0,brander-desktop,0,0
03:23:03,0,eth0front3,,2257.0,,true,0,0,0,0,null,0,1,0,brander-desktop,0,0
03:23:04,0,eth0front4,,2689.0,,true,0,0,0,0,null,0,1,0,brander-desktop,0,0
03:23:06,0,eth0cache,,4309.0,,true,0,0,0,0,null,0,1,0,brander-desktop,0,0
03:23:07,0,eth0static,,6587.0,,true,0,0,0,0,null,0,1,0,brander-desktop,0,0
03:23:09,0,eth0db,,4297.0,,true,0,0,0,0,null,0,1,0,brander-desktop,0,0
03:23:10,0,eth0front1,,3176.0,,true,0,0,0,0,null,0,1,0,brander-desktop,0,0
03:23:12,0,eth0front2,,2489.0,,true,0,0,0,0,null,0,1,0,brander-desktop,0,0
03:23:13,0,eth0front3,,1928.0,,true,0,0,0,0,null,0,1,0,brander-desktop,0,0
03:23:14,0,eth0front4,,2422.0,,true,0,0,0,0,null,0,1,0,brander-desktop,0,0
03:23:16,0,eth0cache,,2098.0,,true,0,0,0,0,null,0,1,0,brander-desktop,0,0
03:23:17,0,eth0static,,6482.0,,true,0,0,0,0,null,0,1,0,brander-desktop,0,0
03:23:18,0,eth0db,,6134.0,,true,0,0,0,0,null,0,1,0,brander-desktop,0,0
03:23:19,0,eth0front1,,2904.0,,true,0,0,0,0,null,0,1,0,brander-desktop,0,0
03:23:21,0,eth0front2,,3667.0,,true,0,0,0,0,null,0,1,0,brander-desktop,0,0
03:23:22,0,eth0front3,,1921.0,,true,0,0,0,0,null,0,1,0,brander-desktop,0,0
03:23:23,0,eth0front4,,3142.0,,true,0,0,0,0,null,0,1,0,brander-desktop,0,0
03:23:24,0,eth0cache,,2434.0,,true,0,0,0,0,null,0,1,0,brander-desktop,0,0
03:23:25,0,eth0static,,6451.0,,true,0,0,0,0,null,0,1,0,brander-desktop,0,0
03:23:26,0,eth0db,,5222.0,,true,0,0,0,0,null,0,1,0,brander-desktop,0,0
03:23:27,0,eth0front1,,2868.0,,true,0,0,0,0,null,0,1,0,brander-desktop,0,0
03:23:28,0,eth0front2,,3435.0,,true,0,0,0,0,null,0,1,0,brander-desktop,0,0
03:23:30,0,eth0front3,,1649.0,,true,0,0,0,0,null,0,1,0,brander-desktop,0,0
03:23:31,0,eth0front4,,2806.0,,true,0,0,0,0,null,0,1,0,brander-desktop,0,0
03:23:32,0,eth0cache,,3168.0,,true,0,0,0,0,null,0,1,0,brander-desktop,0,0
03:23:33,0,eth0static,,5211.0,,true,0,0,0,0,null,0,1,0,brander-desktop,0,0
03:23:34,0,eth0db,,5823.0,,true,0,0,0,0,null,0,1,0,brander-desktop,0,0
03:23:35,0,eth0front1,,2846.0,,true,0,0,0,0,null,0,1,0,brander-desktop,0,0
03:23:36,0,eth0front2,,1979.0,,true,0,0,0,0,null,0,1,0,brander-desktop,0,0
03:23:37,0,eth0front3,,1939.0,,true,0,0,0,0,null,0,1,0,brander-desktop,0,0
03:23:39,0,eth0front4,,2411.0,,true,0,0,0,0,null,0,1,0,brander-desktop,0,0
03:23:40,0,eth0cache,,2912.0,,true,0,0,0,0,null,0,1,0,brander-desktop,0,0
03:23:41,0,eth0static,,6786.0,,true,0,0,0,0,null,0,1,0,brander-desktop,0,0
03:23:42,0,eth0db,,6725.0,,true,0,0,0,0,null,0,1,0,brander-desktop,0,0
03:23:43,0,eth0front1,,2622.0,,true,0,0,0,0,null,0,1,0,brander-desktop,0,0
03:23:45,0,eth0front2,,2394.0,,true,0,0,0,0,null,0,1,0,brander-desktop,0,0
03:23:46,0,eth0front3,,1684.0,,true,0,0,0,0,null,0,1,0,brander-desktop,0,0
03:23:47,0,eth0front4,,2876.0,,true,0,0,0,0,null,0,1,0,brander-desktop,0,0
03:23:48,0,eth0cache,,4052.0,,true,0,0,0,0,null,0,1,0,brander-desktop,0,0
03:23:50,0,eth0static,,6169.0,,true,0,0,0,0,null,0,1,0,brander-desktop,0,0
03:23:51,0,eth0db,,4699.0,,true,0,0,0,0,null,0,1,0,brander-desktop,0,0
03:23:52,0,eth0front1,,3234.0,,true,0,0,0,0,null,0,1,0,brander-desktop,0,0
03:23:53,0,eth0front2,,1791.0,,true,0,0,0,0,null,0,1,0,brander-desktop,0,0
03:23:55,0,eth0front3,,1686.0,,true,0,0,0,0,null,0,1,0,brander-desktop,0,0
03:23:56,0,eth0front4,,3211.0,,true,0,0,0,0,null,0,1,0,brander-desktop,0,0
03:23:57,0,eth0cache,,3457.0,,true,0,0,0,0,null,0,1,0,brander-desktop,0,0
03:23:59,0,eth0static,,6631.0,,true,0,0,0,0,null,0,1,0,brander-desktop,0,0
03:24:00,0,eth0db,,5851.0,,true,0,0,0,0,null,0,1,0,brander-desktop,0,0
03:24:01,0,eth0front1,,1900.0,,true,0,0,0,0,null,0,1,0,brander-desktop,0,0
03:24:02,0,eth0front2,,1629.0,,true,0,0,0,0,null,0,1,0,brander-desktop,0,0
03:24:04,0,eth0front3,,2315.0,,true,0,0,0,0,null,0,1,0,brander-desktop,0,0
03:24:05,0,eth0front4,,3135.0,,true,0,0,0,0,null,0,1,0,brander-desktop,0,0
03:24:06,0,eth0cache,,4724.0,,true,0,0,0,0,null,0,1,0,brander-desktop,0,0
03:24:07,0,eth0static,,7736.0,,true,0,0,0,0,null,0,1,0,brander-desktop,0,0
03:24:09,0,eth0db,,4923.0,,true,0,0,0,0,null,0,1,0,brander-desktop,0,0
03:24:10,0,eth0front1,,2728.0,,true,0,0,0,0,null,0,1,0,brander-desktop,0,0
03:24:11,0,eth0front2,,2450.0,,true,0,0,0,0,null,0,1,0,brander-desktop,0,0
03:24:12,0,eth0front3,,2307.0,,true,0,0,0,0,null,0,1,0,brander-desktop,0,0
03:24:14,0,eth0front4,,2759.0,,true,0,0,0,0,null,0,1,0,brander-desktop,0,0
03:24:15,0,eth0cache,,4361.0,,true,0,0,0,0,null,0,1,0,brander-desktop,0,0
03:24:16,0,eth0static,,6860.4,,true,0,0,0,0,null,0,1,0,brander-desktop,0,0
03:24:17,0,eth0db,,7140.0,,true,0,0,0,0,null,0,1,0,brander-desktop,0,0
03:24:19,0,eth0front1,,4614.0,,true,0,0,0,0,null,0,1,0,brander-desktop,0,0
03:24:20,0,eth0front2,,3456.0,,true,0,0,0,0,null,0,1,0,brander-desktop,0,0
03:24:21,0,eth0front3,,1585.0,,true,0,0,0,0,null,0,1,0,brander-desktop,0,0
03:24:23,0,eth0front4,,3966.0,,true,0,0,0,0,null,0,1,0,brander-desktop,0,0
03:24:24,0,eth0cache,,3344.0,,true,0,0,0,0,null,0,1,0,brander-desktop,0,0
03:24:26,0,eth0static,,8408.0,,true,0,0,0,0,null,0,1,0,brander-desktop,0,0
03:24:27,0,eth0db,,6177.0,,true,0,0,0,0,null,0,1,0,brander-desktop,0,0
03:24:28,0,eth0front1,,3322.0,,true,0,0,0,0,null,0,1,0,brander-desktop,0,0
03:24:30,0,eth0front2,,2657.0,,true,0,0,0,0,null,0,1,0,brander-desktop,0,0
03:24:31,0,eth0front3,,2321.0,,true,0,0,0,0,null,0,1,0,brander-desktop,0,0
03:24:32,0,eth0front4,,2923.0,,true,0,0,0,0,null,0,1,0,brander-desktop,0,0
03:24:33,0,eth0cache,,2978.0,,true,0,0,0,0,null,0,1,0,brander-desktop,0,0
03:24:34,0,eth0static,,5672.0,,true,0,0,0,0,null,0,1,0,brander-desktop,0,0
03:24:35,0,eth0db,,6089.0,,true,0,0,0,0,null,0,1,0,brander-desktop,0,0
03:24:36,0,eth0front1,,2794.0,,true,0,0,0,0,null,0,1,0,brander-desktop,0,0
03:24:37,0,eth0front2,,2405.0,,true,0,0,0,0,null,0,1,0,brander-desktop,0,0
03:24:39,0,eth0front3,,1425.0,,true,0,0,0,0,null,0,1,0,brander-desktop,0,0
03:24:40,0,eth0front4,,2367.0,,true,0,0,0,0,null,0,1,0,brander-desktop,0,0
03:24:41,0,eth0cache,,4222.0,,true,0,0,0,0,null,0,1,0,brander-desktop,0,0
03:24:42,0,eth0static,,5942.0,,true,0,0,0,0,null,0,1,0,brander-desktop,0,0
03:24:43,0,eth0db,,6525.0,,true,0,0,0,0,null,0,1,0,brander-desktop,0,0
03:24:44,0,eth0front1,,2584.0,,true,0,0,0,0,null,0,1,0,brander-desktop,0,0
03:24:45,0,eth0front2,,3013.0,,true,0,0,0,0,null,0,1,0,brander-desktop,0,0
03:24:47,0,eth0front3,,2472.0,,true,0,0,0,0,null,0,1,0,brander-desktop,0,0
03:24:48,0,eth0front4,,3192.0,,true,0,0,0,0,null,0,1,0,brander-desktop,0,0
03:24:49,0,eth0cache,,2906.0,,true,0,0,0,0,null,0,1,0,brander-desktop,0,0
03:24:50,0,eth0static,,6277.0,,true,0,0,0,0,null,0,1,0,brander-desktop,0,0
03:24:51,0,eth0db,,7112.0,,true,0,0,0,0,null,0,1,0,brander-desktop,0,0
03:24:52,0,eth0front1,,3241.0,,true,0,0,0,0,null,0,1,0,brander-desktop,0,0
03:24:54,0,eth0front2,,2397.0,,true,0,0,0,0,null,0,1,0,brander-desktop,0,0
03:24:55,0,eth0front3,,1606.0,,true,0,0,0,0,null,0,1,0,brander-desktop,0,0
03:24:56,0,eth0front4,,3996.0,,true,0,0,0,0,null,0,1,0,brander-desktop,0,0
03:24:57,0,eth0cache,,3398.0,,true,0,0,0,0,null,0,1,0,brander-desktop,0,0
03:24:58,0,eth0static,,6441.0,,true,0,0,0,0,null,0,1,0,brander-desktop,0,0
03:24:59,0,eth0db,,7834.0,,true,0,0,0,0,null,0,1,0,brander-desktop,0,0
03:25:00,0,eth0front1,,3400.0,,true,0,0,0,0,null,0,1,0,brander-desktop,0,0
03:25:02,0,eth0front2,,2693.0,,true,0,0,0,0,null,0,1,0,brander-desktop,0,0
03:25:03,0,eth0front3,,1016.0,,true,0,0,0,0,null,0,1,0,brander-desktop,0,0
03:25:04,0,eth0front4,,3063.0,,true,0,0,0,0,null,0,1,0,brander-desktop,0,0
03:25:05,0,eth0cache,,3557.0,,true,0,0,0,0,null,0,1,0,brander-desktop,0,0
03:25:06,0,eth0static,,8213.0,,true,0,0,0,0,null,0,1,0,brander-desktop,0,0
03:25:08,0,eth0db,,6127.0,,true,0,0,0,0,null,0,1,0,brander-desktop,0,0
03:25:09,0,eth0front1,,3503.0,,true,0,0,0,0,null,0,1,0,brander-desktop,0,0
03:25:10,0,eth0front2,,3870.0,,true,0,0,0,0,null,0,1,0,brander-desktop,0,0
03:25:11,0,eth0front3,,2026.0,,true,0,0,0,0,null,0,1,0,brander-desktop,0,0
03:25:12,0,eth0front4,,2787.0,,true,0,0,0,0,null,0,1,0,brander-desktop,0,0
03:25:14,0,eth0cache,,3712.0,,true,0,0,0,0,null,0,1,0,brander-desktop,0,0
03:25:15,0,eth0static,,6695.0,,true,0,0,0,0,null,0,1,0,brander-desktop,0,0
03:25:16,0,eth0db,,6892.0,,true,0,0,0,0,null,0,1,0,brander-desktop,0,0
03:25:17,0,eth0front1,,3932.0,,true,0,0,0,0,null,0,1,0,brander-desktop,0,0
03:25:18,0,eth0front2,,4325.0,,true,0,0,0,0,null,0,1,0,brander-desktop,0,0
03:25:19,0,eth0front3,,1748.0,,true,0,0,0,0,null,0,1,0,brander-desktop,0,0
03:25:20,0,eth0front4,,2413.0,,true,0,0,0,0,null,0,1,0,brander-desktop,0,0
03:25:22,0,eth0cache,,3222.0,,true,0,0,0,0,null,0,1,0,brander-desktop,0,0
03:25:23,0,eth0static,,6475.0,,true,0,0,0,0,null,0,1,0,brander-desktop,0,0
03:25:24,0,eth0db,,6357.0,,true,0,0,0,0,null,0,1,0,brander-desktop,0,0
03:25:25,0,eth0front1,,3274.0,,true,0,0,0,0,null,0,1,0,brander-desktop,0,0
03:25:26,0,eth0front2,,3613.0,,true,0,0,0,0,null,0,1,0,brander-desktop,0,0
03:25:28,0,eth0front3,,2471.0,,true,0,0,0,0,null,0,1,0,brander-desktop,0,0
03:25:29,0,eth0front4,,2497.0,,true,0,0,0,0,null,0,1,0,brander-desktop,0,0
03:25:30,0,eth0cache,,3649.0,,true,0,0,0,0,null,0,1,0,brander-desktop,0,0
03:25:31,0,eth0static,,7223.0,,true,0,0,0,0,null,0,1,0,brander-desktop,0,0
03:25:32,0,eth0db,,6753.0,,true,0,0,0,0,null,0,1,0,brander-desktop,0,0
03:25:34,0,eth0front1,,1954.0,,true,0,0,0,0,null,0,1,0,brander-desktop,0,0
03:25:35,0,eth0front2,,2776.0,,true,0,0,0,0,null,0,1,0,brander-desktop,0,0
03:25:36,0,eth0front3,,1670.0,,true,0,0,0,0,null,0,1,0,brander-desktop,0,0
03:25:37,0,eth0front4,,1689.0,,true,0,0,0,0,null,0,1,0,brander-desktop,0,0
03:25:38,0,eth0cache,,2530.0,,true,0,0,0,0,null,0,1,0,brander-desktop,0,0
03:25:40,0,eth0static,,5462.0,,true,0,0,0,0,null,0,1,0,brander-desktop,0,0
03:25:41,0,eth0db,,4538.0,,true,0,0,0,0,null,0,1,0,brander-desktop,0,0
03:25:42,0,eth0front1,,1882.0,,true,0,0,0,0,null,0,1,0,brander-desktop,0,0
03:25:43,0,eth0front2,,5312.0,,true,0,0,0,0,null,0,1,0,brander-desktop,0,0
03:25:44,0,eth0front3,,1844.0,,true,0,0,0,0,null,0,1,0,brander-desktop,0,0
03:25:45,0,eth0front4,,2394.0,,true,0,0,0,0,null,0,1,0,brander-desktop,0,0
03:25:46,0,eth0cache,,2807.0,,true,0,0,0,0,null,0,1,0,brander-desktop,0,0
03:25:48,0,eth0static,,6199.0,,true,0,0,0,0,null,0,1,0,brander-desktop,0,0
03:25:49,0,eth0db,,4564.36,,true,0,0,0,0,null,0,1,0,brander-desktop,0,0
03:25:50,0,eth0front1,,3445.0,,true,0,0,0,0,null,0,1,0,brander-desktop,0,0
03:25:51,0,eth0front2,,2796.0,,true,0,0,0,0,null,0,1,0,brander-desktop,0,0
03:25:52,0,eth0front3,,2718.0,,true,0,0,0,0,null,0,1,0,brander-desktop,0,0
03:25:53,0,eth0front4,,1804.0,,true,0,0,0,0,null,0,1,0,brander-desktop,0,0
03:25:55,0,eth0cache,,3591.0,,true,0,0,0,0,null,0,1,0,brander-desktop,0,0
03:25:56,0,eth0static,,7544.0,,true,0,0,0,0,null,0,1,0,brander-desktop,0,0
03:25:57,0,eth0db,,6130.0,,true,0,0,0,0,null,0,1,0,brander-desktop,0,0
03:25:58,0,eth0front1,,2615.0,,true,0,0,0,0,null,0,1,0,brander-desktop,0,0
03:25:59,0,eth0front2,,3213.0,,true,0,0,0,0,null,0,1,0,brander-desktop,0,0
03:26:00,0,eth0front3,,2237.0,,true,0,0,0,0,null,0,1,0,brander-desktop,0,0
03:26:02,0,eth0front4,,2707.0,,true,0,0,0,0,null,0,1,0,brander-desktop,0,0
03:26:03,0,eth0cache,,4302.0,,true,0,0,0,0,null,0,1,0,brander-desktop,0,0
03:26:04,0,eth0static,,7697.0,,true,0,0,0,0,null,0,1,0,brander-desktop,0,0
03:26:05,0,eth0db,,4067.0,,true,0,0,0,0,null,0,1,0,brander-desktop,0,0
03:26:06,0,eth0front1,,3102.0,,true,0,0,0,0,null,0,1,0,brander-desktop,0,0
03:26:07,0,eth0front2,,4317.0,,true,0,0,0,0,null,0,1,0,brander-desktop,0,0
03:26:08,0,eth0front3,,2225.0,,true,0,0,0,0,null,0,1,0,brander-desktop,0,0
03:26:10,0,eth0front4,,2704.0,,true,0,0,0,0,null,0,1,0,brander-desktop,0,0
03:26:11,0,eth0cache,,3507.0,,true,0,0,0,0,null,0,1,0,brander-desktop,0,0
03:26:12,0,eth0static,,8350.0,,true,0,0,0,0,null,0,1,0,brander-desktop,0,0
03:26:13,0,eth0db,,6970.0,,true,0,0,0,0,null,0,1,0,brander-desktop,0,0
03:26:14,0,eth0front1,,2787.0,,true,0,0,0,0,null,0,1,0,brander-desktop,0,0
03:26:16,0,eth0front2,,2812.0,,true,0,0,0,0,null,0,1,0,brander-desktop,0,0
03:26:17,0,eth0front3,,2105.0,,true,0,0,0,0,null,0,1,0,brander-desktop,0,0
03:26:18,0,eth0front4,,2731.0,,true,0,0,0,0,null,0,1,0,brander-desktop,0,0
03:26:19,0,eth0cache,,3494.0,,true,0,0,0,0,null,0,1,0,brander-desktop,0,0
03:26:20,0,eth0static,,6661.0,,true,0,0,0,0,null,0,1,0,brander-desktop,0,0
03:26:22,0,eth0db,,6091.0,,true,0,0,0,0,null,0,1,0,brander-desktop,0,0
03:26:23,0,eth0front1,,3521.0,,true,0,0,0,0,null,0,1,0,brander-desktop,0,0
03:26:24,0,eth0front2,,2494.0,,true,0,0,0,0,null,0,1,0,brander-desktop,0,0
03:26:25,0,eth0front3,,3533.0,,true,0,0,0,0,null,0,1,0,brander-desktop,0,0
03:26:26,0,eth0front4,,3645.0,,true,0,0,0,0,null,0,1,0,brander-desktop,0,0
03:26:27,0,eth0cache,,3916.0,,true,0,0,0,0,null,0,1,0,brander-desktop,0,0
03:26:29,0,eth0static,,7201.0,,true,0,0,0,0,null,0,1,0,brander-desktop,0,0
03:26:30,0,eth0db,,5506.0,,true,0,0,0,0,null,0,1,0,brander-desktop,0,0
03:26:31,0,eth0front1,,3178.0,,true,0,0,0,0,null,0,1,0,brander-desktop,0,0
03:26:32,0,eth0front2,,4117.0,,true,0,0,0,0,null,0,1,0,brander-desktop,0,0
03:26:33,0,eth0front3,,2626.0,,true,0,0,0,0,null,0,1,0,brander-desktop,0,0
03:26:34,0,eth0front4,,1625.0,,true,0,0,0,0,null,0,1,0,brander-desktop,0,0
03:26:36,0,eth0cache,,4981.0,,true,0,0,0,0,null,0,1,0,brander-desktop,0,0
03:26:37,0,eth0static,,7170.0,,true,0,0,0,0,null,0,1,0,brander-desktop,0,0
03:26:38,0,eth0db,,5359.0,,true,0,0,0,0,null,0,1,0,brander-desktop,0,0
03:26:39,0,eth0front1,,3327.0,,true,0,0,0,0,null,0,1,0,brander-desktop,0,0
03:26:40,0,eth0front2,,2663.0,,true,0,0,0,0,null,0,1,0,brander-desktop,0,0
03:26:42,0,eth0front3,,2076.0,,true,0,0,0,0,null,0,1,0,brander-desktop,0,0
03:26:43,0,eth0front4,,3038.0,,true,0,0,0,0,null,0,1,0,brander-desktop,0,0
03:26:44,0,eth0cache,,3373.27,,true,0,0,0,0,null,0,1,0,brander-desktop,0,0
03:26:45,0,eth0static,,6429.0,,true,0,0,0,0,null,0,1,0,brander-desktop,0,0
03:26:46,0,eth0db,,3945.0,,true,0,0,0,0,null,0,1,0,brander-desktop,0,0
03:26:47,0,eth0front1,,3169.0,,true,0,0,0,0,null,0,1,0,brander-desktop,0,0
03:26:49,0,eth0front2,,2728.0,,true,0,0,0,0,null,0,1,0,brander-desktop,0,0
03:26:50,0,eth0front3,,1165.0,,true,0,0,0,0,null,0,1,0,brander-desktop,0,0
03:26:51,0,eth0front4,,3018.0,,true,0,0,0,0,null,0,1,0,brander-desktop,0,0
03:26:52,0,eth0cache,,3166.0,,true,0,0,0,0,null,0,1,0,brander-desktop,0,0
03:26:53,0,eth0static,,6049.0,,true,0,0,0,0,null,0,1,0,brander-desktop,0,0
03:26:54,0,eth0db,,5506.0,,true,0,0,0,0,null,0,1,0,brander-desktop,0,0
03:26:55,0,eth0front1,,3032.0,,true,0,0,0,0,null,0,1,0,brander-desktop,0,0
03:26:56,0,eth0front2,,3560.0,,true,0,0,0,0,null,0,1,0,brander-desktop,0,0
03:26:58,0,eth0front3,,1680.0,,true,0,0,0,0,null,0,1,0,brander-desktop,0,0
03:26:59,0,eth0front4,,3280.0,,true,0,0,0,0,null,0,1,0,brander-desktop,0,0
03:27:00,0,eth0cache,,3583.0,,true,0,0,0,0,null,0,1,0,brander-desktop,0,0
03:27:01,0,eth0static,,6054.0,,true,0,0,0,0,null,0,1,0,brander-desktop,0,0
03:27:02,0,eth0db,,8335.0,,true,0,0,0,0,null,0,1,0,brander-desktop,0,0
03:27:03,0,eth0front1,,2451.49,,true,0,0,0,0,null,0,1,0,brander-desktop,0,0
03:27:04,0,eth0front2,,8041.0,,true,0,0,0,0,null,0,1,0,brander-desktop,0,0
03:27:06,0,eth0front3,,1766.0,,true,0,0,0,0,null,0,1,0,brander-desktop,0,0
03:27:07,0,eth0front4,,5983.0,,true,0,0,0,0,null,0,1,0,brander-desktop,0,0
03:27:09,0,eth0cache,,7711.0,,true,0,0,0,0,null,0,1,0,brander-desktop,0,0
03:27:10,0,eth0static,,12425.0,,true,0,0,0,0,null,0,1,0,brander-desktop,0,0
03:27:12,0,eth0db,,11915.0,,true,0,0,0,0,null,0,1,0,brander-desktop,0,0
03:27:15,0,eth0front1,,6470.0,,true,0,0,0,0,null,0,1,0,brander-desktop,0,0
03:27:18,0,eth0front2,,5277.0,,true,0,0,0,0,null,0,1,0,brander-desktop,0,0
03:27:20,0,eth0front3,,2387.0,,true,0,0,0,0,null,0,1,0,brander-desktop,0,0
03:27:23,0,eth0front4,,4798.0,,true,0,0,0,0,null,0,1,0,brander-desktop,0,0
03:27:25,0,eth0cache,,2738.0,,true,0,0,0,0,null,0,1,0,brander-desktop,0,0
03:27:28,0,eth0static,,8646.0,,true,0,0,0,0,null,0,1,0,brander-desktop,0,0
03:27:30,0,eth0db,,2590.0,,true,0,0,0,0,null,0,1,0,brander-desktop,0,0
03:27:32,0,eth0front1,,410.0,,true,0,0,0,0,null,0,1,0,brander-desktop,0,0
03:27:34,0,eth0front2,,634.0,,true,0,0,0,0,null,0,1,0,brander-desktop,0,0
03:27:37,0,eth0front3,,934.0,,true,0,0,0,0,null,0,1,0,brander-desktop,0,0
03:27:39,0,eth0front4,,1413.0,,true,0,0,0,0,null,0,1,0,brander-desktop,0,0
03:27:41,0,eth0cache,,1183.0,,true,0,0,0,0,null,0,1,0,brander-desktop,0,0
03:27:43,0,eth0static,,8118.0,,true,0,0,0,0,null,0,1,0,brander-desktop,0,0
03:27:46,0,eth0db,,42.0,,true,0,0,0,0,null,0,1,0,brander-desktop,0,0
03:27:48,0,eth0front1,,12.0,,true,0,0,0,0,null,0,1,0,brander-desktop,0,0
03:27:49,0,eth0front2,,585.0,,true,0,0,0,0,null,0,1,0,brander-desktop,0,0
03:27:51,0,eth0front3,,31.0,,true,0,0,0,0,null,0,1,0,brander-desktop,0,0
03:27:53,0,eth0front4,,14.0,,true,0,0,0,0,null,0,1,0,brander-desktop,0,0
03:27:55,0,eth0cache,,387.0,,true,0,0,0,0,null,0,1,0,brander-desktop,0,0
03:27:56,0,eth0static,,4317.0,,true,0,0,0,0,null,0,1,0,brander-desktop,0,0
03:27:57,0,eth0db,,332.0,,true,0,0,0,0,null,0,1,0,brander-desktop,0,0
03:27:58,0,eth0front1,,94.0,,true,0,0,0,0,null,0,1,0,brander-desktop,0,0
03:27:59,0,eth0front2,,491.0,,true,0,0,0,0,null,0,1,0,brander-desktop,0,0
03:28:00,0,eth0front3,,2.0,,true,0,0,0,0,null,0,1,0,brander-desktop,0,0
03:28:01,0,eth0front4,,298.0,,true,0,0,0,0,null,0,1,0,brander-desktop,0,0
03:28:03,0,eth0cache,,206.0,,true,0,0,0,0,null,0,1,0,brander-desktop,0,0
03:28:04,0,eth0static,,1365.0,,true,0,0,0,0,null,0,1,0,brander-desktop,0,0
03:28:05,0,eth0db,,15.0,,true,0,0,0,0,null,0,1,0,brander-desktop,0,0
03:28:06,0,eth0front1,,30.0,,true,0,0,0,0,null,0,1,0,brander-desktop,0,0
03:28:07,0,eth0front2,,11.88,,true,0,0,0,0,null,0,1,0,brander-desktop,0,0
03:28:08,0,eth0front3,,821.0,,true,0,0,0,0,null,0,1,0,brander-desktop,0,0
03:28:09,0,eth0front4,,8020.0,,true,0,0,0,0,null,0,1,0,brander-desktop,0,0
03:28:10,0,eth0cache,,11493.0,,true,0,0,0,0,null,0,1,0,brander-desktop,0,0
03:28:11,0,eth0static,,9969.0,,true,0,0,0,0,null,0,1,0,brander-desktop,0,0
03:28:13,0,eth0db,,8713.0,,true,0,0,0,0,null,0,1,0,brander-desktop,0,0
03:28:15,0,eth0front1,,3499.0,,true,0,0,0,0,null,0,1,0,brander-desktop,0,0
03:28:16,0,eth0front2,,13.86,,true,0,0,0,0,null,0,1,0,brander-desktop,0,0
03:28:18,0,eth0front3,,754.0,,true,0,0,0,0,null,0,1,0,brander-desktop,0,0
03:28:20,0,eth0front4,,557.0,,true,0,0,0,0,null,0,1,0,brander-desktop,0,0
03:28:21,0,eth0cache,,398.0,,true,0,0,0,0,null,0,1,0,brander-desktop,0,0
