timeStamp,elapsed,label,responseCode,responseMessage,threadName,success,bytes,sentBytes,grpThreads,allThreads,URL,Latency,SampleCount,ErrorCount,Hostname,IdleTime,Connect
01:21:01,0,eth0static,,3337.0,,true,0,0,0,0,null,0,1,0,brander-desktop,0,0
01:21:03,0,eth0db,,843.0,,true,0,0,0,0,null,0,1,0,brander-desktop,0,0
01:21:05,0,eth0front1,,1122.0,,true,0,0,0,0,null,0,1,0,brander-desktop,0,0
01:21:06,0,eth0front2,,834.0,,true,0,0,0,0,null,0,1,0,brander-desktop,0,0
01:21:08,0,eth0front3,,486.0,,true,0,0,0,0,null,0,1,0,brander-desktop,0,0
01:21:10,0,eth0front4,,1426.0,,true,0,0,0,0,null,0,1,0,brander-desktop,0,0
01:21:11,0,eth0static,,2813.0,,true,0,0,0,0,null,0,1,0,brander-desktop,0,0
01:21:12,0,eth0db,,2210.0,,true,0,0,0,0,null,0,1,0,brander-desktop,0,0
01:21:13,0,eth0front1,,1360.0,,true,0,0,0,0,null,0,1,0,brander-desktop,0,0
01:21:14,0,eth0front2,,1926.0,,true,0,0,0,0,null,0,1,0,brander-desktop,0,0
01:21:15,0,eth0front3,,1366.0,,true,0,0,0,0,null,0,1,0,brander-desktop,0,0
01:21:16,0,eth0front4,,2179.0,,true,0,0,0,0,null,0,1,0,brander-desktop,0,0
01:21:17,0,eth0static,,5276.0,,true,0,0,0,0,null,0,1,0,brander-desktop,0,0
01:21:18,0,eth0db,,3425.0,,true,0,0,0,0,null,0,1,0,brander-desktop,0,0
01:21:19,0,eth0front1,,3370.0,,true,0,0,0,0,null,0,1,0,brander-desktop,0,0
01:21:21,0,eth0front2,,2023.0,,true,0,0,0,0,null,0,1,0,brander-desktop,0,0
01:21:22,0,eth0front3,,1964.0,,true,0,0,0,0,null,0,1,0,brander-desktop,0,0
01:21:23,0,eth0front4,,1555.0,,true,0,0,0,0,null,0,1,0,brander-desktop,0,0
01:21:24,0,eth0static,,5202.0,,true,0,0,0,0,null,0,1,0,brander-desktop,0,0
01:21:25,0,eth0db,,3544.0,,true,0,0,0,0,null,0,1,0,brander-desktop,0,0
01:21:26,0,eth0front1,,498.0,,true,0,0,0,0,null,0,1,0,brander-desktop,0,0
01:21:27,0,eth0front2,,2140.0,,true,0,0,0,0,null,0,1,0,brander-desktop,0,0
01:21:28,0,eth0front3,,788.0,,true,0,0,0,0,null,0,1,0,brander-desktop,0,0
01:21:29,0,eth0front4,,965.0,,true,0,0,0,0,null,0,1,0,brander-desktop,0,0
01:21:30,0,eth0static,,2121.0,,true,0,0,0,0,null,0,1,0,brander-desktop,0,0
01:21:32,0,eth0db,,1637.0,,true,0,0,0,0,null,0,1,0,brander-desktop,0,0
01:21:33,0,eth0front1,,887.0,,true,0,0,0,0,null,0,1,0,brander-desktop,0,0
01:21:34,0,eth0front2,,2156.0,,true,0,0,0,0,null,0,1,0,brander-desktop,0,0
01:21:35,0,eth0front3,,729.0,,true,0,0,0,0,null,0,1,0,brander-desktop,0,0
01:21:36,0,eth0front4,,1183.0,,true,0,0,0,0,null,0,1,0,brander-desktop,0,0
01:21:37,0,eth0static,,4477.0,,true,0,0,0,0,null,0,1,0,brander-desktop,0,0
01:21:38,0,eth0db,,1739.0,,true,0,0,0,0,null,0,1,0,brander-desktop,0,0
01:21:39,0,eth0front1,,2047.0,,true,0,0,0,0,null,0,1,0,brander-desktop,0,0
01:21:40,0,eth0front2,,1952.48,,true,0,0,0,0,null,0,1,0,brander-desktop,0,0
01:21:41,0,eth0front3,,391.0,,true,0,0,0,0,null,0,1,0,brander-desktop,0,0
01:21:43,0,eth0front4,,1196.0,,true,0,0,0,0,null,0,1,0,brander-desktop,0,0
01:21:44,0,eth0static,,3453.0,,true,0,0,0,0,null,0,1,0,brander-desktop,0,0
01:21:45,0,eth0db,,2804.0,,true,0,0,0,0,null,0,1,0,brander-desktop,0,0
01:21:46,0,eth0front1,,1743.0,,true,0,0,0,0,null,0,1,0,brander-desktop,0,0
01:21:47,0,eth0front2,,992.0,,true,0,0,0,0,null,0,1,0,brander-desktop,0,0
01:21:48,0,eth0front3,,1007.0,,true,0,0,0,0,null,0,1,0,brander-desktop,0,0
01:21:49,0,eth0front4,,2570.0,,true,0,0,0,0,null,0,1,0,brander-desktop,0,0
01:21:50,0,eth0static,,5817.0,,true,0,0,0,0,null,0,1,0,brander-desktop,0,0
01:21:51,0,eth0db,,2161.0,,true,0,0,0,0,null,0,1,0,brander-desktop,0,0
01:21:52,0,eth0front1,,2866.0,,true,0,0,0,0,null,0,1,0,brander-desktop,0,0
01:21:53,0,eth0front2,,1288.0,,true,0,0,0,0,null,0,1,0,brander-desktop,0,0
01:21:55,0,eth0front3,,428.0,,true,0,0,0,0,null,0,1,0,brander-desktop,0,0
01:21:56,0,eth0front4,,2479.0,,true,0,0,0,0,null,0,1,0,brander-desktop,0,0
01:21:57,0,eth0static,,3380.0,,true,0,0,0,0,null,0,1,0,brander-desktop,0,0
01:21:58,0,eth0db,,2091.0,,true,0,0,0,0,null,0,1,0,brander-desktop,0,0
01:21:59,0,eth0front1,,1905.0,,true,0,0,0,0,null,0,1,0,brander-desktop,0,0
01:22:00,0,eth0front2,,2484.0,,true,0,0,0,0,null,0,1,0,brander-desktop,0,0
01:22:01,0,eth0front3,,1483.0,,true,0,0,0,0,null,0,1,0,brander-desktop,0,0
01:22:02,0,eth0front4,,2770.0,,true,0,0,0,0,null,0,1,0,brander-desktop,0,0
01:22:03,0,eth0static,,3223.0,,true,0,0,0,0,null,0,1,0,brander-desktop,0,0
01:22:04,0,eth0db,,3291.0,,true,0,0,0,0,null,0,1,0,brander-desktop,0,0
01:22:06,0,eth0front1,,2169.0,,true,0,0,0,0,null,0,1,0,brander-desktop,0,0
01:22:07,0,eth0front2,,1444.0,,true,0,0,0,0,null,0,1,0,brander-desktop,0,0
01:22:08,0,eth0front3,,1835.0,,true,0,0,0,0,null,0,1,0,brander-desktop,0,0
01:22:09,0,eth0front4,,1986.0,,true,0,0,0,0,null,0,1,0,brander-desktop,0,0
01:22:10,0,eth0static,,4687.0,,true,0,0,0,0,null,0,1,0,brander-desktop,0,0
01:22:11,0,eth0db,,2974.0,,true,0,0,0,0,null,0,1,0,brander-desktop,0,0
01:22:12,0,eth0front1,,1766.0,,true,0,0,0,0,null,0,1,0,brander-desktop,0,0
01:22:13,0,eth0front2,,2094.0,,true,0,0,0,0,null,0,1,0,brander-desktop,0,0
01:22:14,0,eth0front3,,663.0,,true,0,0,0,0,null,0,1,0,brander-desktop,0,0
01:22:16,0,eth0front4,,896.0,,true,0,0,0,0,null,0,1,0,brander-desktop,0,0
01:22:17,0,eth0static,,3211.0,,true,0,0,0,0,null,0,1,0,brander-desktop,0,0
01:22:18,0,eth0db,,2819.0,,true,0,0,0,0,null,0,1,0,brander-desktop,0,0
01:22:19,0,eth0front1,,1552.0,,true,0,0,0,0,null,0,1,0,brander-desktop,0,0
01:22:20,0,eth0front2,,1965.0,,true,0,0,0,0,null,0,1,0,brander-desktop,0,0
01:22:21,0,eth0front3,,1296.0,,true,0,0,0,0,null,0,1,0,brander-desktop,0,0
01:22:22,0,eth0front4,,1102.0,,true,0,0,0,0,null,0,1,0,brander-desktop,0,0
01:22:23,0,eth0static,,3305.0,,true,0,0,0,0,null,0,1,0,brander-desktop,0,0
01:22:24,0,eth0db,,2360.0,,true,0,0,0,0,null,0,1,0,brander-desktop,0,0
01:22:25,0,eth0front1,,2180.0,,true,0,0,0,0,null,0,1,0,brander-desktop,0,0
01:22:27,0,eth0front2,,2642.0,,true,0,0,0,0,null,0,1,0,brander-desktop,0,0
01:22:28,0,eth0front3,,441.0,,true,0,0,0,0,null,0,1,0,brander-desktop,0,0
01:22:29,0,eth0front4,,2252.0,,true,0,0,0,0,null,0,1,0,brander-desktop,0,0
01:22:30,0,eth0static,,1985.0,,true,0,0,0,0,null,0,1,0,brander-desktop,0,0
01:22:31,0,eth0db,,2253.0,,true,0,0,0,0,null,0,1,0,brander-desktop,0,0
01:22:32,0,eth0front1,,1930.0,,true,0,0,0,0,null,0,1,0,brander-desktop,0,0
01:22:33,0,eth0front2,,2375.0,,true,0,0,0,0,null,0,1,0,brander-desktop,0,0
01:22:34,0,eth0front3,,986.0,,true,0,0,0,0,null,0,1,0,brander-desktop,0,0
01:22:35,0,eth0front4,,1952.0,,true,0,0,0,0,null,0,1,0,brander-desktop,0,0
01:22:37,0,eth0static,,3301.0,,true,0,0,0,0,null,0,1,0,brander-desktop,0,0
01:22:38,0,eth0db,,1154.0,,true,0,0,0,0,null,0,1,0,brander-desktop,0,0
01:22:39,0,eth0front1,,2081.0,,true,0,0,0,0,null,0,1,0,brander-desktop,0,0
01:22:40,0,eth0front2,,1526.0,,true,0,0,0,0,null,0,1,0,brander-desktop,0,0
01:22:41,0,eth0front3,,2302.0,,true,0,0,0,0,null,0,1,0,brander-desktop,0,0
01:22:42,0,eth0front4,,2859.0,,true,0,0,0,0,null,0,1,0,brander-desktop,0,0
01:22:43,0,eth0static,,6145.0,,true,0,0,0,0,null,0,1,0,brander-desktop,0,0
01:22:44,0,eth0db,,2554.0,,true,0,0,0,0,null,0,1,0,brander-desktop,0,0
01:22:45,0,eth0front1,,1740.0,,true,0,0,0,0,null,0,1,0,brander-desktop,0,0
01:22:46,0,eth0front2,,1492.0,,true,0,0,0,0,null,0,1,0,brander-desktop,0,0
01:22:47,0,eth0front3,,1242.0,,true,0,0,0,0,null,0,1,0,brander-desktop,0,0
01:22:49,0,eth0front4,,1306.0,,true,0,0,0,0,null,0,1,0,brander-desktop,0,0
01:22:50,0,eth0static,,2217.0,,true,0,0,0,0,null,0,1,0,brander-desktop,0,0
01:22:51,0,eth0db,,1740.0,,true,0,0,0,0,null,0,1,0,brander-desktop,0,0
01:22:52,0,eth0front1,,2313.0,,true,0,0,0,0,null,0,1,0,brander-desktop,0,0
01:22:53,0,eth0front2,,3728.0,,true,0,0,0,0,null,0,1,0,brander-desktop,0,0
01:22:54,0,eth0front3,,1356.0,,true,0,0,0,0,null,0,1,0,brander-desktop,0,0
01:22:55,0,eth0front4,,1593.0,,true,0,0,0,0,null,0,1,0,brander-desktop,0,0
01:22:56,0,eth0static,,2619.0,,true,0,0,0,0,null,0,1,0,brander-desktop,0,0
01:22:57,0,eth0db,,3423.0,,true,0,0,0,0,null,0,1,0,brander-desktop,0,0
01:22:58,0,eth0front1,,2551.0,,true,0,0,0,0,null,0,1,0,brander-desktop,0,0
01:22:59,0,eth0front2,,1723.0,,true,0,0,0,0,null,0,1,0,brander-desktop,0,0
01:23:01,0,eth0front3,,905.0,,true,0,0,0,0,null,0,1,0,brander-desktop,0,0
01:23:02,0,eth0front4,,2832.0,,true,0,0,0,0,null,0,1,0,brander-desktop,0,0
01:23:03,0,eth0static,,7544.0,,true,0,0,0,0,null,0,1,0,brander-desktop,0,0
01:23:04,0,eth0db,,2941.0,,true,0,0,0,0,null,0,1,0,brander-desktop,0,0
01:23:05,0,eth0front1,,2397.0,,true,0,0,0,0,null,0,1,0,brander-desktop,0,0
01:23:06,0,eth0front2,,1682.0,,true,0,0,0,0,null,0,1,0,brander-desktop,0,0
01:23:07,0,eth0front3,,1644.0,,true,0,0,0,0,null,0,1,0,brander-desktop,0,0
01:23:08,0,eth0front4,,2076.0,,true,0,0,0,0,null,0,1,0,brander-desktop,0,0
01:23:09,0,eth0static,,5271.0,,true,0,0,0,0,null,0,1,0,brander-desktop,0,0
01:23:10,0,eth0db,,2584.0,,true,0,0,0,0,null,0,1,0,brander-desktop,0,0
01:23:12,0,eth0front1,,2356.0,,true,0,0,0,0,null,0,1,0,brander-desktop,0,0
01:23:13,0,eth0front2,,1749.0,,true,0,0,0,0,null,0,1,0,brander-desktop,0,0
01:23:14,0,eth0front3,,1531.0,,true,0,0,0,0,null,0,1,0,brander-desktop,0,0
01:23:15,0,eth0front4,,1865.0,,true,0,0,0,0,null,0,1,0,brander-desktop,0,0
01:23:16,0,eth0static,,3488.0,,true,0,0,0,0,null,0,1,0,brander-desktop,0,0
01:23:17,0,eth0db,,3088.0,,true,0,0,0,0,null,0,1,0,brander-desktop,0,0
01:23:18,0,eth0front1,,1224.0,,true,0,0,0,0,null,0,1,0,brander-desktop,0,0
01:23:19,0,eth0front2,,2319.0,,true,0,0,0,0,null,0,1,0,brander-desktop,0,0
01:23:20,0,eth0front3,,1168.0,,true,0,0,0,0,null,0,1,0,brander-desktop,0,0
01:23:21,0,eth0front4,,2038.0,,true,0,0,0,0,null,0,1,0,brander-desktop,0,0
01:23:23,0,eth0static,,3771.0,,true,0,0,0,0,null,0,1,0,brander-desktop,0,0
01:23:24,0,eth0db,,3277.0,,true,0,0,0,0,null,0,1,0,brander-desktop,0,0
01:23:25,0,eth0front1,,2141.0,,true,0,0,0,0,null,0,1,0,brander-desktop,0,0
01:23:26,0,eth0front2,,2504.0,,true,0,0,0,0,null,0,1,0,brander-desktop,0,0
01:23:27,0,eth0front3,,1825.0,,true,0,0,0,0,null,0,1,0,brander-desktop,0,0
01:23:28,0,eth0front4,,2554.0,,true,0,0,0,0,null,0,1,0,brander-desktop,0,0
01:23:29,0,eth0static,,4134.0,,true,0,0,0,0,null,0,1,0,brander-desktop,0,0
01:23:30,0,eth0db,,4233.0,,true,0,0,0,0,null,0,1,0,brander-desktop,0,0
01:23:31,0,eth0front1,,2661.0,,true,0,0,0,0,null,0,1,0,brander-desktop,0,0
01:23:32,0,eth0front2,,1545.0,,true,0,0,0,0,null,0,1,0,brander-desktop,0,0
01:23:33,0,eth0front3,,1172.0,,true,0,0,0,0,null,0,1,0,brander-desktop,0,0
01:23:35,0,eth0front4,,1823.0,,true,0,0,0,0,null,0,1,0,brander-desktop,0,0
01:23:36,0,eth0static,,5271.0,,true,0,0,0,0,null,0,1,0,brander-desktop,0,0
01:23:37,0,eth0db,,3561.0,,true,0,0,0,0,null,0,1,0,brander-desktop,0,0
01:23:38,0,eth0front1,,2485.0,,true,0,0,0,0,null,0,1,0,brander-desktop,0,0
01:23:39,0,eth0front2,,958.0,,true,0,0,0,0,null,0,1,0,brander-desktop,0,0
01:23:40,0,eth0front3,,1407.0,,true,0,0,0,0,null,0,1,0,brander-desktop,0,0
01:23:41,0,eth0front4,,1199.0,,true,0,0,0,0,null,0,1,0,brander-desktop,0,0
01:23:42,0,eth0static,,2416.0,,true,0,0,0,0,null,0,1,0,brander-desktop,0,0
01:23:43,0,eth0db,,2168.0,,true,0,0,0,0,null,0,1,0,brander-desktop,0,0
01:23:44,0,eth0front1,,1477.0,,true,0,0,0,0,null,0,1,0,brander-desktop,0,0
01:23:46,0,eth0front2,,1163.0,,true,0,0,0,0,null,0,1,0,brander-desktop,0,0
01:23:47,0,eth0front3,,1217.0,,true,0,0,0,0,null,0,1,0,brander-desktop,0,0
01:23:48,0,eth0front4,,1631.0,,true,0,0,0,0,null,0,1,0,brander-desktop,0,0
01:23:49,0,eth0static,,3685.0,,true,0,0,0,0,null,0,1,0,brander-desktop,0,0
01:23:50,0,eth0db,,3069.0,,true,0,0,0,0,null,0,1,0,brander-desktop,0,0
01:23:51,0,eth0front1,,1499.0,,true,0,0,0,0,null,0,1,0,brander-desktop,0,0
01:23:52,0,eth0front2,,3551.0,,true,0,0,0,0,null,0,1,0,brander-desktop,0,0
01:23:53,0,eth0front3,,1263.0,,true,0,0,0,0,null,0,1,0,brander-desktop,0,0
01:23:54,0,eth0front4,,887.0,,true,0,0,0,0,null,0,1,0,brander-desktop,0,0
01:23:55,0,eth0static,,4619.0,,true,0,0,0,0,null,0,1,0,brander-desktop,0,0
01:23:57,0,eth0db,,2164.0,,true,0,0,0,0,null,0,1,0,brander-desktop,0,0
01:23:58,0,eth0front1,,1628.0,,true,0,0,0,0,null,0,1,0,brander-desktop,0,0
01:23:59,0,eth0front2,,1622.0,,true,0,0,0,0,null,0,1,0,brander-desktop,0,0
01:24:00,0,eth0front3,,1435.0,,true,0,0,0,0,null,0,1,0,brander-desktop,0,0
01:24:01,0,eth0front4,,1759.0,,true,0,0,0,0,null,0,1,0,brander-desktop,0,0
01:24:02,0,eth0static,,4644.0,,true,0,0,0,0,null,0,1,0,brander-desktop,0,0
01:24:03,0,eth0db,,2683.0,,true,0,0,0,0,null,0,1,0,brander-desktop,0,0
01:24:04,0,eth0front1,,1863.0,,true,0,0,0,0,null,0,1,0,brander-desktop,0,0
01:24:05,0,eth0front2,,2477.0,,true,0,0,0,0,null,0,1,0,brander-desktop,0,0
01:24:06,0,eth0front3,,1385.0,,true,0,0,0,0,null,0,1,0,brander-desktop,0,0
01:24:07,0,eth0front4,,1076.0,,true,0,0,0,0,null,0,1,0,brander-desktop,0,0
01:24:09,0,eth0static,,4698.0,,true,0,0,0,0,null,0,1,0,brander-desktop,0,0
01:24:10,0,eth0db,,2687.0,,true,0,0,0,0,null,0,1,0,brander-desktop,0,0
01:24:11,0,eth0front1,,1493.0,,true,0,0,0,0,null,0,1,0,brander-desktop,0,0
01:24:12,0,eth0front2,,2038.0,,true,0,0,0,0,null,0,1,0,brander-desktop,0,0
01:24:13,0,eth0front3,,543.0,,true,0,0,0,0,null,0,1,0,brander-desktop,0,0
01:24:14,0,eth0front4,,2183.0,,true,0,0,0,0,null,0,1,0,brander-desktop,0,0
01:24:15,0,eth0static,,4056.0,,true,0,0,0,0,null,0,1,0,brander-desktop,0,0
01:24:16,0,eth0db,,2775.0,,true,0,0,0,0,null,0,1,0,brander-desktop,0,0
01:24:17,0,eth0front1,,1636.0,,true,0,0,0,0,null,0,1,0,brander-desktop,0,0
01:24:18,0,eth0front2,,1247.0,,true,0,0,0,0,null,0,1,0,brander-desktop,0,0
01:24:19,0,eth0front3,,1682.0,,true,0,0,0,0,null,0,1,0,brander-desktop,0,0
01:24:21,0,eth0front4,,1211.0,,true,0,0,0,0,null,0,1,0,brander-desktop,0,0
01:24:22,0,eth0static,,3303.0,,true,0,0,0,0,null,0,1,0,brander-desktop,0,0
01:24:23,0,eth0db,,2728.0,,true,0,0,0,0,null,0,1,0,brander-desktop,0,0
01:24:24,0,eth0front1,,3353.0,,true,0,0,0,0,null,0,1,0,brander-desktop,0,0
01:24:25,0,eth0front2,,1837.0,,true,0,0,0,0,null,0,1,0,brander-desktop,0,0
01:24:26,0,eth0front3,,963.0,,true,0,0,0,0,null,0,1,0,brander-desktop,0,0
01:24:27,0,eth0front4,,1562.0,,true,0,0,0,0,null,0,1,0,brander-desktop,0,0
01:24:28,0,eth0static,,3779.0,,true,0,0,0,0,null,0,1,0,brander-desktop,0,0
01:24:29,0,eth0db,,2510.0,,true,0,0,0,0,null,0,1,0,brander-desktop,0,0
01:24:30,0,eth0front1,,2761.0,,true,0,0,0,0,null,0,1,0,brander-desktop,0,0
01:24:32,0,eth0front2,,947.0,,true,0,0,0,0,null,0,1,0,brander-desktop,0,0
01:24:33,0,eth0front3,,458.0,,true,0,0,0,0,null,0,1,0,brander-desktop,0,0
01:24:34,0,eth0front4,,2335.0,,true,0,0,0,0,null,0,1,0,brander-desktop,0,0
01:24:35,0,eth0static,,3920.0,,true,0,0,0,0,null,0,1,0,brander-desktop,0,0
01:24:36,0,eth0db,,1879.0,,true,0,0,0,0,null,0,1,0,brander-desktop,0,0
01:24:37,0,eth0front1,,2735.0,,true,0,0,0,0,null,0,1,0,brander-desktop,0,0
01:24:38,0,eth0front2,,3768.0,,true,0,0,0,0,null,0,1,0,brander-desktop,0,0
01:24:39,0,eth0front3,,534.0,,true,0,0,0,0,null,0,1,0,brander-desktop,0,0
01:24:40,0,eth0front4,,1771.0,,true,0,0,0,0,null,0,1,0,brander-desktop,0,0
01:24:41,0,eth0static,,4665.0,,true,0,0,0,0,null,0,1,0,brander-desktop,0,0
01:24:43,0,eth0db,,2569.0,,true,0,0,0,0,null,0,1,0,brander-desktop,0,0
01:24:44,0,eth0front1,,3552.0,,true,0,0,0,0,null,0,1,0,brander-desktop,0,0
01:24:45,0,eth0front2,,1818.0,,true,0,0,0,0,null,0,1,0,brander-desktop,0,0
01:24:46,0,eth0front3,,447.0,,true,0,0,0,0,null,0,1,0,brander-desktop,0,0
01:24:47,0,eth0front4,,2325.0,,true,0,0,0,0,null,0,1,0,brander-desktop,0,0
01:24:48,0,eth0static,,6089.0,,true,0,0,0,0,null,0,1,0,brander-desktop,0,0
01:24:49,0,eth0db,,3704.0,,true,0,0,0,0,null,0,1,0,brander-desktop,0,0
01:24:50,0,eth0front1,,1553.0,,true,0,0,0,0,null,0,1,0,brander-desktop,0,0
01:24:51,0,eth0front2,,2744.0,,true,0,0,0,0,null,0,1,0,brander-desktop,0,0
01:24:52,0,eth0front3,,1651.0,,true,0,0,0,0,null,0,1,0,brander-desktop,0,0
01:24:53,0,eth0front4,,1375.0,,true,0,0,0,0,null,0,1,0,brander-desktop,0,0
01:24:55,0,eth0static,,3999.0,,true,0,0,0,0,null,0,1,0,brander-desktop,0,0
01:24:56,0,eth0db,,1907.0,,true,0,0,0,0,null,0,1,0,brander-desktop,0,0
01:24:57,0,eth0front1,,2506.0,,true,0,0,0,0,null,0,1,0,brander-desktop,0,0
01:24:58,0,eth0front2,,1706.0,,true,0,0,0,0,null,0,1,0,brander-desktop,0,0
01:24:59,0,eth0front3,,906.0,,true,0,0,0,0,null,0,1,0,brander-desktop,0,0
01:25:00,0,eth0front4,,1685.0,,true,0,0,0,0,null,0,1,0,brander-desktop,0,0
01:25:01,0,eth0static,,4660.0,,true,0,0,0,0,null,0,1,0,brander-desktop,0,0
01:25:02,0,eth0db,,3107.0,,true,0,0,0,0,null,0,1,0,brander-desktop,0,0
01:25:03,0,eth0front1,,1387.0,,true,0,0,0,0,null,0,1,0,brander-desktop,0,0
01:25:04,0,eth0front2,,1758.0,,true,0,0,0,0,null,0,1,0,brander-desktop,0,0
01:25:05,0,eth0front3,,973.0,,true,0,0,0,0,null,0,1,0,brander-desktop,0,0
01:25:07,0,eth0front4,,1440.0,,true,0,0,0,0,null,0,1,0,brander-desktop,0,0
01:25:08,0,eth0static,,3462.0,,true,0,0,0,0,null,0,1,0,brander-desktop,0,0
01:25:09,0,eth0db,,2993.0,,true,0,0,0,0,null,0,1,0,brander-desktop,0,0
01:25:10,0,eth0front1,,2620.0,,true,0,0,0,0,null,0,1,0,brander-desktop,0,0
01:25:11,0,eth0front2,,1386.0,,true,0,0,0,0,null,0,1,0,brander-desktop,0,0
01:25:12,0,eth0front3,,1604.0,,true,0,0,0,0,null,0,1,0,brander-desktop,0,0
01:25:13,0,eth0front4,,1300.0,,true,0,0,0,0,null,0,1,0,brander-desktop,0,0
01:25:14,0,eth0static,,3763.0,,true,0,0,0,0,null,0,1,0,brander-desktop,0,0
01:25:15,0,eth0db,,2055.0,,true,0,0,0,0,null,0,1,0,brander-desktop,0,0
01:25:17,0,eth0front1,,1337.0,,true,0,0,0,0,null,0,1,0,brander-desktop,0,0
01:25:18,0,eth0front2,,1773.0,,true,0,0,0,0,null,0,1,0,brander-desktop,0,0
01:25:19,0,eth0front3,,1742.0,,true,0,0,0,0,null,0,1,0,brander-desktop,0,0
01:25:20,0,eth0front4,,959.0,,true,0,0,0,0,null,0,1,0,brander-desktop,0,0
01:25:21,0,eth0static,,3969.0,,true,0,0,0,0,null,0,1,0,brander-desktop,0,0
01:25:22,0,eth0db,,2184.0,,true,0,0,0,0,null,0,1,0,brander-desktop,0,0
01:25:23,0,eth0front1,,1756.0,,true,0,0,0,0,null,0,1,0,brander-desktop,0,0
01:25:24,0,eth0front2,,2087.0,,true,0,0,0,0,null,0,1,0,brander-desktop,0,0
01:25:25,0,eth0front3,,1322.77,,true,0,0,0,0,null,0,1,0,brander-desktop,0,0
01:25:26,0,eth0front4,,1999.0,,true,0,0,0,0,null,0,1,0,brander-desktop,0,0
01:25:28,0,eth0static,,5382.0,,true,0,0,0,0,null,0,1,0,brander-desktop,0,0
01:25:29,0,eth0db,,2470.0,,true,0,0,0,0,null,0,1,0,brander-desktop,0,0
01:25:30,0,eth0front1,,3024.0,,true,0,0,0,0,null,0,1,0,brander-desktop,0,0
01:25:31,0,eth0front2,,1184.0,,true,0,0,0,0,null,0,1,0,brander-desktop,0,0
01:25:32,0,eth0front3,,1115.0,,true,0,0,0,0,null,0,1,0,brander-desktop,0,0
01:25:33,0,eth0front4,,2122.0,,true,0,0,0,0,null,0,1,0,brander-desktop,0,0
01:25:34,0,eth0static,,5858.0,,true,0,0,0,0,null,0,1,0,brander-desktop,0,0
01:25:35,0,eth0db,,2061.0,,true,0,0,0,0,null,0,1,0,brander-desktop,0,0
01:25:36,0,eth0front1,,1728.0,,true,0,0,0,0,null,0,1,0,brander-desktop,0,0
01:25:37,0,eth0front2,,1259.0,,true,0,0,0,0,null,0,1,0,brander-desktop,0,0
01:25:39,0,eth0front3,,889.0,,true,0,0,0,0,null,0,1,0,brander-desktop,0,0
01:25:40,0,eth0front4,,1409.0,,true,0,0,0,0,null,0,1,0,brander-desktop,0,0
01:25:41,0,eth0static,,4117.0,,true,0,0,0,0,null,0,1,0,brander-desktop,0,0
01:25:42,0,eth0db,,2533.0,,true,0,0,0,0,null,0,1,0,brander-desktop,0,0
01:25:43,0,eth0front1,,1192.0,,true,0,0,0,0,null,0,1,0,brander-desktop,0,0
01:25:44,0,eth0front2,,1715.0,,true,0,0,0,0,null,0,1,0,brander-desktop,0,0
01:25:45,0,eth0front3,,1781.0,,true,0,0,0,0,null,0,1,0,brander-desktop,0,0
01:25:46,0,eth0front4,,1897.0,,true,0,0,0,0,null,0,1,0,brander-desktop,0,0
01:25:47,0,eth0static,,4355.0,,true,0,0,0,0,null,0,1,0,brander-desktop,0,0
01:25:48,0,eth0db,,3653.0,,true,0,0,0,0,null,0,1,0,brander-desktop,0,0
01:25:49,0,eth0front1,,1738.0,,true,0,0,0,0,null,0,1,0,brander-desktop,0,0
01:25:51,0,eth0front2,,1157.0,,true,0,0,0,0,null,0,1,0,brander-desktop,0,0
01:25:52,0,eth0front3,,1351.0,,true,0,0,0,0,null,0,1,0,brander-desktop,0,0
01:25:53,0,eth0front4,,2423.0,,true,0,0,0,0,null,0,1,0,brander-desktop,0,0
01:25:54,0,eth0static,,3054.0,,true,0,0,0,0,null,0,1,0,brander-desktop,0,0
01:25:55,0,eth0db,,1868.0,,true,0,0,0,0,null,0,1,0,brander-desktop,0,0
01:25:56,0,eth0front1,,1304.0,,true,0,0,0,0,null,0,1,0,brander-desktop,0,0
01:25:57,0,eth0front2,,2604.0,,true,0,0,0,0,null,0,1,0,brander-desktop,0,0
01:25:58,0,eth0front3,,978.0,,true,0,0,0,0,null,0,1,0,brander-desktop,0,0
01:25:59,0,eth0front4,,2562.0,,true,0,0,0,0,null,0,1,0,brander-desktop,0,0
01:26:00,0,eth0static,,5717.0,,true,0,0,0,0,null,0,1,0,brander-desktop,0,0
01:26:02,0,eth0db,,2981.0,,true,0,0,0,0,null,0,1,0,brander-desktop,0,0
01:26:03,0,eth0front1,,1167.33,,true,0,0,0,0,null,0,1,0,brander-desktop,0,0
01:26:04,0,eth0front2,,1014.0,,true,0,0,0,0,null,0,1,0,brander-desktop,0,0
01:26:05,0,eth0front3,,801.0,,true,0,0,0,0,null,0,1,0,brander-desktop,0,0
01:26:06,0,eth0front4,,1403.0,,true,0,0,0,0,null,0,1,0,brander-desktop,0,0
01:26:07,0,eth0static,,4628.0,,true,0,0,0,0,null,0,1,0,brander-desktop,0,0
01:26:08,0,eth0db,,2394.0,,true,0,0,0,0,null,0,1,0,brander-desktop,0,0
01:26:09,0,eth0front1,,2196.0,,true,0,0,0,0,null,0,1,0,brander-desktop,0,0
01:26:10,0,eth0front2,,2213.0,,true,0,0,0,0,null,0,1,0,brander-desktop,0,0
01:26:11,0,eth0front3,,1749.0,,true,0,0,0,0,null,0,1,0,brander-desktop,0,0
01:26:13,0,eth0front4,,1907.0,,true,0,0,0,0,null,0,1,0,brander-desktop,0,0
01:26:14,0,eth0static,,6366.0,,true,0,0,0,0,null,0,1,0,brander-desktop,0,0
01:26:15,0,eth0db,,2798.0,,true,0,0,0,0,null,0,1,0,brander-desktop,0,0
01:26:16,0,eth0front1,,2004.0,,true,0,0,0,0,null,0,1,0,brander-desktop,0,0
01:26:17,0,eth0front2,,2327.0,,true,0,0,0,0,null,0,1,0,brander-desktop,0,0
01:26:18,0,eth0front3,,1137.0,,true,0,0,0,0,null,0,1,0,brander-desktop,0,0
01:26:19,0,eth0front4,,1634.0,,true,0,0,0,0,null,0,1,0,brander-desktop,0,0
01:26:20,0,eth0static,,2865.0,,true,0,0,0,0,null,0,1,0,brander-desktop,0,0
01:26:21,0,eth0db,,3266.0,,true,0,0,0,0,null,0,1,0,brander-desktop,0,0
01:26:22,0,eth0front1,,2229.0,,true,0,0,0,0,null,0,1,0,brander-desktop,0,0
01:26:23,0,eth0front2,,1907.0,,true,0,0,0,0,null,0,1,0,brander-desktop,0,0
01:26:25,0,eth0front3,,1111.0,,true,0,0,0,0,null,0,1,0,brander-desktop,0,0
01:26:26,0,eth0front4,,2881.0,,true,0,0,0,0,null,0,1,0,brander-desktop,0,0
01:26:27,0,eth0static,,3337.0,,true,0,0,0,0,null,0,1,0,brander-desktop,0,0
01:26:28,0,eth0db,,3478.0,,true,0,0,0,0,null,0,1,0,brander-desktop,0,0
01:26:29,0,eth0front1,,1322.0,,true,0,0,0,0,null,0,1,0,brander-desktop,0,0
01:26:30,0,eth0front2,,2308.0,,true,0,0,0,0,null,0,1,0,brander-desktop,0,0
01:26:31,0,eth0front3,,1236.0,,true,0,0,0,0,null,0,1,0,brander-desktop,0,0
01:26:32,0,eth0front4,,1185.0,,true,0,0,0,0,null,0,1,0,brander-desktop,0,0
01:26:33,0,eth0static,,2285.0,,true,0,0,0,0,null,0,1,0,brander-desktop,0,0
01:26:34,0,eth0db,,2703.0,,true,0,0,0,0,null,0,1,0,brander-desktop,0,0
01:26:36,0,eth0front1,,1335.0,,true,0,0,0,0,null,0,1,0,brander-desktop,0,0
01:26:37,0,eth0front2,,2079.0,,true,0,0,0,0,null,0,1,0,brander-desktop,0,0
01:26:38,0,eth0front3,,722.0,,true,0,0,0,0,null,0,1,0,brander-desktop,0,0
01:26:39,0,eth0front4,,1200.0,,true,0,0,0,0,null,0,1,0,brander-desktop,0,0
01:26:40,0,eth0static,,3846.0,,true,0,0,0,0,null,0,1,0,brander-desktop,0,0
01:26:41,0,eth0db,,2337.0,,true,0,0,0,0,null,0,1,0,brander-desktop,0,0
01:26:42,0,eth0front1,,1567.0,,true,0,0,0,0,null,0,1,0,brander-desktop,0,0
01:26:43,0,eth0front2,,2668.0,,true,0,0,0,0,null,0,1,0,brander-desktop,0,0
01:26:44,0,eth0front3,,2340.0,,true,0,0,0,0,null,0,1,0,brander-desktop,0,0
01:26:45,0,eth0front4,,1577.0,,true,0,0,0,0,null,0,1,0,brander-desktop,0,0
01:26:47,0,eth0static,,3579.0,,true,0,0,0,0,null,0,1,0,brander-desktop,0,0
01:26:48,0,eth0db,,2724.0,,true,0,0,0,0,null,0,1,0,brander-desktop,0,0
01:26:49,0,eth0front1,,1464.0,,true,0,0,0,0,null,0,1,0,brander-desktop,0,0
01:26:50,0,eth0front2,,1666.0,,true,0,0,0,0,null,0,1,0,brander-desktop,0,0
01:26:51,0,eth0front3,,560.0,,true,0,0,0,0,null,0,1,0,brander-desktop,0,0
01:26:52,0,eth0front4,,1197.0,,true,0,0,0,0,null,0,1,0,brander-desktop,0,0
01:26:53,0,eth0static,,4286.0,,true,0,0,0,0,null,0,1,0,brander-desktop,0,0
01:26:54,0,eth0db,,1634.0,,true,0,0,0,0,null,0,1,0,brander-desktop,0,0
01:26:55,0,eth0front1,,1430.0,,true,0,0,0,0,null,0,1,0,brander-desktop,0,0
01:26:56,0,eth0front2,,1603.0,,true,0,0,0,0,null,0,1,0,brander-desktop,0,0
01:26:58,0,eth0front3,,852.0,,true,0,0,0,0,null,0,1,0,brander-desktop,0,0
01:26:59,0,eth0front4,,1745.0,,true,0,0,0,0,null,0,1,0,brander-desktop,0,0
01:27:00,0,eth0static,,4438.0,,true,0,0,0,0,null,0,1,0,brander-desktop,0,0
01:27:01,0,eth0db,,3284.0,,true,0,0,0,0,null,0,1,0,brander-desktop,0,0
01:27:02,0,eth0front1,,1714.0,,true,0,0,0,0,null,0,1,0,brander-desktop,0,0
01:27:03,0,eth0front2,,1652.0,,true,0,0,0,0,null,0,1,0,brander-desktop,0,0
01:27:04,0,eth0front3,,1045.0,,true,0,0,0,0,null,0,1,0,brander-desktop,0,0
01:27:05,0,eth0front4,,1416.0,,true,0,0,0,0,null,0,1,0,brander-desktop,0,0
01:27:06,0,eth0static,,3791.0,,true,0,0,0,0,null,0,1,0,brander-desktop,0,0
01:27:07,0,eth0db,,2186.0,,true,0,0,0,0,null,0,1,0,brander-desktop,0,0
01:27:09,0,eth0front1,,1136.0,,true,0,0,0,0,null,0,1,0,brander-desktop,0,0
01:27:10,0,eth0front2,,1196.0,,true,0,0,0,0,null,0,1,0,brander-desktop,0,0
01:27:11,0,eth0front3,,1378.0,,true,0,0,0,0,null,0,1,0,brander-desktop,0,0
01:27:12,0,eth0front4,,847.0,,true,0,0,0,0,null,0,1,0,brander-desktop,0,0
01:27:13,0,eth0static,,2443.0,,true,0,0,0,0,null,0,1,0,brander-desktop,0,0
01:27:14,0,eth0db,,2310.0,,true,0,0,0,0,null,0,1,0,brander-desktop,0,0
01:27:15,0,eth0front1,,2414.0,,true,0,0,0,0,null,0,1,0,brander-desktop,0,0
01:27:16,0,eth0front2,,1808.0,,true,0,0,0,0,null,0,1,0,brander-desktop,0,0
01:27:17,0,eth0front3,,1591.0,,true,0,0,0,0,null,0,1,0,brander-desktop,0,0
01:27:18,0,eth0front4,,1744.0,,true,0,0,0,0,null,0,1,0,brander-desktop,0,0
01:27:20,0,eth0static,,3923.0,,true,0,0,0,0,null,0,1,0,brander-desktop,0,0
01:27:21,0,eth0db,,2540.0,,true,0,0,0,0,null,0,1,0,brander-desktop,0,0
01:27:22,0,eth0front1,,983.0,,true,0,0,0,0,null,0,1,0,brander-desktop,0,0
01:27:23,0,eth0front2,,1469.0,,true,0,0,0,0,null,0,1,0,brander-desktop,0,0
01:27:24,0,eth0front3,,1009.0,,true,0,0,0,0,null,0,1,0,brander-desktop,0,0
01:27:25,0,eth0front4,,2026.0,,true,0,0,0,0,null,0,1,0,brander-desktop,0,0
01:27:26,0,eth0static,,4223.0,,true,0,0,0,0,null,0,1,0,brander-desktop,0,0
01:27:27,0,eth0db,,2086.0,,true,0,0,0,0,null,0,1,0,brander-desktop,0,0
01:27:28,0,eth0front1,,2039.0,,true,0,0,0,0,null,0,1,0,brander-desktop,0,0
01:27:29,0,eth0front2,,2091.0,,true,0,0,0,0,null,0,1,0,brander-desktop,0,0
01:27:30,0,eth0front3,,1864.0,,true,0,0,0,0,null,0,1,0,brander-desktop,0,0
01:27:32,0,eth0front4,,2003.0,,true,0,0,0,0,null,0,1,0,brander-desktop,0,0
01:27:33,0,eth0static,,4326.0,,true,0,0,0,0,null,0,1,0,brander-desktop,0,0
01:27:34,0,eth0db,,3432.0,,true,0,0,0,0,null,0,1,0,brander-desktop,0,0
01:27:35,0,eth0front1,,3583.0,,true,0,0,0,0,null,0,1,0,brander-desktop,0,0
01:27:36,0,eth0front2,,1573.0,,true,0,0,0,0,null,0,1,0,brander-desktop,0,0
01:27:37,0,eth0front3,,1107.0,,true,0,0,0,0,null,0,1,0,brander-desktop,0,0
01:27:38,0,eth0front4,,560.0,,true,0,0,0,0,null,0,1,0,brander-desktop,0,0
01:27:39,0,eth0static,,3668.0,,true,0,0,0,0,null,0,1,0,brander-desktop,0,0
01:27:40,0,eth0db,,2598.0,,true,0,0,0,0,null,0,1,0,brander-desktop,0,0
01:27:41,0,eth0front1,,1211.0,,true,0,0,0,0,null,0,1,0,brander-desktop,0,0
01:27:43,0,eth0front2,,2119.0,,true,0,0,0,0,null,0,1,0,brander-desktop,0,0
01:27:44,0,eth0front3,,1718.0,,true,0,0,0,0,null,0,1,0,brander-desktop,0,0
01:27:45,0,eth0front4,,1335.0,,true,0,0,0,0,null,0,1,0,brander-desktop,0,0
01:27:46,0,eth0static,,5512.0,,true,0,0,0,0,null,0,1,0,brander-desktop,0,0
01:27:47,0,eth0db,,3633.0,,true,0,0,0,0,null,0,1,0,brander-desktop,0,0
01:27:48,0,eth0front1,,3014.0,,true,0,0,0,0,null,0,1,0,brander-desktop,0,0
01:27:49,0,eth0front2,,2433.0,,true,0,0,0,0,null,0,1,0,brander-desktop,0,0
01:27:50,0,eth0front3,,733.0,,true,0,0,0,0,null,0,1,0,brander-desktop,0,0
01:27:51,0,eth0front4,,1546.0,,true,0,0,0,0,null,0,1,0,brander-desktop,0,0
01:27:52,0,eth0static,,5058.0,,true,0,0,0,0,null,0,1,0,brander-desktop,0,0
01:27:53,0,eth0db,,2857.0,,true,0,0,0,0,null,0,1,0,brander-desktop,0,0
01:27:55,0,eth0front1,,767.0,,true,0,0,0,0,null,0,1,0,brander-desktop,0,0
01:27:56,0,eth0front2,,1320.0,,true,0,0,0,0,null,0,1,0,brander-desktop,0,0
01:27:57,0,eth0front3,,441.0,,true,0,0,0,0,null,0,1,0,brander-desktop,0,0
01:27:58,0,eth0front4,,1703.0,,true,0,0,0,0,null,0,1,0,brander-desktop,0,0
01:27:59,0,eth0static,,3223.0,,true,0,0,0,0,null,0,1,0,brander-desktop,0,0
01:28:00,0,eth0db,,1760.0,,true,0,0,0,0,null,0,1,0,brander-desktop,0,0
01:28:01,0,eth0front1,,1327.0,,true,0,0,0,0,null,0,1,0,brander-desktop,0,0
01:28:02,0,eth0front2,,2278.0,,true,0,0,0,0,null,0,1,0,brander-desktop,0,0
01:28:03,0,eth0front3,,2166.0,,true,0,0,0,0,null,0,1,0,brander-desktop,0,0
01:28:04,0,eth0front4,,1333.0,,true,0,0,0,0,null,0,1,0,brander-desktop,0,0
01:28:06,0,eth0static,,4058.0,,true,0,0,0,0,null,0,1,0,brander-desktop,0,0
01:28:07,0,eth0db,,3078.0,,true,0,0,0,0,null,0,1,0,brander-desktop,0,0
01:28:08,0,eth0front1,,1290.0,,true,0,0,0,0,null,0,1,0,brander-desktop,0,0
01:28:09,0,eth0front2,,2867.0,,true,0,0,0,0,null,0,1,0,brander-desktop,0,0
01:28:10,0,eth0front3,,1185.0,,true,0,0,0,0,null,0,1,0,brander-desktop,0,0
01:28:11,0,eth0front4,,3219.0,,true,0,0,0,0,null,0,1,0,brander-desktop,0,0
01:28:12,0,eth0static,,4414.0,,true,0,0,0,0,null,0,1,0,brander-desktop,0,0
01:28:13,0,eth0db,,2997.0,,true,0,0,0,0,null,0,1,0,brander-desktop,0,0
01:28:14,0,eth0front1,,2063.0,,true,0,0,0,0,null,0,1,0,brander-desktop,0,0
01:28:15,0,eth0front2,,2031.0,,true,0,0,0,0,null,0,1,0,brander-desktop,0,0
01:28:17,0,eth0front3,,1551.0,,true,0,0,0,0,null,0,1,0,brander-desktop,0,0
01:28:18,0,eth0front4,,2560.0,,true,0,0,0,0,null,0,1,0,brander-desktop,0,0
01:28:19,0,eth0static,,4742.0,,true,0,0,0,0,null,0,1,0,brander-desktop,0,0
01:28:20,0,eth0db,,3528.0,,true,0,0,0,0,null,0,1,0,brander-desktop,0,0
01:28:21,0,eth0front1,,2070.0,,true,0,0,0,0,null,0,1,0,brander-desktop,0,0
01:28:22,0,eth0front2,,1541.0,,true,0,0,0,0,null,0,1,0,brander-desktop,0,0
01:28:23,0,eth0front3,,1410.0,,true,0,0,0,0,null,0,1,0,brander-desktop,0,0
01:28:24,0,eth0front4,,1745.0,,true,0,0,0,0,null,0,1,0,brander-desktop,0,0
01:28:25,0,eth0static,,4165.0,,true,0,0,0,0,null,0,1,0,brander-desktop,0,0
01:28:26,0,eth0db,,3502.0,,true,0,0,0,0,null,0,1,0,brander-desktop,0,0
01:28:28,0,eth0front1,,1922.0,,true,0,0,0,0,null,0,1,0,brander-desktop,0,0
01:28:29,0,eth0front2,,2708.0,,true,0,0,0,0,null,0,1,0,brander-desktop,0,0
01:28:30,0,eth0front3,,1182.0,,true,0,0,0,0,null,0,1,0,brander-desktop,0,0
01:28:31,0,eth0front4,,2059.0,,true,0,0,0,0,null,0,1,0,brander-desktop,0,0
01:28:32,0,eth0static,,3151.0,,true,0,0,0,0,null,0,1,0,brander-desktop,0,0
01:28:33,0,eth0db,,2235.0,,true,0,0,0,0,null,0,1,0,brander-desktop,0,0
01:28:34,0,eth0front1,,2632.0,,true,0,0,0,0,null,0,1,0,brander-desktop,0,0
01:28:35,0,eth0front2,,2011.0,,true,0,0,0,0,null,0,1,0,brander-desktop,0,0
01:28:36,0,eth0front3,,1714.0,,true,0,0,0,0,null,0,1,0,brander-desktop,0,0
01:28:37,0,eth0front4,,1169.0,,true,0,0,0,0,null,0,1,0,brander-desktop,0,0
01:28:38,0,eth0static,,2991.0,,true,0,0,0,0,null,0,1,0,brander-desktop,0,0
01:28:40,0,eth0db,,2185.0,,true,0,0,0,0,null,0,1,0,brander-desktop,0,0
01:28:41,0,eth0front1,,2816.0,,true,0,0,0,0,null,0,1,0,brander-desktop,0,0
01:28:42,0,eth0front2,,1296.0,,true,0,0,0,0,null,0,1,0,brander-desktop,0,0
01:28:43,0,eth0front3,,320.0,,true,0,0,0,0,null,0,1,0,brander-desktop,0,0
01:28:44,0,eth0front4,,2403.0,,true,0,0,0,0,null,0,1,0,brander-desktop,0,0
01:28:45,0,eth0static,,5860.0,,true,0,0,0,0,null,0,1,0,brander-desktop,0,0
01:28:46,0,eth0db,,1489.0,,true,0,0,0,0,null,0,1,0,brander-desktop,0,0
01:28:47,0,eth0front1,,2322.0,,true,0,0,0,0,null,0,1,0,brander-desktop,0,0
01:28:48,0,eth0front2,,2215.0,,true,0,0,0,0,null,0,1,0,brander-desktop,0,0
01:28:49,0,eth0front3,,997.0,,true,0,0,0,0,null,0,1,0,brander-desktop,0,0
01:28:51,0,eth0front4,,2261.0,,true,0,0,0,0,null,0,1,0,brander-desktop,0,0
01:28:52,0,eth0static,,4327.0,,true,0,0,0,0,null,0,1,0,brander-desktop,0,0
01:28:53,0,eth0db,,3308.0,,true,0,0,0,0,null,0,1,0,brander-desktop,0,0
01:28:54,0,eth0front1,,1518.0,,true,0,0,0,0,null,0,1,0,brander-desktop,0,0
01:28:55,0,eth0front2,,1358.0,,true,0,0,0,0,null,0,1,0,brander-desktop,0,0
01:28:56,0,eth0front3,,638.0,,true,0,0,0,0,null,0,1,0,brander-desktop,0,0
01:28:57,0,eth0front4,,1728.0,,true,0,0,0,0,null,0,1,0,brander-desktop,0,0
01:28:58,0,eth0static,,4040.0,,true,0,0,0,0,null,0,1,0,brander-desktop,0,0
01:28:59,0,eth0db,,1732.0,,true,0,0,0,0,null,0,1,0,brander-desktop,0,0
01:29:00,0,eth0front1,,1841.0,,true,0,0,0,0,null,0,1,0,brander-desktop,0,0
01:29:02,0,eth0front2,,2326.0,,true,0,0,0,0,null,0,1,0,brander-desktop,0,0
01:29:03,0,eth0front3,,1495.0,,true,0,0,0,0,null,0,1,0,brander-desktop,0,0
01:29:04,0,eth0front4,,2821.0,,true,0,0,0,0,null,0,1,0,brander-desktop,0,0
01:29:05,0,eth0static,,7134.0,,true,0,0,0,0,null,0,1,0,brander-desktop,0,0
01:29:06,0,eth0db,,2820.0,,true,0,0,0,0,null,0,1,0,brander-desktop,0,0
01:29:07,0,eth0front1,,1835.0,,true,0,0,0,0,null,0,1,0,brander-desktop,0,0
01:29:08,0,eth0front2,,1528.0,,true,0,0,0,0,null,0,1,0,brander-desktop,0,0
01:29:09,0,eth0front3,,1538.0,,true,0,0,0,0,null,0,1,0,brander-desktop,0,0
01:29:10,0,eth0front4,,2878.0,,true,0,0,0,0,null,0,1,0,brander-desktop,0,0
01:29:11,0,eth0static,,3932.0,,true,0,0,0,0,null,0,1,0,brander-desktop,0,0
01:29:12,0,eth0db,,2879.0,,true,0,0,0,0,null,0,1,0,brander-desktop,0,0
01:29:14,0,eth0front1,,1812.0,,true,0,0,0,0,null,0,1,0,brander-desktop,0,0
01:29:15,0,eth0front2,,1674.0,,true,0,0,0,0,null,0,1,0,brander-desktop,0,0
01:29:16,0,eth0front3,,967.0,,true,0,0,0,0,null,0,1,0,brander-desktop,0,0
01:29:17,0,eth0front4,,1660.0,,true,0,0,0,0,null,0,1,0,brander-desktop,0,0
01:29:18,0,eth0static,,4336.0,,true,0,0,0,0,null,0,1,0,brander-desktop,0,0
01:29:19,0,eth0db,,4122.0,,true,0,0,0,0,null,0,1,0,brander-desktop,0,0
01:29:20,0,eth0front1,,4120.0,,true,0,0,0,0,null,0,1,0,brander-desktop,0,0
01:29:21,0,eth0front2,,1462.0,,true,0,0,0,0,null,0,1,0,brander-desktop,0,0
01:29:22,0,eth0front3,,1897.0,,true,0,0,0,0,null,0,1,0,brander-desktop,0,0
01:29:23,0,eth0front4,,2265.0,,true,0,0,0,0,null,0,1,0,brander-desktop,0,0
01:29:25,0,eth0static,,5803.0,,true,0,0,0,0,null,0,1,0,brander-desktop,0,0
01:29:26,0,eth0db,,2572.0,,true,0,0,0,0,null,0,1,0,brander-desktop,0,0
01:29:27,0,eth0front1,,2526.0,,true,0,0,0,0,null,0,1,0,brander-desktop,0,0
01:29:28,0,eth0front2,,1438.0,,true,0,0,0,0,null,0,1,0,brander-desktop,0,0
01:29:29,0,eth0front3,,1083.0,,true,0,0,0,0,null,0,1,0,brander-desktop,0,0
01:29:30,0,eth0front4,,2502.0,,true,0,0,0,0,null,0,1,0,brander-desktop,0,0
01:29:31,0,eth0static,,3373.0,,true,0,0,0,0,null,0,1,0,brander-desktop,0,0
01:29:32,0,eth0db,,3761.0,,true,0,0,0,0,null,0,1,0,brander-desktop,0,0
01:29:33,0,eth0front1,,2133.0,,true,0,0,0,0,null,0,1,0,brander-desktop,0,0
01:29:34,0,eth0front2,,1889.0,,true,0,0,0,0,null,0,1,0,brander-desktop,0,0
01:29:36,0,eth0front3,,2074.0,,true,0,0,0,0,null,0,1,0,brander-desktop,0,0
01:29:37,0,eth0front4,,1766.0,,true,0,0,0,0,null,0,1,0,brander-desktop,0,0
01:29:38,0,eth0static,,3906.0,,true,0,0,0,0,null,0,1,0,brander-desktop,0,0
01:29:39,0,eth0db,,2425.0,,true,0,0,0,0,null,0,1,0,brander-desktop,0,0
01:29:40,0,eth0front1,,1204.0,,true,0,0,0,0,null,0,1,0,brander-desktop,0,0
01:29:41,0,eth0front2,,1715.0,,true,0,0,0,0,null,0,1,0,brander-desktop,0,0
01:29:42,0,eth0front3,,787.0,,true,0,0,0,0,null,0,1,0,brander-desktop,0,0
01:29:43,0,eth0front4,,1745.0,,true,0,0,0,0,null,0,1,0,brander-desktop,0,0
01:29:44,0,eth0static,,4192.0,,true,0,0,0,0,null,0,1,0,brander-desktop,0,0
01:29:45,0,eth0db,,2065.0,,true,0,0,0,0,null,0,1,0,brander-desktop,0,0
01:29:46,0,eth0front1,,2552.0,,true,0,0,0,0,null,0,1,0,brander-desktop,0,0
01:29:48,0,eth0front2,,2859.0,,true,0,0,0,0,null,0,1,0,brander-desktop,0,0
01:29:49,0,eth0front3,,1270.0,,true,0,0,0,0,null,0,1,0,brander-desktop,0,0
01:29:50,0,eth0front4,,2572.0,,true,0,0,0,0,null,0,1,0,brander-desktop,0,0
01:29:51,0,eth0static,,4500.0,,true,0,0,0,0,null,0,1,0,brander-desktop,0,0
01:29:52,0,eth0db,,1329.0,,true,0,0,0,0,null,0,1,0,brander-desktop,0,0
01:29:53,0,eth0front1,,1337.0,,true,0,0,0,0,null,0,1,0,brander-desktop,0,0
01:29:54,0,eth0front2,,1842.0,,true,0,0,0,0,null,0,1,0,brander-desktop,0,0
01:29:55,0,eth0front3,,1541.0,,true,0,0,0,0,null,0,1,0,brander-desktop,0,0
01:29:56,0,eth0front4,,1858.0,,true,0,0,0,0,null,0,1,0,brander-desktop,0,0
01:29:57,0,eth0static,,3139.0,,true,0,0,0,0,null,0,1,0,brander-desktop,0,0
01:29:59,0,eth0db,,2037.0,,true,0,0,0,0,null,0,1,0,brander-desktop,0,0
01:30:00,0,eth0front1,,1517.82,,true,0,0,0,0,null,0,1,0,brander-desktop,0,0
01:30:01,0,eth0front2,,2361.0,,true,0,0,0,0,null,0,1,0,brander-desktop,0,0
01:30:02,0,eth0front3,,1319.0,,true,0,0,0,0,null,0,1,0,brander-desktop,0,0
01:30:03,0,eth0front4,,1747.0,,true,0,0,0,0,null,0,1,0,brander-desktop,0,0
01:30:04,0,eth0static,,5798.0,,true,0,0,0,0,null,0,1,0,brander-desktop,0,0
01:30:05,0,eth0db,,2248.0,,true,0,0,0,0,null,0,1,0,brander-desktop,0,0
01:30:06,0,eth0front1,,1305.0,,true,0,0,0,0,null,0,1,0,brander-desktop,0,0
01:30:07,0,eth0front2,,1580.0,,true,0,0,0,0,null,0,1,0,brander-desktop,0,0
01:30:08,0,eth0front3,,1067.0,,true,0,0,0,0,null,0,1,0,brander-desktop,0,0
01:30:09,0,eth0front4,,1522.0,,true,0,0,0,0,null,0,1,0,brander-desktop,0,0
01:30:11,0,eth0static,,4110.0,,true,0,0,0,0,null,0,1,0,brander-desktop,0,0
01:30:12,0,eth0db,,3434.0,,true,0,0,0,0,null,0,1,0,brander-desktop,0,0
01:30:13,0,eth0front1,,1414.0,,true,0,0,0,0,null,0,1,0,brander-desktop,0,0
01:30:14,0,eth0front2,,1529.0,,true,0,0,0,0,null,0,1,0,brander-desktop,0,0
01:30:15,0,eth0front3,,579.0,,true,0,0,0,0,null,0,1,0,brander-desktop,0,0
01:30:16,0,eth0front4,,1606.0,,true,0,0,0,0,null,0,1,0,brander-desktop,0,0
01:30:17,0,eth0static,,3680.0,,true,0,0,0,0,null,0,1,0,brander-desktop,0,0
01:30:18,0,eth0db,,4877.0,,true,0,0,0,0,null,0,1,0,brander-desktop,0,0
01:30:19,0,eth0front1,,2076.0,,true,0,0,0,0,null,0,1,0,brander-desktop,0,0
01:30:20,0,eth0front2,,2818.0,,true,0,0,0,0,null,0,1,0,brander-desktop,0,0
01:30:21,0,eth0front3,,1551.0,,true,0,0,0,0,null,0,1,0,brander-desktop,0,0
01:30:23,0,eth0front4,,2160.0,,true,0,0,0,0,null,0,1,0,brander-desktop,0,0
01:30:24,0,eth0static,,4005.0,,true,0,0,0,0,null,0,1,0,brander-desktop,0,0
01:30:25,0,eth0db,,2811.0,,true,0,0,0,0,null,0,1,0,brander-desktop,0,0
01:30:26,0,eth0front1,,1369.0,,true,0,0,0,0,null,0,1,0,brander-desktop,0,0
01:30:27,0,eth0front2,,1733.0,,true,0,0,0,0,null,0,1,0,brander-desktop,0,0
01:30:28,0,eth0front3,,878.0,,true,0,0,0,0,null,0,1,0,brander-desktop,0,0
01:30:29,0,eth0front4,,1712.0,,true,0,0,0,0,null,0,1,0,brander-desktop,0,0
01:30:30,0,eth0static,,4490.1,,true,0,0,0,0,null,0,1,0,brander-desktop,0,0
01:30:31,0,eth0db,,3159.0,,true,0,0,0,0,null,0,1,0,brander-desktop,0,0
01:30:32,0,eth0front1,,2243.0,,true,0,0,0,0,null,0,1,0,brander-desktop,0,0
01:30:34,0,eth0front2,,1912.0,,true,0,0,0,0,null,0,1,0,brander-desktop,0,0
01:30:35,0,eth0front3,,1675.0,,true,0,0,0,0,null,0,1,0,brander-desktop,0,0
01:30:36,0,eth0front4,,1303.0,,true,0,0,0,0,null,0,1,0,brander-desktop,0,0
01:30:37,0,eth0static,,3066.0,,true,0,0,0,0,null,0,1,0,brander-desktop,0,0
01:30:38,0,eth0db,,2910.0,,true,0,0,0,0,null,0,1,0,brander-desktop,0,0
01:30:39,0,eth0front1,,2826.0,,true,0,0,0,0,null,0,1,0,brander-desktop,0,0
01:30:40,0,eth0front2,,2266.0,,true,0,0,0,0,null,0,1,0,brander-desktop,0,0
01:30:41,0,eth0front3,,1580.0,,true,0,0,0,0,null,0,1,0,brander-desktop,0,0
01:30:42,0,eth0front4,,2719.0,,true,0,0,0,0,null,0,1,0,brander-desktop,0,0
01:30:43,0,eth0static,,3538.0,,true,0,0,0,0,null,0,1,0,brander-desktop,0,0
01:30:44,0,eth0db,,3051.0,,true,0,0,0,0,null,0,1,0,brander-desktop,0,0
01:30:46,0,eth0front1,,2452.0,,true,0,0,0,0,null,0,1,0,brander-desktop,0,0
01:30:47,0,eth0front2,,1208.0,,true,0,0,0,0,null,0,1,0,brander-desktop,0,0
01:30:48,0,eth0front3,,1203.0,,true,0,0,0,0,null,0,1,0,brander-desktop,0,0
01:30:49,0,eth0front4,,1774.0,,true,0,0,0,0,null,0,1,0,brander-desktop,0,0
01:30:50,0,eth0static,,3031.0,,true,0,0,0,0,null,0,1,0,brander-desktop,0,0
01:30:51,0,eth0db,,3784.0,,true,0,0,0,0,null,0,1,0,brander-desktop,0,0
01:30:52,0,eth0front1,,1514.0,,true,0,0,0,0,null,0,1,0,brander-desktop,0,0
01:30:53,0,eth0front2,,2550.0,,true,0,0,0,0,null,0,1,0,brander-desktop,0,0
01:30:54,0,eth0front3,,1025.0,,true,0,0,0,0,null,0,1,0,brander-desktop,0,0
01:30:55,0,eth0front4,,1247.0,,true,0,0,0,0,null,0,1,0,brander-desktop,0,0
01:30:57,0,eth0static,,3055.0,,true,0,0,0,0,null,0,1,0,brander-desktop,0,0
01:30:58,0,eth0db,,1672.0,,true,0,0,0,0,null,0,1,0,brander-desktop,0,0
01:30:59,0,eth0front1,,974.0,,true,0,0,0,0,null,0,1,0,brander-desktop,0,0
01:31:00,0,eth0front2,,1271.0,,true,0,0,0,0,null,0,1,0,brander-desktop,0,0
01:31:01,0,eth0front3,,1148.0,,true,0,0,0,0,null,0,1,0,brander-desktop,0,0
01:31:02,0,eth0front4,,1837.0,,true,0,0,0,0,null,0,1,0,brander-desktop,0,0
01:31:03,0,eth0static,,4631.0,,true,0,0,0,0,null,0,1,0,brander-desktop,0,0
01:31:04,0,eth0db,,3490.0,,true,0,0,0,0,null,0,1,0,brander-desktop,0,0
01:31:05,0,eth0front1,,630.0,,true,0,0,0,0,null,0,1,0,brander-desktop,0,0
01:31:06,0,eth0front2,,2167.0,,true,0,0,0,0,null,0,1,0,brander-desktop,0,0
01:31:08,0,eth0front3,,1144.0,,true,0,0,0,0,null,0,1,0,brander-desktop,0,0
01:31:09,0,eth0front4,,2595.0,,true,0,0,0,0,null,0,1,0,brander-desktop,0,0
01:31:10,0,eth0static,,4206.0,,true,0,0,0,0,null,0,1,0,brander-desktop,0,0
01:31:11,0,eth0db,,2257.0,,true,0,0,0,0,null,0,1,0,brander-desktop,0,0
01:31:12,0,eth0front1,,2513.0,,true,0,0,0,0,null,0,1,0,brander-desktop,0,0
01:31:13,0,eth0front2,,2374.0,,true,0,0,0,0,null,0,1,0,brander-desktop,0,0
01:31:14,0,eth0front3,,1771.0,,true,0,0,0,0,null,0,1,0,brander-desktop,0,0
01:31:15,0,eth0front4,,2884.0,,true,0,0,0,0,null,0,1,0,brander-desktop,0,0
01:31:16,0,eth0static,,3374.0,,true,0,0,0,0,null,0,1,0,brander-desktop,0,0
01:31:17,0,eth0db,,3385.0,,true,0,0,0,0,null,0,1,0,brander-desktop,0,0
01:31:18,0,eth0front1,,2304.0,,true,0,0,0,0,null,0,1,0,brander-desktop,0,0
01:31:19,0,eth0front2,,1434.0,,true,0,0,0,0,null,0,1,0,brander-desktop,0,0
01:31:21,0,eth0front3,,1794.0,,true,0,0,0,0,null,0,1,0,brander-desktop,0,0
01:31:22,0,eth0front4,,1978.0,,true,0,0,0,0,null,0,1,0,brander-desktop,0,0
01:31:23,0,eth0static,,4595.0,,true,0,0,0,0,null,0,1,0,brander-desktop,0,0
01:31:24,0,eth0db,,4143.0,,true,0,0,0,0,null,0,1,0,brander-desktop,0,0
01:31:25,0,eth0front1,,1768.0,,true,0,0,0,0,null,0,1,0,brander-desktop,0,0
01:31:26,0,eth0front2,,2635.0,,true,0,0,0,0,null,0,1,0,brander-desktop,0,0
01:31:27,0,eth0front3,,1393.0,,true,0,0,0,0,null,0,1,0,brander-desktop,0,0
01:31:28,0,eth0front4,,2761.0,,true,0,0,0,0,null,0,1,0,brander-desktop,0,0
01:31:29,0,eth0static,,3154.0,,true,0,0,0,0,null,0,1,0,brander-desktop,0,0
01:31:30,0,eth0db,,3748.0,,true,0,0,0,0,null,0,1,0,brander-desktop,0,0
01:31:32,0,eth0front1,,1031.0,,true,0,0,0,0,null,0,1,0,brander-desktop,0,0
01:31:33,0,eth0front2,,1969.0,,true,0,0,0,0,null,0,1,0,brander-desktop,0,0
01:31:34,0,eth0front3,,1189.0,,true,0,0,0,0,null,0,1,0,brander-desktop,0,0
01:31:35,0,eth0front4,,1331.0,,true,0,0,0,0,null,0,1,0,brander-desktop,0,0
01:31:36,0,eth0static,,4536.0,,true,0,0,0,0,null,0,1,0,brander-desktop,0,0
01:31:37,0,eth0db,,3785.0,,true,0,0,0,0,null,0,1,0,brander-desktop,0,0
01:31:38,0,eth0front1,,1835.0,,true,0,0,0,0,null,0,1,0,brander-desktop,0,0
01:31:39,0,eth0front2,,1973.0,,true,0,0,0,0,null,0,1,0,brander-desktop,0,0
01:31:40,0,eth0front3,,964.0,,true,0,0,0,0,null,0,1,0,brander-desktop,0,0
01:31:41,0,eth0front4,,2021.0,,true,0,0,0,0,null,0,1,0,brander-desktop,0,0
01:31:43,0,eth0static,,5873.0,,true,0,0,0,0,null,0,1,0,brander-desktop,0,0
01:31:44,0,eth0db,,2837.0,,true,0,0,0,0,null,0,1,0,brander-desktop,0,0
01:31:45,0,eth0front1,,1441.0,,true,0,0,0,0,null,0,1,0,brander-desktop,0,0
01:31:46,0,eth0front2,,2107.0,,true,0,0,0,0,null,0,1,0,brander-desktop,0,0
01:31:47,0,eth0front3,,1282.0,,true,0,0,0,0,null,0,1,0,brander-desktop,0,0
01:31:48,0,eth0front4,,3584.0,,true,0,0,0,0,null,0,1,0,brander-desktop,0,0
01:31:49,0,eth0static,,4607.0,,true,0,0,0,0,null,0,1,0,brander-desktop,0,0
01:31:50,0,eth0db,,3171.0,,true,0,0,0,0,null,0,1,0,brander-desktop,0,0
01:31:51,0,eth0front1,,3070.0,,true,0,0,0,0,null,0,1,0,brander-desktop,0,0
01:31:52,0,eth0front2,,2664.0,,true,0,0,0,0,null,0,1,0,brander-desktop,0,0
01:31:53,0,eth0front3,,587.0,,true,0,0,0,0,null,0,1,0,brander-desktop,0,0
01:31:55,0,eth0front4,,2364.0,,true,0,0,0,0,null,0,1,0,brander-desktop,0,0
01:31:56,0,eth0static,,4150.0,,true,0,0,0,0,null,0,1,0,brander-desktop,0,0
01:31:57,0,eth0db,,3444.0,,true,0,0,0,0,null,0,1,0,brander-desktop,0,0
01:31:58,0,eth0front1,,1800.0,,true,0,0,0,0,null,0,1,0,brander-desktop,0,0
01:31:59,0,eth0front2,,730.0,,true,0,0,0,0,null,0,1,0,brander-desktop,0,0
01:32:00,0,eth0front3,,538.0,,true,0,0,0,0,null,0,1,0,brander-desktop,0,0
01:32:01,0,eth0front4,,2201.0,,true,0,0,0,0,null,0,1,0,brander-desktop,0,0
01:32:02,0,eth0static,,2732.0,,true,0,0,0,0,null,0,1,0,brander-desktop,0,0
01:32:03,0,eth0db,,3169.0,,true,0,0,0,0,null,0,1,0,brander-desktop,0,0
01:32:04,0,eth0front1,,2022.0,,true,0,0,0,0,null,0,1,0,brander-desktop,0,0
01:32:06,0,eth0front2,,1430.0,,true,0,0,0,0,null,0,1,0,brander-desktop,0,0
01:32:07,0,eth0front3,,1035.0,,true,0,0,0,0,null,0,1,0,brander-desktop,0,0
01:32:08,0,eth0front4,,1712.0,,true,0,0,0,0,null,0,1,0,brander-desktop,0,0
01:32:09,0,eth0static,,2850.0,,true,0,0,0,0,null,0,1,0,brander-desktop,0,0
01:32:10,0,eth0db,,4122.0,,true,0,0,0,0,null,0,1,0,brander-desktop,0,0
01:32:11,0,eth0front1,,2015.0,,true,0,0,0,0,null,0,1,0,brander-desktop,0,0
01:32:12,0,eth0front2,,1877.0,,true,0,0,0,0,null,0,1,0,brander-desktop,0,0
01:32:13,0,eth0front3,,1660.0,,true,0,0,0,0,null,0,1,0,brander-desktop,0,0
01:32:14,0,eth0front4,,468.0,,true,0,0,0,0,null,0,1,0,brander-desktop,0,0
01:32:15,0,eth0static,,3351.0,,true,0,0,0,0,null,0,1,0,brander-desktop,0,0
01:32:16,0,eth0db,,2819.0,,true,0,0,0,0,null,0,1,0,brander-desktop,0,0
01:32:18,0,eth0front1,,1353.0,,true,0,0,0,0,null,0,1,0,brander-desktop,0,0
01:32:19,0,eth0front2,,1798.0,,true,0,0,0,0,null,0,1,0,brander-desktop,0,0
01:32:20,0,eth0front3,,1360.0,,true,0,0,0,0,null,0,1,0,brander-desktop,0,0
01:32:21,0,eth0front4,,1813.0,,true,0,0,0,0,null,0,1,0,brander-desktop,0,0
01:32:22,0,eth0static,,3719.0,,true,0,0,0,0,null,0,1,0,brander-desktop,0,0
01:32:23,0,eth0db,,3224.0,,true,0,0,0,0,null,0,1,0,brander-desktop,0,0
01:32:24,0,eth0front1,,1513.0,,true,0,0,0,0,null,0,1,0,brander-desktop,0,0
01:32:25,0,eth0front2,,1467.0,,true,0,0,0,0,null,0,1,0,brander-desktop,0,0
01:32:26,0,eth0front3,,1704.0,,true,0,0,0,0,null,0,1,0,brander-desktop,0,0
01:32:27,0,eth0front4,,1276.0,,true,0,0,0,0,null,0,1,0,brander-desktop,0,0
01:32:28,0,eth0static,,4514.0,,true,0,0,0,0,null,0,1,0,brander-desktop,0,0
01:32:30,0,eth0db,,2482.0,,true,0,0,0,0,null,0,1,0,brander-desktop,0,0
01:32:31,0,eth0front1,,2247.0,,true,0,0,0,0,null,0,1,0,brander-desktop,0,0
01:32:32,0,eth0front2,,3639.0,,true,0,0,0,0,null,0,1,0,brander-desktop,0,0
01:32:33,0,eth0front3,,1669.0,,true,0,0,0,0,null,0,1,0,brander-desktop,0,0
01:32:34,0,eth0front4,,2217.0,,true,0,0,0,0,null,0,1,0,brander-desktop,0,0
01:32:35,0,eth0static,,4939.0,,true,0,0,0,0,null,0,1,0,brander-desktop,0,0
01:32:36,0,eth0db,,3264.0,,true,0,0,0,0,null,0,1,0,brander-desktop,0,0
01:32:37,0,eth0front1,,1373.0,,true,0,0,0,0,null,0,1,0,brander-desktop,0,0
01:32:38,0,eth0front2,,846.0,,true,0,0,0,0,null,0,1,0,brander-desktop,0,0
01:32:39,0,eth0front3,,1925.0,,true,0,0,0,0,null,0,1,0,brander-desktop,0,0
01:32:40,0,eth0front4,,1795.0,,true,0,0,0,0,null,0,1,0,brander-desktop,0,0
01:32:42,0,eth0static,,5048.0,,true,0,0,0,0,null,0,1,0,brander-desktop,0,0
01:32:43,0,eth0db,,2991.0,,true,0,0,0,0,null,0,1,0,brander-desktop,0,0
01:32:44,0,eth0front1,,3232.0,,true,0,0,0,0,null,0,1,0,brander-desktop,0,0
01:32:45,0,eth0front2,,2658.0,,true,0,0,0,0,null,0,1,0,brander-desktop,0,0
01:32:46,0,eth0front3,,1674.0,,true,0,0,0,0,null,0,1,0,brander-desktop,0,0
01:32:47,0,eth0front4,,2104.0,,true,0,0,0,0,null,0,1,0,brander-desktop,0,0
01:32:48,0,eth0static,,4213.0,,true,0,0,0,0,null,0,1,0,brander-desktop,0,0
01:32:49,0,eth0db,,2547.0,,true,0,0,0,0,null,0,1,0,brander-desktop,0,0
01:32:50,0,eth0front1,,2127.0,,true,0,0,0,0,null,0,1,0,brander-desktop,0,0
01:32:51,0,eth0front2,,1580.0,,true,0,0,0,0,null,0,1,0,brander-desktop,0,0
01:32:53,0,eth0front3,,609.0,,true,0,0,0,0,null,0,1,0,brander-desktop,0,0
01:32:54,0,eth0front4,,2116.0,,true,0,0,0,0,null,0,1,0,brander-desktop,0,0
01:32:55,0,eth0static,,3633.0,,true,0,0,0,0,null,0,1,0,brander-desktop,0,0
01:32:56,0,eth0db,,2606.0,,true,0,0,0,0,null,0,1,0,brander-desktop,0,0
01:32:57,0,eth0front1,,2165.0,,true,0,0,0,0,null,0,1,0,brander-desktop,0,0
01:32:58,0,eth0front2,,2573.0,,true,0,0,0,0,null,0,1,0,brander-desktop,0,0
01:32:59,0,eth0front3,,1085.0,,true,0,0,0,0,null,0,1,0,brander-desktop,0,0
01:33:00,0,eth0front4,,2630.0,,true,0,0,0,0,null,0,1,0,brander-desktop,0,0
01:33:01,0,eth0static,,4744.0,,true,0,0,0,0,null,0,1,0,brander-desktop,0,0
01:33:02,0,eth0db,,2857.0,,true,0,0,0,0,null,0,1,0,brander-desktop,0,0
01:33:04,0,eth0front1,,1584.0,,true,0,0,0,0,null,0,1,0,brander-desktop,0,0
01:33:05,0,eth0front2,,1220.0,,true,0,0,0,0,null,0,1,0,brander-desktop,0,0
01:33:06,0,eth0front3,,802.0,,true,0,0,0,0,null,0,1,0,brander-desktop,0,0
01:33:07,0,eth0front4,,1357.0,,true,0,0,0,0,null,0,1,0,brander-desktop,0,0
01:33:08,0,eth0static,,3954.46,,true,0,0,0,0,null,0,1,0,brander-desktop,0,0
01:33:09,0,eth0db,,1700.0,,true,0,0,0,0,null,0,1,0,brander-desktop,0,0
01:33:10,0,eth0front1,,1271.0,,true,0,0,0,0,null,0,1,0,brander-desktop,0,0
01:33:11,0,eth0front2,,1591.0,,true,0,0,0,0,null,0,1,0,brander-desktop,0,0
01:33:12,0,eth0front3,,1336.0,,true,0,0,0,0,null,0,1,0,brander-desktop,0,0
01:33:13,0,eth0front4,,2031.0,,true,0,0,0,0,null,0,1,0,brander-desktop,0,0
01:33:14,0,eth0static,,2450.0,,true,0,0,0,0,null,0,1,0,brander-desktop,0,0
01:33:16,0,eth0db,,3063.0,,true,0,0,0,0,null,0,1,0,brander-desktop,0,0
01:33:17,0,eth0front1,,707.0,,true,0,0,0,0,null,0,1,0,brander-desktop,0,0
01:33:18,0,eth0front2,,2012.0,,true,0,0,0,0,null,0,1,0,brander-desktop,0,0
01:33:19,0,eth0front3,,2223.0,,true,0,0,0,0,null,0,1,0,brander-desktop,0,0
01:33:20,0,eth0front4,,2200.0,,true,0,0,0,0,null,0,1,0,brander-desktop,0,0
01:33:21,0,eth0static,,5871.0,,true,0,0,0,0,null,0,1,0,brander-desktop,0,0
01:33:22,0,eth0db,,4449.0,,true,0,0,0,0,null,0,1,0,brander-desktop,0,0
01:33:23,0,eth0front1,,1056.0,,true,0,0,0,0,null,0,1,0,brander-desktop,0,0
01:33:24,0,eth0front2,,1555.0,,true,0,0,0,0,null,0,1,0,brander-desktop,0,0
01:33:25,0,eth0front3,,1645.0,,true,0,0,0,0,null,0,1,0,brander-desktop,0,0
01:33:27,0,eth0front4,,2851.0,,true,0,0,0,0,null,0,1,0,brander-desktop,0,0
01:33:28,0,eth0static,,5031.0,,true,0,0,0,0,null,0,1,0,brander-desktop,0,0
01:33:29,0,eth0db,,1843.0,,true,0,0,0,0,null,0,1,0,brander-desktop,0,0
01:33:30,0,eth0front1,,2394.0,,true,0,0,0,0,null,0,1,0,brander-desktop,0,0
01:33:31,0,eth0front2,,2360.0,,true,0,0,0,0,null,0,1,0,brander-desktop,0,0
01:33:32,0,eth0front3,,824.0,,true,0,0,0,0,null,0,1,0,brander-desktop,0,0
01:33:33,0,eth0front4,,2085.0,,true,0,0,0,0,null,0,1,0,brander-desktop,0,0
01:33:34,0,eth0static,,3416.0,,true,0,0,0,0,null,0,1,0,brander-desktop,0,0
01:33:35,0,eth0db,,2317.0,,true,0,0,0,0,null,0,1,0,brander-desktop,0,0
01:33:36,0,eth0front1,,2356.0,,true,0,0,0,0,null,0,1,0,brander-desktop,0,0
01:33:37,0,eth0front2,,1163.0,,true,0,0,0,0,null,0,1,0,brander-desktop,0,0
01:33:39,0,eth0front3,,1067.0,,true,0,0,0,0,null,0,1,0,brander-desktop,0,0
01:33:40,0,eth0front4,,1447.0,,true,0,0,0,0,null,0,1,0,brander-desktop,0,0
01:33:41,0,eth0static,,3729.0,,true,0,0,0,0,null,0,1,0,brander-desktop,0,0
01:33:42,0,eth0db,,5465.0,,true,0,0,0,0,null,0,1,0,brander-desktop,0,0
01:33:43,0,eth0front1,,2304.0,,true,0,0,0,0,null,0,1,0,brander-desktop,0,0
01:33:44,0,eth0front2,,2059.41,,true,0,0,0,0,null,0,1,0,brander-desktop,0,0
01:33:45,0,eth0front3,,2182.0,,true,0,0,0,0,null,0,1,0,brander-desktop,0,0
01:33:46,0,eth0front4,,1703.0,,true,0,0,0,0,null,0,1,0,brander-desktop,0,0
01:33:47,0,eth0static,,4155.0,,true,0,0,0,0,null,0,1,0,brander-desktop,0,0
01:33:48,0,eth0db,,3555.0,,true,0,0,0,0,null,0,1,0,brander-desktop,0,0
01:33:49,0,eth0front1,,1823.0,,true,0,0,0,0,null,0,1,0,brander-desktop,0,0
01:33:51,0,eth0front2,,2653.0,,true,0,0,0,0,null,0,1,0,brander-desktop,0,0
01:33:52,0,eth0front3,,1281.0,,true,0,0,0,0,null,0,1,0,brander-desktop,0,0
01:33:53,0,eth0front4,,2133.0,,true,0,0,0,0,null,0,1,0,brander-desktop,0,0
01:33:54,0,eth0static,,4046.0,,true,0,0,0,0,null,0,1,0,brander-desktop,0,0
01:33:55,0,eth0db,,2824.0,,true,0,0,0,0,null,0,1,0,brander-desktop,0,0
01:33:56,0,eth0front1,,1732.0,,true,0,0,0,0,null,0,1,0,brander-desktop,0,0
01:33:57,0,eth0front2,,1357.0,,true,0,0,0,0,null,0,1,0,brander-desktop,0,0
01:33:58,0,eth0front3,,742.0,,true,0,0,0,0,null,0,1,0,brander-desktop,0,0
01:33:59,0,eth0front4,,1267.0,,true,0,0,0,0,null,0,1,0,brander-desktop,0,0
01:34:00,0,eth0static,,3159.0,,true,0,0,0,0,null,0,1,0,brander-desktop,0,0
01:34:01,0,eth0db,,1772.0,,true,0,0,0,0,null,0,1,0,brander-desktop,0,0
01:34:03,0,eth0front1,,1785.0,,true,0,0,0,0,null,0,1,0,brander-desktop,0,0
01:34:04,0,eth0front2,,1064.0,,true,0,0,0,0,null,0,1,0,brander-desktop,0,0
01:34:05,0,eth0front3,,1544.0,,true,0,0,0,0,null,0,1,0,brander-desktop,0,0
01:34:06,0,eth0front4,,2116.0,,true,0,0,0,0,null,0,1,0,brander-desktop,0,0
01:34:07,0,eth0static,,4404.0,,true,0,0,0,0,null,0,1,0,brander-desktop,0,0
01:34:08,0,eth0db,,1921.0,,true,0,0,0,0,null,0,1,0,brander-desktop,0,0
01:34:09,0,eth0front1,,1643.0,,true,0,0,0,0,null,0,1,0,brander-desktop,0,0
01:34:10,0,eth0front2,,2602.0,,true,0,0,0,0,null,0,1,0,brander-desktop,0,0
01:34:11,0,eth0front3,,717.0,,true,0,0,0,0,null,0,1,0,brander-desktop,0,0
01:34:12,0,eth0front4,,2435.0,,true,0,0,0,0,null,0,1,0,brander-desktop,0,0
01:34:14,0,eth0static,,4854.0,,true,0,0,0,0,null,0,1,0,brander-desktop,0,0
01:34:15,0,eth0db,,2623.0,,true,0,0,0,0,null,0,1,0,brander-desktop,0,0
01:34:16,0,eth0front1,,2423.0,,true,0,0,0,0,null,0,1,0,brander-desktop,0,0
01:34:17,0,eth0front2,,1673.0,,true,0,0,0,0,null,0,1,0,brander-desktop,0,0
01:34:18,0,eth0front3,,1367.0,,true,0,0,0,0,null,0,1,0,brander-desktop,0,0
01:34:19,0,eth0front4,,1448.0,,true,0,0,0,0,null,0,1,0,brander-desktop,0,0
01:34:20,0,eth0static,,5357.0,,true,0,0,0,0,null,0,1,0,brander-desktop,0,0
01:34:21,0,eth0db,,3669.0,,true,0,0,0,0,null,0,1,0,brander-desktop,0,0
01:34:22,0,eth0front1,,1368.0,,true,0,0,0,0,null,0,1,0,brander-desktop,0,0
01:34:23,0,eth0front2,,1740.0,,true,0,0,0,0,null,0,1,0,brander-desktop,0,0
01:34:25,0,eth0front3,,1376.0,,true,0,0,0,0,null,0,1,0,brander-desktop,0,0
01:34:26,0,eth0front4,,1620.0,,true,0,0,0,0,null,0,1,0,brander-desktop,0,0
01:34:27,0,eth0static,,3501.0,,true,0,0,0,0,null,0,1,0,brander-desktop,0,0
01:34:28,0,eth0db,,3963.0,,true,0,0,0,0,null,0,1,0,brander-desktop,0,0
01:34:29,0,eth0front1,,1419.0,,true,0,0,0,0,null,0,1,0,brander-desktop,0,0
01:34:30,0,eth0front2,,2272.0,,true,0,0,0,0,null,0,1,0,brander-desktop,0,0
01:34:31,0,eth0front3,,1377.0,,true,0,0,0,0,null,0,1,0,brander-desktop,0,0
01:34:32,0,eth0front4,,1994.0,,true,0,0,0,0,null,0,1,0,brander-desktop,0,0
01:34:33,0,eth0static,,4607.0,,true,0,0,0,0,null,0,1,0,brander-desktop,0,0
01:34:34,0,eth0db,,3191.0,,true,0,0,0,0,null,0,1,0,brander-desktop,0,0
01:34:36,0,eth0front1,,2518.0,,true,0,0,0,0,null,0,1,0,brander-desktop,0,0
01:34:37,0,eth0front2,,1790.0,,true,0,0,0,0,null,0,1,0,brander-desktop,0,0
01:34:38,0,eth0front3,,1509.0,,true,0,0,0,0,null,0,1,0,brander-desktop,0,0
01:34:39,0,eth0front4,,2496.0,,true,0,0,0,0,null,0,1,0,brander-desktop,0,0
01:34:40,0,eth0static,,4793.0,,true,0,0,0,0,null,0,1,0,brander-desktop,0,0
01:34:41,0,eth0db,,2664.0,,true,0,0,0,0,null,0,1,0,brander-desktop,0,0
01:34:42,0,eth0front1,,1569.0,,true,0,0,0,0,null,0,1,0,brander-desktop,0,0
01:34:43,0,eth0front2,,1549.0,,true,0,0,0,0,null,0,1,0,brander-desktop,0,0
01:34:44,0,eth0front3,,363.0,,true,0,0,0,0,null,0,1,0,brander-desktop,0,0
01:34:45,0,eth0front4,,2119.0,,true,0,0,0,0,null,0,1,0,brander-desktop,0,0
01:34:46,0,eth0static,,5013.0,,true,0,0,0,0,null,0,1,0,brander-desktop,0,0
01:34:48,0,eth0db,,4208.0,,true,0,0,0,0,null,0,1,0,brander-desktop,0,0
01:34:49,0,eth0front1,,2173.0,,true,0,0,0,0,null,0,1,0,brander-desktop,0,0
01:34:50,0,eth0front2,,1892.0,,true,0,0,0,0,null,0,1,0,brander-desktop,0,0
01:34:51,0,eth0front3,,1040.0,,true,0,0,0,0,null,0,1,0,brander-desktop,0,0
01:34:52,0,eth0front4,,1296.0,,true,0,0,0,0,null,0,1,0,brander-desktop,0,0
01:34:53,0,eth0static,,2277.0,,true,0,0,0,0,null,0,1,0,brander-desktop,0,0
01:34:54,0,eth0db,,2107.0,,true,0,0,0,0,null,0,1,0,brander-desktop,0,0
01:34:55,0,eth0front1,,820.0,,true,0,0,0,0,null,0,1,0,brander-desktop,0,0
01:34:56,0,eth0front2,,1393.0,,true,0,0,0,0,null,0,1,0,brander-desktop,0,0
01:34:57,0,eth0front3,,1456.0,,true,0,0,0,0,null,0,1,0,brander-desktop,0,0
01:34:58,0,eth0front4,,1499.0,,true,0,0,0,0,null,0,1,0,brander-desktop,0,0
01:35:00,0,eth0static,,5137.0,,true,0,0,0,0,null,0,1,0,brander-desktop,0,0
01:35:01,0,eth0db,,1225.0,,true,0,0,0,0,null,0,1,0,brander-desktop,0,0
01:35:02,0,eth0front1,,1320.0,,true,0,0,0,0,null,0,1,0,brander-desktop,0,0
01:35:03,0,eth0front2,,2390.0,,true,0,0,0,0,null,0,1,0,brander-desktop,0,0
01:35:04,0,eth0front3,,1923.0,,true,0,0,0,0,null,0,1,0,brander-desktop,0,0
01:35:05,0,eth0front4,,2194.0,,true,0,0,0,0,null,0,1,0,brander-desktop,0,0
01:35:06,0,eth0static,,3209.0,,true,0,0,0,0,null,0,1,0,brander-desktop,0,0
01:35:07,0,eth0db,,2783.0,,true,0,0,0,0,null,0,1,0,brander-desktop,0,0
01:35:08,0,eth0front1,,1415.0,,true,0,0,0,0,null,0,1,0,brander-desktop,0,0
01:35:09,0,eth0front2,,2665.0,,true,0,0,0,0,null,0,1,0,brander-desktop,0,0
01:35:10,0,eth0front3,,1482.0,,true,0,0,0,0,null,0,1,0,brander-desktop,0,0
01:35:12,0,eth0front4,,1832.0,,true,0,0,0,0,null,0,1,0,brander-desktop,0,0
01:35:13,0,eth0static,,4100.0,,true,0,0,0,0,null,0,1,0,brander-desktop,0,0
01:35:14,0,eth0db,,3227.0,,true,0,0,0,0,null,0,1,0,brander-desktop,0,0
01:35:15,0,eth0front1,,2044.0,,true,0,0,0,0,null,0,1,0,brander-desktop,0,0
01:35:16,0,eth0front2,,1359.0,,true,0,0,0,0,null,0,1,0,brander-desktop,0,0
01:35:17,0,eth0front3,,1215.0,,true,0,0,0,0,null,0,1,0,brander-desktop,0,0
01:35:18,0,eth0front4,,2318.0,,true,0,0,0,0,null,0,1,0,brander-desktop,0,0
01:35:19,0,eth0static,,6528.0,,true,0,0,0,0,null,0,1,0,brander-desktop,0,0
01:35:20,0,eth0db,,2850.0,,true,0,0,0,0,null,0,1,0,brander-desktop,0,0
01:35:21,0,eth0front1,,4393.0,,true,0,0,0,0,null,0,1,0,brander-desktop,0,0
01:35:23,0,eth0front2,,2495.0,,true,0,0,0,0,null,0,1,0,brander-desktop,0,0
01:35:24,0,eth0front3,,753.0,,true,0,0,0,0,null,0,1,0,brander-desktop,0,0
01:35:25,0,eth0front4,,1805.0,,true,0,0,0,0,null,0,1,0,brander-desktop,0,0
01:35:26,0,eth0static,,4020.0,,true,0,0,0,0,null,0,1,0,brander-desktop,0,0
01:35:27,0,eth0db,,3772.0,,true,0,0,0,0,null,0,1,0,brander-desktop,0,0
01:35:28,0,eth0front1,,1886.0,,true,0,0,0,0,null,0,1,0,brander-desktop,0,0
01:35:29,0,eth0front2,,3185.0,,true,0,0,0,0,null,0,1,0,brander-desktop,0,0
01:35:30,0,eth0front3,,1841.0,,true,0,0,0,0,null,0,1,0,brander-desktop,0,0
01:35:31,0,eth0front4,,2729.0,,true,0,0,0,0,null,0,1,0,brander-desktop,0,0
01:35:32,0,eth0static,,5172.0,,true,0,0,0,0,null,0,1,0,brander-desktop,0,0
01:35:34,0,eth0db,,1759.0,,true,0,0,0,0,null,0,1,0,brander-desktop,0,0
01:35:35,0,eth0front1,,1274.0,,true,0,0,0,0,null,0,1,0,brander-desktop,0,0
01:35:36,0,eth0front2,,2406.0,,true,0,0,0,0,null,0,1,0,brander-desktop,0,0
01:35:37,0,eth0front3,,1120.0,,true,0,0,0,0,null,0,1,0,brander-desktop,0,0
01:35:38,0,eth0front4,,1696.0,,true,0,0,0,0,null,0,1,0,brander-desktop,0,0
01:35:39,0,eth0static,,3964.36,,true,0,0,0,0,null,0,1,0,brander-desktop,0,0
01:35:40,0,eth0db,,4204.0,,true,0,0,0,0,null,0,1,0,brander-desktop,0,0
01:35:41,0,eth0front1,,3426.0,,true,0,0,0,0,null,0,1,0,brander-desktop,0,0
01:35:42,0,eth0front2,,2337.0,,true,0,0,0,0,null,0,1,0,brander-desktop,0,0
01:35:43,0,eth0front3,,1145.0,,true,0,0,0,0,null,0,1,0,brander-desktop,0,0
01:35:45,0,eth0front4,,1419.0,,true,0,0,0,0,null,0,1,0,brander-desktop,0,0
01:35:46,0,eth0static,,3177.0,,true,0,0,0,0,null,0,1,0,brander-desktop,0,0
01:35:47,0,eth0db,,2341.0,,true,0,0,0,0,null,0,1,0,brander-desktop,0,0
01:35:48,0,eth0front1,,815.0,,true,0,0,0,0,null,0,1,0,brander-desktop,0,0
01:35:49,0,eth0front2,,2075.0,,true,0,0,0,0,null,0,1,0,brander-desktop,0,0
01:35:50,0,eth0front3,,933.0,,true,0,0,0,0,null,0,1,0,brander-desktop,0,0
01:35:51,0,eth0front4,,2653.0,,true,0,0,0,0,null,0,1,0,brander-desktop,0,0
01:35:52,0,eth0static,,4614.0,,true,0,0,0,0,null,0,1,0,brander-desktop,0,0
01:35:53,0,eth0db,,4485.0,,true,0,0,0,0,null,0,1,0,brander-desktop,0,0
01:35:54,0,eth0front1,,2337.0,,true,0,0,0,0,null,0,1,0,brander-desktop,0,0
01:35:55,0,eth0front2,,2062.0,,true,0,0,0,0,null,0,1,0,brander-desktop,0,0
01:35:57,0,eth0front3,,903.0,,true,0,0,0,0,null,0,1,0,brander-desktop,0,0
01:35:58,0,eth0front4,,1544.0,,true,0,0,0,0,null,0,1,0,brander-desktop,0,0
01:35:59,0,eth0static,,3902.0,,true,0,0,0,0,null,0,1,0,brander-desktop,0,0
01:36:00,0,eth0db,,2840.0,,true,0,0,0,0,null,0,1,0,brander-desktop,0,0
01:36:01,0,eth0front1,,1020.0,,true,0,0,0,0,null,0,1,0,brander-desktop,0,0
01:36:02,0,eth0front2,,2409.0,,true,0,0,0,0,null,0,1,0,brander-desktop,0,0
01:36:03,0,eth0front3,,1107.0,,true,0,0,0,0,null,0,1,0,brander-desktop,0,0
01:36:04,0,eth0front4,,1464.0,,true,0,0,0,0,null,0,1,0,brander-desktop,0,0
01:36:05,0,eth0static,,5418.0,,true,0,0,0,0,null,0,1,0,brander-desktop,0,0
01:36:06,0,eth0db,,4583.0,,true,0,0,0,0,null,0,1,0,brander-desktop,0,0
01:36:07,0,eth0front1,,1696.0,,true,0,0,0,0,null,0,1,0,brander-desktop,0,0
01:36:09,0,eth0front2,,735.0,,true,0,0,0,0,null,0,1,0,brander-desktop,0,0
01:36:10,0,eth0front3,,1973.0,,true,0,0,0,0,null,0,1,0,brander-desktop,0,0
01:36:11,0,eth0front4,,3161.0,,true,0,0,0,0,null,0,1,0,brander-desktop,0,0
01:36:12,0,eth0static,,5466.0,,true,0,0,0,0,null,0,1,0,brander-desktop,0,0
01:36:13,0,eth0db,,2718.0,,true,0,0,0,0,null,0,1,0,brander-desktop,0,0
01:36:14,0,eth0front1,,1216.0,,true,0,0,0,0,null,0,1,0,brander-desktop,0,0
01:36:15,0,eth0front2,,1976.0,,true,0,0,0,0,null,0,1,0,brander-desktop,0,0
01:36:16,0,eth0front3,,1320.0,,true,0,0,0,0,null,0,1,0,brander-desktop,0,0
01:36:17,0,eth0front4,,2446.0,,true,0,0,0,0,null,0,1,0,brander-desktop,0,0
01:36:18,0,eth0static,,4631.0,,true,0,0,0,0,null,0,1,0,brander-desktop,0,0
01:36:19,0,eth0db,,4188.0,,true,0,0,0,0,null,0,1,0,brander-desktop,0,0
01:36:21,0,eth0front1,,2370.0,,true,0,0,0,0,null,0,1,0,brander-desktop,0,0
01:36:22,0,eth0front2,,2756.0,,true,0,0,0,0,null,0,1,0,brander-desktop,0,0
01:36:23,0,eth0front3,,1749.0,,true,0,0,0,0,null,0,1,0,brander-desktop,0,0
01:36:24,0,eth0front4,,2280.0,,true,0,0,0,0,null,0,1,0,brander-desktop,0,0
01:36:25,0,eth0static,,3905.0,,true,0,0,0,0,null,0,1,0,brander-desktop,0,0
01:36:26,0,eth0db,,4517.0,,true,0,0,0,0,null,0,1,0,brander-desktop,0,0
01:36:27,0,eth0front1,,2898.0,,true,0,0,0,0,null,0,1,0,brander-desktop,0,0
01:36:28,0,eth0front2,,2350.0,,true,0,0,0,0,null,0,1,0,brander-desktop,0,0
01:36:29,0,eth0front3,,1432.0,,true,0,0,0,0,null,0,1,0,brander-desktop,0,0
01:36:30,0,eth0front4,,1595.0,,true,0,0,0,0,null,0,1,0,brander-desktop,0,0
01:36:31,0,eth0static,,4942.0,,true,0,0,0,0,null,0,1,0,brander-desktop,0,0
01:36:33,0,eth0db,,4331.0,,true,0,0,0,0,null,0,1,0,brander-desktop,0,0
01:36:34,0,eth0front1,,2739.0,,true,0,0,0,0,null,0,1,0,brander-desktop,0,0
01:36:35,0,eth0front2,,2736.0,,true,0,0,0,0,null,0,1,0,brander-desktop,0,0
01:36:36,0,eth0front3,,1340.59,,true,0,0,0,0,null,0,1,0,brander-desktop,0,0
01:36:37,0,eth0front4,,3585.0,,true,0,0,0,0,null,0,1,0,brander-desktop,0,0
01:36:38,0,eth0static,,5340.0,,true,0,0,0,0,null,0,1,0,brander-desktop,0,0
01:36:39,0,eth0db,,4200.0,,true,0,0,0,0,null,0,1,0,brander-desktop,0,0
01:36:40,0,eth0front1,,2901.0,,true,0,0,0,0,null,0,1,0,brander-desktop,0,0
01:36:41,0,eth0front2,,2174.0,,true,0,0,0,0,null,0,1,0,brander-desktop,0,0
01:36:43,0,eth0front3,,1271.0,,true,0,0,0,0,null,0,1,0,brander-desktop,0,0
01:36:44,0,eth0front4,,2439.0,,true,0,0,0,0,null,0,1,0,brander-desktop,0,0
01:36:45,0,eth0static,,4912.0,,true,0,0,0,0,null,0,1,0,brander-desktop,0,0
01:36:46,0,eth0db,,3423.0,,true,0,0,0,0,null,0,1,0,brander-desktop,0,0
01:36:47,0,eth0front1,,1028.0,,true,0,0,0,0,null,0,1,0,brander-desktop,0,0
01:36:48,0,eth0front2,,1868.0,,true,0,0,0,0,null,0,1,0,brander-desktop,0,0
01:36:49,0,eth0front3,,1679.0,,true,0,0,0,0,null,0,1,0,brander-desktop,0,0
01:36:50,0,eth0front4,,2226.0,,true,0,0,0,0,null,0,1,0,brander-desktop,0,0
01:36:51,0,eth0static,,5411.0,,true,0,0,0,0,null,0,1,0,brander-desktop,0,0
01:36:52,0,eth0db,,3051.0,,true,0,0,0,0,null,0,1,0,brander-desktop,0,0
01:36:54,0,eth0front1,,2068.0,,true,0,0,0,0,null,0,1,0,brander-desktop,0,0
01:36:55,0,eth0front2,,1803.0,,true,0,0,0,0,null,0,1,0,brander-desktop,0,0
01:36:56,0,eth0front3,,1765.0,,true,0,0,0,0,null,0,1,0,brander-desktop,0,0
01:36:57,0,eth0front4,,2379.0,,true,0,0,0,0,null,0,1,0,brander-desktop,0,0
01:36:58,0,eth0static,,4593.0,,true,0,0,0,0,null,0,1,0,brander-desktop,0,0
01:36:59,0,eth0db,,3694.0,,true,0,0,0,0,null,0,1,0,brander-desktop,0,0
01:37:00,0,eth0front1,,1020.0,,true,0,0,0,0,null,0,1,0,brander-desktop,0,0
01:37:01,0,eth0front2,,1448.0,,true,0,0,0,0,null,0,1,0,brander-desktop,0,0
01:37:02,0,eth0front3,,1564.0,,true,0,0,0,0,null,0,1,0,brander-desktop,0,0
01:37:03,0,eth0front4,,2232.0,,true,0,0,0,0,null,0,1,0,brander-desktop,0,0
01:37:05,0,eth0static,,6828.0,,true,0,0,0,0,null,0,1,0,brander-desktop,0,0
01:37:06,0,eth0db,,3847.0,,true,0,0,0,0,null,0,1,0,brander-desktop,0,0
01:37:07,0,eth0front1,,2127.0,,true,0,0,0,0,null,0,1,0,brander-desktop,0,0
01:37:08,0,eth0front2,,1506.0,,true,0,0,0,0,null,0,1,0,brander-desktop,0,0
01:37:09,0,eth0front3,,1269.0,,true,0,0,0,0,null,0,1,0,brander-desktop,0,0
01:37:10,0,eth0front4,,3108.0,,true,0,0,0,0,null,0,1,0,brander-desktop,0,0
01:37:11,0,eth0static,,5949.0,,true,0,0,0,0,null,0,1,0,brander-desktop,0,0
01:37:12,0,eth0db,,3501.0,,true,0,0,0,0,null,0,1,0,brander-desktop,0,0
01:37:13,0,eth0front1,,1997.0,,true,0,0,0,0,null,0,1,0,brander-desktop,0,0
01:37:14,0,eth0front2,,1979.0,,true,0,0,0,0,null,0,1,0,brander-desktop,0,0
01:37:16,0,eth0front3,,1645.0,,true,0,0,0,0,null,0,1,0,brander-desktop,0,0
01:37:17,0,eth0front4,,1676.0,,true,0,0,0,0,null,0,1,0,brander-desktop,0,0
01:37:18,0,eth0static,,4428.0,,true,0,0,0,0,null,0,1,0,brander-desktop,0,0
01:37:19,0,eth0db,,3041.0,,true,0,0,0,0,null,0,1,0,brander-desktop,0,0
01:37:20,0,eth0front1,,1689.0,,true,0,0,0,0,null,0,1,0,brander-desktop,0,0
01:37:21,0,eth0front2,,1413.0,,true,0,0,0,0,null,0,1,0,brander-desktop,0,0
01:37:22,0,eth0front3,,1199.0,,true,0,0,0,0,null,0,1,0,brander-desktop,0,0
01:37:23,0,eth0front4,,1636.0,,true,0,0,0,0,null,0,1,0,brander-desktop,0,0
01:37:24,0,eth0static,,3904.0,,true,0,0,0,0,null,0,1,0,brander-desktop,0,0
01:37:25,0,eth0db,,3018.0,,true,0,0,0,0,null,0,1,0,brander-desktop,0,0
01:37:27,0,eth0front1,,3816.0,,true,0,0,0,0,null,0,1,0,brander-desktop,0,0
01:37:28,0,eth0front2,,1764.0,,true,0,0,0,0,null,0,1,0,brander-desktop,0,0
01:37:29,0,eth0front3,,1151.0,,true,0,0,0,0,null,0,1,0,brander-desktop,0,0
01:37:30,0,eth0front4,,2764.0,,true,0,0,0,0,null,0,1,0,brander-desktop,0,0
01:37:31,0,eth0static,,5140.59,,true,0,0,0,0,null,0,1,0,brander-desktop,0,0
01:37:32,0,eth0db,,4707.0,,true,0,0,0,0,null,0,1,0,brander-desktop,0,0
01:37:33,0,eth0front1,,2484.0,,true,0,0,0,0,null,0,1,0,brander-desktop,0,0
01:37:34,0,eth0front2,,990.0,,true,0,0,0,0,null,0,1,0,brander-desktop,0,0
01:37:35,0,eth0front3,,917.0,,true,0,0,0,0,null,0,1,0,brander-desktop,0,0
01:37:36,0,eth0front4,,3120.0,,true,0,0,0,0,null,0,1,0,brander-desktop,0,0
01:37:38,0,eth0static,,5186.0,,true,0,0,0,0,null,0,1,0,brander-desktop,0,0
01:37:39,0,eth0db,,1670.0,,true,0,0,0,0,null,0,1,0,brander-desktop,0,0
01:37:40,0,eth0front1,,3125.0,,true,0,0,0,0,null,0,1,0,brander-desktop,0,0
01:37:41,0,eth0front2,,1848.0,,true,0,0,0,0,null,0,1,0,brander-desktop,0,0
01:37:42,0,eth0front3,,994.0,,true,0,0,0,0,null,0,1,0,brander-desktop,0,0
01:37:43,0,eth0front4,,2710.0,,true,0,0,0,0,null,0,1,0,brander-desktop,0,0
01:37:44,0,eth0static,,4617.0,,true,0,0,0,0,null,0,1,0,brander-desktop,0,0
01:37:45,0,eth0db,,4468.0,,true,0,0,0,0,null,0,1,0,brander-desktop,0,0
01:37:46,0,eth0front1,,868.0,,true,0,0,0,0,null,0,1,0,brander-desktop,0,0
01:37:47,0,eth0front2,,1704.0,,true,0,0,0,0,null,0,1,0,brander-desktop,0,0
01:37:49,0,eth0front3,,1355.0,,true,0,0,0,0,null,0,1,0,brander-desktop,0,0
01:37:50,0,eth0front4,,1254.0,,true,0,0,0,0,null,0,1,0,brander-desktop,0,0
01:37:51,0,eth0static,,4781.0,,true,0,0,0,0,null,0,1,0,brander-desktop,0,0
01:37:52,0,eth0db,,3144.0,,true,0,0,0,0,null,0,1,0,brander-desktop,0,0
01:37:53,0,eth0front1,,3252.0,,true,0,0,0,0,null,0,1,0,brander-desktop,0,0
01:37:54,0,eth0front2,,2661.0,,true,0,0,0,0,null,0,1,0,brander-desktop,0,0
01:37:55,0,eth0front3,,899.0,,true,0,0,0,0,null,0,1,0,brander-desktop,0,0
01:37:56,0,eth0front4,,2154.0,,true,0,0,0,0,null,0,1,0,brander-desktop,0,0
01:37:57,0,eth0static,,3566.0,,true,0,0,0,0,null,0,1,0,brander-desktop,0,0
01:37:58,0,eth0db,,3384.0,,true,0,0,0,0,null,0,1,0,brander-desktop,0,0
01:37:59,0,eth0front1,,4006.0,,true,0,0,0,0,null,0,1,0,brander-desktop,0,0
01:38:01,0,eth0front2,,2039.0,,true,0,0,0,0,null,0,1,0,brander-desktop,0,0
01:38:02,0,eth0front3,,1506.0,,true,0,0,0,0,null,0,1,0,brander-desktop,0,0
01:38:03,0,eth0front4,,1224.0,,true,0,0,0,0,null,0,1,0,brander-desktop,0,0
01:38:04,0,eth0static,,5563.0,,true,0,0,0,0,null,0,1,0,brander-desktop,0,0
01:38:05,0,eth0db,,3243.0,,true,0,0,0,0,null,0,1,0,brander-desktop,0,0
01:38:06,0,eth0front1,,2310.0,,true,0,0,0,0,null,0,1,0,brander-desktop,0,0
01:38:07,0,eth0front2,,1895.0,,true,0,0,0,0,null,0,1,0,brander-desktop,0,0
01:38:08,0,eth0front3,,790.0,,true,0,0,0,0,null,0,1,0,brander-desktop,0,0
01:38:09,0,eth0front4,,2818.0,,true,0,0,0,0,null,0,1,0,brander-desktop,0,0
01:38:10,0,eth0static,,2622.0,,true,0,0,0,0,null,0,1,0,brander-desktop,0,0
01:38:11,0,eth0db,,1992.0,,true,0,0,0,0,null,0,1,0,brander-desktop,0,0
01:38:13,0,eth0front1,,1169.0,,true,0,0,0,0,null,0,1,0,brander-desktop,0,0
01:38:14,0,eth0front2,,1458.42,,true,0,0,0,0,null,0,1,0,brander-desktop,0,0
01:38:15,0,eth0front3,,1471.0,,true,0,0,0,0,null,0,1,0,brander-desktop,0,0
01:38:16,0,eth0front4,,2310.0,,true,0,0,0,0,null,0,1,0,brander-desktop,0,0
01:38:17,0,eth0static,,4552.0,,true,0,0,0,0,null,0,1,0,brander-desktop,0,0
01:38:18,0,eth0db,,3722.0,,true,0,0,0,0,null,0,1,0,brander-desktop,0,0
01:38:19,0,eth0front1,,1569.0,,true,0,0,0,0,null,0,1,0,brander-desktop,0,0
01:38:20,0,eth0front2,,1371.0,,true,0,0,0,0,null,0,1,0,brander-desktop,0,0
01:38:21,0,eth0front3,,977.0,,true,0,0,0,0,null,0,1,0,brander-desktop,0,0
01:38:22,0,eth0front4,,1825.0,,true,0,0,0,0,null,0,1,0,brander-desktop,0,0
01:38:23,0,eth0static,,3666.0,,true,0,0,0,0,null,0,1,0,brander-desktop,0,0
01:38:24,0,eth0db,,4160.0,,true,0,0,0,0,null,0,1,0,brander-desktop,0,0
01:38:26,0,eth0front1,,3054.0,,true,0,0,0,0,null,0,1,0,brander-desktop,0,0
01:38:27,0,eth0front2,,2152.0,,true,0,0,0,0,null,0,1,0,brander-desktop,0,0
01:38:28,0,eth0front3,,1558.0,,true,0,0,0,0,null,0,1,0,brander-desktop,0,0
01:38:29,0,eth0front4,,1894.0,,true,0,0,0,0,null,0,1,0,brander-desktop,0,0
01:38:30,0,eth0static,,4449.0,,true,0,0,0,0,null,0,1,0,brander-desktop,0,0
01:38:31,0,eth0db,,3891.0,,true,0,0,0,0,null,0,1,0,brander-desktop,0,0
01:38:32,0,eth0front1,,3879.0,,true,0,0,0,0,null,0,1,0,brander-desktop,0,0
01:38:33,0,eth0front2,,2285.0,,true,0,0,0,0,null,0,1,0,brander-desktop,0,0
01:38:34,0,eth0front3,,1743.0,,true,0,0,0,0,null,0,1,0,brander-desktop,0,0
01:38:35,0,eth0front4,,2213.0,,true,0,0,0,0,null,0,1,0,brander-desktop,0,0
01:38:36,0,eth0static,,5353.0,,true,0,0,0,0,null,0,1,0,brander-desktop,0,0
01:38:38,0,eth0db,,2254.0,,true,0,0,0,0,null,0,1,0,brander-desktop,0,0
01:38:39,0,eth0front1,,2372.0,,true,0,0,0,0,null,0,1,0,brander-desktop,0,0
01:38:40,0,eth0front2,,1557.0,,true,0,0,0,0,null,0,1,0,brander-desktop,0,0
01:38:41,0,eth0front3,,2139.0,,true,0,0,0,0,null,0,1,0,brander-desktop,0,0
01:38:42,0,eth0front4,,2354.0,,true,0,0,0,0,null,0,1,0,brander-desktop,0,0
01:38:43,0,eth0static,,3774.0,,true,0,0,0,0,null,0,1,0,brander-desktop,0,0
01:38:44,0,eth0db,,1878.0,,true,0,0,0,0,null,0,1,0,brander-desktop,0,0
01:38:45,0,eth0front1,,2857.0,,true,0,0,0,0,null,0,1,0,brander-desktop,0,0
01:38:46,0,eth0front2,,2536.0,,true,0,0,0,0,null,0,1,0,brander-desktop,0,0
01:38:47,0,eth0front3,,1409.0,,true,0,0,0,0,null,0,1,0,brander-desktop,0,0
01:38:48,0,eth0front4,,1661.0,,true,0,0,0,0,null,0,1,0,brander-desktop,0,0
01:38:50,0,eth0static,,5422.0,,true,0,0,0,0,null,0,1,0,brander-desktop,0,0
01:38:51,0,eth0db,,3683.0,,true,0,0,0,0,null,0,1,0,brander-desktop,0,0
01:38:52,0,eth0front1,,2339.0,,true,0,0,0,0,null,0,1,0,brander-desktop,0,0
01:38:53,0,eth0front2,,1676.0,,true,0,0,0,0,null,0,1,0,brander-desktop,0,0
01:38:54,0,eth0front3,,1083.0,,true,0,0,0,0,null,0,1,0,brander-desktop,0,0
01:38:55,0,eth0front4,,1755.0,,true,0,0,0,0,null,0,1,0,brander-desktop,0,0
01:38:56,0,eth0static,,4438.0,,true,0,0,0,0,null,0,1,0,brander-desktop,0,0
01:38:57,0,eth0db,,2435.0,,true,0,0,0,0,null,0,1,0,brander-desktop,0,0
01:38:58,0,eth0front1,,2432.0,,true,0,0,0,0,null,0,1,0,brander-desktop,0,0
01:38:59,0,eth0front2,,2909.0,,true,0,0,0,0,null,0,1,0,brander-desktop,0,0
01:39:00,0,eth0front3,,1930.0,,true,0,0,0,0,null,0,1,0,brander-desktop,0,0
01:39:02,0,eth0front4,,3903.0,,true,0,0,0,0,null,0,1,0,brander-desktop,0,0
01:39:03,0,eth0static,,5929.0,,true,0,0,0,0,null,0,1,0,brander-desktop,0,0
01:39:04,0,eth0db,,4366.0,,true,0,0,0,0,null,0,1,0,brander-desktop,0,0
01:39:05,0,eth0front1,,1568.0,,true,0,0,0,0,null,0,1,0,brander-desktop,0,0
01:39:06,0,eth0front2,,1809.0,,true,0,0,0,0,null,0,1,0,brander-desktop,0,0
01:39:07,0,eth0front3,,1977.0,,true,0,0,0,0,null,0,1,0,brander-desktop,0,0
01:39:08,0,eth0front4,,3087.0,,true,0,0,0,0,null,0,1,0,brander-desktop,0,0
01:39:09,0,eth0static,,7440.0,,true,0,0,0,0,null,0,1,0,brander-desktop,0,0
01:39:10,0,eth0db,,2602.0,,true,0,0,0,0,null,0,1,0,brander-desktop,0,0
01:39:12,0,eth0front1,,2490.0,,true,0,0,0,0,null,0,1,0,brander-desktop,0,0
01:39:13,0,eth0front2,,2369.0,,true,0,0,0,0,null,0,1,0,brander-desktop,0,0
01:39:14,0,eth0front3,,878.0,,true,0,0,0,0,null,0,1,0,brander-desktop,0,0
01:39:15,0,eth0front4,,3894.0,,true,0,0,0,0,null,0,1,0,brander-desktop,0,0
01:39:16,0,eth0static,,5087.0,,true,0,0,0,0,null,0,1,0,brander-desktop,0,0
01:39:17,0,eth0db,,3400.0,,true,0,0,0,0,null,0,1,0,brander-desktop,0,0
01:39:18,0,eth0front1,,2542.0,,true,0,0,0,0,null,0,1,0,brander-desktop,0,0
01:39:19,0,eth0front2,,1946.0,,true,0,0,0,0,null,0,1,0,brander-desktop,0,0
01:39:20,0,eth0front3,,1163.0,,true,0,0,0,0,null,0,1,0,brander-desktop,0,0
01:39:21,0,eth0front4,,2372.0,,true,0,0,0,0,null,0,1,0,brander-desktop,0,0
01:39:23,0,eth0static,,5651.0,,true,0,0,0,0,null,0,1,0,brander-desktop,0,0
01:39:24,0,eth0db,,3301.0,,true,0,0,0,0,null,0,1,0,brander-desktop,0,0
01:39:25,0,eth0front1,,2474.0,,true,0,0,0,0,null,0,1,0,brander-desktop,0,0
01:39:26,0,eth0front2,,2528.0,,true,0,0,0,0,null,0,1,0,brander-desktop,0,0
01:39:27,0,eth0front3,,2437.0,,true,0,0,0,0,null,0,1,0,brander-desktop,0,0
01:39:28,0,eth0front4,,1320.0,,true,0,0,0,0,null,0,1,0,brander-desktop,0,0
01:39:29,0,eth0static,,5155.0,,true,0,0,0,0,null,0,1,0,brander-desktop,0,0
01:39:30,0,eth0db,,2593.0,,true,0,0,0,0,null,0,1,0,brander-desktop,0,0
01:39:31,0,eth0front1,,3190.0,,true,0,0,0,0,null,0,1,0,brander-desktop,0,0
01:39:32,0,eth0front2,,1635.0,,true,0,0,0,0,null,0,1,0,brander-desktop,0,0
01:39:34,0,eth0front3,,1825.0,,true,0,0,0,0,null,0,1,0,brander-desktop,0,0
01:39:35,0,eth0front4,,1577.0,,true,0,0,0,0,null,0,1,0,brander-desktop,0,0
01:39:36,0,eth0static,,3382.0,,true,0,0,0,0,null,0,1,0,brander-desktop,0,0
01:39:37,0,eth0db,,4233.0,,true,0,0,0,0,null,0,1,0,brander-desktop,0,0
01:39:38,0,eth0front1,,1878.0,,true,0,0,0,0,null,0,1,0,brander-desktop,0,0
01:39:39,0,eth0front2,,1891.0,,true,0,0,0,0,null,0,1,0,brander-desktop,0,0
01:39:40,0,eth0front3,,1775.0,,true,0,0,0,0,null,0,1,0,brander-desktop,0,0
01:39:41,0,eth0front4,,1618.0,,true,0,0,0,0,null,0,1,0,brander-desktop,0,0
01:39:42,0,eth0static,,4645.0,,true,0,0,0,0,null,0,1,0,brander-desktop,0,0
01:39:44,0,eth0db,,2621.0,,true,0,0,0,0,null,0,1,0,brander-desktop,0,0
01:39:45,0,eth0front1,,2235.0,,true,0,0,0,0,null,0,1,0,brander-desktop,0,0
01:39:46,0,eth0front2,,2435.0,,true,0,0,0,0,null,0,1,0,brander-desktop,0,0
01:39:47,0,eth0front3,,670.0,,true,0,0,0,0,null,0,1,0,brander-desktop,0,0
01:39:48,0,eth0front4,,2834.0,,true,0,0,0,0,null,0,1,0,brander-desktop,0,0
01:39:49,0,eth0static,,5781.0,,true,0,0,0,0,null,0,1,0,brander-desktop,0,0
01:39:50,0,eth0db,,3140.0,,true,0,0,0,0,null,0,1,0,brander-desktop,0,0
01:39:51,0,eth0front1,,2194.0,,true,0,0,0,0,null,0,1,0,brander-desktop,0,0
01:39:52,0,eth0front2,,843.0,,true,0,0,0,0,null,0,1,0,brander-desktop,0,0
01:39:53,0,eth0front3,,1567.0,,true,0,0,0,0,null,0,1,0,brander-desktop,0,0
01:39:54,0,eth0front4,,1466.0,,true,0,0,0,0,null,0,1,0,brander-desktop,0,0
01:39:56,0,eth0static,,4616.0,,true,0,0,0,0,null,0,1,0,brander-desktop,0,0
01:39:57,0,eth0db,,2859.0,,true,0,0,0,0,null,0,1,0,brander-desktop,0,0
01:39:58,0,eth0front1,,1725.0,,true,0,0,0,0,null,0,1,0,brander-desktop,0,0
01:39:59,0,eth0front2,,2129.0,,true,0,0,0,0,null,0,1,0,brander-desktop,0,0
01:40:00,0,eth0front3,,1731.0,,true,0,0,0,0,null,0,1,0,brander-desktop,0,0
01:40:01,0,eth0front4,,2044.0,,true,0,0,0,0,null,0,1,0,brander-desktop,0,0
01:40:02,0,eth0static,,4638.0,,true,0,0,0,0,null,0,1,0,brander-desktop,0,0
01:40:03,0,eth0db,,2938.0,,true,0,0,0,0,null,0,1,0,brander-desktop,0,0
01:40:04,0,eth0front1,,1268.0,,true,0,0,0,0,null,0,1,0,brander-desktop,0,0
01:40:05,0,eth0front2,,1528.0,,true,0,0,0,0,null,0,1,0,brander-desktop,0,0
01:40:06,0,eth0front3,,1001.0,,true,0,0,0,0,null,0,1,0,brander-desktop,0,0
01:40:08,0,eth0front4,,1391.0,,true,0,0,0,0,null,0,1,0,brander-desktop,0,0
01:40:09,0,eth0static,,4358.0,,true,0,0,0,0,null,0,1,0,brander-desktop,0,0
01:40:10,0,eth0db,,2801.0,,true,0,0,0,0,null,0,1,0,brander-desktop,0,0
01:40:11,0,eth0front1,,1664.0,,true,0,0,0,0,null,0,1,0,brander-desktop,0,0
01:40:12,0,eth0front2,,1968.0,,true,0,0,0,0,null,0,1,0,brander-desktop,0,0
01:40:13,0,eth0front3,,943.0,,true,0,0,0,0,null,0,1,0,brander-desktop,0,0
01:40:14,0,eth0front4,,3246.0,,true,0,0,0,0,null,0,1,0,brander-desktop,0,0
01:40:15,0,eth0static,,5539.0,,true,0,0,0,0,null,0,1,0,brander-desktop,0,0
01:40:16,0,eth0db,,3523.0,,true,0,0,0,0,null,0,1,0,brander-desktop,0,0
01:40:17,0,eth0front1,,1518.0,,true,0,0,0,0,null,0,1,0,brander-desktop,0,0
01:40:19,0,eth0front2,,2292.0,,true,0,0,0,0,null,0,1,0,brander-desktop,0,0
01:40:20,0,eth0front3,,1064.0,,true,0,0,0,0,null,0,1,0,brander-desktop,0,0
01:40:21,0,eth0front4,,1260.0,,true,0,0,0,0,null,0,1,0,brander-desktop,0,0
01:40:22,0,eth0static,,3530.0,,true,0,0,0,0,null,0,1,0,brander-desktop,0,0
01:40:23,0,eth0db,,3532.0,,true,0,0,0,0,null,0,1,0,brander-desktop,0,0
01:40:24,0,eth0front1,,2430.0,,true,0,0,0,0,null,0,1,0,brander-desktop,0,0
01:40:25,0,eth0front2,,1783.0,,true,0,0,0,0,null,0,1,0,brander-desktop,0,0
01:40:26,0,eth0front3,,333.0,,true,0,0,0,0,null,0,1,0,brander-desktop,0,0
01:40:27,0,eth0front4,,530.0,,true,0,0,0,0,null,0,1,0,brander-desktop,0,0
01:40:28,0,eth0static,,1981.0,,true,0,0,0,0,null,0,1,0,brander-desktop,0,0
01:40:29,0,eth0db,,1618.0,,true,0,0,0,0,null,0,1,0,brander-desktop,0,0
01:40:31,0,eth0front1,,2110.0,,true,0,0,0,0,null,0,1,0,brander-desktop,0,0
01:40:32,0,eth0front2,,2318.0,,true,0,0,0,0,null,0,1,0,brander-desktop,0,0
01:40:33,0,eth0front3,,1437.0,,true,0,0,0,0,null,0,1,0,brander-desktop,0,0
01:40:34,0,eth0front4,,2644.0,,true,0,0,0,0,null,0,1,0,brander-desktop,0,0
01:40:35,0,eth0static,,4242.0,,true,0,0,0,0,null,0,1,0,brander-desktop,0,0
01:40:36,0,eth0db,,2848.0,,true,0,0,0,0,null,0,1,0,brander-desktop,0,0
01:40:37,0,eth0front1,,1832.0,,true,0,0,0,0,null,0,1,0,brander-desktop,0,0
01:40:38,0,eth0front2,,1636.0,,true,0,0,0,0,null,0,1,0,brander-desktop,0,0
01:40:39,0,eth0front3,,783.0,,true,0,0,0,0,null,0,1,0,brander-desktop,0,0
01:40:40,0,eth0front4,,2827.0,,true,0,0,0,0,null,0,1,0,brander-desktop,0,0
01:40:42,0,eth0static,,4582.0,,true,0,0,0,0,null,0,1,0,brander-desktop,0,0
01:40:43,0,eth0db,,2903.0,,true,0,0,0,0,null,0,1,0,brander-desktop,0,0
01:40:44,0,eth0front1,,1467.0,,true,0,0,0,0,null,0,1,0,brander-desktop,0,0
01:40:45,0,eth0front2,,2162.0,,true,0,0,0,0,null,0,1,0,brander-desktop,0,0
01:40:46,0,eth0front3,,931.0,,true,0,0,0,0,null,0,1,0,brander-desktop,0,0
01:40:47,0,eth0front4,,2581.0,,true,0,0,0,0,null,0,1,0,brander-desktop,0,0
01:40:48,0,eth0static,,3375.25,,true,0,0,0,0,null,0,1,0,brander-desktop,0,0
01:40:49,0,eth0db,,3241.0,,true,0,0,0,0,null,0,1,0,brander-desktop,0,0
01:40:50,0,eth0front1,,1405.0,,true,0,0,0,0,null,0,1,0,brander-desktop,0,0
01:40:51,0,eth0front2,,1966.0,,true,0,0,0,0,null,0,1,0,brander-desktop,0,0
01:40:52,0,eth0front3,,769.0,,true,0,0,0,0,null,0,1,0,brander-desktop,0,0
01:40:54,0,eth0front4,,2321.0,,true,0,0,0,0,null,0,1,0,brander-desktop,0,0
01:40:55,0,eth0static,,4497.0,,true,0,0,0,0,null,0,1,0,brander-desktop,0,0
01:40:56,0,eth0db,,4068.0,,true,0,0,0,0,null,0,1,0,brander-desktop,0,0
01:40:57,0,eth0front1,,3194.0,,true,0,0,0,0,null,0,1,0,brander-desktop,0,0
01:40:58,0,eth0front2,,2128.0,,true,0,0,0,0,null,0,1,0,brander-desktop,0,0
01:40:59,0,eth0front3,,1427.0,,true,0,0,0,0,null,0,1,0,brander-desktop,0,0
01:41:00,0,eth0front4,,1462.0,,true,0,0,0,0,null,0,1,0,brander-desktop,0,0
01:41:01,0,eth0static,,3562.0,,true,0,0,0,0,null,0,1,0,brander-desktop,0,0
01:41:02,0,eth0db,,2376.0,,true,0,0,0,0,null,0,1,0,brander-desktop,0,0
01:41:03,0,eth0front1,,2693.0,,true,0,0,0,0,null,0,1,0,brander-desktop,0,0
01:41:05,0,eth0front2,,1699.0,,true,0,0,0,0,null,0,1,0,brander-desktop,0,0
01:41:06,0,eth0front3,,1479.0,,true,0,0,0,0,null,0,1,0,brander-desktop,0,0
01:41:07,0,eth0front4,,2512.0,,true,0,0,0,0,null,0,1,0,brander-desktop,0,0
01:41:08,0,eth0static,,5073.0,,true,0,0,0,0,null,0,1,0,brander-desktop,0,0
01:41:09,0,eth0db,,2265.0,,true,0,0,0,0,null,0,1,0,brander-desktop,0,0
01:41:10,0,eth0front1,,1012.0,,true,0,0,0,0,null,0,1,0,brander-desktop,0,0
01:41:11,0,eth0front2,,2231.0,,true,0,0,0,0,null,0,1,0,brander-desktop,0,0
01:41:12,0,eth0front3,,1521.0,,true,0,0,0,0,null,0,1,0,brander-desktop,0,0
01:41:13,0,eth0front4,,2318.0,,true,0,0,0,0,null,0,1,0,brander-desktop,0,0
01:41:14,0,eth0static,,5219.0,,true,0,0,0,0,null,0,1,0,brander-desktop,0,0
01:41:16,0,eth0db,,3250.0,,true,0,0,0,0,null,0,1,0,brander-desktop,0,0
01:41:17,0,eth0front1,,1971.0,,true,0,0,0,0,null,0,1,0,brander-desktop,0,0
01:41:18,0,eth0front2,,3189.0,,true,0,0,0,0,null,0,1,0,brander-desktop,0,0
01:41:19,0,eth0front3,,2065.0,,true,0,0,0,0,null,0,1,0,brander-desktop,0,0
01:41:20,0,eth0front4,,1180.0,,true,0,0,0,0,null,0,1,0,brander-desktop,0,0
01:41:21,0,eth0static,,3236.0,,true,0,0,0,0,null,0,1,0,brander-desktop,0,0
01:41:22,0,eth0db,,2488.0,,true,0,0,0,0,null,0,1,0,brander-desktop,0,0
01:41:23,0,eth0front1,,2092.0,,true,0,0,0,0,null,0,1,0,brander-desktop,0,0
01:41:24,0,eth0front2,,2797.0,,true,0,0,0,0,null,0,1,0,brander-desktop,0,0
01:41:25,0,eth0front3,,839.0,,true,0,0,0,0,null,0,1,0,brander-desktop,0,0
01:41:26,0,eth0front4,,1572.0,,true,0,0,0,0,null,0,1,0,brander-desktop,0,0
01:41:28,0,eth0static,,1731.0,,true,0,0,0,0,null,0,1,0,brander-desktop,0,0
01:41:29,0,eth0db,,2465.0,,true,0,0,0,0,null,0,1,0,brander-desktop,0,0
01:41:30,0,eth0front1,,924.0,,true,0,0,0,0,null,0,1,0,brander-desktop,0,0
01:41:31,0,eth0front2,,3005.0,,true,0,0,0,0,null,0,1,0,brander-desktop,0,0
01:41:32,0,eth0front3,,888.0,,true,0,0,0,0,null,0,1,0,brander-desktop,0,0
01:41:33,0,eth0front4,,1932.0,,true,0,0,0,0,null,0,1,0,brander-desktop,0,0
01:41:34,0,eth0static,,4523.0,,true,0,0,0,0,null,0,1,0,brander-desktop,0,0
01:41:35,0,eth0db,,2250.0,,true,0,0,0,0,null,0,1,0,brander-desktop,0,0
01:41:36,0,eth0front1,,1800.0,,true,0,0,0,0,null,0,1,0,brander-desktop,0,0
01:41:37,0,eth0front2,,2294.0,,true,0,0,0,0,null,0,1,0,brander-desktop,0,0
01:41:39,0,eth0front3,,1251.0,,true,0,0,0,0,null,0,1,0,brander-desktop,0,0
01:41:40,0,eth0front4,,1586.0,,true,0,0,0,0,null,0,1,0,brander-desktop,0,0
01:41:41,0,eth0static,,4469.0,,true,0,0,0,0,null,0,1,0,brander-desktop,0,0
01:41:42,0,eth0db,,4812.0,,true,0,0,0,0,null,0,1,0,brander-desktop,0,0
01:41:43,0,eth0front1,,2757.0,,true,0,0,0,0,null,0,1,0,brander-desktop,0,0
01:41:44,0,eth0front2,,1748.0,,true,0,0,0,0,null,0,1,0,brander-desktop,0,0
01:41:45,0,eth0front3,,1666.0,,true,0,0,0,0,null,0,1,0,brander-desktop,0,0
01:41:46,0,eth0front4,,3169.0,,true,0,0,0,0,null,0,1,0,brander-desktop,0,0
01:41:47,0,eth0static,,6700.0,,true,0,0,0,0,null,0,1,0,brander-desktop,0,0
01:41:48,0,eth0db,,3479.0,,true,0,0,0,0,null,0,1,0,brander-desktop,0,0
01:41:49,0,eth0front1,,1231.0,,true,0,0,0,0,null,0,1,0,brander-desktop,0,0
01:41:51,0,eth0front2,,2385.0,,true,0,0,0,0,null,0,1,0,brander-desktop,0,0
01:41:52,0,eth0front3,,1198.0,,true,0,0,0,0,null,0,1,0,brander-desktop,0,0
01:41:53,0,eth0front4,,1070.0,,true,0,0,0,0,null,0,1,0,brander-desktop,0,0
01:41:54,0,eth0static,,4633.0,,true,0,0,0,0,null,0,1,0,brander-desktop,0,0
01:41:55,0,eth0db,,2667.0,,true,0,0,0,0,null,0,1,0,brander-desktop,0,0
01:41:56,0,eth0front1,,1272.0,,true,0,0,0,0,null,0,1,0,brander-desktop,0,0
01:41:57,0,eth0front2,,1452.0,,true,0,0,0,0,null,0,1,0,brander-desktop,0,0
01:41:58,0,eth0front3,,1969.0,,true,0,0,0,0,null,0,1,0,brander-desktop,0,0
01:41:59,0,eth0front4,,2201.98,,true,0,0,0,0,null,0,1,0,brander-desktop,0,0
01:42:00,0,eth0static,,3323.0,,true,0,0,0,0,null,0,1,0,brander-desktop,0,0
01:42:02,0,eth0db,,3643.0,,true,0,0,0,0,null,0,1,0,brander-desktop,0,0
01:42:03,0,eth0front1,,1866.0,,true,0,0,0,0,null,0,1,0,brander-desktop,0,0
01:42:04,0,eth0front2,,1821.0,,true,0,0,0,0,null,0,1,0,brander-desktop,0,0
01:42:05,0,eth0front3,,1831.0,,true,0,0,0,0,null,0,1,0,brander-desktop,0,0
01:42:06,0,eth0front4,,3148.0,,true,0,0,0,0,null,0,1,0,brander-desktop,0,0
01:42:07,0,eth0static,,5246.0,,true,0,0,0,0,null,0,1,0,brander-desktop,0,0
01:42:08,0,eth0db,,2390.1,,true,0,0,0,0,null,0,1,0,brander-desktop,0,0
01:42:09,0,eth0front1,,1935.0,,true,0,0,0,0,null,0,1,0,brander-desktop,0,0
01:42:10,0,eth0front2,,1944.0,,true,0,0,0,0,null,0,1,0,brander-desktop,0,0
01:42:11,0,eth0front3,,1151.0,,true,0,0,0,0,null,0,1,0,brander-desktop,0,0
01:42:12,0,eth0front4,,2456.0,,true,0,0,0,0,null,0,1,0,brander-desktop,0,0
01:42:14,0,eth0static,,4123.0,,true,0,0,0,0,null,0,1,0,brander-desktop,0,0
01:42:15,0,eth0db,,4218.0,,true,0,0,0,0,null,0,1,0,brander-desktop,0,0
01:42:16,0,eth0front1,,3789.0,,true,0,0,0,0,null,0,1,0,brander-desktop,0,0
01:42:17,0,eth0front2,,3116.0,,true,0,0,0,0,null,0,1,0,brander-desktop,0,0
01:42:18,0,eth0front3,,1581.0,,true,0,0,0,0,null,0,1,0,brander-desktop,0,0
01:42:19,0,eth0front4,,1510.0,,true,0,0,0,0,null,0,1,0,brander-desktop,0,0
01:42:20,0,eth0static,,4996.0,,true,0,0,0,0,null,0,1,0,brander-desktop,0,0
01:42:21,0,eth0db,,5944.0,,true,0,0,0,0,null,0,1,0,brander-desktop,0,0
01:42:22,0,eth0front1,,2403.0,,true,0,0,0,0,null,0,1,0,brander-desktop,0,0
01:42:23,0,eth0front2,,2320.0,,true,0,0,0,0,null,0,1,0,brander-desktop,0,0
01:42:25,0,eth0front3,,1167.0,,true,0,0,0,0,null,0,1,0,brander-desktop,0,0
01:42:26,0,eth0front4,,1698.0,,true,0,0,0,0,null,0,1,0,brander-desktop,0,0
01:42:27,0,eth0static,,4727.0,,true,0,0,0,0,null,0,1,0,brander-desktop,0,0
01:42:28,0,eth0db,,3928.0,,true,0,0,0,0,null,0,1,0,brander-desktop,0,0
01:42:29,0,eth0front1,,2070.0,,true,0,0,0,0,null,0,1,0,brander-desktop,0,0
01:42:30,0,eth0front2,,3662.0,,true,0,0,0,0,null,0,1,0,brander-desktop,0,0
01:42:31,0,eth0front3,,1630.0,,true,0,0,0,0,null,0,1,0,brander-desktop,0,0
01:42:32,0,eth0front4,,1356.0,,true,0,0,0,0,null,0,1,0,brander-desktop,0,0
01:42:33,0,eth0static,,4133.0,,true,0,0,0,0,null,0,1,0,brander-desktop,0,0
01:42:34,0,eth0db,,3703.0,,true,0,0,0,0,null,0,1,0,brander-desktop,0,0
01:42:36,0,eth0front1,,1249.0,,true,0,0,0,0,null,0,1,0,brander-desktop,0,0
01:42:37,0,eth0front2,,1970.0,,true,0,0,0,0,null,0,1,0,brander-desktop,0,0
01:42:38,0,eth0front3,,1118.0,,true,0,0,0,0,null,0,1,0,brander-desktop,0,0
01:42:39,0,eth0front4,,1737.0,,true,0,0,0,0,null,0,1,0,brander-desktop,0,0
01:42:40,0,eth0static,,3715.0,,true,0,0,0,0,null,0,1,0,brander-desktop,0,0
01:42:41,0,eth0db,,2527.0,,true,0,0,0,0,null,0,1,0,brander-desktop,0,0
01:42:42,0,eth0front1,,2220.0,,true,0,0,0,0,null,0,1,0,brander-desktop,0,0
01:42:43,0,eth0front2,,2674.0,,true,0,0,0,0,null,0,1,0,brander-desktop,0,0
01:42:44,0,eth0front3,,971.0,,true,0,0,0,0,null,0,1,0,brander-desktop,0,0
01:42:45,0,eth0front4,,1945.0,,true,0,0,0,0,null,0,1,0,brander-desktop,0,0
01:42:47,0,eth0static,,5968.0,,true,0,0,0,0,null,0,1,0,brander-desktop,0,0
01:42:48,0,eth0db,,4217.0,,true,0,0,0,0,null,0,1,0,brander-desktop,0,0
01:42:49,0,eth0front1,,2596.0,,true,0,0,0,0,null,0,1,0,brander-desktop,0,0
01:42:50,0,eth0front2,,1357.0,,true,0,0,0,0,null,0,1,0,brander-desktop,0,0
01:42:51,0,eth0front3,,1530.0,,true,0,0,0,0,null,0,1,0,brander-desktop,0,0
01:42:52,0,eth0front4,,2708.0,,true,0,0,0,0,null,0,1,0,brander-desktop,0,0
01:42:53,0,eth0static,,3685.0,,true,0,0,0,0,null,0,1,0,brander-desktop,0,0
01:42:54,0,eth0db,,1860.0,,true,0,0,0,0,null,0,1,0,brander-desktop,0,0
01:42:55,0,eth0front1,,2009.0,,true,0,0,0,0,null,0,1,0,brander-desktop,0,0
01:42:56,0,eth0front2,,1936.0,,true,0,0,0,0,null,0,1,0,brander-desktop,0,0
01:42:58,0,eth0front3,,1416.0,,true,0,0,0,0,null,0,1,0,brander-desktop,0,0
01:42:59,0,eth0front4,,2400.0,,true,0,0,0,0,null,0,1,0,brander-desktop,0,0
01:43:00,0,eth0static,,4409.0,,true,0,0,0,0,null,0,1,0,brander-desktop,0,0
01:43:01,0,eth0db,,2758.0,,true,0,0,0,0,null,0,1,0,brander-desktop,0,0
01:43:02,0,eth0front1,,2251.0,,true,0,0,0,0,null,0,1,0,brander-desktop,0,0
01:43:03,0,eth0front2,,2529.0,,true,0,0,0,0,null,0,1,0,brander-desktop,0,0
01:43:04,0,eth0front3,,1538.0,,true,0,0,0,0,null,0,1,0,brander-desktop,0,0
01:43:05,0,eth0front4,,2758.0,,true,0,0,0,0,null,0,1,0,brander-desktop,0,0
01:43:06,0,eth0static,,4872.0,,true,0,0,0,0,null,0,1,0,brander-desktop,0,0
01:43:07,0,eth0db,,3186.0,,true,0,0,0,0,null,0,1,0,brander-desktop,0,0
01:43:08,0,eth0front1,,2984.0,,true,0,0,0,0,null,0,1,0,brander-desktop,0,0
01:43:10,0,eth0front2,,1248.0,,true,0,0,0,0,null,0,1,0,brander-desktop,0,0
01:43:11,0,eth0front3,,958.0,,true,0,0,0,0,null,0,1,0,brander-desktop,0,0
01:43:12,0,eth0front4,,3310.0,,true,0,0,0,0,null,0,1,0,brander-desktop,0,0
01:43:13,0,eth0static,,5623.0,,true,0,0,0,0,null,0,1,0,brander-desktop,0,0
01:43:14,0,eth0db,,4251.0,,true,0,0,0,0,null,0,1,0,brander-desktop,0,0
01:43:15,0,eth0front1,,2019.0,,true,0,0,0,0,null,0,1,0,brander-desktop,0,0
01:43:16,0,eth0front2,,1511.0,,true,0,0,0,0,null,0,1,0,brander-desktop,0,0
01:43:17,0,eth0front3,,697.0,,true,0,0,0,0,null,0,1,0,brander-desktop,0,0
01:43:18,0,eth0front4,,1964.0,,true,0,0,0,0,null,0,1,0,brander-desktop,0,0
01:43:19,0,eth0static,,4562.0,,true,0,0,0,0,null,0,1,0,brander-desktop,0,0
01:43:21,0,eth0db,,2876.0,,true,0,0,0,0,null,0,1,0,brander-desktop,0,0
01:43:22,0,eth0front1,,2385.0,,true,0,0,0,0,null,0,1,0,brander-desktop,0,0
01:43:23,0,eth0front2,,1922.0,,true,0,0,0,0,null,0,1,0,brander-desktop,0,0
01:43:24,0,eth0front3,,1209.0,,true,0,0,0,0,null,0,1,0,brander-desktop,0,0
01:43:25,0,eth0front4,,1685.0,,true,0,0,0,0,null,0,1,0,brander-desktop,0,0
01:43:26,0,eth0static,,4169.0,,true,0,0,0,0,null,0,1,0,brander-desktop,0,0
01:43:27,0,eth0db,,4181.0,,true,0,0,0,0,null,0,1,0,brander-desktop,0,0
01:43:28,0,eth0front1,,2899.0,,true,0,0,0,0,null,0,1,0,brander-desktop,0,0
01:43:29,0,eth0front2,,1086.0,,true,0,0,0,0,null,0,1,0,brander-desktop,0,0
01:43:30,0,eth0front3,,951.0,,true,0,0,0,0,null,0,1,0,brander-desktop,0,0
01:43:31,0,eth0front4,,659.0,,true,0,0,0,0,null,0,1,0,brander-desktop,0,0
