timeStamp,elapsed,label,responseCode,responseMessage,threadName,success,bytes,sentBytes,grpThreads,allThreads,URL,Latency,SampleCount,ErrorCount,Hostname,IdleTime,Connect
11:52:02,0,CPUstatic,,18.24,,true,0,0,0,0,null,0,1,0,brander-desktop,0,0
11:52:04,0,CPUdb,,4.84,,true,0,0,0,0,null,0,1,0,brander-desktop,0,0
11:52:05,0,CPUfront1,,10.02,,true,0,0,0,0,null,0,1,0,brander-desktop,0,0
11:52:06,0,CPUstatic,,15.2,,true,0,0,0,0,null,0,1,0,brander-desktop,0,0
11:52:08,0,CPUdb,,12.66,,true,0,0,0,0,null,0,1,0,brander-desktop,0,0
11:52:09,0,CPUfront1,,12.52,,true,0,0,0,0,null,0,1,0,brander-desktop,0,0
11:52:10,0,CPUstatic,,17.06,,true,0,0,0,0,null,0,1,0,brander-desktop,0,0
11:52:12,0,CPUdb,,7.98,,true,0,0,0,0,null,0,1,0,brander-desktop,0,0
11:52:13,0,CPUfront1,,22.99,,true,0,0,0,0,null,0,1,0,brander-desktop,0,0
11:52:14,0,CPUstatic,,12.44,,true,0,0,0,0,null,0,1,0,brander-desktop,0,0
11:52:16,0,CPUdb,,12.39,,true,0,0,0,0,null,0,1,0,brander-desktop,0,0
11:52:17,0,CPUfront1,,15.14,,true,0,0,0,0,null,0,1,0,brander-desktop,0,0
11:52:18,0,CPUstatic,,20.44,,true,0,0,0,0,null,0,1,0,brander-desktop,0,0
11:52:19,0,CPUdb,,13.92,,true,0,0,0,0,null,0,1,0,brander-desktop,0,0
11:52:21,0,CPUfront1,,25.38,,true,0,0,0,0,null,0,1,0,brander-desktop,0,0
11:52:22,0,CPUstatic,,15.4,,true,0,0,0,0,null,0,1,0,brander-desktop,0,0
11:52:24,0,CPUdb,,12.28,,true,0,0,0,0,null,0,1,0,brander-desktop,0,0
11:52:25,0,CPUfront1,,40.88,,true,0,0,0,0,null,0,1,0,brander-desktop,0,0
11:52:26,0,CPUstatic,,17.66,,true,0,0,0,0,null,0,1,0,brander-desktop,0,0
11:52:28,0,CPUdb,,11.06,,true,0,0,0,0,null,0,1,0,brander-desktop,0,0
11:52:29,0,CPUfront1,,14.43,,true,0,0,0,0,null,0,1,0,brander-desktop,0,0
11:52:30,0,CPUstatic,,27.68,,true,0,0,0,0,null,0,1,0,brander-desktop,0,0
11:52:32,0,CPUdb,,14.69,,true,0,0,0,0,null,0,1,0,brander-desktop,0,0
11:52:33,0,CPUfront1,,18.99,,true,0,0,0,0,null,0,1,0,brander-desktop,0,0
11:52:34,0,CPUstatic,,15.49,,true,0,0,0,0,null,0,1,0,brander-desktop,0,0
11:52:36,0,CPUdb,,8.44,,true,0,0,0,0,null,0,1,0,brander-desktop,0,0
11:52:37,0,CPUfront1,,23.28,,true,0,0,0,0,null,0,1,0,brander-desktop,0,0
11:52:39,0,CPUstatic,,20.4,,true,0,0,0,0,null,0,1,0,brander-desktop,0,0
11:52:40,0,CPUdb,,10.05,,true,0,0,0,0,null,0,1,0,brander-desktop,0,0
11:52:41,0,CPUfront1,,19.59,,true,0,0,0,0,null,0,1,0,brander-desktop,0,0
11:52:43,0,CPUstatic,,43.75,,true,0,0,0,0,null,0,1,0,brander-desktop,0,0
11:52:44,0,CPUdb,,16.78,,true,0,0,0,0,null,0,1,0,brander-desktop,0,0
11:52:47,0,CPUfront1,,32.77,,true,0,0,0,0,null,0,1,0,brander-desktop,0,0
11:52:48,0,CPUstatic,,26.14,,true,0,0,0,0,null,0,1,0,brander-desktop,0,0
11:52:49,0,CPUdb,,16.44,,true,0,0,0,0,null,0,1,0,brander-desktop,0,0
11:52:51,0,CPUfront1,,18.09,,true,0,0,0,0,null,0,1,0,brander-desktop,0,0
11:52:52,0,CPUstatic,,19.15,,true,0,0,0,0,null,0,1,0,brander-desktop,0,0
11:52:53,0,CPUdb,,15.03,,true,0,0,0,0,null,0,1,0,brander-desktop,0,0
11:52:55,0,CPUfront1,,14.17,,true,0,0,0,0,null,0,1,0,brander-desktop,0,0
11:52:56,0,CPUstatic,,16.84,,true,0,0,0,0,null,0,1,0,brander-desktop,0,0
11:52:58,0,CPUdb,,11.83,,true,0,0,0,0,null,0,1,0,brander-desktop,0,0
11:52:59,0,CPUfront1,,23.66,,true,0,0,0,0,null,0,1,0,brander-desktop,0,0
11:53:00,0,CPUstatic,,21.14,,true,0,0,0,0,null,0,1,0,brander-desktop,0,0
11:53:02,0,CPUdb,,10.54,,true,0,0,0,0,null,0,1,0,brander-desktop,0,0
11:53:03,0,CPUfront1,,20.1,,true,0,0,0,0,null,0,1,0,brander-desktop,0,0
11:53:05,0,CPUstatic,,21.72,,true,0,0,0,0,null,0,1,0,brander-desktop,0,0
11:53:07,0,CPUdb,,9.05,,true,0,0,0,0,null,0,1,0,brander-desktop,0,0
11:53:08,0,CPUfront1,,34.73,,true,0,0,0,0,null,0,1,0,brander-desktop,0,0
11:53:10,0,CPUstatic,,32.26,,true,0,0,0,0,null,0,1,0,brander-desktop,0,0
11:53:12,0,CPUdb,,11.28,,true,0,0,0,0,null,0,1,0,brander-desktop,0,0
11:53:13,0,CPUfront1,,22.82,,true,0,0,0,0,null,0,1,0,brander-desktop,0,0
11:53:14,0,CPUstatic,,21.04,,true,0,0,0,0,null,0,1,0,brander-desktop,0,0
11:53:16,0,CPUdb,,14.81,,true,0,0,0,0,null,0,1,0,brander-desktop,0,0
11:53:17,0,CPUfront1,,19.43,,true,0,0,0,0,null,0,1,0,brander-desktop,0,0
11:53:19,0,CPUstatic,,18.44,,true,0,0,0,0,null,0,1,0,brander-desktop,0,0
11:53:20,0,CPUdb,,14.6,,true,0,0,0,0,null,0,1,0,brander-desktop,0,0
11:53:22,0,CPUfront1,,16.11,,true,0,0,0,0,null,0,1,0,brander-desktop,0,0
11:53:23,0,CPUstatic,,13.23,,true,0,0,0,0,null,0,1,0,brander-desktop,0,0
11:53:25,0,CPUdb,,10.14,,true,0,0,0,0,null,0,1,0,brander-desktop,0,0
11:53:26,0,CPUfront1,,17.59,,true,0,0,0,0,null,0,1,0,brander-desktop,0,0
11:53:27,0,CPUstatic,,27.35,,true,0,0,0,0,null,0,1,0,brander-desktop,0,0
11:53:28,0,CPUdb,,10.75,,true,0,0,0,0,null,0,1,0,brander-desktop,0,0
11:53:30,0,CPUfront1,,44.97,,true,0,0,0,0,null,0,1,0,brander-desktop,0,0
11:53:32,0,CPUstatic,,17.47,,true,0,0,0,0,null,0,1,0,brander-desktop,0,0
11:53:33,0,CPUdb,,13.96,,true,0,0,0,0,null,0,1,0,brander-desktop,0,0
11:53:34,0,CPUfront1,,27.01,,true,0,0,0,0,null,0,1,0,brander-desktop,0,0
11:53:36,0,CPUstatic,,22.28,,true,0,0,0,0,null,0,1,0,brander-desktop,0,0
11:53:37,0,CPUdb,,10.45,,true,0,0,0,0,null,0,1,0,brander-desktop,0,0
11:53:38,0,CPUfront1,,41.32,,true,0,0,0,0,null,0,1,0,brander-desktop,0,0
11:53:39,0,CPUstatic,,25.46,,true,0,0,0,0,null,0,1,0,brander-desktop,0,0
11:53:41,0,CPUdb,,6.71,,true,0,0,0,0,null,0,1,0,brander-desktop,0,0
11:53:42,0,CPUfront1,,16.83,,true,0,0,0,0,null,0,1,0,brander-desktop,0,0
11:53:43,0,CPUstatic,,11.47,,true,0,0,0,0,null,0,1,0,brander-desktop,0,0
11:53:45,0,CPUdb,,8.08,,true,0,0,0,0,null,0,1,0,brander-desktop,0,0
11:53:46,0,CPUfront1,,35.07,,true,0,0,0,0,null,0,1,0,brander-desktop,0,0
11:53:48,0,CPUstatic,,14.7,,true,0,0,0,0,null,0,1,0,brander-desktop,0,0
11:53:49,0,CPUdb,,9.42,,true,0,0,0,0,null,0,1,0,brander-desktop,0,0
11:53:51,0,CPUfront1,,25.79,,true,0,0,0,0,null,0,1,0,brander-desktop,0,0
11:53:52,0,CPUstatic,,16.44,,true,0,0,0,0,null,0,1,0,brander-desktop,0,0
11:53:53,0,CPUdb,,7.71,,true,0,0,0,0,null,0,1,0,brander-desktop,0,0
11:53:55,0,CPUfront1,,10.68,,true,0,0,0,0,null,0,1,0,brander-desktop,0,0
11:53:56,0,CPUstatic,,18.17,,true,0,0,0,0,null,0,1,0,brander-desktop,0,0
11:53:57,0,CPUdb,,13.77,,true,0,0,0,0,null,0,1,0,brander-desktop,0,0
11:53:58,0,CPUfront1,,16.44,,true,0,0,0,0,null,0,1,0,brander-desktop,0,0
11:53:59,0,CPUstatic,,16.67,,true,0,0,0,0,null,0,1,0,brander-desktop,0,0
11:54:01,0,CPUdb,,9.38,,true,0,0,0,0,null,0,1,0,brander-desktop,0,0
11:54:02,0,CPUfront1,,19.33,,true,0,0,0,0,null,0,1,0,brander-desktop,0,0
11:54:03,0,CPUstatic,,15.28,,true,0,0,0,0,null,0,1,0,brander-desktop,0,0
11:54:04,0,CPUdb,,9.05,,true,0,0,0,0,null,0,1,0,brander-desktop,0,0
11:54:05,0,CPUfront1,,20.03,,true,0,0,0,0,null,0,1,0,brander-desktop,0,0
11:54:06,0,CPUstatic,,16.92,,true,0,0,0,0,null,0,1,0,brander-desktop,0,0
11:54:08,0,CPUdb,,17.46,,true,0,0,0,0,null,0,1,0,brander-desktop,0,0
11:54:09,0,CPUfront1,,29.72,,true,0,0,0,0,null,0,1,0,brander-desktop,0,0
11:54:10,0,CPUstatic,,15.04,,true,0,0,0,0,null,0,1,0,brander-desktop,0,0
11:54:11,0,CPUdb,,8.44,,true,0,0,0,0,null,0,1,0,brander-desktop,0,0
11:54:13,0,CPUfront1,,22.41,,true,0,0,0,0,null,0,1,0,brander-desktop,0,0
11:54:14,0,CPUstatic,,15.7,,true,0,0,0,0,null,0,1,0,brander-desktop,0,0
11:54:15,0,CPUdb,,13.03,,true,0,0,0,0,null,0,1,0,brander-desktop,0,0
11:54:16,0,CPUfront1,,49.58,,true,0,0,0,0,null,0,1,0,brander-desktop,0,0
11:54:18,0,CPUstatic,,18.32,,true,0,0,0,0,null,0,1,0,brander-desktop,0,0
11:54:19,0,CPUdb,,14.15,,true,0,0,0,0,null,0,1,0,brander-desktop,0,0
11:54:20,0,CPUfront1,,26.64,,true,0,0,0,0,null,0,1,0,brander-desktop,0,0
11:54:22,0,CPUstatic,,19.39,,true,0,0,0,0,null,0,1,0,brander-desktop,0,0
11:54:23,0,CPUdb,,13.52,,true,0,0,0,0,null,0,1,0,brander-desktop,0,0
11:54:24,0,CPUfront1,,41.72,,true,0,0,0,0,null,0,1,0,brander-desktop,0,0
11:54:26,0,CPUstatic,,16.72,,true,0,0,0,0,null,0,1,0,brander-desktop,0,0
11:54:27,0,CPUdb,,12.59,,true,0,0,0,0,null,0,1,0,brander-desktop,0,0
11:54:28,0,CPUfront1,,47.18,,true,0,0,0,0,null,0,1,0,brander-desktop,0,0
11:54:29,0,CPUstatic,,18.75,,true,0,0,0,0,null,0,1,0,brander-desktop,0,0
11:54:30,0,CPUdb,,9.14,,true,0,0,0,0,null,0,1,0,brander-desktop,0,0
11:54:32,0,CPUfront1,,21.98,,true,0,0,0,0,null,0,1,0,brander-desktop,0,0
11:54:33,0,CPUstatic,,18.77,,true,0,0,0,0,null,0,1,0,brander-desktop,0,0
11:54:34,0,CPUdb,,13.76,,true,0,0,0,0,null,0,1,0,brander-desktop,0,0
11:54:35,0,CPUfront1,,29.19,,true,0,0,0,0,null,0,1,0,brander-desktop,0,0
11:54:36,0,CPUstatic,,21.21,,true,0,0,0,0,null,0,1,0,brander-desktop,0,0
11:54:38,0,CPUdb,,11.18,,true,0,0,0,0,null,0,1,0,brander-desktop,0,0
11:54:39,0,CPUfront1,,21.31,,true,0,0,0,0,null,0,1,0,brander-desktop,0,0
11:54:40,0,CPUstatic,,20.95,,true,0,0,0,0,null,0,1,0,brander-desktop,0,0
11:54:41,0,CPUdb,,12.51,,true,0,0,0,0,null,0,1,0,brander-desktop,0,0
11:54:42,0,CPUfront1,,47.63,,true,0,0,0,0,null,0,1,0,brander-desktop,0,0
11:54:43,0,CPUstatic,,18.92,,true,0,0,0,0,null,0,1,0,brander-desktop,0,0
11:54:45,0,CPUdb,,9.24,,true,0,0,0,0,null,0,1,0,brander-desktop,0,0
11:54:46,0,CPUfront1,,21.24,,true,0,0,0,0,null,0,1,0,brander-desktop,0,0
11:54:47,0,CPUstatic,,21.15,,true,0,0,0,0,null,0,1,0,brander-desktop,0,0
11:54:48,0,CPUdb,,11.06,,true,0,0,0,0,null,0,1,0,brander-desktop,0,0
11:54:49,0,CPUfront1,,20.6,,true,0,0,0,0,null,0,1,0,brander-desktop,0,0
11:54:50,0,CPUstatic,,21.4,,true,0,0,0,0,null,0,1,0,brander-desktop,0,0
11:54:51,0,CPUdb,,11.16,,true,0,0,0,0,null,0,1,0,brander-desktop,0,0
11:54:53,0,CPUfront1,,16.5,,true,0,0,0,0,null,0,1,0,brander-desktop,0,0
11:54:54,0,CPUstatic,,14.77,,true,0,0,0,0,null,0,1,0,brander-desktop,0,0
11:54:55,0,CPUdb,,10.39,,true,0,0,0,0,null,0,1,0,brander-desktop,0,0
11:54:56,0,CPUfront1,,46.24,,true,0,0,0,0,null,0,1,0,brander-desktop,0,0
11:54:57,0,CPUstatic,,16.44,,true,0,0,0,0,null,0,1,0,brander-desktop,0,0
11:54:58,0,CPUdb,,14.29,,true,0,0,0,0,null,0,1,0,brander-desktop,0,0
11:54:59,0,CPUfront1,,16.97,,true,0,0,0,0,null,0,1,0,brander-desktop,0,0
11:55:00,0,CPUstatic,,15.29,,true,0,0,0,0,null,0,1,0,brander-desktop,0,0
11:55:02,0,CPUdb,,16.08,,true,0,0,0,0,null,0,1,0,brander-desktop,0,0
11:55:03,0,CPUfront1,,40.13,,true,0,0,0,0,null,0,1,0,brander-desktop,0,0
11:55:04,0,CPUstatic,,17.54,,true,0,0,0,0,null,0,1,0,brander-desktop,0,0
11:55:05,0,CPUdb,,13.28,,true,0,0,0,0,null,0,1,0,brander-desktop,0,0
11:55:06,0,CPUfront1,,25.97,,true,0,0,0,0,null,0,1,0,brander-desktop,0,0
11:55:07,0,CPUstatic,,14.81,,true,0,0,0,0,null,0,1,0,brander-desktop,0,0
11:55:08,0,CPUdb,,8.82,,true,0,0,0,0,null,0,1,0,brander-desktop,0,0
11:55:09,0,CPUfront1,,14.96,,true,0,0,0,0,null,0,1,0,brander-desktop,0,0
11:55:11,0,CPUstatic,,21.0,,true,0,0,0,0,null,0,1,0,brander-desktop,0,0
11:55:12,0,CPUdb,,9.82,,true,0,0,0,0,null,0,1,0,brander-desktop,0,0
11:55:13,0,CPUfront1,,16.3,,true,0,0,0,0,null,0,1,0,brander-desktop,0,0
11:55:14,0,CPUstatic,,19.87,,true,0,0,0,0,null,0,1,0,brander-desktop,0,0
11:55:15,0,CPUdb,,8.9,,true,0,0,0,0,null,0,1,0,brander-desktop,0,0
11:55:16,0,CPUfront1,,24.11,,true,0,0,0,0,null,0,1,0,brander-desktop,0,0
11:55:18,0,CPUstatic,,12.69,,true,0,0,0,0,null,0,1,0,brander-desktop,0,0
11:55:19,0,CPUdb,,10.16,,true,0,0,0,0,null,0,1,0,brander-desktop,0,0
11:55:20,0,CPUfront1,,32.23,,true,0,0,0,0,null,0,1,0,brander-desktop,0,0
11:55:21,0,CPUstatic,,12.92,,true,0,0,0,0,null,0,1,0,brander-desktop,0,0
11:55:22,0,CPUdb,,16.39,,true,0,0,0,0,null,0,1,0,brander-desktop,0,0
11:55:23,0,CPUfront1,,20.4,,true,0,0,0,0,null,0,1,0,brander-desktop,0,0
11:55:24,0,CPUstatic,,15.65,,true,0,0,0,0,null,0,1,0,brander-desktop,0,0
11:55:26,0,CPUdb,,9.56,,true,0,0,0,0,null,0,1,0,brander-desktop,0,0
11:55:27,0,CPUfront1,,45.21,,true,0,0,0,0,null,0,1,0,brander-desktop,0,0
11:55:28,0,CPUstatic,,15.35,,true,0,0,0,0,null,0,1,0,brander-desktop,0,0
11:55:29,0,CPUdb,,11.77,,true,0,0,0,0,null,0,1,0,brander-desktop,0,0
11:55:30,0,CPUfront1,,20.4,,true,0,0,0,0,null,0,1,0,brander-desktop,0,0
11:55:31,0,CPUstatic,,16.84,,true,0,0,0,0,null,0,1,0,brander-desktop,0,0
11:55:32,0,CPUdb,,18.26,,true,0,0,0,0,null,0,1,0,brander-desktop,0,0
11:55:33,0,CPUfront1,,30.69,,true,0,0,0,0,null,0,1,0,brander-desktop,0,0
11:55:34,0,CPUstatic,,30.74,,true,0,0,0,0,null,0,1,0,brander-desktop,0,0
11:55:35,0,CPUdb,,16.2,,true,0,0,0,0,null,0,1,0,brander-desktop,0,0
11:55:36,0,CPUfront1,,50.17,,true,0,0,0,0,null,0,1,0,brander-desktop,0,0
11:55:38,0,CPUstatic,,15.6,,true,0,0,0,0,null,0,1,0,brander-desktop,0,0
11:55:39,0,CPUdb,,6.59,,true,0,0,0,0,null,0,1,0,brander-desktop,0,0
11:55:40,0,CPUfront1,,29.41,,true,0,0,0,0,null,0,1,0,brander-desktop,0,0
11:55:41,0,CPUstatic,,12.46,,true,0,0,0,0,null,0,1,0,brander-desktop,0,0
11:55:42,0,CPUdb,,11.13,,true,0,0,0,0,null,0,1,0,brander-desktop,0,0
11:55:43,0,CPUfront1,,33.0,,true,0,0,0,0,null,0,1,0,brander-desktop,0,0
11:55:44,0,CPUstatic,,18.59,,true,0,0,0,0,null,0,1,0,brander-desktop,0,0
11:55:45,0,CPUdb,,12.73,,true,0,0,0,0,null,0,1,0,brander-desktop,0,0
11:55:46,0,CPUfront1,,31.61,,true,0,0,0,0,null,0,1,0,brander-desktop,0,0
11:55:47,0,CPUstatic,,25.08,,true,0,0,0,0,null,0,1,0,brander-desktop,0,0
11:55:48,0,CPUdb,,15.95,,true,0,0,0,0,null,0,1,0,brander-desktop,0,0
11:55:50,0,CPUfront1,,45.79,,true,0,0,0,0,null,0,1,0,brander-desktop,0,0
11:55:51,0,CPUstatic,,20.54,,true,0,0,0,0,null,0,1,0,brander-desktop,0,0
11:55:52,0,CPUdb,,16.89,,true,0,0,0,0,null,0,1,0,brander-desktop,0,0
11:55:53,0,CPUfront1,,32.77,,true,0,0,0,0,null,0,1,0,brander-desktop,0,0
11:55:54,0,CPUstatic,,29.43,,true,0,0,0,0,null,0,1,0,brander-desktop,0,0
11:55:55,0,CPUdb,,14.38,,true,0,0,0,0,null,0,1,0,brander-desktop,0,0
11:55:56,0,CPUfront1,,30.47,,true,0,0,0,0,null,0,1,0,brander-desktop,0,0
11:55:57,0,CPUstatic,,22.43,,true,0,0,0,0,null,0,1,0,brander-desktop,0,0
11:55:58,0,CPUdb,,11.34,,true,0,0,0,0,null,0,1,0,brander-desktop,0,0
11:55:59,0,CPUfront1,,39.03,,true,0,0,0,0,null,0,1,0,brander-desktop,0,0
11:56:00,0,CPUstatic,,18.58,,true,0,0,0,0,null,0,1,0,brander-desktop,0,0
11:56:02,0,CPUdb,,12.47,,true,0,0,0,0,null,0,1,0,brander-desktop,0,0
11:56:03,0,CPUfront1,,42.02,,true,0,0,0,0,null,0,1,0,brander-desktop,0,0
11:56:04,0,CPUstatic,,28.57,,true,0,0,0,0,null,0,1,0,brander-desktop,0,0
11:56:05,0,CPUdb,,11.83,,true,0,0,0,0,null,0,1,0,brander-desktop,0,0
11:56:06,0,CPUfront1,,27.03,,true,0,0,0,0,null,0,1,0,brander-desktop,0,0
11:56:07,0,CPUstatic,,20.88,,true,0,0,0,0,null,0,1,0,brander-desktop,0,0
11:56:08,0,CPUdb,,15.54,,true,0,0,0,0,null,0,1,0,brander-desktop,0,0
11:56:09,0,CPUfront1,,20.87,,true,0,0,0,0,null,0,1,0,brander-desktop,0,0
11:56:10,0,CPUstatic,,13.99,,true,0,0,0,0,null,0,1,0,brander-desktop,0,0
11:56:11,0,CPUdb,,16.55,,true,0,0,0,0,null,0,1,0,brander-desktop,0,0
11:56:13,0,CPUfront1,,35.23,,true,0,0,0,0,null,0,1,0,brander-desktop,0,0
11:56:14,0,CPUstatic,,17.97,,true,0,0,0,0,null,0,1,0,brander-desktop,0,0
11:56:15,0,CPUdb,,14.98,,true,0,0,0,0,null,0,1,0,brander-desktop,0,0
11:56:16,0,CPUfront1,,14.43,,true,0,0,0,0,null,0,1,0,brander-desktop,0,0
11:56:17,0,CPUstatic,,14.96,,true,0,0,0,0,null,0,1,0,brander-desktop,0,0
11:56:18,0,CPUdb,,13.07,,true,0,0,0,0,null,0,1,0,brander-desktop,0,0
11:56:19,0,CPUfront1,,20.07,,true,0,0,0,0,null,0,1,0,brander-desktop,0,0
11:56:20,0,CPUstatic,,16.19,,true,0,0,0,0,null,0,1,0,brander-desktop,0,0
11:56:21,0,CPUdb,,14.5,,true,0,0,0,0,null,0,1,0,brander-desktop,0,0
11:56:23,0,CPUfront1,,34.69,,true,0,0,0,0,null,0,1,0,brander-desktop,0,0
11:56:24,0,CPUstatic,,15.49,,true,0,0,0,0,null,0,1,0,brander-desktop,0,0
11:56:25,0,CPUdb,,7.63,,true,0,0,0,0,null,0,1,0,brander-desktop,0,0
11:56:26,0,CPUfront1,,28.11,,true,0,0,0,0,null,0,1,0,brander-desktop,0,0
11:56:27,0,CPUstatic,,21.42,,true,0,0,0,0,null,0,1,0,brander-desktop,0,0
11:56:28,0,CPUdb,,11.73,,true,0,0,0,0,null,0,1,0,brander-desktop,0,0
11:56:29,0,CPUfront1,,31.6,,true,0,0,0,0,null,0,1,0,brander-desktop,0,0
11:56:30,0,CPUstatic,,26.69,,true,0,0,0,0,null,0,1,0,brander-desktop,0,0
11:56:31,0,CPUdb,,15.08,,true,0,0,0,0,null,0,1,0,brander-desktop,0,0
11:56:32,0,CPUfront1,,34.06,,true,0,0,0,0,null,0,1,0,brander-desktop,0,0
11:56:34,0,CPUstatic,,21.05,,true,0,0,0,0,null,0,1,0,brander-desktop,0,0
11:56:35,0,CPUdb,,8.98,,true,0,0,0,0,null,0,1,0,brander-desktop,0,0
11:56:36,0,CPUfront1,,27.52,,true,0,0,0,0,null,0,1,0,brander-desktop,0,0
11:56:37,0,CPUstatic,,29.19,,true,0,0,0,0,null,0,1,0,brander-desktop,0,0
11:56:38,0,CPUdb,,10.93,,true,0,0,0,0,null,0,1,0,brander-desktop,0,0
11:56:39,0,CPUfront1,,37.37,,true,0,0,0,0,null,0,1,0,brander-desktop,0,0
11:56:40,0,CPUstatic,,18.71,,true,0,0,0,0,null,0,1,0,brander-desktop,0,0
11:56:41,0,CPUdb,,14.93,,true,0,0,0,0,null,0,1,0,brander-desktop,0,0
11:56:42,0,CPUfront1,,26.41,,true,0,0,0,0,null,0,1,0,brander-desktop,0,0
11:56:43,0,CPUstatic,,15.8,,true,0,0,0,0,null,0,1,0,brander-desktop,0,0
11:56:45,0,CPUdb,,9.41,,true,0,0,0,0,null,0,1,0,brander-desktop,0,0
11:56:46,0,CPUfront1,,23.74,,true,0,0,0,0,null,0,1,0,brander-desktop,0,0
11:56:47,0,CPUstatic,,15.28,,true,0,0,0,0,null,0,1,0,brander-desktop,0,0
11:56:48,0,CPUdb,,12.08,,true,0,0,0,0,null,0,1,0,brander-desktop,0,0
11:56:49,0,CPUfront1,,10.83,,true,0,0,0,0,null,0,1,0,brander-desktop,0,0
11:56:50,0,CPUstatic,,14.98,,true,0,0,0,0,null,0,1,0,brander-desktop,0,0
11:56:51,0,CPUdb,,17.39,,true,0,0,0,0,null,0,1,0,brander-desktop,0,0
11:56:52,0,CPUfront1,,17.79,,true,0,0,0,0,null,0,1,0,brander-desktop,0,0
11:56:53,0,CPUstatic,,18.06,,true,0,0,0,0,null,0,1,0,brander-desktop,0,0
11:56:55,0,CPUdb,,13.67,,true,0,0,0,0,null,0,1,0,brander-desktop,0,0
11:56:56,0,CPUfront1,,25.21,,true,0,0,0,0,null,0,1,0,brander-desktop,0,0
11:56:57,0,CPUstatic,,19.16,,true,0,0,0,0,null,0,1,0,brander-desktop,0,0
11:56:58,0,CPUdb,,9.38,,true,0,0,0,0,null,0,1,0,brander-desktop,0,0
11:56:59,0,CPUfront1,,17.67,,true,0,0,0,0,null,0,1,0,brander-desktop,0,0
11:57:01,0,CPUstatic,,14.67,,true,0,0,0,0,null,0,1,0,brander-desktop,0,0
11:57:02,0,CPUdb,,14.08,,true,0,0,0,0,null,0,1,0,brander-desktop,0,0
11:57:04,0,CPUfront1,,16.22,,true,0,0,0,0,null,0,1,0,brander-desktop,0,0
11:57:05,0,CPUstatic,,15.49,,true,0,0,0,0,null,0,1,0,brander-desktop,0,0
11:57:06,0,CPUdb,,12.25,,true,0,0,0,0,null,0,1,0,brander-desktop,0,0
11:57:08,0,CPUfront1,,22.87,,true,0,0,0,0,null,0,1,0,brander-desktop,0,0
11:57:09,0,CPUstatic,,18.49,,true,0,0,0,0,null,0,1,0,brander-desktop,0,0
11:57:10,0,CPUdb,,15.75,,true,0,0,0,0,null,0,1,0,brander-desktop,0,0
11:57:11,0,CPUfront1,,28.02,,true,0,0,0,0,null,0,1,0,brander-desktop,0,0
11:57:13,0,CPUstatic,,25.55,,true,0,0,0,0,null,0,1,0,brander-desktop,0,0
11:57:14,0,CPUdb,,8.52,,true,0,0,0,0,null,0,1,0,brander-desktop,0,0
11:57:15,0,CPUfront1,,27.42,,true,0,0,0,0,null,0,1,0,brander-desktop,0,0
11:57:16,0,CPUstatic,,19.15,,true,0,0,0,0,null,0,1,0,brander-desktop,0,0
11:57:17,0,CPUdb,,9.66,,true,0,0,0,0,null,0,1,0,brander-desktop,0,0
11:57:19,0,CPUfront1,,9.65,,true,0,0,0,0,null,0,1,0,brander-desktop,0,0
11:57:20,0,CPUstatic,,16.84,,true,0,0,0,0,null,0,1,0,brander-desktop,0,0
11:57:21,0,CPUdb,,14.12,,true,0,0,0,0,null,0,1,0,brander-desktop,0,0
11:57:22,0,CPUfront1,,24.75,,true,0,0,0,0,null,0,1,0,brander-desktop,0,0
11:57:23,0,CPUstatic,,16.18,,true,0,0,0,0,null,0,1,0,brander-desktop,0,0
11:57:24,0,CPUdb,,10.63,,true,0,0,0,0,null,0,1,0,brander-desktop,0,0
11:57:26,0,CPUfront1,,24.71,,true,0,0,0,0,null,0,1,0,brander-desktop,0,0
11:57:27,0,CPUstatic,,19.42,,true,0,0,0,0,null,0,1,0,brander-desktop,0,0
11:57:28,0,CPUdb,,13.87,,true,0,0,0,0,null,0,1,0,brander-desktop,0,0
11:57:29,0,CPUfront1,,20.6,,true,0,0,0,0,null,0,1,0,brander-desktop,0,0
11:57:30,0,CPUstatic,,16.55,,true,0,0,0,0,null,0,1,0,brander-desktop,0,0
11:57:31,0,CPUdb,,9.95,,true,0,0,0,0,null,0,1,0,brander-desktop,0,0
11:57:33,0,CPUfront1,,25.67,,true,0,0,0,0,null,0,1,0,brander-desktop,0,0
11:57:34,0,CPUstatic,,26.21,,true,0,0,0,0,null,0,1,0,brander-desktop,0,0
11:57:35,0,CPUdb,,14.68,,true,0,0,0,0,null,0,1,0,brander-desktop,0,0
11:57:36,0,CPUfront1,,28.36,,true,0,0,0,0,null,0,1,0,brander-desktop,0,0
11:57:37,0,CPUstatic,,30.74,,true,0,0,0,0,null,0,1,0,brander-desktop,0,0
11:57:38,0,CPUdb,,14.68,,true,0,0,0,0,null,0,1,0,brander-desktop,0,0
11:57:39,0,CPUfront1,,14.69,,true,0,0,0,0,null,0,1,0,brander-desktop,0,0
11:57:40,0,CPUstatic,,20.17,,true,0,0,0,0,null,0,1,0,brander-desktop,0,0
11:57:41,0,CPUdb,,14.76,,true,0,0,0,0,null,0,1,0,brander-desktop,0,0
11:57:43,0,CPUfront1,,26.12,,true,0,0,0,0,null,0,1,0,brander-desktop,0,0
11:57:44,0,CPUstatic,,33.73,,true,0,0,0,0,null,0,1,0,brander-desktop,0,0
11:57:45,0,CPUdb,,11.04,,true,0,0,0,0,null,0,1,0,brander-desktop,0,0
11:57:46,0,CPUfront1,,26.69,,true,0,0,0,0,null,0,1,0,brander-desktop,0,0
11:57:47,0,CPUstatic,,20.74,,true,0,0,0,0,null,0,1,0,brander-desktop,0,0
11:57:48,0,CPUdb,,15.54,,true,0,0,0,0,null,0,1,0,brander-desktop,0,0
11:57:49,0,CPUfront1,,26.72,,true,0,0,0,0,null,0,1,0,brander-desktop,0,0
11:57:50,0,CPUstatic,,14.17,,true,0,0,0,0,null,0,1,0,brander-desktop,0,0
11:57:51,0,CPUdb,,14.24,,true,0,0,0,0,null,0,1,0,brander-desktop,0,0
11:57:52,0,CPUfront1,,26.05,,true,0,0,0,0,null,0,1,0,brander-desktop,0,0
11:57:53,0,CPUstatic,,24.36,,true,0,0,0,0,null,0,1,0,brander-desktop,0,0
11:57:55,0,CPUdb,,15.31,,true,0,0,0,0,null,0,1,0,brander-desktop,0,0
11:57:56,0,CPUfront1,,18.7,,true,0,0,0,0,null,0,1,0,brander-desktop,0,0
11:57:57,0,CPUstatic,,22.41,,true,0,0,0,0,null,0,1,0,brander-desktop,0,0
11:57:58,0,CPUdb,,11.69,,true,0,0,0,0,null,0,1,0,brander-desktop,0,0
11:57:59,0,CPUfront1,,18.5,,true,0,0,0,0,null,0,1,0,brander-desktop,0,0
11:58:00,0,CPUstatic,,21.15,,true,0,0,0,0,null,0,1,0,brander-desktop,0,0
11:58:02,0,CPUdb,,11.11,,true,0,0,0,0,null,0,1,0,brander-desktop,0,0
11:58:03,0,CPUfront1,,26.46,,true,0,0,0,0,null,0,1,0,brander-desktop,0,0
11:58:04,0,CPUstatic,,22.83,,true,0,0,0,0,null,0,1,0,brander-desktop,0,0
11:58:05,0,CPUdb,,8.85,,true,0,0,0,0,null,0,1,0,brander-desktop,0,0
11:58:06,0,CPUfront1,,27.05,,true,0,0,0,0,null,0,1,0,brander-desktop,0,0
11:58:08,0,CPUstatic,,22.22,,true,0,0,0,0,null,0,1,0,brander-desktop,0,0
11:58:09,0,CPUdb,,24.2,,true,0,0,0,0,null,0,1,0,brander-desktop,0,0
11:58:10,0,CPUfront1,,48.17,,true,0,0,0,0,null,0,1,0,brander-desktop,0,0
11:58:11,0,CPUstatic,,18.0,,true,0,0,0,0,null,0,1,0,brander-desktop,0,0
11:58:12,0,CPUdb,,13.0,,true,0,0,0,0,null,0,1,0,brander-desktop,0,0
11:58:13,0,CPUfront1,,31.65,,true,0,0,0,0,null,0,1,0,brander-desktop,0,0
11:58:15,0,CPUstatic,,32.43,,true,0,0,0,0,null,0,1,0,brander-desktop,0,0
11:58:16,0,CPUdb,,13.38,,true,0,0,0,0,null,0,1,0,brander-desktop,0,0
11:58:17,0,CPUfront1,,9.0,,true,0,0,0,0,null,0,1,0,brander-desktop,0,0
11:58:18,0,CPUstatic,,27.36,,true,0,0,0,0,null,0,1,0,brander-desktop,0,0
11:58:19,0,CPUdb,,13.2,,true,0,0,0,0,null,0,1,0,brander-desktop,0,0
11:58:21,0,CPUfront1,,9.02,,true,0,0,0,0,null,0,1,0,brander-desktop,0,0
11:58:22,0,CPUstatic,,20.67,,true,0,0,0,0,null,0,1,0,brander-desktop,0,0
11:58:23,0,CPUdb,,13.19,,true,0,0,0,0,null,0,1,0,brander-desktop,0,0
11:58:24,0,CPUfront1,,8.68,,true,0,0,0,0,null,0,1,0,brander-desktop,0,0
11:58:25,0,CPUstatic,,28.43,,true,0,0,0,0,null,0,1,0,brander-desktop,0,0
11:58:26,0,CPUdb,,13.15,,true,0,0,0,0,null,0,1,0,brander-desktop,0,0
11:58:28,0,CPUfront1,,37.58,,true,0,0,0,0,null,0,1,0,brander-desktop,0,0
11:58:29,0,CPUstatic,,13.54,,true,0,0,0,0,null,0,1,0,brander-desktop,0,0
11:58:30,0,CPUdb,,10.88,,true,0,0,0,0,null,0,1,0,brander-desktop,0,0
11:58:31,0,CPUfront1,,15.68,,true,0,0,0,0,null,0,1,0,brander-desktop,0,0
11:58:32,0,CPUstatic,,13.42,,true,0,0,0,0,null,0,1,0,brander-desktop,0,0
11:58:33,0,CPUdb,,10.97,,true,0,0,0,0,null,0,1,0,brander-desktop,0,0
11:58:35,0,CPUfront1,,12.77,,true,0,0,0,0,null,0,1,0,brander-desktop,0,0
11:58:36,0,CPUstatic,,18.32,,true,0,0,0,0,null,0,1,0,brander-desktop,0,0
11:58:37,0,CPUdb,,16.19,,true,0,0,0,0,null,0,1,0,brander-desktop,0,0
11:58:38,0,CPUfront1,,13.57,,true,0,0,0,0,null,0,1,0,brander-desktop,0,0
11:58:39,0,CPUstatic,,15.77,,true,0,0,0,0,null,0,1,0,brander-desktop,0,0
11:58:40,0,CPUdb,,12.37,,true,0,0,0,0,null,0,1,0,brander-desktop,0,0
11:58:41,0,CPUfront1,,13.97,,true,0,0,0,0,null,0,1,0,brander-desktop,0,0
11:58:42,0,CPUstatic,,22.13,,true,0,0,0,0,null,0,1,0,brander-desktop,0,0
11:58:44,0,CPUdb,,14.78,,true,0,0,0,0,null,0,1,0,brander-desktop,0,0
11:58:45,0,CPUfront1,,25.08,,true,0,0,0,0,null,0,1,0,brander-desktop,0,0
11:58:46,0,CPUstatic,,14.89,,true,0,0,0,0,null,0,1,0,brander-desktop,0,0
11:58:47,0,CPUdb,,17.2,,true,0,0,0,0,null,0,1,0,brander-desktop,0,0
11:58:48,0,CPUfront1,,32.77,,true,0,0,0,0,null,0,1,0,brander-desktop,0,0
11:58:50,0,CPUstatic,,22.71,,true,0,0,0,0,null,0,1,0,brander-desktop,0,0
11:58:51,0,CPUdb,,14.94,,true,0,0,0,0,null,0,1,0,brander-desktop,0,0
11:58:53,0,CPUfront1,,27.4,,true,0,0,0,0,null,0,1,0,brander-desktop,0,0
11:58:54,0,CPUstatic,,14.04,,true,0,0,0,0,null,0,1,0,brander-desktop,0,0
11:58:55,0,CPUdb,,9.99,,true,0,0,0,0,null,0,1,0,brander-desktop,0,0
11:58:57,0,CPUfront1,,24.49,,true,0,0,0,0,null,0,1,0,brander-desktop,0,0
11:58:58,0,CPUstatic,,24.74,,true,0,0,0,0,null,0,1,0,brander-desktop,0,0
11:58:59,0,CPUdb,,13.6,,true,0,0,0,0,null,0,1,0,brander-desktop,0,0
11:59:00,0,CPUfront1,,27.56,,true,0,0,0,0,null,0,1,0,brander-desktop,0,0
11:59:02,0,CPUstatic,,30.0,,true,0,0,0,0,null,0,1,0,brander-desktop,0,0
11:59:03,0,CPUdb,,18.89,,true,0,0,0,0,null,0,1,0,brander-desktop,0,0
11:59:04,0,CPUfront1,,28.26,,true,0,0,0,0,null,0,1,0,brander-desktop,0,0
11:59:06,0,CPUstatic,,24.83,,true,0,0,0,0,null,0,1,0,brander-desktop,0,0
11:59:07,0,CPUdb,,13.97,,true,0,0,0,0,null,0,1,0,brander-desktop,0,0
11:59:08,0,CPUfront1,,26.25,,true,0,0,0,0,null,0,1,0,brander-desktop,0,0
11:59:09,0,CPUstatic,,21.75,,true,0,0,0,0,null,0,1,0,brander-desktop,0,0
11:59:10,0,CPUdb,,9.91,,true,0,0,0,0,null,0,1,0,brander-desktop,0,0
11:59:12,0,CPUfront1,,31.05,,true,0,0,0,0,null,0,1,0,brander-desktop,0,0
11:59:13,0,CPUstatic,,17.37,,true,0,0,0,0,null,0,1,0,brander-desktop,0,0
11:59:14,0,CPUdb,,11.59,,true,0,0,0,0,null,0,1,0,brander-desktop,0,0
11:59:16,0,CPUfront1,,27.68,,true,0,0,0,0,null,0,1,0,brander-desktop,0,0
11:59:17,0,CPUstatic,,18.15,,true,0,0,0,0,null,0,1,0,brander-desktop,0,0
11:59:19,0,CPUdb,,12.55,,true,0,0,0,0,null,0,1,0,brander-desktop,0,0
11:59:20,0,CPUfront1,,32.27,,true,0,0,0,0,null,0,1,0,brander-desktop,0,0
11:59:21,0,CPUstatic,,29.26,,true,0,0,0,0,null,0,1,0,brander-desktop,0,0
11:59:23,0,CPUdb,,13.5,,true,0,0,0,0,null,0,1,0,brander-desktop,0,0
11:59:24,0,CPUfront1,,22.09,,true,0,0,0,0,null,0,1,0,brander-desktop,0,0
11:59:25,0,CPUstatic,,20.0,,true,0,0,0,0,null,0,1,0,brander-desktop,0,0
11:59:26,0,CPUdb,,10.19,,true,0,0,0,0,null,0,1,0,brander-desktop,0,0
11:59:27,0,CPUfront1,,23.04,,true,0,0,0,0,null,0,1,0,brander-desktop,0,0
11:59:28,0,CPUstatic,,19.83,,true,0,0,0,0,null,0,1,0,brander-desktop,0,0
11:59:30,0,CPUdb,,14.69,,true,0,0,0,0,null,0,1,0,brander-desktop,0,0
11:59:31,0,CPUfront1,,31.16,,true,0,0,0,0,null,0,1,0,brander-desktop,0,0
11:59:32,0,CPUstatic,,26.26,,true,0,0,0,0,null,0,1,0,brander-desktop,0,0
11:59:33,0,CPUdb,,17.77,,true,0,0,0,0,null,0,1,0,brander-desktop,0,0
11:59:34,0,CPUfront1,,32.5,,true,0,0,0,0,null,0,1,0,brander-desktop,0,0
11:59:35,0,CPUstatic,,14.65,,true,0,0,0,0,null,0,1,0,brander-desktop,0,0
11:59:36,0,CPUdb,,14.06,,true,0,0,0,0,null,0,1,0,brander-desktop,0,0
11:59:38,0,CPUfront1,,10.37,,true,0,0,0,0,null,0,1,0,brander-desktop,0,0
11:59:39,0,CPUstatic,,19.57,,true,0,0,0,0,null,0,1,0,brander-desktop,0,0
11:59:40,0,CPUdb,,12.75,,true,0,0,0,0,null,0,1,0,brander-desktop,0,0
11:59:41,0,CPUfront1,,29.29,,true,0,0,0,0,null,0,1,0,brander-desktop,0,0
11:59:42,0,CPUstatic,,23.61,,true,0,0,0,0,null,0,1,0,brander-desktop,0,0
11:59:44,0,CPUdb,,15.54,,true,0,0,0,0,null,0,1,0,brander-desktop,0,0
11:59:45,0,CPUfront1,,27.23,,true,0,0,0,0,null,0,1,0,brander-desktop,0,0
11:59:46,0,CPUstatic,,29.78,,true,0,0,0,0,null,0,1,0,brander-desktop,0,0
11:59:47,0,CPUdb,,16.22,,true,0,0,0,0,null,0,1,0,brander-desktop,0,0
11:59:48,0,CPUfront1,,23.28,,true,0,0,0,0,null,0,1,0,brander-desktop,0,0
11:59:49,0,CPUstatic,,17.97,,true,0,0,0,0,null,0,1,0,brander-desktop,0,0
11:59:50,0,CPUdb,,20.25,,true,0,0,0,0,null,0,1,0,brander-desktop,0,0
11:59:51,0,CPUfront1,,30.32,,true,0,0,0,0,null,0,1,0,brander-desktop,0,0
11:59:53,0,CPUstatic,,19.93,,true,0,0,0,0,null,0,1,0,brander-desktop,0,0
11:59:54,0,CPUdb,,12.94,,true,0,0,0,0,null,0,1,0,brander-desktop,0,0
11:59:55,0,CPUfront1,,17.14,,true,0,0,0,0,null,0,1,0,brander-desktop,0,0
11:59:56,0,CPUstatic,,11.26,,true,0,0,0,0,null,0,1,0,brander-desktop,0,0
11:59:57,0,CPUdb,,11.02,,true,0,0,0,0,null,0,1,0,brander-desktop,0,0
11:59:58,0,CPUfront1,,34.85,,true,0,0,0,0,null,0,1,0,brander-desktop,0,0
11:59:59,0,CPUstatic,,19.32,,true,0,0,0,0,null,0,1,0,brander-desktop,0,0
12:00:01,0,CPUdb,,12.48,,true,0,0,0,0,null,0,1,0,brander-desktop,0,0
12:00:02,0,CPUfront1,,29.1,,true,0,0,0,0,null,0,1,0,brander-desktop,0,0
12:00:03,0,CPUstatic,,19.93,,true,0,0,0,0,null,0,1,0,brander-desktop,0,0
12:00:04,0,CPUdb,,13.27,,true,0,0,0,0,null,0,1,0,brander-desktop,0,0
12:00:05,0,CPUfront1,,27.49,,true,0,0,0,0,null,0,1,0,brander-desktop,0,0
12:00:06,0,CPUstatic,,17.17,,true,0,0,0,0,null,0,1,0,brander-desktop,0,0
12:00:07,0,CPUdb,,15.27,,true,0,0,0,0,null,0,1,0,brander-desktop,0,0
12:00:08,0,CPUfront1,,32.17,,true,0,0,0,0,null,0,1,0,brander-desktop,0,0
12:00:09,0,CPUstatic,,16.53,,true,0,0,0,0,null,0,1,0,brander-desktop,0,0
12:00:11,0,CPUdb,,8.67,,true,0,0,0,0,null,0,1,0,brander-desktop,0,0
12:00:12,0,CPUfront1,,20.93,,true,0,0,0,0,null,0,1,0,brander-desktop,0,0
12:00:13,0,CPUstatic,,34.68,,true,0,0,0,0,null,0,1,0,brander-desktop,0,0
12:00:14,0,CPUdb,,11.08,,true,0,0,0,0,null,0,1,0,brander-desktop,0,0
12:00:15,0,CPUfront1,,24.79,,true,0,0,0,0,null,0,1,0,brander-desktop,0,0
12:00:16,0,CPUstatic,,20.44,,true,0,0,0,0,null,0,1,0,brander-desktop,0,0
12:00:18,0,CPUdb,,20.72,,true,0,0,0,0,null,0,1,0,brander-desktop,0,0
12:00:19,0,CPUfront1,,18.32,,true,0,0,0,0,null,0,1,0,brander-desktop,0,0
12:00:20,0,CPUstatic,,22.02,,true,0,0,0,0,null,0,1,0,brander-desktop,0,0
12:00:21,0,CPUdb,,10.52,,true,0,0,0,0,null,0,1,0,brander-desktop,0,0
12:00:22,0,CPUfront1,,33.61,,true,0,0,0,0,null,0,1,0,brander-desktop,0,0
12:00:23,0,CPUstatic,,22.58,,true,0,0,0,0,null,0,1,0,brander-desktop,0,0
12:00:24,0,CPUdb,,8.49,,true,0,0,0,0,null,0,1,0,brander-desktop,0,0
12:00:25,0,CPUfront1,,24.54,,true,0,0,0,0,null,0,1,0,brander-desktop,0,0
12:00:26,0,CPUstatic,,19.02,,true,0,0,0,0,null,0,1,0,brander-desktop,0,0
12:00:27,0,CPUdb,,14.27,,true,0,0,0,0,null,0,1,0,brander-desktop,0,0
12:00:29,0,CPUfront1,,40.64,,true,0,0,0,0,null,0,1,0,brander-desktop,0,0
12:00:30,0,CPUstatic,,21.19,,true,0,0,0,0,null,0,1,0,brander-desktop,0,0
12:00:31,0,CPUdb,,17.64,,true,0,0,0,0,null,0,1,0,brander-desktop,0,0
12:00:32,0,CPUfront1,,37.44,,true,0,0,0,0,null,0,1,0,brander-desktop,0,0
12:00:33,0,CPUstatic,,29.25,,true,0,0,0,0,null,0,1,0,brander-desktop,0,0
12:00:34,0,CPUdb,,14.45,,true,0,0,0,0,null,0,1,0,brander-desktop,0,0
12:00:36,0,CPUfront1,,52.53,,true,0,0,0,0,null,0,1,0,brander-desktop,0,0
12:00:37,0,CPUstatic,,41.19,,true,0,0,0,0,null,0,1,0,brander-desktop,0,0
12:00:38,0,CPUdb,,17.13,,true,0,0,0,0,null,0,1,0,brander-desktop,0,0
12:00:39,0,CPUfront1,,18.67,,true,0,0,0,0,null,0,1,0,brander-desktop,0,0
12:00:40,0,CPUstatic,,25.75,,true,0,0,0,0,null,0,1,0,brander-desktop,0,0
12:00:41,0,CPUdb,,16.91,,true,0,0,0,0,null,0,1,0,brander-desktop,0,0
12:00:43,0,CPUfront1,,21.38,,true,0,0,0,0,null,0,1,0,brander-desktop,0,0
12:00:44,0,CPUstatic,,38.79,,true,0,0,0,0,null,0,1,0,brander-desktop,0,0
12:00:45,0,CPUdb,,18.02,,true,0,0,0,0,null,0,1,0,brander-desktop,0,0
12:00:46,0,CPUfront1,,27.68,,true,0,0,0,0,null,0,1,0,brander-desktop,0,0
12:00:47,0,CPUstatic,,29.85,,true,0,0,0,0,null,0,1,0,brander-desktop,0,0
12:00:48,0,CPUdb,,19.98,,true,0,0,0,0,null,0,1,0,brander-desktop,0,0
12:00:50,0,CPUfront1,,34.78,,true,0,0,0,0,null,0,1,0,brander-desktop,0,0
12:00:51,0,CPUstatic,,21.32,,true,0,0,0,0,null,0,1,0,brander-desktop,0,0
12:00:52,0,CPUdb,,27.08,,true,0,0,0,0,null,0,1,0,brander-desktop,0,0
12:00:53,0,CPUfront1,,34.45,,true,0,0,0,0,null,0,1,0,brander-desktop,0,0
12:00:54,0,CPUstatic,,21.15,,true,0,0,0,0,null,0,1,0,brander-desktop,0,0
12:00:55,0,CPUdb,,20.47,,true,0,0,0,0,null,0,1,0,brander-desktop,0,0
12:00:56,0,CPUfront1,,28.31,,true,0,0,0,0,null,0,1,0,brander-desktop,0,0
12:00:58,0,CPUstatic,,20.07,,true,0,0,0,0,null,0,1,0,brander-desktop,0,0
12:00:59,0,CPUdb,,16.72,,true,0,0,0,0,null,0,1,0,brander-desktop,0,0
12:01:00,0,CPUfront1,,39.03,,true,0,0,0,0,null,0,1,0,brander-desktop,0,0
12:01:01,0,CPUstatic,,20.17,,true,0,0,0,0,null,0,1,0,brander-desktop,0,0
12:01:02,0,CPUdb,,15.37,,true,0,0,0,0,null,0,1,0,brander-desktop,0,0
12:01:03,0,CPUfront1,,20.03,,true,0,0,0,0,null,0,1,0,brander-desktop,0,0
12:01:04,0,CPUstatic,,16.27,,true,0,0,0,0,null,0,1,0,brander-desktop,0,0
12:01:05,0,CPUdb,,14.5,,true,0,0,0,0,null,0,1,0,brander-desktop,0,0
12:01:07,0,CPUfront1,,31.09,,true,0,0,0,0,null,0,1,0,brander-desktop,0,0
12:01:08,0,CPUstatic,,16.07,,true,0,0,0,0,null,0,1,0,brander-desktop,0,0
12:01:09,0,CPUdb,,16.69,,true,0,0,0,0,null,0,1,0,brander-desktop,0,0
12:01:10,0,CPUfront1,,33.73,,true,0,0,0,0,null,0,1,0,brander-desktop,0,0
12:01:12,0,CPUstatic,,22.45,,true,0,0,0,0,null,0,1,0,brander-desktop,0,0
12:01:13,0,CPUdb,,12.1,,true,0,0,0,0,null,0,1,0,brander-desktop,0,0
12:01:14,0,CPUfront1,,29.72,,true,0,0,0,0,null,0,1,0,brander-desktop,0,0
12:01:15,0,CPUstatic,,26.48,,true,0,0,0,0,null,0,1,0,brander-desktop,0,0
12:01:16,0,CPUdb,,15.34,,true,0,0,0,0,null,0,1,0,brander-desktop,0,0
12:01:17,0,CPUfront1,,49.33,,true,0,0,0,0,null,0,1,0,brander-desktop,0,0
12:01:19,0,CPUstatic,,21.31,,true,0,0,0,0,null,0,1,0,brander-desktop,0,0
12:01:20,0,CPUdb,,15.75,,true,0,0,0,0,null,0,1,0,brander-desktop,0,0
12:01:21,0,CPUfront1,,38.92,,true,0,0,0,0,null,0,1,0,brander-desktop,0,0
12:01:22,0,CPUstatic,,28.72,,true,0,0,0,0,null,0,1,0,brander-desktop,0,0
12:01:23,0,CPUdb,,15.86,,true,0,0,0,0,null,0,1,0,brander-desktop,0,0
12:01:24,0,CPUfront1,,28.35,,true,0,0,0,0,null,0,1,0,brander-desktop,0,0
12:01:26,0,CPUstatic,,29.08,,true,0,0,0,0,null,0,1,0,brander-desktop,0,0
12:01:27,0,CPUdb,,14.0,,true,0,0,0,0,null,0,1,0,brander-desktop,0,0
12:01:28,0,CPUfront1,,43.73,,true,0,0,0,0,null,0,1,0,brander-desktop,0,0
12:01:29,0,CPUstatic,,23.74,,true,0,0,0,0,null,0,1,0,brander-desktop,0,0
12:01:30,0,CPUdb,,18.6,,true,0,0,0,0,null,0,1,0,brander-desktop,0,0
12:01:31,0,CPUfront1,,28.38,,true,0,0,0,0,null,0,1,0,brander-desktop,0,0
12:01:32,0,CPUstatic,,38.63,,true,0,0,0,0,null,0,1,0,brander-desktop,0,0
12:01:33,0,CPUdb,,24.58,,true,0,0,0,0,null,0,1,0,brander-desktop,0,0
12:01:34,0,CPUfront1,,26.25,,true,0,0,0,0,null,0,1,0,brander-desktop,0,0
12:01:36,0,CPUstatic,,22.5,,true,0,0,0,0,null,0,1,0,brander-desktop,0,0
12:01:37,0,CPUdb,,13.88,,true,0,0,0,0,null,0,1,0,brander-desktop,0,0
12:01:38,0,CPUfront1,,29.65,,true,0,0,0,0,null,0,1,0,brander-desktop,0,0
12:01:39,0,CPUstatic,,28.07,,true,0,0,0,0,null,0,1,0,brander-desktop,0,0
12:01:40,0,CPUdb,,18.66,,true,0,0,0,0,null,0,1,0,brander-desktop,0,0
12:01:41,0,CPUfront1,,46.91,,true,0,0,0,0,null,0,1,0,brander-desktop,0,0
12:01:43,0,CPUstatic,,25.76,,true,0,0,0,0,null,0,1,0,brander-desktop,0,0
12:01:44,0,CPUdb,,19.16,,true,0,0,0,0,null,0,1,0,brander-desktop,0,0
12:01:45,0,CPUfront1,,31.7,,true,0,0,0,0,null,0,1,0,brander-desktop,0,0
12:01:46,0,CPUstatic,,27.23,,true,0,0,0,0,null,0,1,0,brander-desktop,0,0
12:01:47,0,CPUdb,,12.79,,true,0,0,0,0,null,0,1,0,brander-desktop,0,0
12:01:48,0,CPUfront1,,32.11,,true,0,0,0,0,null,0,1,0,brander-desktop,0,0
12:01:49,0,CPUstatic,,27.16,,true,0,0,0,0,null,0,1,0,brander-desktop,0,0
12:01:50,0,CPUdb,,19.58,,true,0,0,0,0,null,0,1,0,brander-desktop,0,0
12:01:52,0,CPUfront1,,32.38,,true,0,0,0,0,null,0,1,0,brander-desktop,0,0
12:01:53,0,CPUstatic,,36.85,,true,0,0,0,0,null,0,1,0,brander-desktop,0,0
12:01:54,0,CPUdb,,17.02,,true,0,0,0,0,null,0,1,0,brander-desktop,0,0
12:01:55,0,CPUfront1,,32.83,,true,0,0,0,0,null,0,1,0,brander-desktop,0,0
12:01:56,0,CPUstatic,,34.18,,true,0,0,0,0,null,0,1,0,brander-desktop,0,0
12:01:57,0,CPUdb,,13.58,,true,0,0,0,0,null,0,1,0,brander-desktop,0,0
12:01:58,0,CPUfront1,,21.57,,true,0,0,0,0,null,0,1,0,brander-desktop,0,0
12:01:59,0,CPUstatic,,23.36,,true,0,0,0,0,null,0,1,0,brander-desktop,0,0
12:02:01,0,CPUdb,,10.54,,true,0,0,0,0,null,0,1,0,brander-desktop,0,0
12:02:02,0,CPUfront1,,41.95,,true,0,0,0,0,null,0,1,0,brander-desktop,0,0
12:02:03,0,CPUstatic,,16.33,,true,0,0,0,0,null,0,1,0,brander-desktop,0,0
12:02:04,0,CPUdb,,18.86,,true,0,0,0,0,null,0,1,0,brander-desktop,0,0
12:02:05,0,CPUfront1,,33.17,,true,0,0,0,0,null,0,1,0,brander-desktop,0,0
12:02:06,0,CPUstatic,,16.58,,true,0,0,0,0,null,0,1,0,brander-desktop,0,0
12:02:07,0,CPUdb,,12.52,,true,0,0,0,0,null,0,1,0,brander-desktop,0,0
12:02:08,0,CPUfront1,,54.41,,true,0,0,0,0,null,0,1,0,brander-desktop,0,0
12:02:10,0,CPUstatic,,16.24,,true,0,0,0,0,null,0,1,0,brander-desktop,0,0
12:02:11,0,CPUdb,,14.61,,true,0,0,0,0,null,0,1,0,brander-desktop,0,0
12:02:12,0,CPUfront1,,55.76,,true,0,0,0,0,null,0,1,0,brander-desktop,0,0
12:02:13,0,CPUstatic,,26.17,,true,0,0,0,0,null,0,1,0,brander-desktop,0,0
12:02:14,0,CPUdb,,13.1,,true,0,0,0,0,null,0,1,0,brander-desktop,0,0
12:02:15,0,CPUfront1,,40.27,,true,0,0,0,0,null,0,1,0,brander-desktop,0,0
12:02:16,0,CPUstatic,,18.0,,true,0,0,0,0,null,0,1,0,brander-desktop,0,0
12:02:17,0,CPUdb,,14.72,,true,0,0,0,0,null,0,1,0,brander-desktop,0,0
12:02:19,0,CPUfront1,,28.41,,true,0,0,0,0,null,0,1,0,brander-desktop,0,0
12:02:20,0,CPUstatic,,12.86,,true,0,0,0,0,null,0,1,0,brander-desktop,0,0
12:02:21,0,CPUdb,,9.97,,true,0,0,0,0,null,0,1,0,brander-desktop,0,0
12:02:22,0,CPUfront1,,20.44,,true,0,0,0,0,null,0,1,0,brander-desktop,0,0
12:02:23,0,CPUstatic,,16.41,,true,0,0,0,0,null,0,1,0,brander-desktop,0,0
12:02:24,0,CPUdb,,18.53,,true,0,0,0,0,null,0,1,0,brander-desktop,0,0
12:02:25,0,CPUfront1,,57.36,,true,0,0,0,0,null,0,1,0,brander-desktop,0,0
12:02:26,0,CPUstatic,,27.95,,true,0,0,0,0,null,0,1,0,brander-desktop,0,0
12:02:27,0,CPUdb,,13.19,,true,0,0,0,0,null,0,1,0,brander-desktop,0,0
12:02:28,0,CPUfront1,,50.59,,true,0,0,0,0,null,0,1,0,brander-desktop,0,0
12:02:30,0,CPUstatic,,27.88,,true,0,0,0,0,null,0,1,0,brander-desktop,0,0
12:02:31,0,CPUdb,,9.82,,true,0,0,0,0,null,0,1,0,brander-desktop,0,0
12:02:32,0,CPUfront1,,43.29,,true,0,0,0,0,null,0,1,0,brander-desktop,0,0
12:02:33,0,CPUstatic,,36.44,,true,0,0,0,0,null,0,1,0,brander-desktop,0,0
12:02:34,0,CPUdb,,11.1,,true,0,0,0,0,null,0,1,0,brander-desktop,0,0
12:02:35,0,CPUfront1,,31.65,,true,0,0,0,0,null,0,1,0,brander-desktop,0,0
12:02:36,0,CPUstatic,,24.37,,true,0,0,0,0,null,0,1,0,brander-desktop,0,0
12:02:37,0,CPUdb,,10.77,,true,0,0,0,0,null,0,1,0,brander-desktop,0,0
12:02:38,0,CPUfront1,,27.38,,true,0,0,0,0,null,0,1,0,brander-desktop,0,0
12:02:40,0,CPUstatic,,15.01,,true,0,0,0,0,null,0,1,0,brander-desktop,0,0
12:02:41,0,CPUdb,,13.19,,true,0,0,0,0,null,0,1,0,brander-desktop,0,0
12:02:42,0,CPUfront1,,22.45,,true,0,0,0,0,null,0,1,0,brander-desktop,0,0
12:02:43,0,CPUstatic,,17.76,,true,0,0,0,0,null,0,1,0,brander-desktop,0,0
12:02:45,0,CPUdb,,15.16,,true,0,0,0,0,null,0,1,0,brander-desktop,0,0
12:02:46,0,CPUfront1,,34.63,,true,0,0,0,0,null,0,1,0,brander-desktop,0,0
12:02:47,0,CPUstatic,,26.68,,true,0,0,0,0,null,0,1,0,brander-desktop,0,0
12:02:48,0,CPUdb,,15.68,,true,0,0,0,0,null,0,1,0,brander-desktop,0,0
12:02:49,0,CPUfront1,,37.08,,true,0,0,0,0,null,0,1,0,brander-desktop,0,0
12:02:50,0,CPUstatic,,29.1,,true,0,0,0,0,null,0,1,0,brander-desktop,0,0
12:02:52,0,CPUdb,,12.68,,true,0,0,0,0,null,0,1,0,brander-desktop,0,0
12:02:53,0,CPUfront1,,22.28,,true,0,0,0,0,null,0,1,0,brander-desktop,0,0
12:02:54,0,CPUstatic,,15.77,,true,0,0,0,0,null,0,1,0,brander-desktop,0,0
12:02:55,0,CPUdb,,13.83,,true,0,0,0,0,null,0,1,0,brander-desktop,0,0
12:02:57,0,CPUfront1,,26.01,,true,0,0,0,0,null,0,1,0,brander-desktop,0,0
12:02:58,0,CPUstatic,,19.46,,true,0,0,0,0,null,0,1,0,brander-desktop,0,0
12:02:59,0,CPUdb,,26.33,,true,0,0,0,0,null,0,1,0,brander-desktop,0,0
12:03:00,0,CPUfront1,,45.38,,true,0,0,0,0,null,0,1,0,brander-desktop,0,0
12:03:01,0,CPUstatic,,24.15,,true,0,0,0,0,null,0,1,0,brander-desktop,0,0
12:03:02,0,CPUdb,,14.84,,true,0,0,0,0,null,0,1,0,brander-desktop,0,0
12:03:03,0,CPUfront1,,45.25,,true,0,0,0,0,null,0,1,0,brander-desktop,0,0
12:03:04,0,CPUstatic,,27.55,,true,0,0,0,0,null,0,1,0,brander-desktop,0,0
12:03:05,0,CPUdb,,14.76,,true,0,0,0,0,null,0,1,0,brander-desktop,0,0
12:03:07,0,CPUfront1,,35.25,,true,0,0,0,0,null,0,1,0,brander-desktop,0,0
12:03:08,0,CPUstatic,,26.18,,true,0,0,0,0,null,0,1,0,brander-desktop,0,0
12:03:09,0,CPUdb,,13.55,,true,0,0,0,0,null,0,1,0,brander-desktop,0,0
12:03:10,0,CPUfront1,,28.57,,true,0,0,0,0,null,0,1,0,brander-desktop,0,0
12:03:11,0,CPUstatic,,37.73,,true,0,0,0,0,null,0,1,0,brander-desktop,0,0
12:03:12,0,CPUdb,,8.81,,true,0,0,0,0,null,0,1,0,brander-desktop,0,0
12:03:13,0,CPUfront1,,32.44,,true,0,0,0,0,null,0,1,0,brander-desktop,0,0
12:03:14,0,CPUstatic,,63.45,,true,0,0,0,0,null,0,1,0,brander-desktop,0,0
12:03:15,0,CPUdb,,9.33,,true,0,0,0,0,null,0,1,0,brander-desktop,0,0
12:03:17,0,CPUfront1,,44.96,,true,0,0,0,0,null,0,1,0,brander-desktop,0,0
12:03:18,0,CPUstatic,,20.31,,true,0,0,0,0,null,0,1,0,brander-desktop,0,0
12:03:19,0,CPUdb,,14.77,,true,0,0,0,0,null,0,1,0,brander-desktop,0,0
12:03:20,0,CPUfront1,,36.64,,true,0,0,0,0,null,0,1,0,brander-desktop,0,0
12:03:21,0,CPUstatic,,14.45,,true,0,0,0,0,null,0,1,0,brander-desktop,0,0
12:03:22,0,CPUdb,,17.78,,true,0,0,0,0,null,0,1,0,brander-desktop,0,0
12:03:23,0,CPUfront1,,43.84,,true,0,0,0,0,null,0,1,0,brander-desktop,0,0
12:03:24,0,CPUstatic,,40.03,,true,0,0,0,0,null,0,1,0,brander-desktop,0,0
12:03:25,0,CPUdb,,17.68,,true,0,0,0,0,null,0,1,0,brander-desktop,0,0
12:03:26,0,CPUfront1,,25.04,,true,0,0,0,0,null,0,1,0,brander-desktop,0,0
12:03:28,0,CPUstatic,,34.18,,true,0,0,0,0,null,0,1,0,brander-desktop,0,0
12:03:29,0,CPUdb,,10.21,,true,0,0,0,0,null,0,1,0,brander-desktop,0,0
12:03:30,0,CPUfront1,,25.17,,true,0,0,0,0,null,0,1,0,brander-desktop,0,0
12:03:31,0,CPUstatic,,30.57,,true,0,0,0,0,null,0,1,0,brander-desktop,0,0
12:03:32,0,CPUdb,,10.94,,true,0,0,0,0,null,0,1,0,brander-desktop,0,0
12:03:33,0,CPUfront1,,35.29,,true,0,0,0,0,null,0,1,0,brander-desktop,0,0
12:03:34,0,CPUstatic,,30.9,,true,0,0,0,0,null,0,1,0,brander-desktop,0,0
12:03:35,0,CPUdb,,14.91,,true,0,0,0,0,null,0,1,0,brander-desktop,0,0
12:03:37,0,CPUfront1,,41.71,,true,0,0,0,0,null,0,1,0,brander-desktop,0,0
12:03:38,0,CPUstatic,,23.01,,true,0,0,0,0,null,0,1,0,brander-desktop,0,0
12:03:39,0,CPUdb,,11.91,,true,0,0,0,0,null,0,1,0,brander-desktop,0,0
12:03:40,0,CPUfront1,,48.39,,true,0,0,0,0,null,0,1,0,brander-desktop,0,0
12:03:41,0,CPUstatic,,32.37,,true,0,0,0,0,null,0,1,0,brander-desktop,0,0
12:03:42,0,CPUdb,,13.57,,true,0,0,0,0,null,0,1,0,brander-desktop,0,0
12:03:43,0,CPUfront1,,50.84,,true,0,0,0,0,null,0,1,0,brander-desktop,0,0
12:03:44,0,CPUstatic,,32.21,,true,0,0,0,0,null,0,1,0,brander-desktop,0,0
12:03:45,0,CPUdb,,13.84,,true,0,0,0,0,null,0,1,0,brander-desktop,0,0
12:03:46,0,CPUfront1,,28.36,,true,0,0,0,0,null,0,1,0,brander-desktop,0,0
12:03:47,0,CPUstatic,,16.75,,true,0,0,0,0,null,0,1,0,brander-desktop,0,0
12:03:49,0,CPUdb,,16.49,,true,0,0,0,0,null,0,1,0,brander-desktop,0,0
12:03:50,0,CPUfront1,,24.87,,true,0,0,0,0,null,0,1,0,brander-desktop,0,0
12:03:51,0,CPUstatic,,19.77,,true,0,0,0,0,null,0,1,0,brander-desktop,0,0
12:03:52,0,CPUdb,,17.6,,true,0,0,0,0,null,0,1,0,brander-desktop,0,0
12:03:53,0,CPUfront1,,33.28,,true,0,0,0,0,null,0,1,0,brander-desktop,0,0
12:03:54,0,CPUstatic,,19.87,,true,0,0,0,0,null,0,1,0,brander-desktop,0,0
12:03:55,0,CPUdb,,17.72,,true,0,0,0,0,null,0,1,0,brander-desktop,0,0
12:03:56,0,CPUfront1,,37.82,,true,0,0,0,0,null,0,1,0,brander-desktop,0,0
12:03:57,0,CPUstatic,,30.98,,true,0,0,0,0,null,0,1,0,brander-desktop,0,0
12:03:59,0,CPUdb,,10.17,,true,0,0,0,0,null,0,1,0,brander-desktop,0,0
12:04:00,0,CPUfront1,,24.17,,true,0,0,0,0,null,0,1,0,brander-desktop,0,0
12:04:01,0,CPUstatic,,21.96,,true,0,0,0,0,null,0,1,0,brander-desktop,0,0
12:04:02,0,CPUdb,,17.74,,true,0,0,0,0,null,0,1,0,brander-desktop,0,0
12:04:03,0,CPUfront1,,36.52,,true,0,0,0,0,null,0,1,0,brander-desktop,0,0
12:04:04,0,CPUstatic,,23.6,,true,0,0,0,0,null,0,1,0,brander-desktop,0,0
12:04:05,0,CPUdb,,10.34,,true,0,0,0,0,null,0,1,0,brander-desktop,0,0
12:04:06,0,CPUfront1,,25.67,,true,0,0,0,0,null,0,1,0,brander-desktop,0,0
