timeStamp,elapsed,label,responseCode,responseMessage,threadName,success,bytes,sentBytes,grpThreads,allThreads,URL,Latency,SampleCount,ErrorCount,Hostname,IdleTime,Connect
20:39:21,0,CPUstatic,,10.07,,true,0,0,0,0,null,0,1,0,brander-desktop,0,0
20:39:23,0,CPUdb,,8.72,,true,0,0,0,0,null,0,1,0,brander-desktop,0,0
20:39:25,0,CPUfront1,,9.36,,true,0,0,0,0,null,0,1,0,brander-desktop,0,0
20:39:26,0,CPUfront2,,10.57,,true,0,0,0,0,null,0,1,0,brander-desktop,0,0
20:39:28,0,CPUfront3,,8.32,,true,0,0,0,0,null,0,1,0,brander-desktop,0,0
20:39:30,0,CPUfront4,,9.55,,true,0,0,0,0,null,0,1,0,brander-desktop,0,0
20:39:31,0,CPUstatic,,9.52,,true,0,0,0,0,null,0,1,0,brander-desktop,0,0
20:39:32,0,CPUdb,,8.55,,true,0,0,0,0,null,0,1,0,brander-desktop,0,0
20:39:33,0,CPUfront1,,9.17,,true,0,0,0,0,null,0,1,0,brander-desktop,0,0
20:39:34,0,CPUfront2,,9.52,,true,0,0,0,0,null,0,1,0,brander-desktop,0,0
20:39:35,0,CPUfront3,,9.83,,true,0,0,0,0,null,0,1,0,brander-desktop,0,0
20:39:36,0,CPUfront4,,17.03,,true,0,0,0,0,null,0,1,0,brander-desktop,0,0
20:39:37,0,CPUstatic,,17.3,,true,0,0,0,0,null,0,1,0,brander-desktop,0,0
20:39:39,0,CPUdb,,12.55,,true,0,0,0,0,null,0,1,0,brander-desktop,0,0
20:39:40,0,CPUfront1,,9.53,,true,0,0,0,0,null,0,1,0,brander-desktop,0,0
20:39:41,0,CPUfront2,,9.5,,true,0,0,0,0,null,0,1,0,brander-desktop,0,0
20:39:42,0,CPUfront3,,10.02,,true,0,0,0,0,null,0,1,0,brander-desktop,0,0
20:39:43,0,CPUfront4,,10.37,,true,0,0,0,0,null,0,1,0,brander-desktop,0,0
20:39:44,0,CPUstatic,,9.87,,true,0,0,0,0,null,0,1,0,brander-desktop,0,0
20:39:45,0,CPUdb,,7.62,,true,0,0,0,0,null,0,1,0,brander-desktop,0,0
20:39:46,0,CPUfront1,,17.2,,true,0,0,0,0,null,0,1,0,brander-desktop,0,0
20:39:47,0,CPUfront2,,9.52,,true,0,0,0,0,null,0,1,0,brander-desktop,0,0
20:39:48,0,CPUfront3,,9.68,,true,0,0,0,0,null,0,1,0,brander-desktop,0,0
20:39:49,0,CPUfront4,,10.0,,true,0,0,0,0,null,0,1,0,brander-desktop,0,0
20:39:50,0,CPUstatic,,18.39,,true,0,0,0,0,null,0,1,0,brander-desktop,0,0
20:39:52,0,CPUdb,,13.7,,true,0,0,0,0,null,0,1,0,brander-desktop,0,0
20:39:53,0,CPUfront1,,9.03,,true,0,0,0,0,null,0,1,0,brander-desktop,0,0
20:39:54,0,CPUfront2,,9.8,,true,0,0,0,0,null,0,1,0,brander-desktop,0,0
20:39:55,0,CPUfront3,,9.67,,true,0,0,0,0,null,0,1,0,brander-desktop,0,0
20:39:56,0,CPUfront4,,9.0,,true,0,0,0,0,null,0,1,0,brander-desktop,0,0
20:39:57,0,CPUstatic,,9.4,,true,0,0,0,0,null,0,1,0,brander-desktop,0,0
20:39:58,0,CPUdb,,7.53,,true,0,0,0,0,null,0,1,0,brander-desktop,0,0
20:39:59,0,CPUfront1,,17.17,,true,0,0,0,0,null,0,1,0,brander-desktop,0,0
20:40:00,0,CPUfront2,,9.48,,true,0,0,0,0,null,0,1,0,brander-desktop,0,0
20:40:01,0,CPUfront3,,9.03,,true,0,0,0,0,null,0,1,0,brander-desktop,0,0
20:40:02,0,CPUfront4,,13.09,,true,0,0,0,0,null,0,1,0,brander-desktop,0,0
20:40:04,0,CPUstatic,,22.5,,true,0,0,0,0,null,0,1,0,brander-desktop,0,0
20:40:05,0,CPUdb,,13.58,,true,0,0,0,0,null,0,1,0,brander-desktop,0,0
20:40:06,0,CPUfront1,,8.85,,true,0,0,0,0,null,0,1,0,brander-desktop,0,0
20:40:07,0,CPUfront2,,9.18,,true,0,0,0,0,null,0,1,0,brander-desktop,0,0
20:40:08,0,CPUfront3,,9.17,,true,0,0,0,0,null,0,1,0,brander-desktop,0,0
20:40:09,0,CPUfront4,,12.48,,true,0,0,0,0,null,0,1,0,brander-desktop,0,0
20:40:10,0,CPUstatic,,17.59,,true,0,0,0,0,null,0,1,0,brander-desktop,0,0
20:40:11,0,CPUdb,,9.02,,true,0,0,0,0,null,0,1,0,brander-desktop,0,0
20:40:12,0,CPUfront1,,17.03,,true,0,0,0,0,null,0,1,0,brander-desktop,0,0
20:40:13,0,CPUfront2,,7.99,,true,0,0,0,0,null,0,1,0,brander-desktop,0,0
20:40:14,0,CPUfront3,,9.33,,true,0,0,0,0,null,0,1,0,brander-desktop,0,0
20:40:16,0,CPUfront4,,17.53,,true,0,0,0,0,null,0,1,0,brander-desktop,0,0
20:40:17,0,CPUstatic,,9.82,,true,0,0,0,0,null,0,1,0,brander-desktop,0,0
20:40:18,0,CPUdb,,15.42,,true,0,0,0,0,null,0,1,0,brander-desktop,0,0
20:40:19,0,CPUfront1,,8.85,,true,0,0,0,0,null,0,1,0,brander-desktop,0,0
20:40:20,0,CPUfront2,,9.17,,true,0,0,0,0,null,0,1,0,brander-desktop,0,0
20:40:21,0,CPUfront3,,8.85,,true,0,0,0,0,null,0,1,0,brander-desktop,0,0
20:40:22,0,CPUfront4,,9.35,,true,0,0,0,0,null,0,1,0,brander-desktop,0,0
20:40:23,0,CPUstatic,,17.77,,true,0,0,0,0,null,0,1,0,brander-desktop,0,0
20:40:24,0,CPUdb,,8.76,,true,0,0,0,0,null,0,1,0,brander-desktop,0,0
20:40:25,0,CPUfront1,,17.33,,true,0,0,0,0,null,0,1,0,brander-desktop,0,0
20:40:26,0,CPUfront2,,10.52,,true,0,0,0,0,null,0,1,0,brander-desktop,0,0
20:40:27,0,CPUfront3,,11.43,,true,0,0,0,0,null,0,1,0,brander-desktop,0,0
20:40:29,0,CPUfront4,,11.56,,true,0,0,0,0,null,0,1,0,brander-desktop,0,0
20:40:30,0,CPUstatic,,9.06,,true,0,0,0,0,null,0,1,0,brander-desktop,0,0
20:40:31,0,CPUdb,,11.88,,true,0,0,0,0,null,0,1,0,brander-desktop,0,0
20:40:32,0,CPUfront1,,9.3,,true,0,0,0,0,null,0,1,0,brander-desktop,0,0
20:40:33,0,CPUfront2,,9.33,,true,0,0,0,0,null,0,1,0,brander-desktop,0,0
20:40:34,0,CPUfront3,,9.18,,true,0,0,0,0,null,0,1,0,brander-desktop,0,0
20:40:35,0,CPUfront4,,9.5,,true,0,0,0,0,null,0,1,0,brander-desktop,0,0
20:40:36,0,CPUstatic,,17.86,,true,0,0,0,0,null,0,1,0,brander-desktop,0,0
20:40:37,0,CPUdb,,7.7,,true,0,0,0,0,null,0,1,0,brander-desktop,0,0
20:40:38,0,CPUfront1,,17.5,,true,0,0,0,0,null,0,1,0,brander-desktop,0,0
20:40:39,0,CPUfront2,,9.17,,true,0,0,0,0,null,0,1,0,brander-desktop,0,0
20:40:41,0,CPUfront3,,10.85,,true,0,0,0,0,null,0,1,0,brander-desktop,0,0
20:40:42,0,CPUfront4,,11.5,,true,0,0,0,0,null,0,1,0,brander-desktop,0,0
20:40:43,0,CPUstatic,,9.52,,true,0,0,0,0,null,0,1,0,brander-desktop,0,0
20:40:44,0,CPUdb,,11.38,,true,0,0,0,0,null,0,1,0,brander-desktop,0,0
20:40:45,0,CPUfront1,,8.68,,true,0,0,0,0,null,0,1,0,brander-desktop,0,0
20:40:46,0,CPUfront2,,9.32,,true,0,0,0,0,null,0,1,0,brander-desktop,0,0
20:40:47,0,CPUfront3,,9.03,,true,0,0,0,0,null,0,1,0,brander-desktop,0,0
20:40:48,0,CPUfront4,,9.48,,true,0,0,0,0,null,0,1,0,brander-desktop,0,0
20:40:49,0,CPUstatic,,9.67,,true,0,0,0,0,null,0,1,0,brander-desktop,0,0
20:40:50,0,CPUdb,,8.52,,true,0,0,0,0,null,0,1,0,brander-desktop,0,0
20:40:51,0,CPUfront1,,17.17,,true,0,0,0,0,null,0,1,0,brander-desktop,0,0
20:40:53,0,CPUfront2,,9.33,,true,0,0,0,0,null,0,1,0,brander-desktop,0,0
20:40:54,0,CPUfront3,,21.04,,true,0,0,0,0,null,0,1,0,brander-desktop,0,0
20:40:55,0,CPUfront4,,9.08,,true,0,0,0,0,null,0,1,0,brander-desktop,0,0
20:40:56,0,CPUstatic,,18.56,,true,0,0,0,0,null,0,1,0,brander-desktop,0,0
20:40:57,0,CPUdb,,11.62,,true,0,0,0,0,null,0,1,0,brander-desktop,0,0
20:40:58,0,CPUfront1,,9.67,,true,0,0,0,0,null,0,1,0,brander-desktop,0,0
20:40:59,0,CPUfront2,,9.85,,true,0,0,0,0,null,0,1,0,brander-desktop,0,0
20:41:00,0,CPUfront3,,11.85,,true,0,0,0,0,null,0,1,0,brander-desktop,0,0
20:41:01,0,CPUfront4,,9.83,,true,0,0,0,0,null,0,1,0,brander-desktop,0,0
20:41:02,0,CPUstatic,,10.87,,true,0,0,0,0,null,0,1,0,brander-desktop,0,0
20:41:03,0,CPUdb,,9.44,,true,0,0,0,0,null,0,1,0,brander-desktop,0,0
20:41:05,0,CPUfront1,,17.3,,true,0,0,0,0,null,0,1,0,brander-desktop,0,0
20:41:06,0,CPUfront2,,9.62,,true,0,0,0,0,null,0,1,0,brander-desktop,0,0
