timeStamp,elapsed,label,responseCode,responseMessage,threadName,success,bytes,sentBytes,grpThreads,allThreads,URL,Latency,SampleCount,ErrorCount,Hostname,IdleTime,Connect
19:22:41,0,CPUstatic,,8.54,,true,0,0,0,0,null,0,1,0,brander-desktop,0,0
19:22:42,0,CPUdb,,4.67,,true,0,0,0,0,null,0,1,0,brander-desktop,0,0
19:22:44,0,CPUfront1,,9.33,,true,0,0,0,0,null,0,1,0,brander-desktop,0,0
19:22:45,0,CPUstatic,,9.02,,true,0,0,0,0,null,0,1,0,brander-desktop,0,0
19:22:46,0,CPUdb,,4.5,,true,0,0,0,0,null,0,1,0,brander-desktop,0,0
19:22:47,0,CPUfront1,,17.2,,true,0,0,0,0,null,0,1,0,brander-desktop,0,0
19:22:48,0,CPUstatic,,17.28,,true,0,0,0,0,null,0,1,0,brander-desktop,0,0
19:22:49,0,CPUdb,,12.5,,true,0,0,0,0,null,0,1,0,brander-desktop,0,0
19:22:51,0,CPUfront1,,17.17,,true,0,0,0,0,null,0,1,0,brander-desktop,0,0
19:22:52,0,CPUstatic,,17.36,,true,0,0,0,0,null,0,1,0,brander-desktop,0,0
19:22:53,0,CPUdb,,8.76,,true,0,0,0,0,null,0,1,0,brander-desktop,0,0
19:22:54,0,CPUfront1,,9.17,,true,0,0,0,0,null,0,1,0,brander-desktop,0,0
19:22:55,0,CPUstatic,,17.53,,true,0,0,0,0,null,0,1,0,brander-desktop,0,0
19:22:56,0,CPUdb,,8.68,,true,0,0,0,0,null,0,1,0,brander-desktop,0,0
19:22:57,0,CPUfront1,,17.17,,true,0,0,0,0,null,0,1,0,brander-desktop,0,0
19:22:58,0,CPUstatic,,10.85,,true,0,0,0,0,null,0,1,0,brander-desktop,0,0
19:22:59,0,CPUdb,,8.35,,true,0,0,0,0,null,0,1,0,brander-desktop,0,0
19:23:00,0,CPUfront1,,17.28,,true,0,0,0,0,null,0,1,0,brander-desktop,0,0
19:23:02,0,CPUstatic,,16.53,,true,0,0,0,0,null,0,1,0,brander-desktop,0,0
19:23:03,0,CPUdb,,7.01,,true,0,0,0,0,null,0,1,0,brander-desktop,0,0
19:23:04,0,CPUfront1,,10.68,,true,0,0,0,0,null,0,1,0,brander-desktop,0,0
19:23:05,0,CPUstatic,,17.22,,true,0,0,0,0,null,0,1,0,brander-desktop,0,0
19:23:06,0,CPUdb,,16.1,,true,0,0,0,0,null,0,1,0,brander-desktop,0,0
19:23:07,0,CPUfront1,,16.86,,true,0,0,0,0,null,0,1,0,brander-desktop,0,0
19:23:08,0,CPUstatic,,14.38,,true,0,0,0,0,null,0,1,0,brander-desktop,0,0
19:23:09,0,CPUdb,,10.52,,true,0,0,0,0,null,0,1,0,brander-desktop,0,0
19:23:10,0,CPUfront1,,17.0,,true,0,0,0,0,null,0,1,0,brander-desktop,0,0
19:23:11,0,CPUstatic,,15.83,,true,0,0,0,0,null,0,1,0,brander-desktop,0,0
19:23:12,0,CPUdb,,16.78,,true,0,0,0,0,null,0,1,0,brander-desktop,0,0
19:23:14,0,CPUfront1,,8.51,,true,0,0,0,0,null,0,1,0,brander-desktop,0,0
19:23:15,0,CPUstatic,,17.03,,true,0,0,0,0,null,0,1,0,brander-desktop,0,0
19:23:16,0,CPUdb,,4.91,,true,0,0,0,0,null,0,1,0,brander-desktop,0,0
19:23:17,0,CPUfront1,,17.2,,true,0,0,0,0,null,0,1,0,brander-desktop,0,0
19:23:18,0,CPUstatic,,16.86,,true,0,0,0,0,null,0,1,0,brander-desktop,0,0
19:23:19,0,CPUdb,,17.1,,true,0,0,0,0,null,0,1,0,brander-desktop,0,0
19:23:20,0,CPUfront1,,16.86,,true,0,0,0,0,null,0,1,0,brander-desktop,0,0
19:23:21,0,CPUstatic,,8.67,,true,0,0,0,0,null,0,1,0,brander-desktop,0,0
19:23:22,0,CPUdb,,8.6,,true,0,0,0,0,null,0,1,0,brander-desktop,0,0
19:23:23,0,CPUfront1,,13.07,,true,0,0,0,0,null,0,1,0,brander-desktop,0,0
19:23:25,0,CPUstatic,,16.89,,true,0,0,0,0,null,0,1,0,brander-desktop,0,0
19:23:26,0,CPUdb,,8.6,,true,0,0,0,0,null,0,1,0,brander-desktop,0,0
19:23:27,0,CPUfront1,,16.97,,true,0,0,0,0,null,0,1,0,brander-desktop,0,0
19:23:28,0,CPUstatic,,17.0,,true,0,0,0,0,null,0,1,0,brander-desktop,0,0
19:23:29,0,CPUdb,,7.67,,true,0,0,0,0,null,0,1,0,brander-desktop,0,0
19:23:30,0,CPUfront1,,26.01,,true,0,0,0,0,null,0,1,0,brander-desktop,0,0
19:23:31,0,CPUstatic,,10.2,,true,0,0,0,0,null,0,1,0,brander-desktop,0,0
19:23:32,0,CPUdb,,13.59,,true,0,0,0,0,null,0,1,0,brander-desktop,0,0
19:23:33,0,CPUfront1,,8.67,,true,0,0,0,0,null,0,1,0,brander-desktop,0,0
19:23:34,0,CPUstatic,,17.5,,true,0,0,0,0,null,0,1,0,brander-desktop,0,0
19:23:35,0,CPUdb,,8.42,,true,0,0,0,0,null,0,1,0,brander-desktop,0,0
19:23:36,0,CPUfront1,,17.33,,true,0,0,0,0,null,0,1,0,brander-desktop,0,0
19:23:38,0,CPUstatic,,22.41,,true,0,0,0,0,null,0,1,0,brander-desktop,0,0
19:23:39,0,CPUdb,,8.76,,true,0,0,0,0,null,0,1,0,brander-desktop,0,0
19:23:40,0,CPUfront1,,17.97,,true,0,0,0,0,null,0,1,0,brander-desktop,0,0
19:23:41,0,CPUstatic,,16.64,,true,0,0,0,0,null,0,1,0,brander-desktop,0,0
19:23:42,0,CPUdb,,8.67,,true,0,0,0,0,null,0,1,0,brander-desktop,0,0
19:23:43,0,CPUfront1,,9.15,,true,0,0,0,0,null,0,1,0,brander-desktop,0,0
19:23:44,0,CPUstatic,,17.79,,true,0,0,0,0,null,0,1,0,brander-desktop,0,0
19:23:45,0,CPUdb,,4.51,,true,0,0,0,0,null,0,1,0,brander-desktop,0,0
19:23:46,0,CPUfront1,,23.28,,true,0,0,0,0,null,0,1,0,brander-desktop,0,0
19:23:47,0,CPUstatic,,19.7,,true,0,0,0,0,null,0,1,0,brander-desktop,0,0
19:23:49,0,CPUdb,,8.59,,true,0,0,0,0,null,0,1,0,brander-desktop,0,0
19:23:50,0,CPUfront1,,20.07,,true,0,0,0,0,null,0,1,0,brander-desktop,0,0
19:23:51,0,CPUstatic,,10.61,,true,0,0,0,0,null,0,1,0,brander-desktop,0,0
19:23:52,0,CPUdb,,8.51,,true,0,0,0,0,null,0,1,0,brander-desktop,0,0
19:23:53,0,CPUfront1,,25.83,,true,0,0,0,0,null,0,1,0,brander-desktop,0,0
19:23:54,0,CPUstatic,,18.59,,true,0,0,0,0,null,0,1,0,brander-desktop,0,0
19:23:55,0,CPUdb,,8.6,,true,0,0,0,0,null,0,1,0,brander-desktop,0,0
19:23:56,0,CPUfront1,,17.2,,true,0,0,0,0,null,0,1,0,brander-desktop,0,0
19:23:57,0,CPUstatic,,18.86,,true,0,0,0,0,null,0,1,0,brander-desktop,0,0
19:23:58,0,CPUdb,,8.42,,true,0,0,0,0,null,0,1,0,brander-desktop,0,0
19:24:00,0,CPUfront1,,10.03,,true,0,0,0,0,null,0,1,0,brander-desktop,0,0
19:24:01,0,CPUstatic,,20.27,,true,0,0,0,0,null,0,1,0,brander-desktop,0,0
19:24:02,0,CPUdb,,4.5,,true,0,0,0,0,null,0,1,0,brander-desktop,0,0
19:24:03,0,CPUfront1,,17.09,,true,0,0,0,0,null,0,1,0,brander-desktop,0,0
19:24:04,0,CPUstatic,,18.29,,true,0,0,0,0,null,0,1,0,brander-desktop,0,0
19:24:05,0,CPUdb,,16.44,,true,0,0,0,0,null,0,1,0,brander-desktop,0,0
19:24:06,0,CPUfront1,,16.97,,true,0,0,0,0,null,0,1,0,brander-desktop,0,0
19:24:07,0,CPUstatic,,18.76,,true,0,0,0,0,null,0,1,0,brander-desktop,0,0
19:24:08,0,CPUdb,,10.51,,true,0,0,0,0,null,0,1,0,brander-desktop,0,0
19:24:09,0,CPUfront1,,8.88,,true,0,0,0,0,null,0,1,0,brander-desktop,0,0
19:24:10,0,CPUstatic,,23.96,,true,0,0,0,0,null,0,1,0,brander-desktop,0,0
19:24:12,0,CPUdb,,8.59,,true,0,0,0,0,null,0,1,0,brander-desktop,0,0
19:24:13,0,CPUfront1,,16.89,,true,0,0,0,0,null,0,1,0,brander-desktop,0,0
19:24:14,0,CPUstatic,,18.74,,true,0,0,0,0,null,0,1,0,brander-desktop,0,0
19:24:15,0,CPUdb,,6.02,,true,0,0,0,0,null,0,1,0,brander-desktop,0,0
19:24:16,0,CPUfront1,,17.53,,true,0,0,0,0,null,0,1,0,brander-desktop,0,0
19:24:17,0,CPUstatic,,11.6,,true,0,0,0,0,null,0,1,0,brander-desktop,0,0
19:24:18,0,CPUdb,,9.99,,true,0,0,0,0,null,0,1,0,brander-desktop,0,0
19:24:19,0,CPUfront1,,17.09,,true,0,0,0,0,null,0,1,0,brander-desktop,0,0
19:24:20,0,CPUstatic,,17.62,,true,0,0,0,0,null,0,1,0,brander-desktop,0,0
19:24:21,0,CPUdb,,13.61,,true,0,0,0,0,null,0,1,0,brander-desktop,0,0
19:24:23,0,CPUfront1,,17.42,,true,0,0,0,0,null,0,1,0,brander-desktop,0,0
19:24:24,0,CPUstatic,,18.62,,true,0,0,0,0,null,0,1,0,brander-desktop,0,0
19:24:25,0,CPUdb,,14.67,,true,0,0,0,0,null,0,1,0,brander-desktop,0,0
19:24:26,0,CPUfront1,,8.88,,true,0,0,0,0,null,0,1,0,brander-desktop,0,0
19:24:27,0,CPUstatic,,10.92,,true,0,0,0,0,null,0,1,0,brander-desktop,0,0
19:24:28,0,CPUdb,,4.83,,true,0,0,0,0,null,0,1,0,brander-desktop,0,0
19:24:29,0,CPUfront1,,17.28,,true,0,0,0,0,null,0,1,0,brander-desktop,0,0
19:24:30,0,CPUstatic,,19.5,,true,0,0,0,0,null,0,1,0,brander-desktop,0,0
19:24:31,0,CPUdb,,8.84,,true,0,0,0,0,null,0,1,0,brander-desktop,0,0
19:24:33,0,CPUfront1,,21.96,,true,0,0,0,0,null,0,1,0,brander-desktop,0,0
19:24:34,0,CPUstatic,,18.79,,true,0,0,0,0,null,0,1,0,brander-desktop,0,0
19:24:35,0,CPUdb,,9.52,,true,0,0,0,0,null,0,1,0,brander-desktop,0,0
19:24:36,0,CPUfront1,,23.04,,true,0,0,0,0,null,0,1,0,brander-desktop,0,0
19:24:37,0,CPUstatic,,18.76,,true,0,0,0,0,null,0,1,0,brander-desktop,0,0
19:24:38,0,CPUdb,,8.92,,true,0,0,0,0,null,0,1,0,brander-desktop,0,0
19:24:39,0,CPUfront1,,17.67,,true,0,0,0,0,null,0,1,0,brander-desktop,0,0
19:24:40,0,CPUstatic,,19.13,,true,0,0,0,0,null,0,1,0,brander-desktop,0,0
19:24:41,0,CPUdb,,7.69,,true,0,0,0,0,null,0,1,0,brander-desktop,0,0
19:24:42,0,CPUfront1,,9.18,,true,0,0,0,0,null,0,1,0,brander-desktop,0,0
19:24:43,0,CPUstatic,,12.08,,true,0,0,0,0,null,0,1,0,brander-desktop,0,0
19:24:45,0,CPUdb,,12.02,,true,0,0,0,0,null,0,1,0,brander-desktop,0,0
19:24:46,0,CPUfront1,,17.2,,true,0,0,0,0,null,0,1,0,brander-desktop,0,0
19:24:47,0,CPUstatic,,18.93,,true,0,0,0,0,null,0,1,0,brander-desktop,0,0
19:24:48,0,CPUdb,,11.29,,true,0,0,0,0,null,0,1,0,brander-desktop,0,0
19:24:49,0,CPUfront1,,23.4,,true,0,0,0,0,null,0,1,0,brander-desktop,0,0
19:24:50,0,CPUstatic,,19.3,,true,0,0,0,0,null,0,1,0,brander-desktop,0,0
19:24:51,0,CPUdb,,9.02,,true,0,0,0,0,null,0,1,0,brander-desktop,0,0
19:24:52,0,CPUfront1,,16.36,,true,0,0,0,0,null,0,1,0,brander-desktop,0,0
19:24:53,0,CPUstatic,,17.0,,true,0,0,0,0,null,0,1,0,brander-desktop,0,0
19:24:54,0,CPUdb,,8.67,,true,0,0,0,0,null,0,1,0,brander-desktop,0,0
19:24:56,0,CPUfront1,,17.7,,true,0,0,0,0,null,0,1,0,brander-desktop,0,0
19:24:57,0,CPUstatic,,21.28,,true,0,0,0,0,null,0,1,0,brander-desktop,0,0
19:24:58,0,CPUdb,,4.59,,true,0,0,0,0,null,0,1,0,brander-desktop,0,0
19:24:59,0,CPUfront1,,20.81,,true,0,0,0,0,null,0,1,0,brander-desktop,0,0
19:25:00,0,CPUstatic,,20.57,,true,0,0,0,0,null,0,1,0,brander-desktop,0,0
19:25:01,0,CPUdb,,9.16,,true,0,0,0,0,null,0,1,0,brander-desktop,0,0
19:25:02,0,CPUfront1,,18.09,,true,0,0,0,0,null,0,1,0,brander-desktop,0,0
19:25:03,0,CPUstatic,,28.24,,true,0,0,0,0,null,0,1,0,brander-desktop,0,0
19:25:05,0,CPUdb,,8.77,,true,0,0,0,0,null,0,1,0,brander-desktop,0,0
19:25:06,0,CPUfront1,,17.73,,true,0,0,0,0,null,0,1,0,brander-desktop,0,0
19:25:07,0,CPUstatic,,21.54,,true,0,0,0,0,null,0,1,0,brander-desktop,0,0
19:25:08,0,CPUdb,,16.21,,true,0,0,0,0,null,0,1,0,brander-desktop,0,0
19:25:09,0,CPUfront1,,16.22,,true,0,0,0,0,null,0,1,0,brander-desktop,0,0
19:25:10,0,CPUstatic,,12.08,,true,0,0,0,0,null,0,1,0,brander-desktop,0,0
19:25:11,0,CPUdb,,7.85,,true,0,0,0,0,null,0,1,0,brander-desktop,0,0
19:25:12,0,CPUfront1,,22.24,,true,0,0,0,0,null,0,1,0,brander-desktop,0,0
19:25:13,0,CPUstatic,,19.53,,true,0,0,0,0,null,0,1,0,brander-desktop,0,0
19:25:15,0,CPUdb,,8.84,,true,0,0,0,0,null,0,1,0,brander-desktop,0,0
19:25:16,0,CPUfront1,,32.72,,true,0,0,0,0,null,0,1,0,brander-desktop,0,0
19:25:17,0,CPUstatic,,19.39,,true,0,0,0,0,null,0,1,0,brander-desktop,0,0
19:25:18,0,CPUdb,,10.96,,true,0,0,0,0,null,0,1,0,brander-desktop,0,0
19:25:19,0,CPUfront1,,17.06,,true,0,0,0,0,null,0,1,0,brander-desktop,0,0
19:25:20,0,CPUstatic,,11.39,,true,0,0,0,0,null,0,1,0,brander-desktop,0,0
19:25:21,0,CPUdb,,12.01,,true,0,0,0,0,null,0,1,0,brander-desktop,0,0
19:25:23,0,CPUfront1,,22.02,,true,0,0,0,0,null,0,1,0,brander-desktop,0,0
19:25:24,0,CPUstatic,,20.83,,true,0,0,0,0,null,0,1,0,brander-desktop,0,0
19:25:25,0,CPUdb,,7.85,,true,0,0,0,0,null,0,1,0,brander-desktop,0,0
19:25:26,0,CPUfront1,,12.52,,true,0,0,0,0,null,0,1,0,brander-desktop,0,0
19:25:27,0,CPUstatic,,19.77,,true,0,0,0,0,null,0,1,0,brander-desktop,0,0
19:25:28,0,CPUdb,,4.5,,true,0,0,0,0,null,0,1,0,brander-desktop,0,0
19:25:29,0,CPUfront1,,17.17,,true,0,0,0,0,null,0,1,0,brander-desktop,0,0
19:25:30,0,CPUstatic,,18.82,,true,0,0,0,0,null,0,1,0,brander-desktop,0,0
19:25:31,0,CPUdb,,8.77,,true,0,0,0,0,null,0,1,0,brander-desktop,0,0
19:25:32,0,CPUfront1,,30.64,,true,0,0,0,0,null,0,1,0,brander-desktop,0,0
19:25:34,0,CPUstatic,,24.58,,true,0,0,0,0,null,0,1,0,brander-desktop,0,0
19:25:35,0,CPUdb,,9.11,,true,0,0,0,0,null,0,1,0,brander-desktop,0,0
19:25:36,0,CPUfront1,,9.33,,true,0,0,0,0,null,0,1,0,brander-desktop,0,0
19:25:37,0,CPUstatic,,18.31,,true,0,0,0,0,null,0,1,0,brander-desktop,0,0
19:25:38,0,CPUdb,,9.19,,true,0,0,0,0,null,0,1,0,brander-desktop,0,0
19:25:39,0,CPUfront1,,17.53,,true,0,0,0,0,null,0,1,0,brander-desktop,0,0
19:25:40,0,CPUstatic,,21.79,,true,0,0,0,0,null,0,1,0,brander-desktop,0,0
19:25:41,0,CPUdb,,8.35,,true,0,0,0,0,null,0,1,0,brander-desktop,0,0
19:25:43,0,CPUfront1,,17.76,,true,0,0,0,0,null,0,1,0,brander-desktop,0,0
19:25:44,0,CPUstatic,,21.21,,true,0,0,0,0,null,0,1,0,brander-desktop,0,0
19:25:45,0,CPUdb,,5.51,,true,0,0,0,0,null,0,1,0,brander-desktop,0,0
19:25:46,0,CPUfront1,,17.36,,true,0,0,0,0,null,0,1,0,brander-desktop,0,0
19:25:47,0,CPUstatic,,17.65,,true,0,0,0,0,null,0,1,0,brander-desktop,0,0
19:25:48,0,CPUdb,,11.86,,true,0,0,0,0,null,0,1,0,brander-desktop,0,0
19:25:49,0,CPUfront1,,26.22,,true,0,0,0,0,null,0,1,0,brander-desktop,0,0
19:25:50,0,CPUstatic,,20.81,,true,0,0,0,0,null,0,1,0,brander-desktop,0,0
19:25:51,0,CPUdb,,11.0,,true,0,0,0,0,null,0,1,0,brander-desktop,0,0
19:25:53,0,CPUfront1,,15.85,,true,0,0,0,0,null,0,1,0,brander-desktop,0,0
19:25:54,0,CPUstatic,,22.54,,true,0,0,0,0,null,0,1,0,brander-desktop,0,0
19:25:55,0,CPUdb,,9.12,,true,0,0,0,0,null,0,1,0,brander-desktop,0,0
19:25:56,0,CPUfront1,,17.56,,true,0,0,0,0,null,0,1,0,brander-desktop,0,0
19:25:57,0,CPUstatic,,22.71,,true,0,0,0,0,null,0,1,0,brander-desktop,0,0
19:25:58,0,CPUdb,,11.34,,true,0,0,0,0,null,0,1,0,brander-desktop,0,0
19:25:59,0,CPUfront1,,19.6,,true,0,0,0,0,null,0,1,0,brander-desktop,0,0
19:26:00,0,CPUstatic,,21.55,,true,0,0,0,0,null,0,1,0,brander-desktop,0,0
19:26:01,0,CPUdb,,5.36,,true,0,0,0,0,null,0,1,0,brander-desktop,0,0
19:26:02,0,CPUfront1,,18.06,,true,0,0,0,0,null,0,1,0,brander-desktop,0,0
19:26:04,0,CPUstatic,,20.27,,true,0,0,0,0,null,0,1,0,brander-desktop,0,0
19:26:05,0,CPUdb,,8.93,,true,0,0,0,0,null,0,1,0,brander-desktop,0,0
19:26:06,0,CPUfront1,,34.75,,true,0,0,0,0,null,0,1,0,brander-desktop,0,0
19:26:07,0,CPUstatic,,20.03,,true,0,0,0,0,null,0,1,0,brander-desktop,0,0
19:26:08,0,CPUdb,,20.96,,true,0,0,0,0,null,0,1,0,brander-desktop,0,0
19:26:09,0,CPUfront1,,19.26,,true,0,0,0,0,null,0,1,0,brander-desktop,0,0
19:26:10,0,CPUstatic,,12.56,,true,0,0,0,0,null,0,1,0,brander-desktop,0,0
19:26:11,0,CPUdb,,11.51,,true,0,0,0,0,null,0,1,0,brander-desktop,0,0
19:26:13,0,CPUfront1,,33.28,,true,0,0,0,0,null,0,1,0,brander-desktop,0,0
19:26:14,0,CPUstatic,,20.07,,true,0,0,0,0,null,0,1,0,brander-desktop,0,0
19:26:15,0,CPUdb,,6.68,,true,0,0,0,0,null,0,1,0,brander-desktop,0,0
19:26:17,0,CPUfront1,,17.39,,true,0,0,0,0,null,0,1,0,brander-desktop,0,0
19:26:18,0,CPUstatic,,22.69,,true,0,0,0,0,null,0,1,0,brander-desktop,0,0
19:26:19,0,CPUdb,,5.02,,true,0,0,0,0,null,0,1,0,brander-desktop,0,0
19:26:20,0,CPUfront1,,18.53,,true,0,0,0,0,null,0,1,0,brander-desktop,0,0
19:26:21,0,CPUstatic,,15.2,,true,0,0,0,0,null,0,1,0,brander-desktop,0,0
19:26:23,0,CPUdb,,8.38,,true,0,0,0,0,null,0,1,0,brander-desktop,0,0
19:26:24,0,CPUfront1,,21.04,,true,0,0,0,0,null,0,1,0,brander-desktop,0,0
19:26:25,0,CPUstatic,,22.65,,true,0,0,0,0,null,0,1,0,brander-desktop,0,0
19:26:27,0,CPUdb,,8.44,,true,0,0,0,0,null,0,1,0,brander-desktop,0,0
19:26:28,0,CPUfront1,,25.71,,true,0,0,0,0,null,0,1,0,brander-desktop,0,0
19:26:29,0,CPUstatic,,21.45,,true,0,0,0,0,null,0,1,0,brander-desktop,0,0
19:26:31,0,CPUdb,,8.76,,true,0,0,0,0,null,0,1,0,brander-desktop,0,0
19:26:32,0,CPUfront1,,17.34,,true,0,0,0,0,null,0,1,0,brander-desktop,0,0
19:26:33,0,CPUstatic,,26.96,,true,0,0,0,0,null,0,1,0,brander-desktop,0,0
19:26:35,0,CPUdb,,9.61,,true,0,0,0,0,null,0,1,0,brander-desktop,0,0
19:26:36,0,CPUfront1,,13.78,,true,0,0,0,0,null,0,1,0,brander-desktop,0,0
19:26:37,0,CPUstatic,,21.28,,true,0,0,0,0,null,0,1,0,brander-desktop,0,0
19:26:38,0,CPUdb,,9.23,,true,0,0,0,0,null,0,1,0,brander-desktop,0,0
19:26:40,0,CPUfront1,,30.13,,true,0,0,0,0,null,0,1,0,brander-desktop,0,0
19:26:41,0,CPUstatic,,21.55,,true,0,0,0,0,null,0,1,0,brander-desktop,0,0
19:26:42,0,CPUdb,,9.34,,true,0,0,0,0,null,0,1,0,brander-desktop,0,0
19:26:44,0,CPUfront1,,28.64,,true,0,0,0,0,null,0,1,0,brander-desktop,0,0
19:26:45,0,CPUstatic,,22.0,,true,0,0,0,0,null,0,1,0,brander-desktop,0,0
19:26:46,0,CPUdb,,8.87,,true,0,0,0,0,null,0,1,0,brander-desktop,0,0
19:26:48,0,CPUfront1,,9.6,,true,0,0,0,0,null,0,1,0,brander-desktop,0,0
19:26:49,0,CPUstatic,,15.22,,true,0,0,0,0,null,0,1,0,brander-desktop,0,0
19:26:50,0,CPUdb,,9.27,,true,0,0,0,0,null,0,1,0,brander-desktop,0,0
19:26:52,0,CPUfront1,,23.79,,true,0,0,0,0,null,0,1,0,brander-desktop,0,0
19:26:53,0,CPUstatic,,22.78,,true,0,0,0,0,null,0,1,0,brander-desktop,0,0
19:26:54,0,CPUdb,,10.81,,true,0,0,0,0,null,0,1,0,brander-desktop,0,0
19:26:56,0,CPUfront1,,29.1,,true,0,0,0,0,null,0,1,0,brander-desktop,0,0
19:26:57,0,CPUstatic,,23.82,,true,0,0,0,0,null,0,1,0,brander-desktop,0,0
19:26:59,0,CPUdb,,10.39,,true,0,0,0,0,null,0,1,0,brander-desktop,0,0
19:27:00,0,CPUfront1,,31.04,,true,0,0,0,0,null,0,1,0,brander-desktop,0,0
19:27:01,0,CPUstatic,,24.33,,true,0,0,0,0,null,0,1,0,brander-desktop,0,0
19:27:03,0,CPUdb,,13.27,,true,0,0,0,0,null,0,1,0,brander-desktop,0,0
19:27:04,0,CPUfront1,,17.92,,true,0,0,0,0,null,0,1,0,brander-desktop,0,0
19:27:06,0,CPUstatic,,22.15,,true,0,0,0,0,null,0,1,0,brander-desktop,0,0
19:27:07,0,CPUdb,,17.41,,true,0,0,0,0,null,0,1,0,brander-desktop,0,0
19:27:09,0,CPUfront1,,20.13,,true,0,0,0,0,null,0,1,0,brander-desktop,0,0
19:27:10,0,CPUstatic,,21.08,,true,0,0,0,0,null,0,1,0,brander-desktop,0,0
19:27:11,0,CPUdb,,11.86,,true,0,0,0,0,null,0,1,0,brander-desktop,0,0
19:27:12,0,CPUfront1,,40.84,,true,0,0,0,0,null,0,1,0,brander-desktop,0,0
19:27:14,0,CPUstatic,,23.57,,true,0,0,0,0,null,0,1,0,brander-desktop,0,0
19:27:15,0,CPUdb,,7.37,,true,0,0,0,0,null,0,1,0,brander-desktop,0,0
19:27:17,0,CPUfront1,,35.95,,true,0,0,0,0,null,0,1,0,brander-desktop,0,0
19:27:18,0,CPUstatic,,15.1,,true,0,0,0,0,null,0,1,0,brander-desktop,0,0
19:27:19,0,CPUdb,,8.94,,true,0,0,0,0,null,0,1,0,brander-desktop,0,0
19:27:21,0,CPUfront1,,9.03,,true,0,0,0,0,null,0,1,0,brander-desktop,0,0
19:27:22,0,CPUstatic,,22.28,,true,0,0,0,0,null,0,1,0,brander-desktop,0,0
19:27:24,0,CPUdb,,5.01,,true,0,0,0,0,null,0,1,0,brander-desktop,0,0
19:27:25,0,CPUfront1,,17.06,,true,0,0,0,0,null,0,1,0,brander-desktop,0,0
19:27:27,0,CPUstatic,,21.81,,true,0,0,0,0,null,0,1,0,brander-desktop,0,0
19:27:28,0,CPUdb,,8.95,,true,0,0,0,0,null,0,1,0,brander-desktop,0,0
19:27:35,0,CPUfront1,,21.74,,true,0,0,0,0,null,0,1,0,brander-desktop,0,0
19:27:37,0,CPUstatic,,17.2,,true,0,0,0,0,null,0,1,0,brander-desktop,0,0
19:27:39,0,CPUdb,,8.5,,true,0,0,0,0,null,0,1,0,brander-desktop,0,0
19:27:43,0,CPUfront1,,28.74,,true,0,0,0,0,null,0,1,0,brander-desktop,0,0
19:27:47,0,CPUstatic,,10.67,,true,0,0,0,0,null,0,1,0,brander-desktop,0,0
19:27:50,0,CPUdb,,9.09,,true,0,0,0,0,null,0,1,0,brander-desktop,0,0
