timeStamp,elapsed,label,responseCode,responseMessage,threadName,success,bytes,sentBytes,grpThreads,allThreads,URL,Latency,SampleCount,ErrorCount,Hostname,IdleTime,Connect
16:36:20,0,CPUstatic,,9.7,,true,0,0,0,0,null,0,1,0,brander-desktop,0,0
16:36:22,0,CPUdb,,5.0,,true,0,0,0,0,null,0,1,0,brander-desktop,0,0
16:36:24,0,CPUfront1,,15.6,,true,0,0,0,0,null,0,1,0,brander-desktop,0,0
16:36:25,0,CPUstatic,,16.89,,true,0,0,0,0,null,0,1,0,brander-desktop,0,0
16:36:26,0,CPUdb,,8.61,,true,0,0,0,0,null,0,1,0,brander-desktop,0,0
16:36:27,0,CPUfront1,,17.09,,true,0,0,0,0,null,0,1,0,brander-desktop,0,0
16:36:28,0,CPUstatic,,13.66,,true,0,0,0,0,null,0,1,0,brander-desktop,0,0
16:36:29,0,CPUdb,,6.43,,true,0,0,0,0,null,0,1,0,brander-desktop,0,0
16:36:30,0,CPUfront1,,20.53,,true,0,0,0,0,null,0,1,0,brander-desktop,0,0
16:36:31,0,CPUstatic,,15.01,,true,0,0,0,0,null,0,1,0,brander-desktop,0,0
16:36:32,0,CPUdb,,8.7,,true,0,0,0,0,null,0,1,0,brander-desktop,0,0
16:36:34,0,CPUfront1,,10.96,,true,0,0,0,0,null,0,1,0,brander-desktop,0,0
16:36:35,0,CPUstatic,,9.61,,true,0,0,0,0,null,0,1,0,brander-desktop,0,0
16:36:36,0,CPUdb,,6.67,,true,0,0,0,0,null,0,1,0,brander-desktop,0,0
16:36:37,0,CPUfront1,,18.23,,true,0,0,0,0,null,0,1,0,brander-desktop,0,0
16:36:38,0,CPUstatic,,14.91,,true,0,0,0,0,null,0,1,0,brander-desktop,0,0
16:36:39,0,CPUdb,,5.46,,true,0,0,0,0,null,0,1,0,brander-desktop,0,0
16:36:40,0,CPUfront1,,13.55,,true,0,0,0,0,null,0,1,0,brander-desktop,0,0
16:36:41,0,CPUstatic,,11.71,,true,0,0,0,0,null,0,1,0,brander-desktop,0,0
16:36:42,0,CPUdb,,4.85,,true,0,0,0,0,null,0,1,0,brander-desktop,0,0
16:36:43,0,CPUfront1,,12.35,,true,0,0,0,0,null,0,1,0,brander-desktop,0,0
16:36:44,0,CPUstatic,,11.0,,true,0,0,0,0,null,0,1,0,brander-desktop,0,0
16:36:46,0,CPUdb,,4.76,,true,0,0,0,0,null,0,1,0,brander-desktop,0,0
16:36:47,0,CPUfront1,,10.87,,true,0,0,0,0,null,0,1,0,brander-desktop,0,0
16:36:48,0,CPUstatic,,11.06,,true,0,0,0,0,null,0,1,0,brander-desktop,0,0
16:36:49,0,CPUdb,,11.93,,true,0,0,0,0,null,0,1,0,brander-desktop,0,0
16:36:50,0,CPUfront1,,26.42,,true,0,0,0,0,null,0,1,0,brander-desktop,0,0
16:36:51,0,CPUstatic,,14.43,,true,0,0,0,0,null,0,1,0,brander-desktop,0,0
16:36:52,0,CPUdb,,5.51,,true,0,0,0,0,null,0,1,0,brander-desktop,0,0
16:36:53,0,CPUfront1,,14.83,,true,0,0,0,0,null,0,1,0,brander-desktop,0,0
16:36:54,0,CPUstatic,,14.38,,true,0,0,0,0,null,0,1,0,brander-desktop,0,0
16:36:56,0,CPUdb,,4.92,,true,0,0,0,0,null,0,1,0,brander-desktop,0,0
16:36:57,0,CPUfront1,,33.39,,true,0,0,0,0,null,0,1,0,brander-desktop,0,0
16:36:58,0,CPUstatic,,14.84,,true,0,0,0,0,null,0,1,0,brander-desktop,0,0
16:36:59,0,CPUdb,,4.75,,true,0,0,0,0,null,0,1,0,brander-desktop,0,0
16:37:00,0,CPUfront1,,95.13,,true,0,0,0,0,null,0,1,0,brander-desktop,0,0
16:37:01,0,CPUstatic,,44.93,,true,0,0,0,0,null,0,1,0,brander-desktop,0,0
16:37:02,0,CPUdb,,6.89,,true,0,0,0,0,null,0,1,0,brander-desktop,0,0
16:37:03,0,CPUfront1,,67.28,,true,0,0,0,0,null,0,1,0,brander-desktop,0,0
16:37:04,0,CPUstatic,,31.28,,true,0,0,0,0,null,0,1,0,brander-desktop,0,0
16:37:05,0,CPUdb,,26.97,,true,0,0,0,0,null,0,1,0,brander-desktop,0,0
16:37:07,0,CPUfront1,,75.51,,true,0,0,0,0,null,0,1,0,brander-desktop,0,0
16:37:08,0,CPUstatic,,18.57,,true,0,0,0,0,null,0,1,0,brander-desktop,0,0
16:37:09,0,CPUdb,,7.45,,true,0,0,0,0,null,0,1,0,brander-desktop,0,0
16:37:10,0,CPUfront1,,16.05,,true,0,0,0,0,null,0,1,0,brander-desktop,0,0
16:37:11,0,CPUstatic,,14.77,,true,0,0,0,0,null,0,1,0,brander-desktop,0,0
16:37:12,0,CPUdb,,5.1,,true,0,0,0,0,null,0,1,0,brander-desktop,0,0
16:37:13,0,CPUfront1,,17.92,,true,0,0,0,0,null,0,1,0,brander-desktop,0,0
16:37:15,0,CPUstatic,,15.88,,true,0,0,0,0,null,0,1,0,brander-desktop,0,0
16:37:16,0,CPUdb,,5.6,,true,0,0,0,0,null,0,1,0,brander-desktop,0,0
16:37:17,0,CPUfront1,,16.05,,true,0,0,0,0,null,0,1,0,brander-desktop,0,0
16:37:18,0,CPUstatic,,15.44,,true,0,0,0,0,null,0,1,0,brander-desktop,0,0
16:37:19,0,CPUdb,,5.24,,true,0,0,0,0,null,0,1,0,brander-desktop,0,0
16:37:20,0,CPUfront1,,13.61,,true,0,0,0,0,null,0,1,0,brander-desktop,0,0
16:37:21,0,CPUstatic,,19.52,,true,0,0,0,0,null,0,1,0,brander-desktop,0,0
16:37:22,0,CPUdb,,5.59,,true,0,0,0,0,null,0,1,0,brander-desktop,0,0
16:37:23,0,CPUfront1,,11.04,,true,0,0,0,0,null,0,1,0,brander-desktop,0,0
16:37:25,0,CPUstatic,,16.72,,true,0,0,0,0,null,0,1,0,brander-desktop,0,0
16:37:26,0,CPUdb,,4.84,,true,0,0,0,0,null,0,1,0,brander-desktop,0,0
16:37:27,0,CPUfront1,,16.25,,true,0,0,0,0,null,0,1,0,brander-desktop,0,0
16:37:28,0,CPUstatic,,14.98,,true,0,0,0,0,null,0,1,0,brander-desktop,0,0
16:37:29,0,CPUdb,,13.36,,true,0,0,0,0,null,0,1,0,brander-desktop,0,0
16:37:30,0,CPUfront1,,12.25,,true,0,0,0,0,null,0,1,0,brander-desktop,0,0
16:37:31,0,CPUstatic,,13.3,,true,0,0,0,0,null,0,1,0,brander-desktop,0,0
16:37:32,0,CPUdb,,7.43,,true,0,0,0,0,null,0,1,0,brander-desktop,0,0
16:37:33,0,CPUfront1,,16.08,,true,0,0,0,0,null,0,1,0,brander-desktop,0,0
16:37:34,0,CPUstatic,,14.8,,true,0,0,0,0,null,0,1,0,brander-desktop,0,0
16:37:36,0,CPUdb,,5.19,,true,0,0,0,0,null,0,1,0,brander-desktop,0,0
16:37:37,0,CPUfront1,,11.69,,true,0,0,0,0,null,0,1,0,brander-desktop,0,0
16:37:38,0,CPUstatic,,11.73,,true,0,0,0,0,null,0,1,0,brander-desktop,0,0
16:37:39,0,CPUdb,,5.84,,true,0,0,0,0,null,0,1,0,brander-desktop,0,0
16:37:40,0,CPUfront1,,16.61,,true,0,0,0,0,null,0,1,0,brander-desktop,0,0
16:37:41,0,CPUstatic,,15.59,,true,0,0,0,0,null,0,1,0,brander-desktop,0,0
16:37:42,0,CPUdb,,7.19,,true,0,0,0,0,null,0,1,0,brander-desktop,0,0
16:37:43,0,CPUfront1,,16.0,,true,0,0,0,0,null,0,1,0,brander-desktop,0,0
16:37:44,0,CPUstatic,,14.36,,true,0,0,0,0,null,0,1,0,brander-desktop,0,0
16:37:45,0,CPUdb,,5.18,,true,0,0,0,0,null,0,1,0,brander-desktop,0,0
16:37:47,0,CPUfront1,,11.41,,true,0,0,0,0,null,0,1,0,brander-desktop,0,0
16:37:48,0,CPUstatic,,12.16,,true,0,0,0,0,null,0,1,0,brander-desktop,0,0
16:37:49,0,CPUdb,,11.68,,true,0,0,0,0,null,0,1,0,brander-desktop,0,0
16:37:50,0,CPUfront1,,14.96,,true,0,0,0,0,null,0,1,0,brander-desktop,0,0
16:37:51,0,CPUstatic,,13.07,,true,0,0,0,0,null,0,1,0,brander-desktop,0,0
16:37:52,0,CPUdb,,5.35,,true,0,0,0,0,null,0,1,0,brander-desktop,0,0
16:37:53,0,CPUfront1,,12.56,,true,0,0,0,0,null,0,1,0,brander-desktop,0,0
16:37:54,0,CPUstatic,,12.58,,true,0,0,0,0,null,0,1,0,brander-desktop,0,0
16:37:55,0,CPUdb,,4.43,,true,0,0,0,0,null,0,1,0,brander-desktop,0,0
16:37:56,0,CPUfront1,,21.14,,true,0,0,0,0,null,0,1,0,brander-desktop,0,0
16:37:58,0,CPUstatic,,12.12,,true,0,0,0,0,null,0,1,0,brander-desktop,0,0
16:37:59,0,CPUdb,,4.76,,true,0,0,0,0,null,0,1,0,brander-desktop,0,0
16:38:00,0,CPUfront1,,10.87,,true,0,0,0,0,null,0,1,0,brander-desktop,0,0
16:38:01,0,CPUstatic,,10.12,,true,0,0,0,0,null,0,1,0,brander-desktop,0,0
16:38:02,0,CPUdb,,4.85,,true,0,0,0,0,null,0,1,0,brander-desktop,0,0
16:38:03,0,CPUfront1,,16.25,,true,0,0,0,0,null,0,1,0,brander-desktop,0,0
16:38:04,0,CPUstatic,,15.57,,true,0,0,0,0,null,0,1,0,brander-desktop,0,0
16:38:05,0,CPUdb,,4.85,,true,0,0,0,0,null,0,1,0,brander-desktop,0,0
16:38:06,0,CPUfront1,,19.09,,true,0,0,0,0,null,0,1,0,brander-desktop,0,0
16:38:07,0,CPUstatic,,13.01,,true,0,0,0,0,null,0,1,0,brander-desktop,0,0
16:38:09,0,CPUdb,,11.57,,true,0,0,0,0,null,0,1,0,brander-desktop,0,0
16:38:10,0,CPUfront1,,35.99,,true,0,0,0,0,null,0,1,0,brander-desktop,0,0
16:38:11,0,CPUstatic,,13.9,,true,0,0,0,0,null,0,1,0,brander-desktop,0,0
16:38:12,0,CPUdb,,5.18,,true,0,0,0,0,null,0,1,0,brander-desktop,0,0
16:38:13,0,CPUfront1,,16.19,,true,0,0,0,0,null,0,1,0,brander-desktop,0,0
16:38:14,0,CPUstatic,,12.94,,true,0,0,0,0,null,0,1,0,brander-desktop,0,0
16:38:15,0,CPUdb,,5.6,,true,0,0,0,0,null,0,1,0,brander-desktop,0,0
16:38:16,0,CPUfront1,,21.4,,true,0,0,0,0,null,0,1,0,brander-desktop,0,0
16:38:18,0,CPUstatic,,14.21,,true,0,0,0,0,null,0,1,0,brander-desktop,0,0
16:38:19,0,CPUdb,,4.51,,true,0,0,0,0,null,0,1,0,brander-desktop,0,0
16:38:20,0,CPUfront1,,27.06,,true,0,0,0,0,null,0,1,0,brander-desktop,0,0
16:38:21,0,CPUstatic,,13.05,,true,0,0,0,0,null,0,1,0,brander-desktop,0,0
16:38:22,0,CPUdb,,9.05,,true,0,0,0,0,null,0,1,0,brander-desktop,0,0
16:38:23,0,CPUfront1,,18.06,,true,0,0,0,0,null,0,1,0,brander-desktop,0,0
16:38:24,0,CPUstatic,,9.97,,true,0,0,0,0,null,0,1,0,brander-desktop,0,0
16:38:25,0,CPUdb,,10.0,,true,0,0,0,0,null,0,1,0,brander-desktop,0,0
16:38:26,0,CPUfront1,,15.2,,true,0,0,0,0,null,0,1,0,brander-desktop,0,0
16:38:28,0,CPUstatic,,13.57,,true,0,0,0,0,null,0,1,0,brander-desktop,0,0
16:38:29,0,CPUdb,,12.92,,true,0,0,0,0,null,0,1,0,brander-desktop,0,0
16:38:30,0,CPUfront1,,9.3,,true,0,0,0,0,null,0,1,0,brander-desktop,0,0
16:38:31,0,CPUstatic,,10.23,,true,0,0,0,0,null,0,1,0,brander-desktop,0,0
16:38:32,0,CPUdb,,4.67,,true,0,0,0,0,null,0,1,0,brander-desktop,0,0
16:38:33,0,CPUfront1,,12.58,,true,0,0,0,0,null,0,1,0,brander-desktop,0,0
16:38:34,0,CPUstatic,,9.61,,true,0,0,0,0,null,0,1,0,brander-desktop,0,0
16:38:35,0,CPUdb,,4.26,,true,0,0,0,0,null,0,1,0,brander-desktop,0,0
16:38:36,0,CPUfront1,,18.38,,true,0,0,0,0,null,0,1,0,brander-desktop,0,0
16:38:38,0,CPUstatic,,13.56,,true,0,0,0,0,null,0,1,0,brander-desktop,0,0
16:38:39,0,CPUdb,,4.67,,true,0,0,0,0,null,0,1,0,brander-desktop,0,0
16:38:40,0,CPUfront1,,12.56,,true,0,0,0,0,null,0,1,0,brander-desktop,0,0
16:38:41,0,CPUstatic,,10.2,,true,0,0,0,0,null,0,1,0,brander-desktop,0,0
16:38:42,0,CPUdb,,4.75,,true,0,0,0,0,null,0,1,0,brander-desktop,0,0
16:38:43,0,CPUfront1,,10.68,,true,0,0,0,0,null,0,1,0,brander-desktop,0,0
16:38:44,0,CPUstatic,,12.42,,true,0,0,0,0,null,0,1,0,brander-desktop,0,0
16:38:45,0,CPUdb,,4.67,,true,0,0,0,0,null,0,1,0,brander-desktop,0,0
16:38:46,0,CPUfront1,,13.0,,true,0,0,0,0,null,0,1,0,brander-desktop,0,0
16:38:47,0,CPUstatic,,15.19,,true,0,0,0,0,null,0,1,0,brander-desktop,0,0
16:38:49,0,CPUdb,,5.02,,true,0,0,0,0,null,0,1,0,brander-desktop,0,0
16:38:50,0,CPUfront1,,14.52,,true,0,0,0,0,null,0,1,0,brander-desktop,0,0
16:38:51,0,CPUstatic,,14.17,,true,0,0,0,0,null,0,1,0,brander-desktop,0,0
16:38:52,0,CPUdb,,5.34,,true,0,0,0,0,null,0,1,0,brander-desktop,0,0
16:38:53,0,CPUfront1,,21.85,,true,0,0,0,0,null,0,1,0,brander-desktop,0,0
16:38:54,0,CPUstatic,,14.38,,true,0,0,0,0,null,0,1,0,brander-desktop,0,0
16:38:55,0,CPUdb,,5.94,,true,0,0,0,0,null,0,1,0,brander-desktop,0,0
16:38:56,0,CPUfront1,,11.87,,true,0,0,0,0,null,0,1,0,brander-desktop,0,0
16:38:57,0,CPUstatic,,15.37,,true,0,0,0,0,null,0,1,0,brander-desktop,0,0
16:38:58,0,CPUdb,,13.25,,true,0,0,0,0,null,0,1,0,brander-desktop,0,0
16:39:00,0,CPUfront1,,17.42,,true,0,0,0,0,null,0,1,0,brander-desktop,0,0
16:39:01,0,CPUstatic,,11.6,,true,0,0,0,0,null,0,1,0,brander-desktop,0,0
16:39:02,0,CPUdb,,5.35,,true,0,0,0,0,null,0,1,0,brander-desktop,0,0
16:39:03,0,CPUfront1,,15.86,,true,0,0,0,0,null,0,1,0,brander-desktop,0,0
16:39:04,0,CPUstatic,,15.58,,true,0,0,0,0,null,0,1,0,brander-desktop,0,0
16:39:05,0,CPUdb,,5.34,,true,0,0,0,0,null,0,1,0,brander-desktop,0,0
16:39:06,0,CPUfront1,,14.57,,true,0,0,0,0,null,0,1,0,brander-desktop,0,0
16:39:07,0,CPUstatic,,12.25,,true,0,0,0,0,null,0,1,0,brander-desktop,0,0
16:39:08,0,CPUdb,,13.04,,true,0,0,0,0,null,0,1,0,brander-desktop,0,0
16:39:09,0,CPUfront1,,11.39,,true,0,0,0,0,null,0,1,0,brander-desktop,0,0
16:39:11,0,CPUstatic,,10.05,,true,0,0,0,0,null,0,1,0,brander-desktop,0,0
16:39:12,0,CPUdb,,10.93,,true,0,0,0,0,null,0,1,0,brander-desktop,0,0
16:39:13,0,CPUfront1,,12.88,,true,0,0,0,0,null,0,1,0,brander-desktop,0,0
16:39:14,0,CPUstatic,,13.26,,true,0,0,0,0,null,0,1,0,brander-desktop,0,0
16:39:15,0,CPUdb,,5.75,,true,0,0,0,0,null,0,1,0,brander-desktop,0,0
16:39:16,0,CPUfront1,,13.04,,true,0,0,0,0,null,0,1,0,brander-desktop,0,0
16:39:17,0,CPUstatic,,11.74,,true,0,0,0,0,null,0,1,0,brander-desktop,0,0
16:39:18,0,CPUdb,,7.23,,true,0,0,0,0,null,0,1,0,brander-desktop,0,0
16:39:19,0,CPUfront1,,13.55,,true,0,0,0,0,null,0,1,0,brander-desktop,0,0
16:39:20,0,CPUstatic,,12.73,,true,0,0,0,0,null,0,1,0,brander-desktop,0,0
16:39:22,0,CPUdb,,5.28,,true,0,0,0,0,null,0,1,0,brander-desktop,0,0
16:39:23,0,CPUfront1,,14.81,,true,0,0,0,0,null,0,1,0,brander-desktop,0,0
16:39:24,0,CPUstatic,,16.44,,true,0,0,0,0,null,0,1,0,brander-desktop,0,0
16:39:25,0,CPUdb,,4.92,,true,0,0,0,0,null,0,1,0,brander-desktop,0,0
16:39:26,0,CPUfront1,,15.55,,true,0,0,0,0,null,0,1,0,brander-desktop,0,0
16:39:27,0,CPUstatic,,14.55,,true,0,0,0,0,null,0,1,0,brander-desktop,0,0
16:39:28,0,CPUdb,,5.28,,true,0,0,0,0,null,0,1,0,brander-desktop,0,0
16:39:29,0,CPUfront1,,14.41,,true,0,0,0,0,null,0,1,0,brander-desktop,0,0
16:39:30,0,CPUstatic,,12.29,,true,0,0,0,0,null,0,1,0,brander-desktop,0,0
16:39:31,0,CPUdb,,8.1,,true,0,0,0,0,null,0,1,0,brander-desktop,0,0
16:39:33,0,CPUfront1,,12.94,,true,0,0,0,0,null,0,1,0,brander-desktop,0,0
16:39:34,0,CPUstatic,,11.32,,true,0,0,0,0,null,0,1,0,brander-desktop,0,0
16:39:35,0,CPUdb,,6.35,,true,0,0,0,0,null,0,1,0,brander-desktop,0,0
16:39:36,0,CPUfront1,,12.5,,true,0,0,0,0,null,0,1,0,brander-desktop,0,0
16:39:37,0,CPUstatic,,12.46,,true,0,0,0,0,null,0,1,0,brander-desktop,0,0
16:39:38,0,CPUdb,,4.83,,true,0,0,0,0,null,0,1,0,brander-desktop,0,0
16:39:39,0,CPUfront1,,12.19,,true,0,0,0,0,null,0,1,0,brander-desktop,0,0
16:39:40,0,CPUstatic,,13.02,,true,0,0,0,0,null,0,1,0,brander-desktop,0,0
16:39:41,0,CPUdb,,4.93,,true,0,0,0,0,null,0,1,0,brander-desktop,0,0
16:39:42,0,CPUfront1,,13.69,,true,0,0,0,0,null,0,1,0,brander-desktop,0,0
16:39:44,0,CPUstatic,,12.46,,true,0,0,0,0,null,0,1,0,brander-desktop,0,0
16:39:45,0,CPUdb,,4.93,,true,0,0,0,0,null,0,1,0,brander-desktop,0,0
16:39:46,0,CPUfront1,,23.0,,true,0,0,0,0,null,0,1,0,brander-desktop,0,0
16:39:47,0,CPUstatic,,10.37,,true,0,0,0,0,null,0,1,0,brander-desktop,0,0
16:39:48,0,CPUdb,,8.35,,true,0,0,0,0,null,0,1,0,brander-desktop,0,0
16:39:49,0,CPUfront1,,14.17,,true,0,0,0,0,null,0,1,0,brander-desktop,0,0
16:39:50,0,CPUstatic,,15.82,,true,0,0,0,0,null,0,1,0,brander-desktop,0,0
16:39:51,0,CPUdb,,7.44,,true,0,0,0,0,null,0,1,0,brander-desktop,0,0
16:39:52,0,CPUfront1,,9.2,,true,0,0,0,0,null,0,1,0,brander-desktop,0,0
16:39:53,0,CPUstatic,,14.19,,true,0,0,0,0,null,0,1,0,brander-desktop,0,0
16:39:54,0,CPUdb,,4.75,,true,0,0,0,0,null,0,1,0,brander-desktop,0,0
16:39:56,0,CPUfront1,,9.33,,true,0,0,0,0,null,0,1,0,brander-desktop,0,0
16:39:57,0,CPUstatic,,12.1,,true,0,0,0,0,null,0,1,0,brander-desktop,0,0
16:39:58,0,CPUdb,,4.75,,true,0,0,0,0,null,0,1,0,brander-desktop,0,0
16:39:59,0,CPUfront1,,17.98,,true,0,0,0,0,null,0,1,0,brander-desktop,0,0
16:40:00,0,CPUstatic,,13.78,,true,0,0,0,0,null,0,1,0,brander-desktop,0,0
16:40:01,0,CPUdb,,4.77,,true,0,0,0,0,null,0,1,0,brander-desktop,0,0
16:40:02,0,CPUfront1,,12.19,,true,0,0,0,0,null,0,1,0,brander-desktop,0,0
16:40:03,0,CPUstatic,,11.6,,true,0,0,0,0,null,0,1,0,brander-desktop,0,0
16:40:04,0,CPUdb,,5.11,,true,0,0,0,0,null,0,1,0,brander-desktop,0,0
16:40:05,0,CPUfront1,,12.67,,true,0,0,0,0,null,0,1,0,brander-desktop,0,0
16:40:07,0,CPUstatic,,11.15,,true,0,0,0,0,null,0,1,0,brander-desktop,0,0
16:40:08,0,CPUdb,,13.51,,true,0,0,0,0,null,0,1,0,brander-desktop,0,0
16:40:09,0,CPUfront1,,13.88,,true,0,0,0,0,null,0,1,0,brander-desktop,0,0
16:40:10,0,CPUstatic,,14.7,,true,0,0,0,0,null,0,1,0,brander-desktop,0,0
16:40:11,0,CPUdb,,5.76,,true,0,0,0,0,null,0,1,0,brander-desktop,0,0
16:40:12,0,CPUfront1,,16.92,,true,0,0,0,0,null,0,1,0,brander-desktop,0,0
16:40:13,0,CPUstatic,,11.13,,true,0,0,0,0,null,0,1,0,brander-desktop,0,0
16:40:14,0,CPUdb,,10.44,,true,0,0,0,0,null,0,1,0,brander-desktop,0,0
16:40:15,0,CPUfront1,,15.17,,true,0,0,0,0,null,0,1,0,brander-desktop,0,0
16:40:16,0,CPUstatic,,13.49,,true,0,0,0,0,null,0,1,0,brander-desktop,0,0
16:40:18,0,CPUdb,,6.75,,true,0,0,0,0,null,0,1,0,brander-desktop,0,0
16:40:19,0,CPUfront1,,14.5,,true,0,0,0,0,null,0,1,0,brander-desktop,0,0
16:40:20,0,CPUstatic,,13.95,,true,0,0,0,0,null,0,1,0,brander-desktop,0,0
16:40:21,0,CPUdb,,5.18,,true,0,0,0,0,null,0,1,0,brander-desktop,0,0
16:40:22,0,CPUfront1,,15.69,,true,0,0,0,0,null,0,1,0,brander-desktop,0,0
16:40:23,0,CPUstatic,,13.36,,true,0,0,0,0,null,0,1,0,brander-desktop,0,0
16:40:24,0,CPUdb,,4.84,,true,0,0,0,0,null,0,1,0,brander-desktop,0,0
16:40:25,0,CPUfront1,,14.07,,true,0,0,0,0,null,0,1,0,brander-desktop,0,0
16:40:26,0,CPUstatic,,17.39,,true,0,0,0,0,null,0,1,0,brander-desktop,0,0
16:40:27,0,CPUdb,,4.76,,true,0,0,0,0,null,0,1,0,brander-desktop,0,0
16:40:28,0,CPUfront1,,15.55,,true,0,0,0,0,null,0,1,0,brander-desktop,0,0
16:40:30,0,CPUstatic,,16.61,,true,0,0,0,0,null,0,1,0,brander-desktop,0,0
16:40:31,0,CPUdb,,10.35,,true,0,0,0,0,null,0,1,0,brander-desktop,0,0
16:40:32,0,CPUfront1,,14.5,,true,0,0,0,0,null,0,1,0,brander-desktop,0,0
16:40:33,0,CPUstatic,,15.83,,true,0,0,0,0,null,0,1,0,brander-desktop,0,0
16:40:34,0,CPUdb,,4.42,,true,0,0,0,0,null,0,1,0,brander-desktop,0,0
16:40:35,0,CPUfront1,,11.52,,true,0,0,0,0,null,0,1,0,brander-desktop,0,0
16:40:36,0,CPUstatic,,13.52,,true,0,0,0,0,null,0,1,0,brander-desktop,0,0
16:40:37,0,CPUdb,,5.1,,true,0,0,0,0,null,0,1,0,brander-desktop,0,0
16:40:38,0,CPUfront1,,15.41,,true,0,0,0,0,null,0,1,0,brander-desktop,0,0
16:40:39,0,CPUstatic,,13.58,,true,0,0,0,0,null,0,1,0,brander-desktop,0,0
16:40:41,0,CPUdb,,4.83,,true,0,0,0,0,null,0,1,0,brander-desktop,0,0
16:40:42,0,CPUfront1,,13.67,,true,0,0,0,0,null,0,1,0,brander-desktop,0,0
16:40:43,0,CPUstatic,,12.5,,true,0,0,0,0,null,0,1,0,brander-desktop,0,0
16:40:44,0,CPUdb,,5.18,,true,0,0,0,0,null,0,1,0,brander-desktop,0,0
16:40:45,0,CPUfront1,,13.5,,true,0,0,0,0,null,0,1,0,brander-desktop,0,0
16:40:46,0,CPUstatic,,11.6,,true,0,0,0,0,null,0,1,0,brander-desktop,0,0
16:40:47,0,CPUdb,,4.51,,true,0,0,0,0,null,0,1,0,brander-desktop,0,0
16:40:48,0,CPUfront1,,12.69,,true,0,0,0,0,null,0,1,0,brander-desktop,0,0
16:40:49,0,CPUstatic,,12.37,,true,0,0,0,0,null,0,1,0,brander-desktop,0,0
16:40:50,0,CPUdb,,4.84,,true,0,0,0,0,null,0,1,0,brander-desktop,0,0
16:40:51,0,CPUfront1,,13.0,,true,0,0,0,0,null,0,1,0,brander-desktop,0,0
16:40:53,0,CPUstatic,,11.97,,true,0,0,0,0,null,0,1,0,brander-desktop,0,0
16:40:54,0,CPUdb,,4.59,,true,0,0,0,0,null,0,1,0,brander-desktop,0,0
16:40:55,0,CPUfront1,,14.74,,true,0,0,0,0,null,0,1,0,brander-desktop,0,0
16:40:56,0,CPUstatic,,15.29,,true,0,0,0,0,null,0,1,0,brander-desktop,0,0
16:40:57,0,CPUdb,,4.93,,true,0,0,0,0,null,0,1,0,brander-desktop,0,0
16:40:58,0,CPUfront1,,15.89,,true,0,0,0,0,null,0,1,0,brander-desktop,0,0
16:40:59,0,CPUstatic,,16.07,,true,0,0,0,0,null,0,1,0,brander-desktop,0,0
16:41:00,0,CPUdb,,5.09,,true,0,0,0,0,null,0,1,0,brander-desktop,0,0
16:41:01,0,CPUfront1,,18.97,,true,0,0,0,0,null,0,1,0,brander-desktop,0,0
16:41:02,0,CPUstatic,,11.95,,true,0,0,0,0,null,0,1,0,brander-desktop,0,0
16:41:04,0,CPUdb,,9.67,,true,0,0,0,0,null,0,1,0,brander-desktop,0,0
16:41:05,0,CPUfront1,,11.67,,true,0,0,0,0,null,0,1,0,brander-desktop,0,0
16:41:06,0,CPUstatic,,11.32,,true,0,0,0,0,null,0,1,0,brander-desktop,0,0
16:41:07,0,CPUdb,,5.43,,true,0,0,0,0,null,0,1,0,brander-desktop,0,0
16:41:08,0,CPUfront1,,12.85,,true,0,0,0,0,null,0,1,0,brander-desktop,0,0
16:41:09,0,CPUstatic,,12.58,,true,0,0,0,0,null,0,1,0,brander-desktop,0,0
16:41:10,0,CPUdb,,5.51,,true,0,0,0,0,null,0,1,0,brander-desktop,0,0
16:41:11,0,CPUfront1,,12.9,,true,0,0,0,0,null,0,1,0,brander-desktop,0,0
16:41:12,0,CPUstatic,,13.15,,true,0,0,0,0,null,0,1,0,brander-desktop,0,0
16:41:13,0,CPUdb,,5.18,,true,0,0,0,0,null,0,1,0,brander-desktop,0,0
16:41:14,0,CPUfront1,,18.93,,true,0,0,0,0,null,0,1,0,brander-desktop,0,0
16:41:16,0,CPUstatic,,14.6,,true,0,0,0,0,null,0,1,0,brander-desktop,0,0
16:41:17,0,CPUdb,,5.45,,true,0,0,0,0,null,0,1,0,brander-desktop,0,0
16:41:18,0,CPUfront1,,14.02,,true,0,0,0,0,null,0,1,0,brander-desktop,0,0
16:41:19,0,CPUstatic,,13.66,,true,0,0,0,0,null,0,1,0,brander-desktop,0,0
16:41:20,0,CPUdb,,5.1,,true,0,0,0,0,null,0,1,0,brander-desktop,0,0
16:41:21,0,CPUfront1,,11.06,,true,0,0,0,0,null,0,1,0,brander-desktop,0,0
16:41:22,0,CPUstatic,,12.46,,true,0,0,0,0,null,0,1,0,brander-desktop,0,0
16:41:23,0,CPUdb,,9.09,,true,0,0,0,0,null,0,1,0,brander-desktop,0,0
16:41:24,0,CPUfront1,,14.6,,true,0,0,0,0,null,0,1,0,brander-desktop,0,0
16:41:25,0,CPUstatic,,13.87,,true,0,0,0,0,null,0,1,0,brander-desktop,0,0
16:41:26,0,CPUdb,,8.61,,true,0,0,0,0,null,0,1,0,brander-desktop,0,0
16:41:28,0,CPUfront1,,15.41,,true,0,0,0,0,null,0,1,0,brander-desktop,0,0
16:41:29,0,CPUstatic,,15.35,,true,0,0,0,0,null,0,1,0,brander-desktop,0,0
16:41:30,0,CPUdb,,4.85,,true,0,0,0,0,null,0,1,0,brander-desktop,0,0
16:41:31,0,CPUfront1,,15.08,,true,0,0,0,0,null,0,1,0,brander-desktop,0,0
16:41:32,0,CPUstatic,,14.88,,true,0,0,0,0,null,0,1,0,brander-desktop,0,0
16:41:33,0,CPUdb,,7.09,,true,0,0,0,0,null,0,1,0,brander-desktop,0,0
16:41:34,0,CPUfront1,,16.28,,true,0,0,0,0,null,0,1,0,brander-desktop,0,0
16:41:35,0,CPUstatic,,14.82,,true,0,0,0,0,null,0,1,0,brander-desktop,0,0
16:41:36,0,CPUdb,,4.67,,true,0,0,0,0,null,0,1,0,brander-desktop,0,0
16:41:37,0,CPUfront1,,17.47,,true,0,0,0,0,null,0,1,0,brander-desktop,0,0
16:41:38,0,CPUstatic,,12.31,,true,0,0,0,0,null,0,1,0,brander-desktop,0,0
16:41:40,0,CPUdb,,5.0,,true,0,0,0,0,null,0,1,0,brander-desktop,0,0
16:41:41,0,CPUfront1,,19.23,,true,0,0,0,0,null,0,1,0,brander-desktop,0,0
16:41:42,0,CPUstatic,,13.15,,true,0,0,0,0,null,0,1,0,brander-desktop,0,0
16:41:43,0,CPUdb,,4.6,,true,0,0,0,0,null,0,1,0,brander-desktop,0,0
16:41:44,0,CPUfront1,,12.73,,true,0,0,0,0,null,0,1,0,brander-desktop,0,0
16:41:45,0,CPUstatic,,12.08,,true,0,0,0,0,null,0,1,0,brander-desktop,0,0
16:41:46,0,CPUdb,,5.24,,true,0,0,0,0,null,0,1,0,brander-desktop,0,0
16:41:47,0,CPUfront1,,14.79,,true,0,0,0,0,null,0,1,0,brander-desktop,0,0
16:41:48,0,CPUstatic,,14.19,,true,0,0,0,0,null,0,1,0,brander-desktop,0,0
16:41:50,0,CPUdb,,6.27,,true,0,0,0,0,null,0,1,0,brander-desktop,0,0
16:41:51,0,CPUfront1,,23.33,,true,0,0,0,0,null,0,1,0,brander-desktop,0,0
16:41:52,0,CPUstatic,,13.3,,true,0,0,0,0,null,0,1,0,brander-desktop,0,0
16:41:53,0,CPUdb,,5.75,,true,0,0,0,0,null,0,1,0,brander-desktop,0,0
16:41:54,0,CPUfront1,,12.04,,true,0,0,0,0,null,0,1,0,brander-desktop,0,0
16:41:55,0,CPUstatic,,12.58,,true,0,0,0,0,null,0,1,0,brander-desktop,0,0
16:41:56,0,CPUdb,,4.75,,true,0,0,0,0,null,0,1,0,brander-desktop,0,0
16:41:57,0,CPUfront1,,29.98,,true,0,0,0,0,null,0,1,0,brander-desktop,0,0
16:41:59,0,CPUstatic,,13.13,,true,0,0,0,0,null,0,1,0,brander-desktop,0,0
16:42:00,0,CPUdb,,4.85,,true,0,0,0,0,null,0,1,0,brander-desktop,0,0
16:42:01,0,CPUfront1,,10.89,,true,0,0,0,0,null,0,1,0,brander-desktop,0,0
16:42:02,0,CPUstatic,,18.15,,true,0,0,0,0,null,0,1,0,brander-desktop,0,0
16:42:03,0,CPUdb,,6.96,,true,0,0,0,0,null,0,1,0,brander-desktop,0,0
16:42:04,0,CPUfront1,,15.27,,true,0,0,0,0,null,0,1,0,brander-desktop,0,0
16:42:05,0,CPUstatic,,15.23,,true,0,0,0,0,null,0,1,0,brander-desktop,0,0
16:42:06,0,CPUdb,,7.18,,true,0,0,0,0,null,0,1,0,brander-desktop,0,0
16:42:07,0,CPUfront1,,16.67,,true,0,0,0,0,null,0,1,0,brander-desktop,0,0
16:42:09,0,CPUstatic,,19.16,,true,0,0,0,0,null,0,1,0,brander-desktop,0,0
16:42:10,0,CPUdb,,4.68,,true,0,0,0,0,null,0,1,0,brander-desktop,0,0
16:42:11,0,CPUfront1,,13.4,,true,0,0,0,0,null,0,1,0,brander-desktop,0,0
16:42:12,0,CPUstatic,,19.26,,true,0,0,0,0,null,0,1,0,brander-desktop,0,0
16:42:13,0,CPUdb,,5.03,,true,0,0,0,0,null,0,1,0,brander-desktop,0,0
16:42:14,0,CPUfront1,,13.76,,true,0,0,0,0,null,0,1,0,brander-desktop,0,0
16:42:15,0,CPUstatic,,9.58,,true,0,0,0,0,null,0,1,0,brander-desktop,0,0
16:42:16,0,CPUdb,,4.85,,true,0,0,0,0,null,0,1,0,brander-desktop,0,0
16:42:17,0,CPUfront1,,16.36,,true,0,0,0,0,null,0,1,0,brander-desktop,0,0
16:42:18,0,CPUstatic,,16.39,,true,0,0,0,0,null,0,1,0,brander-desktop,0,0
16:42:20,0,CPUdb,,5.77,,true,0,0,0,0,null,0,1,0,brander-desktop,0,0
16:42:21,0,CPUfront1,,15.58,,true,0,0,0,0,null,0,1,0,brander-desktop,0,0
16:42:22,0,CPUstatic,,15.8,,true,0,0,0,0,null,0,1,0,brander-desktop,0,0
16:42:23,0,CPUdb,,6.01,,true,0,0,0,0,null,0,1,0,brander-desktop,0,0
16:42:24,0,CPUfront1,,15.41,,true,0,0,0,0,null,0,1,0,brander-desktop,0,0
16:42:25,0,CPUstatic,,14.81,,true,0,0,0,0,null,0,1,0,brander-desktop,0,0
16:42:26,0,CPUdb,,5.76,,true,0,0,0,0,null,0,1,0,brander-desktop,0,0
16:42:27,0,CPUfront1,,15.91,,true,0,0,0,0,null,0,1,0,brander-desktop,0,0
16:42:28,0,CPUstatic,,15.14,,true,0,0,0,0,null,0,1,0,brander-desktop,0,0
16:42:30,0,CPUdb,,5.26,,true,0,0,0,0,null,0,1,0,brander-desktop,0,0
16:42:31,0,CPUfront1,,15.03,,true,0,0,0,0,null,0,1,0,brander-desktop,0,0
16:42:32,0,CPUstatic,,15.54,,true,0,0,0,0,null,0,1,0,brander-desktop,0,0
16:42:33,0,CPUdb,,7.02,,true,0,0,0,0,null,0,1,0,brander-desktop,0,0
16:42:34,0,CPUfront1,,12.92,,true,0,0,0,0,null,0,1,0,brander-desktop,0,0
16:42:35,0,CPUstatic,,15.66,,true,0,0,0,0,null,0,1,0,brander-desktop,0,0
16:42:36,0,CPUdb,,11.19,,true,0,0,0,0,null,0,1,0,brander-desktop,0,0
16:42:37,0,CPUfront1,,38.86,,true,0,0,0,0,null,0,1,0,brander-desktop,0,0
16:42:38,0,CPUstatic,,14.31,,true,0,0,0,0,null,0,1,0,brander-desktop,0,0
16:42:39,0,CPUdb,,5.09,,true,0,0,0,0,null,0,1,0,brander-desktop,0,0
16:42:40,0,CPUfront1,,11.2,,true,0,0,0,0,null,0,1,0,brander-desktop,0,0
16:42:42,0,CPUstatic,,10.72,,true,0,0,0,0,null,0,1,0,brander-desktop,0,0
16:42:43,0,CPUdb,,6.76,,true,0,0,0,0,null,0,1,0,brander-desktop,0,0
16:42:44,0,CPUfront1,,23.99,,true,0,0,0,0,null,0,1,0,brander-desktop,0,0
16:42:45,0,CPUstatic,,14.77,,true,0,0,0,0,null,0,1,0,brander-desktop,0,0
16:42:46,0,CPUdb,,8.12,,true,0,0,0,0,null,0,1,0,brander-desktop,0,0
16:42:47,0,CPUfront1,,26.04,,true,0,0,0,0,null,0,1,0,brander-desktop,0,0
16:42:48,0,CPUstatic,,14.14,,true,0,0,0,0,null,0,1,0,brander-desktop,0,0
16:42:49,0,CPUdb,,5.1,,true,0,0,0,0,null,0,1,0,brander-desktop,0,0
16:42:50,0,CPUfront1,,15.53,,true,0,0,0,0,null,0,1,0,brander-desktop,0,0
16:42:52,0,CPUstatic,,13.2,,true,0,0,0,0,null,0,1,0,brander-desktop,0,0
16:42:53,0,CPUdb,,5.34,,true,0,0,0,0,null,0,1,0,brander-desktop,0,0
16:42:54,0,CPUfront1,,14.88,,true,0,0,0,0,null,0,1,0,brander-desktop,0,0
16:42:55,0,CPUstatic,,14.12,,true,0,0,0,0,null,0,1,0,brander-desktop,0,0
16:42:56,0,CPUdb,,5.69,,true,0,0,0,0,null,0,1,0,brander-desktop,0,0
16:42:57,0,CPUfront1,,14.09,,true,0,0,0,0,null,0,1,0,brander-desktop,0,0
16:42:58,0,CPUstatic,,11.62,,true,0,0,0,0,null,0,1,0,brander-desktop,0,0
16:42:59,0,CPUdb,,4.85,,true,0,0,0,0,null,0,1,0,brander-desktop,0,0
16:43:00,0,CPUfront1,,22.24,,true,0,0,0,0,null,0,1,0,brander-desktop,0,0
16:43:02,0,CPUstatic,,18.75,,true,0,0,0,0,null,0,1,0,brander-desktop,0,0
16:43:03,0,CPUdb,,9.88,,true,0,0,0,0,null,0,1,0,brander-desktop,0,0
16:43:04,0,CPUfront1,,27.81,,true,0,0,0,0,null,0,1,0,brander-desktop,0,0
16:43:05,0,CPUstatic,,13.85,,true,0,0,0,0,null,0,1,0,brander-desktop,0,0
16:43:06,0,CPUdb,,5.36,,true,0,0,0,0,null,0,1,0,brander-desktop,0,0
16:43:07,0,CPUfront1,,16.58,,true,0,0,0,0,null,0,1,0,brander-desktop,0,0
16:43:08,0,CPUstatic,,14.02,,true,0,0,0,0,null,0,1,0,brander-desktop,0,0
16:43:09,0,CPUdb,,5.35,,true,0,0,0,0,null,0,1,0,brander-desktop,0,0
16:43:10,0,CPUfront1,,9.72,,true,0,0,0,0,null,0,1,0,brander-desktop,0,0
16:43:12,0,CPUstatic,,16.64,,true,0,0,0,0,null,0,1,0,brander-desktop,0,0
16:43:13,0,CPUdb,,5.95,,true,0,0,0,0,null,0,1,0,brander-desktop,0,0
16:43:14,0,CPUfront1,,12.23,,true,0,0,0,0,null,0,1,0,brander-desktop,0,0
16:43:15,0,CPUstatic,,13.52,,true,0,0,0,0,null,0,1,0,brander-desktop,0,0
16:43:16,0,CPUdb,,5.69,,true,0,0,0,0,null,0,1,0,brander-desktop,0,0
16:43:17,0,CPUfront1,,24.71,,true,0,0,0,0,null,0,1,0,brander-desktop,0,0
16:43:18,0,CPUstatic,,16.39,,true,0,0,0,0,null,0,1,0,brander-desktop,0,0
16:43:19,0,CPUdb,,4.92,,true,0,0,0,0,null,0,1,0,brander-desktop,0,0
16:43:20,0,CPUfront1,,17.83,,true,0,0,0,0,null,0,1,0,brander-desktop,0,0
16:43:22,0,CPUstatic,,14.5,,true,0,0,0,0,null,0,1,0,brander-desktop,0,0
16:43:23,0,CPUdb,,6.42,,true,0,0,0,0,null,0,1,0,brander-desktop,0,0
16:43:24,0,CPUfront1,,21.07,,true,0,0,0,0,null,0,1,0,brander-desktop,0,0
16:43:25,0,CPUstatic,,16.97,,true,0,0,0,0,null,0,1,0,brander-desktop,0,0
16:43:26,0,CPUdb,,5.18,,true,0,0,0,0,null,0,1,0,brander-desktop,0,0
16:43:27,0,CPUfront1,,17.2,,true,0,0,0,0,null,0,1,0,brander-desktop,0,0
16:43:28,0,CPUstatic,,14.55,,true,0,0,0,0,null,0,1,0,brander-desktop,0,0
16:43:29,0,CPUdb,,4.84,,true,0,0,0,0,null,0,1,0,brander-desktop,0,0
16:43:30,0,CPUfront1,,18.97,,true,0,0,0,0,null,0,1,0,brander-desktop,0,0
16:43:31,0,CPUstatic,,14.09,,true,0,0,0,0,null,0,1,0,brander-desktop,0,0
16:43:32,0,CPUdb,,8.14,,true,0,0,0,0,null,0,1,0,brander-desktop,0,0
16:43:34,0,CPUfront1,,16.03,,true,0,0,0,0,null,0,1,0,brander-desktop,0,0
16:43:35,0,CPUstatic,,13.88,,true,0,0,0,0,null,0,1,0,brander-desktop,0,0
16:43:36,0,CPUdb,,5.83,,true,0,0,0,0,null,0,1,0,brander-desktop,0,0
16:43:37,0,CPUfront1,,17.53,,true,0,0,0,0,null,0,1,0,brander-desktop,0,0
16:43:38,0,CPUstatic,,16.86,,true,0,0,0,0,null,0,1,0,brander-desktop,0,0
16:43:39,0,CPUdb,,5.51,,true,0,0,0,0,null,0,1,0,brander-desktop,0,0
16:43:40,0,CPUfront1,,11.19,,true,0,0,0,0,null,0,1,0,brander-desktop,0,0
16:43:41,0,CPUstatic,,13.71,,true,0,0,0,0,null,0,1,0,brander-desktop,0,0
16:43:42,0,CPUdb,,5.18,,true,0,0,0,0,null,0,1,0,brander-desktop,0,0
16:43:43,0,CPUfront1,,18.35,,true,0,0,0,0,null,0,1,0,brander-desktop,0,0
16:43:45,0,CPUstatic,,16.97,,true,0,0,0,0,null,0,1,0,brander-desktop,0,0
16:43:46,0,CPUdb,,5.19,,true,0,0,0,0,null,0,1,0,brander-desktop,0,0
16:43:47,0,CPUfront1,,16.5,,true,0,0,0,0,null,0,1,0,brander-desktop,0,0
16:43:48,0,CPUstatic,,13.64,,true,0,0,0,0,null,0,1,0,brander-desktop,0,0
16:43:49,0,CPUdb,,5.76,,true,0,0,0,0,null,0,1,0,brander-desktop,0,0
16:43:50,0,CPUfront1,,11.19,,true,0,0,0,0,null,0,1,0,brander-desktop,0,0
16:43:51,0,CPUstatic,,13.61,,true,0,0,0,0,null,0,1,0,brander-desktop,0,0
16:43:52,0,CPUdb,,5.79,,true,0,0,0,0,null,0,1,0,brander-desktop,0,0
16:43:53,0,CPUfront1,,19.17,,true,0,0,0,0,null,0,1,0,brander-desktop,0,0
16:43:54,0,CPUstatic,,14.96,,true,0,0,0,0,null,0,1,0,brander-desktop,0,0
16:43:55,0,CPUdb,,5.61,,true,0,0,0,0,null,0,1,0,brander-desktop,0,0
16:43:57,0,CPUfront1,,17.36,,true,0,0,0,0,null,0,1,0,brander-desktop,0,0
16:43:58,0,CPUstatic,,15.13,,true,0,0,0,0,null,0,1,0,brander-desktop,0,0
16:43:59,0,CPUdb,,11.11,,true,0,0,0,0,null,0,1,0,brander-desktop,0,0
16:44:00,0,CPUfront1,,29.03,,true,0,0,0,0,null,0,1,0,brander-desktop,0,0
16:44:01,0,CPUstatic,,12.58,,true,0,0,0,0,null,0,1,0,brander-desktop,0,0
16:44:02,0,CPUdb,,6.88,,true,0,0,0,0,null,0,1,0,brander-desktop,0,0
16:44:03,0,CPUfront1,,12.85,,true,0,0,0,0,null,0,1,0,brander-desktop,0,0
16:44:05,0,CPUstatic,,21.19,,true,0,0,0,0,null,0,1,0,brander-desktop,0,0
16:44:06,0,CPUdb,,7.01,,true,0,0,0,0,null,0,1,0,brander-desktop,0,0
16:44:07,0,CPUfront1,,31.23,,true,0,0,0,0,null,0,1,0,brander-desktop,0,0
16:44:08,0,CPUstatic,,14.63,,true,0,0,0,0,null,0,1,0,brander-desktop,0,0
16:44:09,0,CPUdb,,15.31,,true,0,0,0,0,null,0,1,0,brander-desktop,0,0
16:44:10,0,CPUfront1,,19.9,,true,0,0,0,0,null,0,1,0,brander-desktop,0,0
16:44:11,0,CPUstatic,,14.67,,true,0,0,0,0,null,0,1,0,brander-desktop,0,0
16:44:12,0,CPUdb,,6.42,,true,0,0,0,0,null,0,1,0,brander-desktop,0,0
16:44:13,0,CPUfront1,,19.7,,true,0,0,0,0,null,0,1,0,brander-desktop,0,0
16:44:14,0,CPUstatic,,16.33,,true,0,0,0,0,null,0,1,0,brander-desktop,0,0
16:44:16,0,CPUdb,,6.53,,true,0,0,0,0,null,0,1,0,brander-desktop,0,0
16:44:17,0,CPUfront1,,45.73,,true,0,0,0,0,null,0,1,0,brander-desktop,0,0
16:44:18,0,CPUstatic,,15.25,,true,0,0,0,0,null,0,1,0,brander-desktop,0,0
16:44:19,0,CPUdb,,6.79,,true,0,0,0,0,null,0,1,0,brander-desktop,0,0
16:44:20,0,CPUfront1,,15.41,,true,0,0,0,0,null,0,1,0,brander-desktop,0,0
16:44:21,0,CPUstatic,,12.42,,true,0,0,0,0,null,0,1,0,brander-desktop,0,0
16:44:22,0,CPUdb,,5.02,,true,0,0,0,0,null,0,1,0,brander-desktop,0,0
16:44:23,0,CPUfront1,,14.1,,true,0,0,0,0,null,0,1,0,brander-desktop,0,0
16:44:24,0,CPUstatic,,11.6,,true,0,0,0,0,null,0,1,0,brander-desktop,0,0
16:44:25,0,CPUdb,,5.01,,true,0,0,0,0,null,0,1,0,brander-desktop,0,0
16:44:27,0,CPUfront1,,32.72,,true,0,0,0,0,null,0,1,0,brander-desktop,0,0
16:44:28,0,CPUstatic,,14.26,,true,0,0,0,0,null,0,1,0,brander-desktop,0,0
16:44:29,0,CPUdb,,6.19,,true,0,0,0,0,null,0,1,0,brander-desktop,0,0
16:44:30,0,CPUfront1,,27.79,,true,0,0,0,0,null,0,1,0,brander-desktop,0,0
16:44:31,0,CPUstatic,,14.48,,true,0,0,0,0,null,0,1,0,brander-desktop,0,0
16:44:32,0,CPUdb,,5.01,,true,0,0,0,0,null,0,1,0,brander-desktop,0,0
16:44:33,0,CPUfront1,,15.44,,true,0,0,0,0,null,0,1,0,brander-desktop,0,0
16:44:34,0,CPUstatic,,13.42,,true,0,0,0,0,null,0,1,0,brander-desktop,0,0
16:44:35,0,CPUdb,,5.09,,true,0,0,0,0,null,0,1,0,brander-desktop,0,0
16:44:37,0,CPUfront1,,33.78,,true,0,0,0,0,null,0,1,0,brander-desktop,0,0
16:44:38,0,CPUstatic,,16.36,,true,0,0,0,0,null,0,1,0,brander-desktop,0,0
16:44:39,0,CPUdb,,6.19,,true,0,0,0,0,null,0,1,0,brander-desktop,0,0
16:44:40,0,CPUfront1,,10.2,,true,0,0,0,0,null,0,1,0,brander-desktop,0,0
16:44:41,0,CPUstatic,,17.2,,true,0,0,0,0,null,0,1,0,brander-desktop,0,0
16:44:42,0,CPUdb,,6.52,,true,0,0,0,0,null,0,1,0,brander-desktop,0,0
16:44:43,0,CPUfront1,,37.48,,true,0,0,0,0,null,0,1,0,brander-desktop,0,0
16:44:44,0,CPUstatic,,18.9,,true,0,0,0,0,null,0,1,0,brander-desktop,0,0
16:44:45,0,CPUdb,,7.27,,true,0,0,0,0,null,0,1,0,brander-desktop,0,0
16:44:47,0,CPUfront1,,18.24,,true,0,0,0,0,null,0,1,0,brander-desktop,0,0
16:44:48,0,CPUstatic,,12.33,,true,0,0,0,0,null,0,1,0,brander-desktop,0,0
16:44:49,0,CPUdb,,5.19,,true,0,0,0,0,null,0,1,0,brander-desktop,0,0
16:44:50,0,CPUfront1,,29.39,,true,0,0,0,0,null,0,1,0,brander-desktop,0,0
16:44:51,0,CPUstatic,,17.51,,true,0,0,0,0,null,0,1,0,brander-desktop,0,0
16:44:52,0,CPUdb,,6.87,,true,0,0,0,0,null,0,1,0,brander-desktop,0,0
16:44:53,0,CPUfront1,,15.41,,true,0,0,0,0,null,0,1,0,brander-desktop,0,0
16:44:54,0,CPUstatic,,14.14,,true,0,0,0,0,null,0,1,0,brander-desktop,0,0
16:44:55,0,CPUdb,,5.76,,true,0,0,0,0,null,0,1,0,brander-desktop,0,0
16:44:56,0,CPUfront1,,25.13,,true,0,0,0,0,null,0,1,0,brander-desktop,0,0
16:44:58,0,CPUstatic,,15.68,,true,0,0,0,0,null,0,1,0,brander-desktop,0,0
16:44:59,0,CPUdb,,5.69,,true,0,0,0,0,null,0,1,0,brander-desktop,0,0
16:45:00,0,CPUfront1,,10.33,,true,0,0,0,0,null,0,1,0,brander-desktop,0,0
16:45:01,0,CPUstatic,,12.5,,true,0,0,0,0,null,0,1,0,brander-desktop,0,0
16:45:02,0,CPUdb,,15.01,,true,0,0,0,0,null,0,1,0,brander-desktop,0,0
16:45:03,0,CPUfront1,,13.71,,true,0,0,0,0,null,0,1,0,brander-desktop,0,0
16:45:04,0,CPUstatic,,14.43,,true,0,0,0,0,null,0,1,0,brander-desktop,0,0
16:45:05,0,CPUdb,,6.37,,true,0,0,0,0,null,0,1,0,brander-desktop,0,0
16:45:06,0,CPUfront1,,38.36,,true,0,0,0,0,null,0,1,0,brander-desktop,0,0
16:45:07,0,CPUstatic,,9.83,,true,0,0,0,0,null,0,1,0,brander-desktop,0,0
16:45:08,0,CPUdb,,6.34,,true,0,0,0,0,null,0,1,0,brander-desktop,0,0
16:45:10,0,CPUfront1,,10.37,,true,0,0,0,0,null,0,1,0,brander-desktop,0,0
16:45:11,0,CPUstatic,,14.31,,true,0,0,0,0,null,0,1,0,brander-desktop,0,0
16:45:12,0,CPUdb,,6.84,,true,0,0,0,0,null,0,1,0,brander-desktop,0,0
16:45:13,0,CPUfront1,,10.52,,true,0,0,0,0,null,0,1,0,brander-desktop,0,0
16:45:14,0,CPUstatic,,15.08,,true,0,0,0,0,null,0,1,0,brander-desktop,0,0
16:45:15,0,CPUdb,,14.12,,true,0,0,0,0,null,0,1,0,brander-desktop,0,0
16:45:16,0,CPUfront1,,12.52,,true,0,0,0,0,null,0,1,0,brander-desktop,0,0
16:45:17,0,CPUstatic,,13.4,,true,0,0,0,0,null,0,1,0,brander-desktop,0,0
16:45:18,0,CPUdb,,7.11,,true,0,0,0,0,null,0,1,0,brander-desktop,0,0
16:45:19,0,CPUfront1,,22.9,,true,0,0,0,0,null,0,1,0,brander-desktop,0,0
16:45:21,0,CPUstatic,,12.12,,true,0,0,0,0,null,0,1,0,brander-desktop,0,0
16:45:22,0,CPUdb,,7.67,,true,0,0,0,0,null,0,1,0,brander-desktop,0,0
16:45:23,0,CPUfront1,,15.67,,true,0,0,0,0,null,0,1,0,brander-desktop,0,0
16:45:24,0,CPUstatic,,17.76,,true,0,0,0,0,null,0,1,0,brander-desktop,0,0
16:45:25,0,CPUdb,,6.01,,true,0,0,0,0,null,0,1,0,brander-desktop,0,0
16:45:26,0,CPUfront1,,14.69,,true,0,0,0,0,null,0,1,0,brander-desktop,0,0
16:45:27,0,CPUstatic,,19.53,,true,0,0,0,0,null,0,1,0,brander-desktop,0,0
16:45:29,0,CPUdb,,4.42,,true,0,0,0,0,null,0,1,0,brander-desktop,0,0
16:45:30,0,CPUfront1,,12.88,,true,0,0,0,0,null,0,1,0,brander-desktop,0,0
16:45:31,0,CPUstatic,,14.21,,true,0,0,0,0,null,0,1,0,brander-desktop,0,0
16:45:32,0,CPUdb,,6.01,,true,0,0,0,0,null,0,1,0,brander-desktop,0,0
16:45:33,0,CPUfront1,,12.04,,true,0,0,0,0,null,0,1,0,brander-desktop,0,0
16:45:34,0,CPUstatic,,12.79,,true,0,0,0,0,null,0,1,0,brander-desktop,0,0
16:45:35,0,CPUdb,,4.75,,true,0,0,0,0,null,0,1,0,brander-desktop,0,0
16:45:36,0,CPUfront1,,19.33,,true,0,0,0,0,null,0,1,0,brander-desktop,0,0
16:45:37,0,CPUstatic,,11.79,,true,0,0,0,0,null,0,1,0,brander-desktop,0,0
16:45:38,0,CPUdb,,4.34,,true,0,0,0,0,null,0,1,0,brander-desktop,0,0
16:45:39,0,CPUfront1,,12.5,,true,0,0,0,0,null,0,1,0,brander-desktop,0,0
16:45:41,0,CPUstatic,,10.42,,true,0,0,0,0,null,0,1,0,brander-desktop,0,0
16:45:42,0,CPUdb,,4.5,,true,0,0,0,0,null,0,1,0,brander-desktop,0,0
16:45:43,0,CPUfront1,,10.5,,true,0,0,0,0,null,0,1,0,brander-desktop,0,0
16:45:44,0,CPUstatic,,15.77,,true,0,0,0,0,null,0,1,0,brander-desktop,0,0
16:45:45,0,CPUdb,,4.51,,true,0,0,0,0,null,0,1,0,brander-desktop,0,0
16:45:46,0,CPUfront1,,16.53,,true,0,0,0,0,null,0,1,0,brander-desktop,0,0
16:45:47,0,CPUstatic,,17.98,,true,0,0,0,0,null,0,1,0,brander-desktop,0,0
16:45:48,0,CPUdb,,8.34,,true,0,0,0,0,null,0,1,0,brander-desktop,0,0
16:45:50,0,CPUfront1,,14.21,,true,0,0,0,0,null,0,1,0,brander-desktop,0,0
16:45:51,0,CPUstatic,,17.42,,true,0,0,0,0,null,0,1,0,brander-desktop,0,0
16:45:52,0,CPUdb,,5.59,,true,0,0,0,0,null,0,1,0,brander-desktop,0,0
16:45:53,0,CPUfront1,,23.79,,true,0,0,0,0,null,0,1,0,brander-desktop,0,0
16:45:54,0,CPUstatic,,14.17,,true,0,0,0,0,null,0,1,0,brander-desktop,0,0
16:45:55,0,CPUdb,,4.85,,true,0,0,0,0,null,0,1,0,brander-desktop,0,0
16:45:56,0,CPUfront1,,11.22,,true,0,0,0,0,null,0,1,0,brander-desktop,0,0
16:45:57,0,CPUstatic,,13.39,,true,0,0,0,0,null,0,1,0,brander-desktop,0,0
16:45:58,0,CPUdb,,4.84,,true,0,0,0,0,null,0,1,0,brander-desktop,0,0
16:45:59,0,CPUfront1,,18.62,,true,0,0,0,0,null,0,1,0,brander-desktop,0,0
16:46:01,0,CPUstatic,,14.79,,true,0,0,0,0,null,0,1,0,brander-desktop,0,0
16:46:02,0,CPUdb,,6.02,,true,0,0,0,0,null,0,1,0,brander-desktop,0,0
16:46:03,0,CPUfront1,,18.56,,true,0,0,0,0,null,0,1,0,brander-desktop,0,0
16:46:04,0,CPUstatic,,15.13,,true,0,0,0,0,null,0,1,0,brander-desktop,0,0
16:46:05,0,CPUdb,,4.51,,true,0,0,0,0,null,0,1,0,brander-desktop,0,0
16:46:06,0,CPUfront1,,12.1,,true,0,0,0,0,null,0,1,0,brander-desktop,0,0
16:46:07,0,CPUstatic,,14.53,,true,0,0,0,0,null,0,1,0,brander-desktop,0,0
16:46:08,0,CPUdb,,8.7,,true,0,0,0,0,null,0,1,0,brander-desktop,0,0
16:46:09,0,CPUfront1,,9.7,,true,0,0,0,0,null,0,1,0,brander-desktop,0,0
16:46:11,0,CPUstatic,,15.99,,true,0,0,0,0,null,0,1,0,brander-desktop,0,0
16:46:12,0,CPUdb,,6.03,,true,0,0,0,0,null,0,1,0,brander-desktop,0,0
16:46:13,0,CPUfront1,,14.5,,true,0,0,0,0,null,0,1,0,brander-desktop,0,0
16:46:14,0,CPUstatic,,12.75,,true,0,0,0,0,null,0,1,0,brander-desktop,0,0
16:46:15,0,CPUdb,,4.76,,true,0,0,0,0,null,0,1,0,brander-desktop,0,0
16:46:16,0,CPUfront1,,13.04,,true,0,0,0,0,null,0,1,0,brander-desktop,0,0
16:46:17,0,CPUstatic,,14.29,,true,0,0,0,0,null,0,1,0,brander-desktop,0,0
16:46:18,0,CPUdb,,7.69,,true,0,0,0,0,null,0,1,0,brander-desktop,0,0
