timeStamp,elapsed,label,responseCode,responseMessage,threadName,success,bytes,sentBytes,grpThreads,allThreads,URL,Latency,SampleCount,ErrorCount,Hostname,IdleTime,Connect
03:30:59,0,SWAPstatic,,0.0,,true,0,0,0,0,null,0,1,0,brander-desktop,0,0
03:31:00,0,SWAPdb,,11.98,,true,0,0,0,0,null,0,1,0,brander-desktop,0,0
03:31:02,0,SWAPfront1,,1.56,,true,0,0,0,0,null,0,1,0,brander-desktop,0,0
03:31:04,0,SWAPfront2,,1.78,,true,0,0,0,0,null,0,1,0,brander-desktop,0,0
03:31:05,0,SWAPfront3,,0.0,,true,0,0,0,0,null,0,1,0,brander-desktop,0,0
03:31:07,0,SWAPfront4,,2.88,,true,0,0,0,0,null,0,1,0,brander-desktop,0,0
03:31:08,0,SWAPcache,,0.01,,true,0,0,0,0,null,0,1,0,brander-desktop,0,0
03:31:10,0,SWAPstatic,,0.0,,true,0,0,0,0,null,0,1,0,brander-desktop,0,0
03:31:11,0,SWAPdb,,11.98,,true,0,0,0,0,null,0,1,0,brander-desktop,0,0
03:31:12,0,SWAPfront1,,1.56,,true,0,0,0,0,null,0,1,0,brander-desktop,0,0
03:31:13,0,SWAPfront2,,1.78,,true,0,0,0,0,null,0,1,0,brander-desktop,0,0
03:31:14,0,SWAPfront3,,0.0,,true,0,0,0,0,null,0,1,0,brander-desktop,0,0
03:31:15,0,SWAPfront4,,2.88,,true,0,0,0,0,null,0,1,0,brander-desktop,0,0
03:31:16,0,SWAPcache,,0.01,,true,0,0,0,0,null,0,1,0,brander-desktop,0,0
03:31:17,0,SWAPstatic,,0.0,,true,0,0,0,0,null,0,1,0,brander-desktop,0,0
03:31:18,0,SWAPdb,,11.98,,true,0,0,0,0,null,0,1,0,brander-desktop,0,0
03:31:19,0,SWAPfront1,,1.56,,true,0,0,0,0,null,0,1,0,brander-desktop,0,0
03:31:20,0,SWAPfront2,,1.78,,true,0,0,0,0,null,0,1,0,brander-desktop,0,0
03:31:22,0,SWAPfront3,,0.0,,true,0,0,0,0,null,0,1,0,brander-desktop,0,0
03:31:23,0,SWAPfront4,,2.88,,true,0,0,0,0,null,0,1,0,brander-desktop,0,0
03:31:24,0,SWAPcache,,0.01,,true,0,0,0,0,null,0,1,0,brander-desktop,0,0
03:31:25,0,SWAPstatic,,0.0,,true,0,0,0,0,null,0,1,0,brander-desktop,0,0
03:31:26,0,SWAPdb,,11.98,,true,0,0,0,0,null,0,1,0,brander-desktop,0,0
03:31:27,0,SWAPfront1,,1.56,,true,0,0,0,0,null,0,1,0,brander-desktop,0,0
03:31:28,0,SWAPfront2,,1.78,,true,0,0,0,0,null,0,1,0,brander-desktop,0,0
03:31:29,0,SWAPfront3,,0.0,,true,0,0,0,0,null,0,1,0,brander-desktop,0,0
03:31:30,0,SWAPfront4,,2.88,,true,0,0,0,0,null,0,1,0,brander-desktop,0,0
03:31:31,0,SWAPcache,,0.01,,true,0,0,0,0,null,0,1,0,brander-desktop,0,0
03:31:32,0,SWAPstatic,,0.0,,true,0,0,0,0,null,0,1,0,brander-desktop,0,0
03:31:33,0,SWAPdb,,11.98,,true,0,0,0,0,null,0,1,0,brander-desktop,0,0
03:31:35,0,SWAPfront1,,1.56,,true,0,0,0,0,null,0,1,0,brander-desktop,0,0
03:31:36,0,SWAPfront2,,1.78,,true,0,0,0,0,null,0,1,0,brander-desktop,0,0
03:31:37,0,SWAPfront3,,0.0,,true,0,0,0,0,null,0,1,0,brander-desktop,0,0
03:31:38,0,SWAPfront4,,2.88,,true,0,0,0,0,null,0,1,0,brander-desktop,0,0
03:31:39,0,SWAPcache,,0.01,,true,0,0,0,0,null,0,1,0,brander-desktop,0,0
03:31:40,0,SWAPstatic,,0.0,,true,0,0,0,0,null,0,1,0,brander-desktop,0,0
03:31:41,0,SWAPdb,,11.98,,true,0,0,0,0,null,0,1,0,brander-desktop,0,0
03:31:42,0,SWAPfront1,,1.56,,true,0,0,0,0,null,0,1,0,brander-desktop,0,0
03:31:43,0,SWAPfront2,,1.78,,true,0,0,0,0,null,0,1,0,brander-desktop,0,0
03:31:44,0,SWAPfront3,,0.0,,true,0,0,0,0,null,0,1,0,brander-desktop,0,0
03:31:45,0,SWAPfront4,,2.88,,true,0,0,0,0,null,0,1,0,brander-desktop,0,0
03:31:47,0,SWAPcache,,0.01,,true,0,0,0,0,null,0,1,0,brander-desktop,0,0
03:31:48,0,SWAPstatic,,0.0,,true,0,0,0,0,null,0,1,0,brander-desktop,0,0
03:31:49,0,SWAPdb,,11.98,,true,0,0,0,0,null,0,1,0,brander-desktop,0,0
03:31:50,0,SWAPfront1,,1.56,,true,0,0,0,0,null,0,1,0,brander-desktop,0,0
03:31:51,0,SWAPfront2,,1.78,,true,0,0,0,0,null,0,1,0,brander-desktop,0,0
03:31:52,0,SWAPfront3,,0.0,,true,0,0,0,0,null,0,1,0,brander-desktop,0,0
03:31:53,0,SWAPfront4,,2.88,,true,0,0,0,0,null,0,1,0,brander-desktop,0,0
03:31:54,0,SWAPcache,,0.01,,true,0,0,0,0,null,0,1,0,brander-desktop,0,0
03:31:55,0,SWAPstatic,,0.0,,true,0,0,0,0,null,0,1,0,brander-desktop,0,0
03:31:56,0,SWAPdb,,11.98,,true,0,0,0,0,null,0,1,0,brander-desktop,0,0
03:31:57,0,SWAPfront1,,1.56,,true,0,0,0,0,null,0,1,0,brander-desktop,0,0
03:31:58,0,SWAPfront2,,1.78,,true,0,0,0,0,null,0,1,0,brander-desktop,0,0
03:32:00,0,SWAPfront3,,0.0,,true,0,0,0,0,null,0,1,0,brander-desktop,0,0
03:32:01,0,SWAPfront4,,2.88,,true,0,0,0,0,null,0,1,0,brander-desktop,0,0
03:32:02,0,SWAPcache,,0.01,,true,0,0,0,0,null,0,1,0,brander-desktop,0,0
03:32:03,0,SWAPstatic,,0.0,,true,0,0,0,0,null,0,1,0,brander-desktop,0,0
03:32:04,0,SWAPdb,,11.98,,true,0,0,0,0,null,0,1,0,brander-desktop,0,0
03:32:05,0,SWAPfront1,,1.56,,true,0,0,0,0,null,0,1,0,brander-desktop,0,0
03:32:06,0,SWAPfront2,,1.78,,true,0,0,0,0,null,0,1,0,brander-desktop,0,0
03:32:07,0,SWAPfront3,,0.0,,true,0,0,0,0,null,0,1,0,brander-desktop,0,0
03:32:08,0,SWAPfront4,,2.88,,true,0,0,0,0,null,0,1,0,brander-desktop,0,0
03:32:09,0,SWAPcache,,0.01,,true,0,0,0,0,null,0,1,0,brander-desktop,0,0
03:32:11,0,SWAPstatic,,0.0,,true,0,0,0,0,null,0,1,0,brander-desktop,0,0
03:32:12,0,SWAPdb,,11.98,,true,0,0,0,0,null,0,1,0,brander-desktop,0,0
03:32:13,0,SWAPfront1,,1.56,,true,0,0,0,0,null,0,1,0,brander-desktop,0,0
03:32:14,0,SWAPfront2,,1.78,,true,0,0,0,0,null,0,1,0,brander-desktop,0,0
03:32:15,0,SWAPfront3,,0.0,,true,0,0,0,0,null,0,1,0,brander-desktop,0,0
03:32:16,0,SWAPfront4,,2.88,,true,0,0,0,0,null,0,1,0,brander-desktop,0,0
03:32:17,0,SWAPcache,,0.01,,true,0,0,0,0,null,0,1,0,brander-desktop,0,0
03:32:18,0,SWAPstatic,,0.0,,true,0,0,0,0,null,0,1,0,brander-desktop,0,0
03:32:19,0,SWAPdb,,11.98,,true,0,0,0,0,null,0,1,0,brander-desktop,0,0
03:32:20,0,SWAPfront1,,1.56,,true,0,0,0,0,null,0,1,0,brander-desktop,0,0
03:32:21,0,SWAPfront2,,1.78,,true,0,0,0,0,null,0,1,0,brander-desktop,0,0
03:32:23,0,SWAPfront3,,0.0,,true,0,0,0,0,null,0,1,0,brander-desktop,0,0
03:32:24,0,SWAPfront4,,2.88,,true,0,0,0,0,null,0,1,0,brander-desktop,0,0
03:32:25,0,SWAPcache,,0.01,,true,0,0,0,0,null,0,1,0,brander-desktop,0,0
03:32:26,0,SWAPstatic,,0.0,,true,0,0,0,0,null,0,1,0,brander-desktop,0,0
03:32:27,0,SWAPdb,,11.98,,true,0,0,0,0,null,0,1,0,brander-desktop,0,0
03:32:28,0,SWAPfront1,,1.56,,true,0,0,0,0,null,0,1,0,brander-desktop,0,0
03:32:29,0,SWAPfront2,,1.78,,true,0,0,0,0,null,0,1,0,brander-desktop,0,0
03:32:30,0,SWAPfront3,,0.0,,true,0,0,0,0,null,0,1,0,brander-desktop,0,0
03:32:31,0,SWAPfront4,,2.88,,true,0,0,0,0,null,0,1,0,brander-desktop,0,0
03:32:32,0,SWAPcache,,0.01,,true,0,0,0,0,null,0,1,0,brander-desktop,0,0
03:32:33,0,SWAPstatic,,0.0,,true,0,0,0,0,null,0,1,0,brander-desktop,0,0
03:32:35,0,SWAPdb,,11.98,,true,0,0,0,0,null,0,1,0,brander-desktop,0,0
03:32:36,0,SWAPfront1,,1.56,,true,0,0,0,0,null,0,1,0,brander-desktop,0,0
03:32:37,0,SWAPfront2,,1.78,,true,0,0,0,0,null,0,1,0,brander-desktop,0,0
03:32:38,0,SWAPfront3,,0.0,,true,0,0,0,0,null,0,1,0,brander-desktop,0,0
03:32:39,0,SWAPfront4,,2.88,,true,0,0,0,0,null,0,1,0,brander-desktop,0,0
03:32:40,0,SWAPcache,,0.01,,true,0,0,0,0,null,0,1,0,brander-desktop,0,0
03:32:41,0,SWAPstatic,,0.0,,true,0,0,0,0,null,0,1,0,brander-desktop,0,0
03:32:42,0,SWAPdb,,11.98,,true,0,0,0,0,null,0,1,0,brander-desktop,0,0
03:32:43,0,SWAPfront1,,1.56,,true,0,0,0,0,null,0,1,0,brander-desktop,0,0
03:32:44,0,SWAPfront2,,1.78,,true,0,0,0,0,null,0,1,0,brander-desktop,0,0
03:32:45,0,SWAPfront3,,0.0,,true,0,0,0,0,null,0,1,0,brander-desktop,0,0
03:32:47,0,SWAPfront4,,2.88,,true,0,0,0,0,null,0,1,0,brander-desktop,0,0
03:32:48,0,SWAPcache,,0.01,,true,0,0,0,0,null,0,1,0,brander-desktop,0,0
03:32:49,0,SWAPstatic,,0.0,,true,0,0,0,0,null,0,1,0,brander-desktop,0,0
03:32:50,0,SWAPdb,,11.98,,true,0,0,0,0,null,0,1,0,brander-desktop,0,0
03:32:51,0,SWAPfront1,,1.56,,true,0,0,0,0,null,0,1,0,brander-desktop,0,0
03:32:52,0,SWAPfront2,,1.78,,true,0,0,0,0,null,0,1,0,brander-desktop,0,0
03:32:53,0,SWAPfront3,,0.0,,true,0,0,0,0,null,0,1,0,brander-desktop,0,0
03:32:54,0,SWAPfront4,,2.88,,true,0,0,0,0,null,0,1,0,brander-desktop,0,0
03:32:55,0,SWAPcache,,0.01,,true,0,0,0,0,null,0,1,0,brander-desktop,0,0
03:32:56,0,SWAPstatic,,0.0,,true,0,0,0,0,null,0,1,0,brander-desktop,0,0
03:32:57,0,SWAPdb,,11.98,,true,0,0,0,0,null,0,1,0,brander-desktop,0,0
03:32:59,0,SWAPfront1,,1.56,,true,0,0,0,0,null,0,1,0,brander-desktop,0,0
03:33:00,0,SWAPfront2,,1.78,,true,0,0,0,0,null,0,1,0,brander-desktop,0,0
03:33:01,0,SWAPfront3,,0.0,,true,0,0,0,0,null,0,1,0,brander-desktop,0,0
03:33:02,0,SWAPfront4,,2.88,,true,0,0,0,0,null,0,1,0,brander-desktop,0,0
03:33:03,0,SWAPcache,,0.01,,true,0,0,0,0,null,0,1,0,brander-desktop,0,0
03:33:04,0,SWAPstatic,,0.0,,true,0,0,0,0,null,0,1,0,brander-desktop,0,0
03:33:05,0,SWAPdb,,11.98,,true,0,0,0,0,null,0,1,0,brander-desktop,0,0
03:33:06,0,SWAPfront1,,1.56,,true,0,0,0,0,null,0,1,0,brander-desktop,0,0
03:33:07,0,SWAPfront2,,1.78,,true,0,0,0,0,null,0,1,0,brander-desktop,0,0
03:33:08,0,SWAPfront3,,0.0,,true,0,0,0,0,null,0,1,0,brander-desktop,0,0
03:33:09,0,SWAPfront4,,2.88,,true,0,0,0,0,null,0,1,0,brander-desktop,0,0
03:33:11,0,SWAPcache,,0.01,,true,0,0,0,0,null,0,1,0,brander-desktop,0,0
03:33:12,0,SWAPstatic,,0.0,,true,0,0,0,0,null,0,1,0,brander-desktop,0,0
03:33:13,0,SWAPdb,,11.98,,true,0,0,0,0,null,0,1,0,brander-desktop,0,0
03:33:14,0,SWAPfront1,,1.56,,true,0,0,0,0,null,0,1,0,brander-desktop,0,0
03:33:15,0,SWAPfront2,,1.78,,true,0,0,0,0,null,0,1,0,brander-desktop,0,0
03:33:16,0,SWAPfront3,,0.0,,true,0,0,0,0,null,0,1,0,brander-desktop,0,0
03:33:17,0,SWAPfront4,,2.88,,true,0,0,0,0,null,0,1,0,brander-desktop,0,0
03:33:18,0,SWAPcache,,0.01,,true,0,0,0,0,null,0,1,0,brander-desktop,0,0
03:33:19,0,SWAPstatic,,0.0,,true,0,0,0,0,null,0,1,0,brander-desktop,0,0
03:33:20,0,SWAPdb,,11.98,,true,0,0,0,0,null,0,1,0,brander-desktop,0,0
03:33:22,0,SWAPfront1,,1.56,,true,0,0,0,0,null,0,1,0,brander-desktop,0,0
03:33:23,0,SWAPfront2,,1.78,,true,0,0,0,0,null,0,1,0,brander-desktop,0,0
03:33:24,0,SWAPfront3,,0.0,,true,0,0,0,0,null,0,1,0,brander-desktop,0,0
03:33:25,0,SWAPfront4,,2.88,,true,0,0,0,0,null,0,1,0,brander-desktop,0,0
03:33:26,0,SWAPcache,,0.01,,true,0,0,0,0,null,0,1,0,brander-desktop,0,0
03:33:27,0,SWAPstatic,,0.0,,true,0,0,0,0,null,0,1,0,brander-desktop,0,0
03:33:28,0,SWAPdb,,11.98,,true,0,0,0,0,null,0,1,0,brander-desktop,0,0
03:33:29,0,SWAPfront1,,1.56,,true,0,0,0,0,null,0,1,0,brander-desktop,0,0
03:33:30,0,SWAPfront2,,1.78,,true,0,0,0,0,null,0,1,0,brander-desktop,0,0
03:33:31,0,SWAPfront3,,0.0,,true,0,0,0,0,null,0,1,0,brander-desktop,0,0
03:33:32,0,SWAPfront4,,2.88,,true,0,0,0,0,null,0,1,0,brander-desktop,0,0
03:33:34,0,SWAPcache,,0.01,,true,0,0,0,0,null,0,1,0,brander-desktop,0,0
03:33:35,0,SWAPstatic,,0.0,,true,0,0,0,0,null,0,1,0,brander-desktop,0,0
03:33:36,0,SWAPdb,,11.98,,true,0,0,0,0,null,0,1,0,brander-desktop,0,0
03:33:37,0,SWAPfront1,,1.56,,true,0,0,0,0,null,0,1,0,brander-desktop,0,0
03:33:38,0,SWAPfront2,,1.78,,true,0,0,0,0,null,0,1,0,brander-desktop,0,0
03:33:39,0,SWAPfront3,,0.0,,true,0,0,0,0,null,0,1,0,brander-desktop,0,0
03:33:40,0,SWAPfront4,,2.88,,true,0,0,0,0,null,0,1,0,brander-desktop,0,0
03:33:41,0,SWAPcache,,0.01,,true,0,0,0,0,null,0,1,0,brander-desktop,0,0
03:33:42,0,SWAPstatic,,0.0,,true,0,0,0,0,null,0,1,0,brander-desktop,0,0
03:33:43,0,SWAPdb,,11.98,,true,0,0,0,0,null,0,1,0,brander-desktop,0,0
03:33:44,0,SWAPfront1,,1.56,,true,0,0,0,0,null,0,1,0,brander-desktop,0,0
03:33:46,0,SWAPfront2,,1.78,,true,0,0,0,0,null,0,1,0,brander-desktop,0,0
03:33:47,0,SWAPfront3,,0.0,,true,0,0,0,0,null,0,1,0,brander-desktop,0,0
03:33:48,0,SWAPfront4,,2.88,,true,0,0,0,0,null,0,1,0,brander-desktop,0,0
03:33:49,0,SWAPcache,,0.01,,true,0,0,0,0,null,0,1,0,brander-desktop,0,0
03:33:50,0,SWAPstatic,,0.0,,true,0,0,0,0,null,0,1,0,brander-desktop,0,0
03:33:51,0,SWAPdb,,11.98,,true,0,0,0,0,null,0,1,0,brander-desktop,0,0
03:33:52,0,SWAPfront1,,1.56,,true,0,0,0,0,null,0,1,0,brander-desktop,0,0
03:33:53,0,SWAPfront2,,1.78,,true,0,0,0,0,null,0,1,0,brander-desktop,0,0
03:33:54,0,SWAPfront3,,0.0,,true,0,0,0,0,null,0,1,0,brander-desktop,0,0
03:33:55,0,SWAPfront4,,2.88,,true,0,0,0,0,null,0,1,0,brander-desktop,0,0
03:33:57,0,SWAPcache,,0.01,,true,0,0,0,0,null,0,1,0,brander-desktop,0,0
03:33:58,0,SWAPstatic,,0.0,,true,0,0,0,0,null,0,1,0,brander-desktop,0,0
03:33:59,0,SWAPdb,,11.98,,true,0,0,0,0,null,0,1,0,brander-desktop,0,0
03:34:00,0,SWAPfront1,,1.56,,true,0,0,0,0,null,0,1,0,brander-desktop,0,0
03:34:01,0,SWAPfront2,,1.78,,true,0,0,0,0,null,0,1,0,brander-desktop,0,0
03:34:02,0,SWAPfront3,,0.0,,true,0,0,0,0,null,0,1,0,brander-desktop,0,0
03:34:03,0,SWAPfront4,,2.88,,true,0,0,0,0,null,0,1,0,brander-desktop,0,0
03:34:04,0,SWAPcache,,0.01,,true,0,0,0,0,null,0,1,0,brander-desktop,0,0
03:34:05,0,SWAPstatic,,0.0,,true,0,0,0,0,null,0,1,0,brander-desktop,0,0
03:34:06,0,SWAPdb,,11.98,,true,0,0,0,0,null,0,1,0,brander-desktop,0,0
03:34:07,0,SWAPfront1,,1.56,,true,0,0,0,0,null,0,1,0,brander-desktop,0,0
03:34:08,0,SWAPfront2,,1.78,,true,0,0,0,0,null,0,1,0,brander-desktop,0,0
03:34:10,0,SWAPfront3,,0.0,,true,0,0,0,0,null,0,1,0,brander-desktop,0,0
03:34:11,0,SWAPfront4,,2.88,,true,0,0,0,0,null,0,1,0,brander-desktop,0,0
03:34:12,0,SWAPcache,,0.01,,true,0,0,0,0,null,0,1,0,brander-desktop,0,0
03:34:13,0,SWAPstatic,,0.0,,true,0,0,0,0,null,0,1,0,brander-desktop,0,0
03:34:14,0,SWAPdb,,11.98,,true,0,0,0,0,null,0,1,0,brander-desktop,0,0
03:34:15,0,SWAPfront1,,1.56,,true,0,0,0,0,null,0,1,0,brander-desktop,0,0
03:34:16,0,SWAPfront2,,1.78,,true,0,0,0,0,null,0,1,0,brander-desktop,0,0
03:34:17,0,SWAPfront3,,0.0,,true,0,0,0,0,null,0,1,0,brander-desktop,0,0
03:34:18,0,SWAPfront4,,2.88,,true,0,0,0,0,null,0,1,0,brander-desktop,0,0
03:34:19,0,SWAPcache,,0.01,,true,0,0,0,0,null,0,1,0,brander-desktop,0,0
03:34:20,0,SWAPstatic,,0.0,,true,0,0,0,0,null,0,1,0,brander-desktop,0,0
03:34:22,0,SWAPdb,,11.98,,true,0,0,0,0,null,0,1,0,brander-desktop,0,0
03:34:23,0,SWAPfront1,,1.56,,true,0,0,0,0,null,0,1,0,brander-desktop,0,0
03:34:24,0,SWAPfront2,,1.78,,true,0,0,0,0,null,0,1,0,brander-desktop,0,0
03:34:25,0,SWAPfront3,,0.0,,true,0,0,0,0,null,0,1,0,brander-desktop,0,0
03:34:26,0,SWAPfront4,,2.88,,true,0,0,0,0,null,0,1,0,brander-desktop,0,0
03:34:27,0,SWAPcache,,0.01,,true,0,0,0,0,null,0,1,0,brander-desktop,0,0
03:34:28,0,SWAPstatic,,0.0,,true,0,0,0,0,null,0,1,0,brander-desktop,0,0
03:34:29,0,SWAPdb,,11.98,,true,0,0,0,0,null,0,1,0,brander-desktop,0,0
03:34:30,0,SWAPfront1,,1.56,,true,0,0,0,0,null,0,1,0,brander-desktop,0,0
03:34:31,0,SWAPfront2,,1.78,,true,0,0,0,0,null,0,1,0,brander-desktop,0,0
03:34:32,0,SWAPfront3,,0.0,,true,0,0,0,0,null,0,1,0,brander-desktop,0,0
03:34:34,0,SWAPfront4,,2.88,,true,0,0,0,0,null,0,1,0,brander-desktop,0,0
03:34:35,0,SWAPcache,,0.01,,true,0,0,0,0,null,0,1,0,brander-desktop,0,0
03:34:36,0,SWAPstatic,,0.0,,true,0,0,0,0,null,0,1,0,brander-desktop,0,0
03:34:37,0,SWAPdb,,11.98,,true,0,0,0,0,null,0,1,0,brander-desktop,0,0
03:34:38,0,SWAPfront1,,1.56,,true,0,0,0,0,null,0,1,0,brander-desktop,0,0
03:34:39,0,SWAPfront2,,1.78,,true,0,0,0,0,null,0,1,0,brander-desktop,0,0
03:34:40,0,SWAPfront3,,0.0,,true,0,0,0,0,null,0,1,0,brander-desktop,0,0
03:34:41,0,SWAPfront4,,2.88,,true,0,0,0,0,null,0,1,0,brander-desktop,0,0
03:34:42,0,SWAPcache,,0.01,,true,0,0,0,0,null,0,1,0,brander-desktop,0,0
03:34:43,0,SWAPstatic,,0.0,,true,0,0,0,0,null,0,1,0,brander-desktop,0,0
03:34:45,0,SWAPdb,,11.98,,true,0,0,0,0,null,0,1,0,brander-desktop,0,0
03:34:46,0,SWAPfront1,,1.56,,true,0,0,0,0,null,0,1,0,brander-desktop,0,0
03:34:47,0,SWAPfront2,,1.78,,true,0,0,0,0,null,0,1,0,brander-desktop,0,0
03:34:48,0,SWAPfront3,,0.0,,true,0,0,0,0,null,0,1,0,brander-desktop,0,0
03:34:49,0,SWAPfront4,,2.88,,true,0,0,0,0,null,0,1,0,brander-desktop,0,0
03:34:50,0,SWAPcache,,0.01,,true,0,0,0,0,null,0,1,0,brander-desktop,0,0
03:34:51,0,SWAPstatic,,0.0,,true,0,0,0,0,null,0,1,0,brander-desktop,0,0
03:34:52,0,SWAPdb,,11.98,,true,0,0,0,0,null,0,1,0,brander-desktop,0,0
03:34:53,0,SWAPfront1,,1.56,,true,0,0,0,0,null,0,1,0,brander-desktop,0,0
03:34:54,0,SWAPfront2,,1.78,,true,0,0,0,0,null,0,1,0,brander-desktop,0,0
03:34:55,0,SWAPfront3,,0.0,,true,0,0,0,0,null,0,1,0,brander-desktop,0,0
03:34:57,0,SWAPfront4,,2.88,,true,0,0,0,0,null,0,1,0,brander-desktop,0,0
03:34:58,0,SWAPcache,,0.01,,true,0,0,0,0,null,0,1,0,brander-desktop,0,0
03:34:59,0,SWAPstatic,,0.0,,true,0,0,0,0,null,0,1,0,brander-desktop,0,0
03:35:00,0,SWAPdb,,11.98,,true,0,0,0,0,null,0,1,0,brander-desktop,0,0
03:35:01,0,SWAPfront1,,1.56,,true,0,0,0,0,null,0,1,0,brander-desktop,0,0
03:35:02,0,SWAPfront2,,1.78,,true,0,0,0,0,null,0,1,0,brander-desktop,0,0
03:35:03,0,SWAPfront3,,0.0,,true,0,0,0,0,null,0,1,0,brander-desktop,0,0
03:35:04,0,SWAPfront4,,2.88,,true,0,0,0,0,null,0,1,0,brander-desktop,0,0
03:35:05,0,SWAPcache,,0.01,,true,0,0,0,0,null,0,1,0,brander-desktop,0,0
03:35:06,0,SWAPstatic,,0.0,,true,0,0,0,0,null,0,1,0,brander-desktop,0,0
03:35:08,0,SWAPdb,,11.98,,true,0,0,0,0,null,0,1,0,brander-desktop,0,0
03:35:09,0,SWAPfront1,,1.56,,true,0,0,0,0,null,0,1,0,brander-desktop,0,0
03:35:10,0,SWAPfront2,,1.78,,true,0,0,0,0,null,0,1,0,brander-desktop,0,0
03:35:11,0,SWAPfront3,,0.0,,true,0,0,0,0,null,0,1,0,brander-desktop,0,0
03:35:12,0,SWAPfront4,,2.88,,true,0,0,0,0,null,0,1,0,brander-desktop,0,0
03:35:13,0,SWAPcache,,0.01,,true,0,0,0,0,null,0,1,0,brander-desktop,0,0
03:35:14,0,SWAPstatic,,0.0,,true,0,0,0,0,null,0,1,0,brander-desktop,0,0
03:35:15,0,SWAPdb,,11.98,,true,0,0,0,0,null,0,1,0,brander-desktop,0,0
03:35:16,0,SWAPfront1,,1.56,,true,0,0,0,0,null,0,1,0,brander-desktop,0,0
03:35:17,0,SWAPfront2,,1.78,,true,0,0,0,0,null,0,1,0,brander-desktop,0,0
03:35:19,0,SWAPfront3,,0.0,,true,0,0,0,0,null,0,1,0,brander-desktop,0,0
03:35:20,0,SWAPfront4,,2.88,,true,0,0,0,0,null,0,1,0,brander-desktop,0,0
03:35:21,0,SWAPcache,,0.01,,true,0,0,0,0,null,0,1,0,brander-desktop,0,0
03:35:22,0,SWAPstatic,,0.0,,true,0,0,0,0,null,0,1,0,brander-desktop,0,0
03:35:23,0,SWAPdb,,11.98,,true,0,0,0,0,null,0,1,0,brander-desktop,0,0
03:35:24,0,SWAPfront1,,1.56,,true,0,0,0,0,null,0,1,0,brander-desktop,0,0
03:35:25,0,SWAPfront2,,1.78,,true,0,0,0,0,null,0,1,0,brander-desktop,0,0
03:35:26,0,SWAPfront3,,0.0,,true,0,0,0,0,null,0,1,0,brander-desktop,0,0
03:35:27,0,SWAPfront4,,2.88,,true,0,0,0,0,null,0,1,0,brander-desktop,0,0
03:35:28,0,SWAPcache,,0.01,,true,0,0,0,0,null,0,1,0,brander-desktop,0,0
03:35:29,0,SWAPstatic,,0.0,,true,0,0,0,0,null,0,1,0,brander-desktop,0,0
03:35:31,0,SWAPdb,,11.98,,true,0,0,0,0,null,0,1,0,brander-desktop,0,0
03:35:32,0,SWAPfront1,,1.56,,true,0,0,0,0,null,0,1,0,brander-desktop,0,0
03:35:33,0,SWAPfront2,,1.78,,true,0,0,0,0,null,0,1,0,brander-desktop,0,0
03:35:34,0,SWAPfront3,,0.0,,true,0,0,0,0,null,0,1,0,brander-desktop,0,0
03:35:35,0,SWAPfront4,,2.88,,true,0,0,0,0,null,0,1,0,brander-desktop,0,0
03:35:36,0,SWAPcache,,0.01,,true,0,0,0,0,null,0,1,0,brander-desktop,0,0
03:35:37,0,SWAPstatic,,0.0,,true,0,0,0,0,null,0,1,0,brander-desktop,0,0
03:35:38,0,SWAPdb,,11.98,,true,0,0,0,0,null,0,1,0,brander-desktop,0,0
03:35:39,0,SWAPfront1,,1.56,,true,0,0,0,0,null,0,1,0,brander-desktop,0,0
03:35:41,0,SWAPfront2,,1.78,,true,0,0,0,0,null,0,1,0,brander-desktop,0,0
03:35:42,0,SWAPfront3,,0.0,,true,0,0,0,0,null,0,1,0,brander-desktop,0,0
03:35:43,0,SWAPfront4,,2.88,,true,0,0,0,0,null,0,1,0,brander-desktop,0,0
03:35:44,0,SWAPcache,,0.01,,true,0,0,0,0,null,0,1,0,brander-desktop,0,0
03:35:45,0,SWAPstatic,,0.0,,true,0,0,0,0,null,0,1,0,brander-desktop,0,0
03:35:46,0,SWAPdb,,11.98,,true,0,0,0,0,null,0,1,0,brander-desktop,0,0
03:35:47,0,SWAPfront1,,1.56,,true,0,0,0,0,null,0,1,0,brander-desktop,0,0
03:35:48,0,SWAPfront2,,1.78,,true,0,0,0,0,null,0,1,0,brander-desktop,0,0
03:35:49,0,SWAPfront3,,0.0,,true,0,0,0,0,null,0,1,0,brander-desktop,0,0
03:35:50,0,SWAPfront4,,2.88,,true,0,0,0,0,null,0,1,0,brander-desktop,0,0
03:35:51,0,SWAPcache,,0.01,,true,0,0,0,0,null,0,1,0,brander-desktop,0,0
03:35:53,0,SWAPstatic,,0.0,,true,0,0,0,0,null,0,1,0,brander-desktop,0,0
03:35:54,0,SWAPdb,,11.98,,true,0,0,0,0,null,0,1,0,brander-desktop,0,0
03:35:55,0,SWAPfront1,,1.56,,true,0,0,0,0,null,0,1,0,brander-desktop,0,0
03:35:56,0,SWAPfront2,,1.78,,true,0,0,0,0,null,0,1,0,brander-desktop,0,0
03:35:57,0,SWAPfront3,,0.0,,true,0,0,0,0,null,0,1,0,brander-desktop,0,0
03:35:58,0,SWAPfront4,,2.88,,true,0,0,0,0,null,0,1,0,brander-desktop,0,0
03:35:59,0,SWAPcache,,0.01,,true,0,0,0,0,null,0,1,0,brander-desktop,0,0
03:36:00,0,SWAPstatic,,0.0,,true,0,0,0,0,null,0,1,0,brander-desktop,0,0
03:36:01,0,SWAPdb,,11.98,,true,0,0,0,0,null,0,1,0,brander-desktop,0,0
03:36:03,0,SWAPfront1,,1.56,,true,0,0,0,0,null,0,1,0,brander-desktop,0,0
03:36:04,0,SWAPfront2,,1.78,,true,0,0,0,0,null,0,1,0,brander-desktop,0,0
03:36:05,0,SWAPfront3,,0.0,,true,0,0,0,0,null,0,1,0,brander-desktop,0,0
03:36:06,0,SWAPfront4,,2.88,,true,0,0,0,0,null,0,1,0,brander-desktop,0,0
03:36:07,0,SWAPcache,,0.01,,true,0,0,0,0,null,0,1,0,brander-desktop,0,0
03:36:08,0,SWAPstatic,,0.0,,true,0,0,0,0,null,0,1,0,brander-desktop,0,0
03:36:09,0,SWAPdb,,11.98,,true,0,0,0,0,null,0,1,0,brander-desktop,0,0
03:36:10,0,SWAPfront1,,1.56,,true,0,0,0,0,null,0,1,0,brander-desktop,0,0
03:36:11,0,SWAPfront2,,1.78,,true,0,0,0,0,null,0,1,0,brander-desktop,0,0
03:36:12,0,SWAPfront3,,0.0,,true,0,0,0,0,null,0,1,0,brander-desktop,0,0
03:36:14,0,SWAPfront4,,2.88,,true,0,0,0,0,null,0,1,0,brander-desktop,0,0
03:36:15,0,SWAPcache,,0.01,,true,0,0,0,0,null,0,1,0,brander-desktop,0,0
03:36:16,0,SWAPstatic,,0.0,,true,0,0,0,0,null,0,1,0,brander-desktop,0,0
03:36:17,0,SWAPdb,,11.98,,true,0,0,0,0,null,0,1,0,brander-desktop,0,0
03:36:18,0,SWAPfront1,,1.56,,true,0,0,0,0,null,0,1,0,brander-desktop,0,0
03:36:19,0,SWAPfront2,,1.78,,true,0,0,0,0,null,0,1,0,brander-desktop,0,0
03:36:20,0,SWAPfront3,,0.0,,true,0,0,0,0,null,0,1,0,brander-desktop,0,0
03:36:21,0,SWAPfront4,,2.88,,true,0,0,0,0,null,0,1,0,brander-desktop,0,0
03:36:22,0,SWAPcache,,0.01,,true,0,0,0,0,null,0,1,0,brander-desktop,0,0
03:36:24,0,SWAPstatic,,0.0,,true,0,0,0,0,null,0,1,0,brander-desktop,0,0
03:36:25,0,SWAPdb,,11.98,,true,0,0,0,0,null,0,1,0,brander-desktop,0,0
03:36:26,0,SWAPfront1,,1.56,,true,0,0,0,0,null,0,1,0,brander-desktop,0,0
03:36:27,0,SWAPfront2,,1.78,,true,0,0,0,0,null,0,1,0,brander-desktop,0,0
03:36:28,0,SWAPfront3,,0.0,,true,0,0,0,0,null,0,1,0,brander-desktop,0,0
03:36:29,0,SWAPfront4,,2.88,,true,0,0,0,0,null,0,1,0,brander-desktop,0,0
03:36:30,0,SWAPcache,,0.01,,true,0,0,0,0,null,0,1,0,brander-desktop,0,0
03:36:31,0,SWAPstatic,,0.0,,true,0,0,0,0,null,0,1,0,brander-desktop,0,0
03:36:32,0,SWAPdb,,11.98,,true,0,0,0,0,null,0,1,0,brander-desktop,0,0
03:36:33,0,SWAPfront1,,1.56,,true,0,0,0,0,null,0,1,0,brander-desktop,0,0
03:36:35,0,SWAPfront2,,1.78,,true,0,0,0,0,null,0,1,0,brander-desktop,0,0
03:36:36,0,SWAPfront3,,0.0,,true,0,0,0,0,null,0,1,0,brander-desktop,0,0
03:36:37,0,SWAPfront4,,2.88,,true,0,0,0,0,null,0,1,0,brander-desktop,0,0
03:36:38,0,SWAPcache,,0.01,,true,0,0,0,0,null,0,1,0,brander-desktop,0,0
03:36:44,0,SWAPstatic,,0.0,,true,0,0,0,0,null,0,1,0,brander-desktop,0,0
03:36:45,0,SWAPdb,,11.98,,true,0,0,0,0,null,0,1,0,brander-desktop,0,0
03:36:46,0,SWAPfront1,,1.56,,true,0,0,0,0,null,0,1,0,brander-desktop,0,0
03:36:48,0,SWAPfront2,,1.78,,true,0,0,0,0,null,0,1,0,brander-desktop,0,0
03:36:50,0,SWAPfront3,,0.0,,true,0,0,0,0,null,0,1,0,brander-desktop,0,0
03:36:51,0,SWAPfront4,,2.88,,true,0,0,0,0,null,0,1,0,brander-desktop,0,0
03:36:53,0,SWAPcache,,0.01,,true,0,0,0,0,null,0,1,0,brander-desktop,0,0
03:36:54,0,SWAPstatic,,0.0,,true,0,0,0,0,null,0,1,0,brander-desktop,0,0
03:36:56,0,SWAPdb,,11.98,,true,0,0,0,0,null,0,1,0,brander-desktop,0,0
03:36:57,0,SWAPfront1,,1.56,,true,0,0,0,0,null,0,1,0,brander-desktop,0,0
03:36:59,0,SWAPfront2,,1.78,,true,0,0,0,0,null,0,1,0,brander-desktop,0,0
03:37:00,0,SWAPfront3,,0.0,,true,0,0,0,0,null,0,1,0,brander-desktop,0,0
03:37:01,0,SWAPfront4,,2.88,,true,0,0,0,0,null,0,1,0,brander-desktop,0,0
03:37:03,0,SWAPcache,,0.01,,true,0,0,0,0,null,0,1,0,brander-desktop,0,0
03:37:04,0,SWAPstatic,,0.0,,true,0,0,0,0,null,0,1,0,brander-desktop,0,0
03:37:05,0,SWAPdb,,11.98,,true,0,0,0,0,null,0,1,0,brander-desktop,0,0
03:37:06,0,SWAPfront1,,1.56,,true,0,0,0,0,null,0,1,0,brander-desktop,0,0
03:37:08,0,SWAPfront2,,1.78,,true,0,0,0,0,null,0,1,0,brander-desktop,0,0
03:37:09,0,SWAPfront3,,0.0,,true,0,0,0,0,null,0,1,0,brander-desktop,0,0
03:37:10,0,SWAPfront4,,2.88,,true,0,0,0,0,null,0,1,0,brander-desktop,0,0
03:37:11,0,SWAPcache,,0.01,,true,0,0,0,0,null,0,1,0,brander-desktop,0,0
03:37:12,0,SWAPstatic,,0.0,,true,0,0,0,0,null,0,1,0,brander-desktop,0,0
03:37:13,0,SWAPdb,,11.98,,true,0,0,0,0,null,0,1,0,brander-desktop,0,0
03:37:15,0,SWAPfront1,,1.56,,true,0,0,0,0,null,0,1,0,brander-desktop,0,0
03:37:16,0,SWAPfront2,,1.78,,true,0,0,0,0,null,0,1,0,brander-desktop,0,0
03:37:17,0,SWAPfront3,,0.0,,true,0,0,0,0,null,0,1,0,brander-desktop,0,0
03:37:18,0,SWAPfront4,,2.88,,true,0,0,0,0,null,0,1,0,brander-desktop,0,0
03:37:19,0,SWAPcache,,0.01,,true,0,0,0,0,null,0,1,0,brander-desktop,0,0
03:37:20,0,SWAPstatic,,0.0,,true,0,0,0,0,null,0,1,0,brander-desktop,0,0
03:37:22,0,SWAPdb,,11.98,,true,0,0,0,0,null,0,1,0,brander-desktop,0,0
03:37:23,0,SWAPfront1,,1.56,,true,0,0,0,0,null,0,1,0,brander-desktop,0,0
03:37:24,0,SWAPfront2,,1.78,,true,0,0,0,0,null,0,1,0,brander-desktop,0,0
03:37:25,0,SWAPfront3,,0.0,,true,0,0,0,0,null,0,1,0,brander-desktop,0,0
03:37:26,0,SWAPfront4,,2.88,,true,0,0,0,0,null,0,1,0,brander-desktop,0,0
03:37:27,0,SWAPcache,,0.01,,true,0,0,0,0,null,0,1,0,brander-desktop,0,0
03:37:28,0,SWAPstatic,,0.0,,true,0,0,0,0,null,0,1,0,brander-desktop,0,0
03:37:30,0,SWAPdb,,11.98,,true,0,0,0,0,null,0,1,0,brander-desktop,0,0
03:37:31,0,SWAPfront1,,1.56,,true,0,0,0,0,null,0,1,0,brander-desktop,0,0
03:37:32,0,SWAPfront2,,1.78,,true,0,0,0,0,null,0,1,0,brander-desktop,0,0
03:37:33,0,SWAPfront3,,0.0,,true,0,0,0,0,null,0,1,0,brander-desktop,0,0
03:37:34,0,SWAPfront4,,2.88,,true,0,0,0,0,null,0,1,0,brander-desktop,0,0
03:37:36,0,SWAPcache,,0.01,,true,0,0,0,0,null,0,1,0,brander-desktop,0,0
03:37:37,0,SWAPstatic,,0.0,,true,0,0,0,0,null,0,1,0,brander-desktop,0,0
03:37:38,0,SWAPdb,,11.98,,true,0,0,0,0,null,0,1,0,brander-desktop,0,0
03:37:39,0,SWAPfront1,,1.56,,true,0,0,0,0,null,0,1,0,brander-desktop,0,0
03:37:40,0,SWAPfront2,,1.78,,true,0,0,0,0,null,0,1,0,brander-desktop,0,0
03:37:41,0,SWAPfront3,,0.0,,true,0,0,0,0,null,0,1,0,brander-desktop,0,0
03:37:42,0,SWAPfront4,,2.88,,true,0,0,0,0,null,0,1,0,brander-desktop,0,0
03:37:43,0,SWAPcache,,0.01,,true,0,0,0,0,null,0,1,0,brander-desktop,0,0
03:37:45,0,SWAPstatic,,0.0,,true,0,0,0,0,null,0,1,0,brander-desktop,0,0
03:37:46,0,SWAPdb,,11.98,,true,0,0,0,0,null,0,1,0,brander-desktop,0,0
03:37:47,0,SWAPfront1,,1.56,,true,0,0,0,0,null,0,1,0,brander-desktop,0,0
03:37:48,0,SWAPfront2,,1.78,,true,0,0,0,0,null,0,1,0,brander-desktop,0,0
03:37:49,0,SWAPfront3,,0.0,,true,0,0,0,0,null,0,1,0,brander-desktop,0,0
03:37:50,0,SWAPfront4,,2.88,,true,0,0,0,0,null,0,1,0,brander-desktop,0,0
03:37:51,0,SWAPcache,,0.01,,true,0,0,0,0,null,0,1,0,brander-desktop,0,0
03:37:53,0,SWAPstatic,,0.0,,true,0,0,0,0,null,0,1,0,brander-desktop,0,0
03:37:54,0,SWAPdb,,11.98,,true,0,0,0,0,null,0,1,0,brander-desktop,0,0
03:37:55,0,SWAPfront1,,1.56,,true,0,0,0,0,null,0,1,0,brander-desktop,0,0
03:37:56,0,SWAPfront2,,1.78,,true,0,0,0,0,null,0,1,0,brander-desktop,0,0
03:37:57,0,SWAPfront3,,0.0,,true,0,0,0,0,null,0,1,0,brander-desktop,0,0
03:37:58,0,SWAPfront4,,2.88,,true,0,0,0,0,null,0,1,0,brander-desktop,0,0
03:38:00,0,SWAPcache,,0.01,,true,0,0,0,0,null,0,1,0,brander-desktop,0,0
03:38:01,0,SWAPstatic,,0.0,,true,0,0,0,0,null,0,1,0,brander-desktop,0,0
03:38:02,0,SWAPdb,,11.98,,true,0,0,0,0,null,0,1,0,brander-desktop,0,0
03:38:03,0,SWAPfront1,,1.56,,true,0,0,0,0,null,0,1,0,brander-desktop,0,0
03:38:04,0,SWAPfront2,,1.78,,true,0,0,0,0,null,0,1,0,brander-desktop,0,0
03:38:05,0,SWAPfront3,,0.0,,true,0,0,0,0,null,0,1,0,brander-desktop,0,0
03:38:06,0,SWAPfront4,,2.88,,true,0,0,0,0,null,0,1,0,brander-desktop,0,0
03:38:07,0,SWAPcache,,0.01,,true,0,0,0,0,null,0,1,0,brander-desktop,0,0
03:38:08,0,SWAPstatic,,0.0,,true,0,0,0,0,null,0,1,0,brander-desktop,0,0
03:38:10,0,SWAPdb,,11.98,,true,0,0,0,0,null,0,1,0,brander-desktop,0,0
03:38:11,0,SWAPfront1,,1.56,,true,0,0,0,0,null,0,1,0,brander-desktop,0,0
03:38:12,0,SWAPfront2,,1.78,,true,0,0,0,0,null,0,1,0,brander-desktop,0,0
03:38:13,0,SWAPfront3,,0.0,,true,0,0,0,0,null,0,1,0,brander-desktop,0,0
03:38:14,0,SWAPfront4,,2.88,,true,0,0,0,0,null,0,1,0,brander-desktop,0,0
03:38:15,0,SWAPcache,,0.01,,true,0,0,0,0,null,0,1,0,brander-desktop,0,0
03:38:16,0,SWAPstatic,,0.0,,true,0,0,0,0,null,0,1,0,brander-desktop,0,0
03:38:17,0,SWAPdb,,11.98,,true,0,0,0,0,null,0,1,0,brander-desktop,0,0
03:38:18,0,SWAPfront1,,1.56,,true,0,0,0,0,null,0,1,0,brander-desktop,0,0
03:38:20,0,SWAPfront2,,1.78,,true,0,0,0,0,null,0,1,0,brander-desktop,0,0
03:38:21,0,SWAPfront3,,0.0,,true,0,0,0,0,null,0,1,0,brander-desktop,0,0
03:38:22,0,SWAPfront4,,2.88,,true,0,0,0,0,null,0,1,0,brander-desktop,0,0
03:38:23,0,SWAPcache,,0.01,,true,0,0,0,0,null,0,1,0,brander-desktop,0,0
03:38:24,0,SWAPstatic,,0.0,,true,0,0,0,0,null,0,1,0,brander-desktop,0,0
03:38:25,0,SWAPdb,,11.98,,true,0,0,0,0,null,0,1,0,brander-desktop,0,0
03:38:27,0,SWAPfront1,,1.56,,true,0,0,0,0,null,0,1,0,brander-desktop,0,0
03:38:28,0,SWAPfront2,,1.78,,true,0,0,0,0,null,0,1,0,brander-desktop,0,0
03:38:29,0,SWAPfront3,,0.0,,true,0,0,0,0,null,0,1,0,brander-desktop,0,0
03:38:30,0,SWAPfront4,,2.88,,true,0,0,0,0,null,0,1,0,brander-desktop,0,0
03:38:31,0,SWAPcache,,0.01,,true,0,0,0,0,null,0,1,0,brander-desktop,0,0
03:38:32,0,SWAPstatic,,0.0,,true,0,0,0,0,null,0,1,0,brander-desktop,0,0
03:38:33,0,SWAPdb,,11.98,,true,0,0,0,0,null,0,1,0,brander-desktop,0,0
03:38:35,0,SWAPfront1,,1.56,,true,0,0,0,0,null,0,1,0,brander-desktop,0,0
03:38:36,0,SWAPfront2,,1.78,,true,0,0,0,0,null,0,1,0,brander-desktop,0,0
03:38:37,0,SWAPfront3,,0.0,,true,0,0,0,0,null,0,1,0,brander-desktop,0,0
03:38:38,0,SWAPfront4,,2.88,,true,0,0,0,0,null,0,1,0,brander-desktop,0,0
03:38:39,0,SWAPcache,,0.01,,true,0,0,0,0,null,0,1,0,brander-desktop,0,0
03:38:40,0,SWAPstatic,,0.0,,true,0,0,0,0,null,0,1,0,brander-desktop,0,0
03:38:41,0,SWAPdb,,11.98,,true,0,0,0,0,null,0,1,0,brander-desktop,0,0
03:38:43,0,SWAPfront1,,1.56,,true,0,0,0,0,null,0,1,0,brander-desktop,0,0
03:38:44,0,SWAPfront2,,1.78,,true,0,0,0,0,null,0,1,0,brander-desktop,0,0
03:38:45,0,SWAPfront3,,0.0,,true,0,0,0,0,null,0,1,0,brander-desktop,0,0
03:38:46,0,SWAPfront4,,2.88,,true,0,0,0,0,null,0,1,0,brander-desktop,0,0
03:38:47,0,SWAPcache,,0.01,,true,0,0,0,0,null,0,1,0,brander-desktop,0,0
03:38:48,0,SWAPstatic,,0.0,,true,0,0,0,0,null,0,1,0,brander-desktop,0,0
03:38:49,0,SWAPdb,,11.98,,true,0,0,0,0,null,0,1,0,brander-desktop,0,0
03:38:50,0,SWAPfront1,,1.56,,true,0,0,0,0,null,0,1,0,brander-desktop,0,0
03:38:51,0,SWAPfront2,,1.78,,true,0,0,0,0,null,0,1,0,brander-desktop,0,0
03:38:53,0,SWAPfront3,,0.0,,true,0,0,0,0,null,0,1,0,brander-desktop,0,0
03:38:54,0,SWAPfront4,,2.88,,true,0,0,0,0,null,0,1,0,brander-desktop,0,0
03:38:55,0,SWAPcache,,0.01,,true,0,0,0,0,null,0,1,0,brander-desktop,0,0
03:38:56,0,SWAPstatic,,0.0,,true,0,0,0,0,null,0,1,0,brander-desktop,0,0
03:38:57,0,SWAPdb,,11.98,,true,0,0,0,0,null,0,1,0,brander-desktop,0,0
03:38:58,0,SWAPfront1,,1.56,,true,0,0,0,0,null,0,1,0,brander-desktop,0,0
03:39:00,0,SWAPfront2,,1.78,,true,0,0,0,0,null,0,1,0,brander-desktop,0,0
03:39:01,0,SWAPfront3,,0.0,,true,0,0,0,0,null,0,1,0,brander-desktop,0,0
03:39:02,0,SWAPfront4,,2.88,,true,0,0,0,0,null,0,1,0,brander-desktop,0,0
03:39:03,0,SWAPcache,,0.01,,true,0,0,0,0,null,0,1,0,brander-desktop,0,0
03:39:04,0,SWAPstatic,,0.0,,true,0,0,0,0,null,0,1,0,brander-desktop,0,0
03:39:05,0,SWAPdb,,11.98,,true,0,0,0,0,null,0,1,0,brander-desktop,0,0
03:39:06,0,SWAPfront1,,1.56,,true,0,0,0,0,null,0,1,0,brander-desktop,0,0
03:39:08,0,SWAPfront2,,1.78,,true,0,0,0,0,null,0,1,0,brander-desktop,0,0
03:39:09,0,SWAPfront3,,0.0,,true,0,0,0,0,null,0,1,0,brander-desktop,0,0
03:39:10,0,SWAPfront4,,2.88,,true,0,0,0,0,null,0,1,0,brander-desktop,0,0
03:39:11,0,SWAPcache,,0.01,,true,0,0,0,0,null,0,1,0,brander-desktop,0,0
03:39:12,0,SWAPstatic,,0.0,,true,0,0,0,0,null,0,1,0,brander-desktop,0,0
03:39:13,0,SWAPdb,,11.98,,true,0,0,0,0,null,0,1,0,brander-desktop,0,0
03:39:14,0,SWAPfront1,,1.56,,true,0,0,0,0,null,0,1,0,brander-desktop,0,0
03:39:15,0,SWAPfront2,,1.78,,true,0,0,0,0,null,0,1,0,brander-desktop,0,0
03:39:17,0,SWAPfront3,,0.0,,true,0,0,0,0,null,0,1,0,brander-desktop,0,0
03:39:18,0,SWAPfront4,,2.88,,true,0,0,0,0,null,0,1,0,brander-desktop,0,0
03:39:19,0,SWAPcache,,0.01,,true,0,0,0,0,null,0,1,0,brander-desktop,0,0
03:39:20,0,SWAPstatic,,0.0,,true,0,0,0,0,null,0,1,0,brander-desktop,0,0
03:39:21,0,SWAPdb,,11.98,,true,0,0,0,0,null,0,1,0,brander-desktop,0,0
03:39:22,0,SWAPfront1,,1.56,,true,0,0,0,0,null,0,1,0,brander-desktop,0,0
03:39:23,0,SWAPfront2,,1.78,,true,0,0,0,0,null,0,1,0,brander-desktop,0,0
03:39:24,0,SWAPfront3,,0.0,,true,0,0,0,0,null,0,1,0,brander-desktop,0,0
03:39:26,0,SWAPfront4,,2.88,,true,0,0,0,0,null,0,1,0,brander-desktop,0,0
03:39:27,0,SWAPcache,,0.01,,true,0,0,0,0,null,0,1,0,brander-desktop,0,0
03:39:28,0,SWAPstatic,,0.0,,true,0,0,0,0,null,0,1,0,brander-desktop,0,0
03:39:29,0,SWAPdb,,11.98,,true,0,0,0,0,null,0,1,0,brander-desktop,0,0
03:39:30,0,SWAPfront1,,1.56,,true,0,0,0,0,null,0,1,0,brander-desktop,0,0
03:39:31,0,SWAPfront2,,1.78,,true,0,0,0,0,null,0,1,0,brander-desktop,0,0
03:39:32,0,SWAPfront3,,0.0,,true,0,0,0,0,null,0,1,0,brander-desktop,0,0
03:39:33,0,SWAPfront4,,2.88,,true,0,0,0,0,null,0,1,0,brander-desktop,0,0
03:39:35,0,SWAPcache,,0.01,,true,0,0,0,0,null,0,1,0,brander-desktop,0,0
03:39:36,0,SWAPstatic,,0.0,,true,0,0,0,0,null,0,1,0,brander-desktop,0,0
03:39:37,0,SWAPdb,,11.98,,true,0,0,0,0,null,0,1,0,brander-desktop,0,0
03:39:38,0,SWAPfront1,,1.56,,true,0,0,0,0,null,0,1,0,brander-desktop,0,0
03:39:39,0,SWAPfront2,,1.78,,true,0,0,0,0,null,0,1,0,brander-desktop,0,0
03:39:40,0,SWAPfront3,,0.0,,true,0,0,0,0,null,0,1,0,brander-desktop,0,0
03:39:42,0,SWAPfront4,,2.88,,true,0,0,0,0,null,0,1,0,brander-desktop,0,0
03:39:43,0,SWAPcache,,0.01,,true,0,0,0,0,null,0,1,0,brander-desktop,0,0
03:39:44,0,SWAPstatic,,0.0,,true,0,0,0,0,null,0,1,0,brander-desktop,0,0
03:39:45,0,SWAPdb,,11.98,,true,0,0,0,0,null,0,1,0,brander-desktop,0,0
03:39:46,0,SWAPfront1,,1.56,,true,0,0,0,0,null,0,1,0,brander-desktop,0,0
03:39:47,0,SWAPfront2,,1.78,,true,0,0,0,0,null,0,1,0,brander-desktop,0,0
03:39:48,0,SWAPfront3,,0.0,,true,0,0,0,0,null,0,1,0,brander-desktop,0,0
03:39:50,0,SWAPfront4,,2.88,,true,0,0,0,0,null,0,1,0,brander-desktop,0,0
03:39:51,0,SWAPcache,,0.01,,true,0,0,0,0,null,0,1,0,brander-desktop,0,0
03:39:52,0,SWAPstatic,,0.0,,true,0,0,0,0,null,0,1,0,brander-desktop,0,0
03:39:53,0,SWAPdb,,11.98,,true,0,0,0,0,null,0,1,0,brander-desktop,0,0
03:39:54,0,SWAPfront1,,1.56,,true,0,0,0,0,null,0,1,0,brander-desktop,0,0
03:39:55,0,SWAPfront2,,1.78,,true,0,0,0,0,null,0,1,0,brander-desktop,0,0
03:39:56,0,SWAPfront3,,0.0,,true,0,0,0,0,null,0,1,0,brander-desktop,0,0
03:39:57,0,SWAPfront4,,2.88,,true,0,0,0,0,null,0,1,0,brander-desktop,0,0
03:39:59,0,SWAPcache,,0.01,,true,0,0,0,0,null,0,1,0,brander-desktop,0,0
03:40:00,0,SWAPstatic,,0.0,,true,0,0,0,0,null,0,1,0,brander-desktop,0,0
03:40:01,0,SWAPdb,,11.98,,true,0,0,0,0,null,0,1,0,brander-desktop,0,0
03:40:02,0,SWAPfront1,,1.56,,true,0,0,0,0,null,0,1,0,brander-desktop,0,0
03:40:03,0,SWAPfront2,,1.78,,true,0,0,0,0,null,0,1,0,brander-desktop,0,0
03:40:04,0,SWAPfront3,,0.0,,true,0,0,0,0,null,0,1,0,brander-desktop,0,0
03:40:06,0,SWAPfront4,,2.88,,true,0,0,0,0,null,0,1,0,brander-desktop,0,0
03:40:07,0,SWAPcache,,0.01,,true,0,0,0,0,null,0,1,0,brander-desktop,0,0
03:40:08,0,SWAPstatic,,0.0,,true,0,0,0,0,null,0,1,0,brander-desktop,0,0
03:40:09,0,SWAPdb,,11.98,,true,0,0,0,0,null,0,1,0,brander-desktop,0,0
03:40:10,0,SWAPfront1,,1.56,,true,0,0,0,0,null,0,1,0,brander-desktop,0,0
03:40:11,0,SWAPfront2,,1.78,,true,0,0,0,0,null,0,1,0,brander-desktop,0,0
03:40:12,0,SWAPfront3,,0.0,,true,0,0,0,0,null,0,1,0,brander-desktop,0,0
03:40:13,0,SWAPfront4,,2.88,,true,0,0,0,0,null,0,1,0,brander-desktop,0,0
03:40:15,0,SWAPcache,,0.01,,true,0,0,0,0,null,0,1,0,brander-desktop,0,0
03:40:16,0,SWAPstatic,,0.0,,true,0,0,0,0,null,0,1,0,brander-desktop,0,0
03:40:17,0,SWAPdb,,11.98,,true,0,0,0,0,null,0,1,0,brander-desktop,0,0
03:40:18,0,SWAPfront1,,1.56,,true,0,0,0,0,null,0,1,0,brander-desktop,0,0
03:40:19,0,SWAPfront2,,1.78,,true,0,0,0,0,null,0,1,0,brander-desktop,0,0
03:40:20,0,SWAPfront3,,0.0,,true,0,0,0,0,null,0,1,0,brander-desktop,0,0
03:40:21,0,SWAPfront4,,2.88,,true,0,0,0,0,null,0,1,0,brander-desktop,0,0
03:40:22,0,SWAPcache,,0.01,,true,0,0,0,0,null,0,1,0,brander-desktop,0,0
03:40:24,0,SWAPstatic,,0.0,,true,0,0,0,0,null,0,1,0,brander-desktop,0,0
03:40:25,0,SWAPdb,,11.98,,true,0,0,0,0,null,0,1,0,brander-desktop,0,0
03:40:26,0,SWAPfront1,,1.56,,true,0,0,0,0,null,0,1,0,brander-desktop,0,0
03:40:27,0,SWAPfront2,,1.78,,true,0,0,0,0,null,0,1,0,brander-desktop,0,0
03:40:28,0,SWAPfront3,,0.0,,true,0,0,0,0,null,0,1,0,brander-desktop,0,0
03:40:29,0,SWAPfront4,,2.88,,true,0,0,0,0,null,0,1,0,brander-desktop,0,0
03:40:30,0,SWAPcache,,0.01,,true,0,0,0,0,null,0,1,0,brander-desktop,0,0
03:40:31,0,SWAPstatic,,0.0,,true,0,0,0,0,null,0,1,0,brander-desktop,0,0
03:40:33,0,SWAPdb,,11.98,,true,0,0,0,0,null,0,1,0,brander-desktop,0,0
03:40:34,0,SWAPfront1,,1.56,,true,0,0,0,0,null,0,1,0,brander-desktop,0,0
03:40:35,0,SWAPfront2,,1.78,,true,0,0,0,0,null,0,1,0,brander-desktop,0,0
03:40:36,0,SWAPfront3,,0.0,,true,0,0,0,0,null,0,1,0,brander-desktop,0,0
03:40:37,0,SWAPfront4,,2.88,,true,0,0,0,0,null,0,1,0,brander-desktop,0,0
03:40:38,0,SWAPcache,,0.01,,true,0,0,0,0,null,0,1,0,brander-desktop,0,0
03:40:39,0,SWAPstatic,,0.0,,true,0,0,0,0,null,0,1,0,brander-desktop,0,0
03:40:40,0,SWAPdb,,11.98,,true,0,0,0,0,null,0,1,0,brander-desktop,0,0
03:40:42,0,SWAPfront1,,1.56,,true,0,0,0,0,null,0,1,0,brander-desktop,0,0
03:40:43,0,SWAPfront2,,1.78,,true,0,0,0,0,null,0,1,0,brander-desktop,0,0
03:40:44,0,SWAPfront3,,0.0,,true,0,0,0,0,null,0,1,0,brander-desktop,0,0
03:40:45,0,SWAPfront4,,2.88,,true,0,0,0,0,null,0,1,0,brander-desktop,0,0
03:40:46,0,SWAPcache,,0.01,,true,0,0,0,0,null,0,1,0,brander-desktop,0,0
03:40:47,0,SWAPstatic,,0.0,,true,0,0,0,0,null,0,1,0,brander-desktop,0,0
03:40:48,0,SWAPdb,,11.98,,true,0,0,0,0,null,0,1,0,brander-desktop,0,0
03:40:50,0,SWAPfront1,,1.56,,true,0,0,0,0,null,0,1,0,brander-desktop,0,0
03:40:51,0,SWAPfront2,,1.78,,true,0,0,0,0,null,0,1,0,brander-desktop,0,0
03:40:52,0,SWAPfront3,,0.0,,true,0,0,0,0,null,0,1,0,brander-desktop,0,0
03:40:53,0,SWAPfront4,,2.88,,true,0,0,0,0,null,0,1,0,brander-desktop,0,0
03:40:54,0,SWAPcache,,0.01,,true,0,0,0,0,null,0,1,0,brander-desktop,0,0
03:40:55,0,SWAPstatic,,0.0,,true,0,0,0,0,null,0,1,0,brander-desktop,0,0
03:40:56,0,SWAPdb,,11.98,,true,0,0,0,0,null,0,1,0,brander-desktop,0,0
03:40:58,0,SWAPfront1,,1.56,,true,0,0,0,0,null,0,1,0,brander-desktop,0,0
03:40:59,0,SWAPfront2,,1.78,,true,0,0,0,0,null,0,1,0,brander-desktop,0,0
03:41:00,0,SWAPfront3,,0.0,,true,0,0,0,0,null,0,1,0,brander-desktop,0,0
03:41:01,0,SWAPfront4,,2.88,,true,0,0,0,0,null,0,1,0,brander-desktop,0,0
03:41:02,0,SWAPcache,,0.01,,true,0,0,0,0,null,0,1,0,brander-desktop,0,0
03:41:03,0,SWAPstatic,,0.0,,true,0,0,0,0,null,0,1,0,brander-desktop,0,0
03:41:04,0,SWAPdb,,11.98,,true,0,0,0,0,null,0,1,0,brander-desktop,0,0
03:41:05,0,SWAPfront1,,1.56,,true,0,0,0,0,null,0,1,0,brander-desktop,0,0
03:41:06,0,SWAPfront2,,1.78,,true,0,0,0,0,null,0,1,0,brander-desktop,0,0
03:41:08,0,SWAPfront3,,0.0,,true,0,0,0,0,null,0,1,0,brander-desktop,0,0
03:41:09,0,SWAPfront4,,2.88,,true,0,0,0,0,null,0,1,0,brander-desktop,0,0
03:41:10,0,SWAPcache,,0.01,,true,0,0,0,0,null,0,1,0,brander-desktop,0,0
03:41:11,0,SWAPstatic,,0.0,,true,0,0,0,0,null,0,1,0,brander-desktop,0,0
03:41:12,0,SWAPdb,,11.98,,true,0,0,0,0,null,0,1,0,brander-desktop,0,0
03:41:13,0,SWAPfront1,,1.56,,true,0,0,0,0,null,0,1,0,brander-desktop,0,0
03:41:14,0,SWAPfront2,,1.78,,true,0,0,0,0,null,0,1,0,brander-desktop,0,0
03:41:15,0,SWAPfront3,,0.0,,true,0,0,0,0,null,0,1,0,brander-desktop,0,0
03:41:16,0,SWAPfront4,,2.88,,true,0,0,0,0,null,0,1,0,brander-desktop,0,0
03:41:17,0,SWAPcache,,0.01,,true,0,0,0,0,null,0,1,0,brander-desktop,0,0
03:41:19,0,SWAPstatic,,0.0,,true,0,0,0,0,null,0,1,0,brander-desktop,0,0
03:41:20,0,SWAPdb,,11.98,,true,0,0,0,0,null,0,1,0,brander-desktop,0,0
03:41:21,0,SWAPfront1,,1.56,,true,0,0,0,0,null,0,1,0,brander-desktop,0,0
03:41:22,0,SWAPfront2,,1.78,,true,0,0,0,0,null,0,1,0,brander-desktop,0,0
03:41:23,0,SWAPfront3,,0.0,,true,0,0,0,0,null,0,1,0,brander-desktop,0,0
03:41:24,0,SWAPfront4,,2.88,,true,0,0,0,0,null,0,1,0,brander-desktop,0,0
03:41:26,0,SWAPcache,,0.01,,true,0,0,0,0,null,0,1,0,brander-desktop,0,0
03:41:27,0,SWAPstatic,,0.0,,true,0,0,0,0,null,0,1,0,brander-desktop,0,0
03:41:28,0,SWAPdb,,11.98,,true,0,0,0,0,null,0,1,0,brander-desktop,0,0
03:41:29,0,SWAPfront1,,1.56,,true,0,0,0,0,null,0,1,0,brander-desktop,0,0
03:41:30,0,SWAPfront2,,1.78,,true,0,0,0,0,null,0,1,0,brander-desktop,0,0
03:41:31,0,SWAPfront3,,0.0,,true,0,0,0,0,null,0,1,0,brander-desktop,0,0
03:41:32,0,SWAPfront4,,2.88,,true,0,0,0,0,null,0,1,0,brander-desktop,0,0
03:41:33,0,SWAPcache,,0.01,,true,0,0,0,0,null,0,1,0,brander-desktop,0,0
03:41:35,0,SWAPstatic,,0.0,,true,0,0,0,0,null,0,1,0,brander-desktop,0,0
03:41:36,0,SWAPdb,,11.98,,true,0,0,0,0,null,0,1,0,brander-desktop,0,0
03:41:37,0,SWAPfront1,,1.56,,true,0,0,0,0,null,0,1,0,brander-desktop,0,0
03:41:38,0,SWAPfront2,,1.78,,true,0,0,0,0,null,0,1,0,brander-desktop,0,0
03:41:39,0,SWAPfront3,,0.0,,true,0,0,0,0,null,0,1,0,brander-desktop,0,0
03:41:40,0,SWAPfront4,,2.88,,true,0,0,0,0,null,0,1,0,brander-desktop,0,0
03:41:41,0,SWAPcache,,0.01,,true,0,0,0,0,null,0,1,0,brander-desktop,0,0
03:41:42,0,SWAPstatic,,0.0,,true,0,0,0,0,null,0,1,0,brander-desktop,0,0
03:41:43,0,SWAPdb,,11.98,,true,0,0,0,0,null,0,1,0,brander-desktop,0,0
03:41:45,0,SWAPfront1,,1.56,,true,0,0,0,0,null,0,1,0,brander-desktop,0,0
03:41:46,0,SWAPfront2,,1.78,,true,0,0,0,0,null,0,1,0,brander-desktop,0,0
03:41:47,0,SWAPfront3,,0.0,,true,0,0,0,0,null,0,1,0,brander-desktop,0,0
03:41:48,0,SWAPfront4,,2.88,,true,0,0,0,0,null,0,1,0,brander-desktop,0,0
03:41:49,0,SWAPcache,,0.01,,true,0,0,0,0,null,0,1,0,brander-desktop,0,0
03:41:50,0,SWAPstatic,,0.0,,true,0,0,0,0,null,0,1,0,brander-desktop,0,0
03:41:51,0,SWAPdb,,11.98,,true,0,0,0,0,null,0,1,0,brander-desktop,0,0
03:41:52,0,SWAPfront1,,1.56,,true,0,0,0,0,null,0,1,0,brander-desktop,0,0
03:41:54,0,SWAPfront2,,1.78,,true,0,0,0,0,null,0,1,0,brander-desktop,0,0
03:41:55,0,SWAPfront3,,0.0,,true,0,0,0,0,null,0,1,0,brander-desktop,0,0
03:41:56,0,SWAPfront4,,2.88,,true,0,0,0,0,null,0,1,0,brander-desktop,0,0
03:41:57,0,SWAPcache,,0.01,,true,0,0,0,0,null,0,1,0,brander-desktop,0,0
03:41:58,0,SWAPstatic,,0.0,,true,0,0,0,0,null,0,1,0,brander-desktop,0,0
03:41:59,0,SWAPdb,,11.98,,true,0,0,0,0,null,0,1,0,brander-desktop,0,0
03:42:00,0,SWAPfront1,,1.56,,true,0,0,0,0,null,0,1,0,brander-desktop,0,0
03:42:01,0,SWAPfront2,,1.78,,true,0,0,0,0,null,0,1,0,brander-desktop,0,0
03:42:02,0,SWAPfront3,,0.0,,true,0,0,0,0,null,0,1,0,brander-desktop,0,0
03:42:04,0,SWAPfront4,,2.88,,true,0,0,0,0,null,0,1,0,brander-desktop,0,0
03:42:05,0,SWAPcache,,0.01,,true,0,0,0,0,null,0,1,0,brander-desktop,0,0
03:42:06,0,SWAPstatic,,0.0,,true,0,0,0,0,null,0,1,0,brander-desktop,0,0
03:42:07,0,SWAPdb,,11.98,,true,0,0,0,0,null,0,1,0,brander-desktop,0,0
03:42:08,0,SWAPfront1,,1.56,,true,0,0,0,0,null,0,1,0,brander-desktop,0,0
03:42:09,0,SWAPfront2,,1.78,,true,0,0,0,0,null,0,1,0,brander-desktop,0,0
03:42:10,0,SWAPfront3,,0.0,,true,0,0,0,0,null,0,1,0,brander-desktop,0,0
03:42:11,0,SWAPfront4,,2.88,,true,0,0,0,0,null,0,1,0,brander-desktop,0,0
03:42:12,0,SWAPcache,,0.01,,true,0,0,0,0,null,0,1,0,brander-desktop,0,0
03:42:14,0,SWAPstatic,,0.0,,true,0,0,0,0,null,0,1,0,brander-desktop,0,0
03:42:15,0,SWAPdb,,11.98,,true,0,0,0,0,null,0,1,0,brander-desktop,0,0
03:42:16,0,SWAPfront1,,1.56,,true,0,0,0,0,null,0,1,0,brander-desktop,0,0
03:42:17,0,SWAPfront2,,1.78,,true,0,0,0,0,null,0,1,0,brander-desktop,0,0
03:42:18,0,SWAPfront3,,0.0,,true,0,0,0,0,null,0,1,0,brander-desktop,0,0
03:42:19,0,SWAPfront4,,2.88,,true,0,0,0,0,null,0,1,0,brander-desktop,0,0
03:42:20,0,SWAPcache,,0.01,,true,0,0,0,0,null,0,1,0,brander-desktop,0,0
03:42:21,0,SWAPstatic,,0.0,,true,0,0,0,0,null,0,1,0,brander-desktop,0,0
03:42:23,0,SWAPdb,,11.98,,true,0,0,0,0,null,0,1,0,brander-desktop,0,0
03:42:24,0,SWAPfront1,,1.56,,true,0,0,0,0,null,0,1,0,brander-desktop,0,0
03:42:25,0,SWAPfront2,,1.78,,true,0,0,0,0,null,0,1,0,brander-desktop,0,0
03:42:26,0,SWAPfront3,,0.0,,true,0,0,0,0,null,0,1,0,brander-desktop,0,0
03:42:27,0,SWAPfront4,,2.88,,true,0,0,0,0,null,0,1,0,brander-desktop,0,0
03:42:28,0,SWAPcache,,0.01,,true,0,0,0,0,null,0,1,0,brander-desktop,0,0
03:42:29,0,SWAPstatic,,0.0,,true,0,0,0,0,null,0,1,0,brander-desktop,0,0
03:42:30,0,SWAPdb,,11.98,,true,0,0,0,0,null,0,1,0,brander-desktop,0,0
03:42:32,0,SWAPfront1,,1.56,,true,0,0,0,0,null,0,1,0,brander-desktop,0,0
03:42:33,0,SWAPfront2,,1.78,,true,0,0,0,0,null,0,1,0,brander-desktop,0,0
03:42:34,0,SWAPfront3,,0.0,,true,0,0,0,0,null,0,1,0,brander-desktop,0,0
03:42:35,0,SWAPfront4,,2.88,,true,0,0,0,0,null,0,1,0,brander-desktop,0,0
03:42:36,0,SWAPcache,,0.01,,true,0,0,0,0,null,0,1,0,brander-desktop,0,0
03:42:37,0,SWAPstatic,,0.0,,true,0,0,0,0,null,0,1,0,brander-desktop,0,0
03:42:38,0,SWAPdb,,11.98,,true,0,0,0,0,null,0,1,0,brander-desktop,0,0
03:42:39,0,SWAPfront1,,1.56,,true,0,0,0,0,null,0,1,0,brander-desktop,0,0
03:42:40,0,SWAPfront2,,1.78,,true,0,0,0,0,null,0,1,0,brander-desktop,0,0
03:42:41,0,SWAPfront3,,0.0,,true,0,0,0,0,null,0,1,0,brander-desktop,0,0
03:42:43,0,SWAPfront4,,2.88,,true,0,0,0,0,null,0,1,0,brander-desktop,0,0
03:42:44,0,SWAPcache,,0.01,,true,0,0,0,0,null,0,1,0,brander-desktop,0,0
03:42:45,0,SWAPstatic,,0.0,,true,0,0,0,0,null,0,1,0,brander-desktop,0,0
03:42:46,0,SWAPdb,,11.98,,true,0,0,0,0,null,0,1,0,brander-desktop,0,0
03:42:47,0,SWAPfront1,,1.56,,true,0,0,0,0,null,0,1,0,brander-desktop,0,0
03:42:48,0,SWAPfront2,,1.78,,true,0,0,0,0,null,0,1,0,brander-desktop,0,0
03:42:49,0,SWAPfront3,,0.0,,true,0,0,0,0,null,0,1,0,brander-desktop,0,0
03:42:51,0,SWAPfront4,,2.88,,true,0,0,0,0,null,0,1,0,brander-desktop,0,0
03:42:52,0,SWAPcache,,0.01,,true,0,0,0,0,null,0,1,0,brander-desktop,0,0
03:42:53,0,SWAPstatic,,0.0,,true,0,0,0,0,null,0,1,0,brander-desktop,0,0
03:42:54,0,SWAPdb,,11.98,,true,0,0,0,0,null,0,1,0,brander-desktop,0,0
03:42:55,0,SWAPfront1,,1.56,,true,0,0,0,0,null,0,1,0,brander-desktop,0,0
03:42:56,0,SWAPfront2,,1.78,,true,0,0,0,0,null,0,1,0,brander-desktop,0,0
03:42:57,0,SWAPfront3,,0.0,,true,0,0,0,0,null,0,1,0,brander-desktop,0,0
03:42:59,0,SWAPfront4,,2.88,,true,0,0,0,0,null,0,1,0,brander-desktop,0,0
03:43:00,0,SWAPcache,,0.01,,true,0,0,0,0,null,0,1,0,brander-desktop,0,0
03:43:01,0,SWAPstatic,,0.0,,true,0,0,0,0,null,0,1,0,brander-desktop,0,0
03:43:02,0,SWAPdb,,11.98,,true,0,0,0,0,null,0,1,0,brander-desktop,0,0
03:43:03,0,SWAPfront1,,1.56,,true,0,0,0,0,null,0,1,0,brander-desktop,0,0
03:43:04,0,SWAPfront2,,1.78,,true,0,0,0,0,null,0,1,0,brander-desktop,0,0
03:43:05,0,SWAPfront3,,0.0,,true,0,0,0,0,null,0,1,0,brander-desktop,0,0
03:43:06,0,SWAPfront4,,2.88,,true,0,0,0,0,null,0,1,0,brander-desktop,0,0
03:43:08,0,SWAPcache,,0.01,,true,0,0,0,0,null,0,1,0,brander-desktop,0,0
03:43:09,0,SWAPstatic,,0.0,,true,0,0,0,0,null,0,1,0,brander-desktop,0,0
03:43:10,0,SWAPdb,,11.98,,true,0,0,0,0,null,0,1,0,brander-desktop,0,0
03:43:11,0,SWAPfront1,,1.56,,true,0,0,0,0,null,0,1,0,brander-desktop,0,0
03:43:12,0,SWAPfront2,,1.78,,true,0,0,0,0,null,0,1,0,brander-desktop,0,0
03:43:13,0,SWAPfront3,,0.0,,true,0,0,0,0,null,0,1,0,brander-desktop,0,0
03:43:14,0,SWAPfront4,,2.88,,true,0,0,0,0,null,0,1,0,brander-desktop,0,0
03:43:16,0,SWAPcache,,0.01,,true,0,0,0,0,null,0,1,0,brander-desktop,0,0
03:43:17,0,SWAPstatic,,0.0,,true,0,0,0,0,null,0,1,0,brander-desktop,0,0
03:43:18,0,SWAPdb,,11.98,,true,0,0,0,0,null,0,1,0,brander-desktop,0,0
03:43:19,0,SWAPfront1,,1.56,,true,0,0,0,0,null,0,1,0,brander-desktop,0,0
03:43:20,0,SWAPfront2,,1.78,,true,0,0,0,0,null,0,1,0,brander-desktop,0,0
03:43:21,0,SWAPfront3,,0.0,,true,0,0,0,0,null,0,1,0,brander-desktop,0,0
03:43:23,0,SWAPfront4,,2.88,,true,0,0,0,0,null,0,1,0,brander-desktop,0,0
03:43:24,0,SWAPcache,,0.01,,true,0,0,0,0,null,0,1,0,brander-desktop,0,0
03:43:25,0,SWAPstatic,,0.0,,true,0,0,0,0,null,0,1,0,brander-desktop,0,0
03:43:26,0,SWAPdb,,11.98,,true,0,0,0,0,null,0,1,0,brander-desktop,0,0
03:43:27,0,SWAPfront1,,1.56,,true,0,0,0,0,null,0,1,0,brander-desktop,0,0
03:43:28,0,SWAPfront2,,1.78,,true,0,0,0,0,null,0,1,0,brander-desktop,0,0
03:43:29,0,SWAPfront3,,0.0,,true,0,0,0,0,null,0,1,0,brander-desktop,0,0
03:43:30,0,SWAPfront4,,2.88,,true,0,0,0,0,null,0,1,0,brander-desktop,0,0
03:43:32,0,SWAPcache,,0.01,,true,0,0,0,0,null,0,1,0,brander-desktop,0,0
03:43:33,0,SWAPstatic,,0.0,,true,0,0,0,0,null,0,1,0,brander-desktop,0,0
03:43:34,0,SWAPdb,,11.98,,true,0,0,0,0,null,0,1,0,brander-desktop,0,0
03:43:35,0,SWAPfront1,,1.56,,true,0,0,0,0,null,0,1,0,brander-desktop,0,0
03:43:36,0,SWAPfront2,,1.78,,true,0,0,0,0,null,0,1,0,brander-desktop,0,0
03:43:37,0,SWAPfront3,,0.0,,true,0,0,0,0,null,0,1,0,brander-desktop,0,0
03:43:38,0,SWAPfront4,,2.88,,true,0,0,0,0,null,0,1,0,brander-desktop,0,0
03:43:40,0,SWAPcache,,0.01,,true,0,0,0,0,null,0,1,0,brander-desktop,0,0
03:43:41,0,SWAPstatic,,0.0,,true,0,0,0,0,null,0,1,0,brander-desktop,0,0
03:43:42,0,SWAPdb,,11.98,,true,0,0,0,0,null,0,1,0,brander-desktop,0,0
03:43:43,0,SWAPfront1,,1.56,,true,0,0,0,0,null,0,1,0,brander-desktop,0,0
03:43:44,0,SWAPfront2,,1.78,,true,0,0,0,0,null,0,1,0,brander-desktop,0,0
03:43:45,0,SWAPfront3,,0.0,,true,0,0,0,0,null,0,1,0,brander-desktop,0,0
03:43:47,0,SWAPfront4,,2.88,,true,0,0,0,0,null,0,1,0,brander-desktop,0,0
03:43:48,0,SWAPcache,,0.01,,true,0,0,0,0,null,0,1,0,brander-desktop,0,0
03:43:49,0,SWAPstatic,,0.0,,true,0,0,0,0,null,0,1,0,brander-desktop,0,0
03:43:50,0,SWAPdb,,11.98,,true,0,0,0,0,null,0,1,0,brander-desktop,0,0
03:43:51,0,SWAPfront1,,1.56,,true,0,0,0,0,null,0,1,0,brander-desktop,0,0
03:43:52,0,SWAPfront2,,1.78,,true,0,0,0,0,null,0,1,0,brander-desktop,0,0
03:43:53,0,SWAPfront3,,0.0,,true,0,0,0,0,null,0,1,0,brander-desktop,0,0
03:43:54,0,SWAPfront4,,2.88,,true,0,0,0,0,null,0,1,0,brander-desktop,0,0
03:43:55,0,SWAPcache,,0.01,,true,0,0,0,0,null,0,1,0,brander-desktop,0,0
03:43:57,0,SWAPstatic,,0.0,,true,0,0,0,0,null,0,1,0,brander-desktop,0,0
03:43:58,0,SWAPdb,,11.98,,true,0,0,0,0,null,0,1,0,brander-desktop,0,0
03:43:59,0,SWAPfront1,,1.56,,true,0,0,0,0,null,0,1,0,brander-desktop,0,0
03:44:00,0,SWAPfront2,,1.78,,true,0,0,0,0,null,0,1,0,brander-desktop,0,0
03:44:01,0,SWAPfront3,,0.0,,true,0,0,0,0,null,0,1,0,brander-desktop,0,0
03:44:02,0,SWAPfront4,,2.88,,true,0,0,0,0,null,0,1,0,brander-desktop,0,0
03:44:04,0,SWAPcache,,0.01,,true,0,0,0,0,null,0,1,0,brander-desktop,0,0
03:44:05,0,SWAPstatic,,0.0,,true,0,0,0,0,null,0,1,0,brander-desktop,0,0
03:44:06,0,SWAPdb,,11.98,,true,0,0,0,0,null,0,1,0,brander-desktop,0,0
03:44:07,0,SWAPfront1,,1.56,,true,0,0,0,0,null,0,1,0,brander-desktop,0,0
03:44:08,0,SWAPfront2,,1.78,,true,0,0,0,0,null,0,1,0,brander-desktop,0,0
03:44:09,0,SWAPfront3,,0.0,,true,0,0,0,0,null,0,1,0,brander-desktop,0,0
03:44:10,0,SWAPfront4,,2.88,,true,0,0,0,0,null,0,1,0,brander-desktop,0,0
03:44:11,0,SWAPcache,,0.01,,true,0,0,0,0,null,0,1,0,brander-desktop,0,0
03:44:12,0,SWAPstatic,,0.0,,true,0,0,0,0,null,0,1,0,brander-desktop,0,0
03:44:14,0,SWAPdb,,11.98,,true,0,0,0,0,null,0,1,0,brander-desktop,0,0
03:44:15,0,SWAPfront1,,1.56,,true,0,0,0,0,null,0,1,0,brander-desktop,0,0
03:44:16,0,SWAPfront2,,1.78,,true,0,0,0,0,null,0,1,0,brander-desktop,0,0
03:44:17,0,SWAPfront3,,0.0,,true,0,0,0,0,null,0,1,0,brander-desktop,0,0
03:44:18,0,SWAPfront4,,2.88,,true,0,0,0,0,null,0,1,0,brander-desktop,0,0
03:44:19,0,SWAPcache,,0.01,,true,0,0,0,0,null,0,1,0,brander-desktop,0,0
03:44:20,0,SWAPstatic,,0.0,,true,0,0,0,0,null,0,1,0,brander-desktop,0,0
03:44:21,0,SWAPdb,,11.98,,true,0,0,0,0,null,0,1,0,brander-desktop,0,0
03:44:22,0,SWAPfront1,,1.56,,true,0,0,0,0,null,0,1,0,brander-desktop,0,0
03:44:23,0,SWAPfront2,,1.78,,true,0,0,0,0,null,0,1,0,brander-desktop,0,0
03:44:24,0,SWAPfront3,,0.0,,true,0,0,0,0,null,0,1,0,brander-desktop,0,0
03:44:26,0,SWAPfront4,,2.88,,true,0,0,0,0,null,0,1,0,brander-desktop,0,0
03:44:27,0,SWAPcache,,0.01,,true,0,0,0,0,null,0,1,0,brander-desktop,0,0
03:44:28,0,SWAPstatic,,0.0,,true,0,0,0,0,null,0,1,0,brander-desktop,0,0
03:44:29,0,SWAPdb,,11.98,,true,0,0,0,0,null,0,1,0,brander-desktop,0,0
03:44:30,0,SWAPfront1,,1.56,,true,0,0,0,0,null,0,1,0,brander-desktop,0,0
03:44:31,0,SWAPfront2,,1.78,,true,0,0,0,0,null,0,1,0,brander-desktop,0,0
03:44:32,0,SWAPfront3,,0.0,,true,0,0,0,0,null,0,1,0,brander-desktop,0,0
03:44:33,0,SWAPfront4,,2.88,,true,0,0,0,0,null,0,1,0,brander-desktop,0,0
