timeStamp,elapsed,label,responseCode,responseMessage,threadName,success,bytes,sentBytes,grpThreads,allThreads,URL,Latency,SampleCount,ErrorCount,Hostname,IdleTime,Connect
03:01:27,0,CPUstatic,,4.27,,true,0,0,0,0,null,0,1,0,brander-desktop,0,0
03:01:28,0,CPUdb,,3.01,,true,0,0,0,0,null,0,1,0,brander-desktop,0,0
03:01:30,0,CPUfront1,,7.87,,true,0,0,0,0,null,0,1,0,brander-desktop,0,0
03:01:32,0,CPUfront2,,19.57,,true,0,0,0,0,null,0,1,0,brander-desktop,0,0
03:01:33,0,CPUfront3,,25.55,,true,0,0,0,0,null,0,1,0,brander-desktop,0,0
03:01:35,0,CPUfront4,,15.77,,true,0,0,0,0,null,0,1,0,brander-desktop,0,0
03:01:36,0,CPUstatic,,5.74,,true,0,0,0,0,null,0,1,0,brander-desktop,0,0
03:01:37,0,CPUdb,,9.18,,true,0,0,0,0,null,0,1,0,brander-desktop,0,0
03:01:38,0,CPUfront1,,20.47,,true,0,0,0,0,null,0,1,0,brander-desktop,0,0
03:01:39,0,CPUfront2,,26.03,,true,0,0,0,0,null,0,1,0,brander-desktop,0,0
03:01:40,0,CPUfront3,,19.0,,true,0,0,0,0,null,0,1,0,brander-desktop,0,0
03:01:42,0,CPUfront4,,31.68,,true,0,0,0,0,null,0,1,0,brander-desktop,0,0
03:01:43,0,CPUstatic,,7.72,,true,0,0,0,0,null,0,1,0,brander-desktop,0,0
03:01:44,0,CPUdb,,14.0,,true,0,0,0,0,null,0,1,0,brander-desktop,0,0
03:01:45,0,CPUfront1,,31.91,,true,0,0,0,0,null,0,1,0,brander-desktop,0,0
03:01:46,0,CPUfront2,,34.23,,true,0,0,0,0,null,0,1,0,brander-desktop,0,0
03:01:47,0,CPUfront3,,34.43,,true,0,0,0,0,null,0,1,0,brander-desktop,0,0
03:01:48,0,CPUfront4,,37.47,,true,0,0,0,0,null,0,1,0,brander-desktop,0,0
03:01:49,0,CPUstatic,,8.86,,true,0,0,0,0,null,0,1,0,brander-desktop,0,0
03:01:50,0,CPUdb,,25.23,,true,0,0,0,0,null,0,1,0,brander-desktop,0,0
03:01:51,0,CPUfront1,,40.82,,true,0,0,0,0,null,0,1,0,brander-desktop,0,0
03:01:53,0,CPUfront2,,39.43,,true,0,0,0,0,null,0,1,0,brander-desktop,0,0
03:01:54,0,CPUfront3,,43.47,,true,0,0,0,0,null,0,1,0,brander-desktop,0,0
03:01:55,0,CPUfront4,,54.69,,true,0,0,0,0,null,0,1,0,brander-desktop,0,0
03:01:56,0,CPUstatic,,10.15,,true,0,0,0,0,null,0,1,0,brander-desktop,0,0
03:01:57,0,CPUdb,,16.93,,true,0,0,0,0,null,0,1,0,brander-desktop,0,0
03:01:58,0,CPUfront1,,58.55,,true,0,0,0,0,null,0,1,0,brander-desktop,0,0
03:01:59,0,CPUfront2,,33.78,,true,0,0,0,0,null,0,1,0,brander-desktop,0,0
03:02:00,0,CPUfront3,,45.18,,true,0,0,0,0,null,0,1,0,brander-desktop,0,0
03:02:02,0,CPUfront4,,35.56,,true,0,0,0,0,null,0,1,0,brander-desktop,0,0
03:02:03,0,CPUstatic,,9.61,,true,0,0,0,0,null,0,1,0,brander-desktop,0,0
03:02:04,0,CPUdb,,22.21,,true,0,0,0,0,null,0,1,0,brander-desktop,0,0
03:02:05,0,CPUfront1,,45.41,,true,0,0,0,0,null,0,1,0,brander-desktop,0,0
03:02:06,0,CPUfront2,,44.72,,true,0,0,0,0,null,0,1,0,brander-desktop,0,0
03:02:08,0,CPUfront3,,33.89,,true,0,0,0,0,null,0,1,0,brander-desktop,0,0
03:02:09,0,CPUfront4,,47.87,,true,0,0,0,0,null,0,1,0,brander-desktop,0,0
03:02:10,0,CPUstatic,,12.76,,true,0,0,0,0,null,0,1,0,brander-desktop,0,0
03:02:11,0,CPUdb,,25.9,,true,0,0,0,0,null,0,1,0,brander-desktop,0,0
03:02:12,0,CPUfront1,,47.36,,true,0,0,0,0,null,0,1,0,brander-desktop,0,0
03:02:13,0,CPUfront2,,49.24,,true,0,0,0,0,null,0,1,0,brander-desktop,0,0
03:02:15,0,CPUfront3,,49.32,,true,0,0,0,0,null,0,1,0,brander-desktop,0,0
03:02:16,0,CPUfront4,,44.58,,true,0,0,0,0,null,0,1,0,brander-desktop,0,0
03:02:17,0,CPUstatic,,9.38,,true,0,0,0,0,null,0,1,0,brander-desktop,0,0
03:02:18,0,CPUdb,,10.18,,true,0,0,0,0,null,0,1,0,brander-desktop,0,0
03:02:20,0,CPUfront1,,42.0,,true,0,0,0,0,null,0,1,0,brander-desktop,0,0
03:02:21,0,CPUfront2,,39.07,,true,0,0,0,0,null,0,1,0,brander-desktop,0,0
03:02:22,0,CPUfront3,,44.8,,true,0,0,0,0,null,0,1,0,brander-desktop,0,0
03:02:24,0,CPUfront4,,35.78,,true,0,0,0,0,null,0,1,0,brander-desktop,0,0
03:02:25,0,CPUstatic,,11.76,,true,0,0,0,0,null,0,1,0,brander-desktop,0,0
03:02:26,0,CPUdb,,19.05,,true,0,0,0,0,null,0,1,0,brander-desktop,0,0
03:02:28,0,CPUfront1,,51.46,,true,0,0,0,0,null,0,1,0,brander-desktop,0,0
03:02:29,0,CPUfront2,,41.68,,true,0,0,0,0,null,0,1,0,brander-desktop,0,0
03:02:30,0,CPUfront3,,44.87,,true,0,0,0,0,null,0,1,0,brander-desktop,0,0
03:02:32,0,CPUfront4,,48.17,,true,0,0,0,0,null,0,1,0,brander-desktop,0,0
03:02:33,0,CPUstatic,,11.07,,true,0,0,0,0,null,0,1,0,brander-desktop,0,0
03:02:34,0,CPUdb,,31.58,,true,0,0,0,0,null,0,1,0,brander-desktop,0,0
03:02:36,0,CPUfront1,,55.3,,true,0,0,0,0,null,0,1,0,brander-desktop,0,0
03:02:37,0,CPUfront2,,54.24,,true,0,0,0,0,null,0,1,0,brander-desktop,0,0
03:02:39,0,CPUfront3,,49.83,,true,0,0,0,0,null,0,1,0,brander-desktop,0,0
03:02:40,0,CPUfront4,,46.63,,true,0,0,0,0,null,0,1,0,brander-desktop,0,0
03:02:42,0,CPUstatic,,8.28,,true,0,0,0,0,null,0,1,0,brander-desktop,0,0
03:02:43,0,CPUdb,,25.23,,true,0,0,0,0,null,0,1,0,brander-desktop,0,0
03:02:44,0,CPUfront1,,50.46,,true,0,0,0,0,null,0,1,0,brander-desktop,0,0
03:02:46,0,CPUfront2,,53.65,,true,0,0,0,0,null,0,1,0,brander-desktop,0,0
03:02:47,0,CPUfront3,,33.11,,true,0,0,0,0,null,0,1,0,brander-desktop,0,0
03:02:49,0,CPUfront4,,43.84,,true,0,0,0,0,null,0,1,0,brander-desktop,0,0
03:02:50,0,CPUstatic,,8.82,,true,0,0,0,0,null,0,1,0,brander-desktop,0,0
03:02:52,0,CPUdb,,25.32,,true,0,0,0,0,null,0,1,0,brander-desktop,0,0
03:02:53,0,CPUfront1,,33.45,,true,0,0,0,0,null,0,1,0,brander-desktop,0,0
03:02:55,0,CPUfront2,,34.26,,true,0,0,0,0,null,0,1,0,brander-desktop,0,0
03:02:57,0,CPUfront3,,36.7,,true,0,0,0,0,null,0,1,0,brander-desktop,0,0
03:02:58,0,CPUfront4,,38.42,,true,0,0,0,0,null,0,1,0,brander-desktop,0,0
03:03:00,0,CPUstatic,,10.5,,true,0,0,0,0,null,0,1,0,brander-desktop,0,0
03:03:02,0,CPUdb,,27.82,,true,0,0,0,0,null,0,1,0,brander-desktop,0,0
03:03:03,0,CPUfront1,,50.29,,true,0,0,0,0,null,0,1,0,brander-desktop,0,0
03:03:05,0,CPUfront2,,53.85,,true,0,0,0,0,null,0,1,0,brander-desktop,0,0
03:03:06,0,CPUfront3,,50.38,,true,0,0,0,0,null,0,1,0,brander-desktop,0,0
03:03:08,0,CPUfront4,,44.5,,true,0,0,0,0,null,0,1,0,brander-desktop,0,0
03:03:10,0,CPUstatic,,10.1,,true,0,0,0,0,null,0,1,0,brander-desktop,0,0
03:03:11,0,CPUdb,,31.86,,true,0,0,0,0,null,0,1,0,brander-desktop,0,0
03:03:13,0,CPUfront1,,59.6,,true,0,0,0,0,null,0,1,0,brander-desktop,0,0
03:03:15,0,CPUfront2,,41.61,,true,0,0,0,0,null,0,1,0,brander-desktop,0,0
03:03:16,0,CPUfront3,,43.01,,true,0,0,0,0,null,0,1,0,brander-desktop,0,0
03:03:18,0,CPUfront4,,43.37,,true,0,0,0,0,null,0,1,0,brander-desktop,0,0
03:03:20,0,CPUstatic,,9.48,,true,0,0,0,0,null,0,1,0,brander-desktop,0,0
03:03:22,0,CPUdb,,15.27,,true,0,0,0,0,null,0,1,0,brander-desktop,0,0
03:03:24,0,CPUfront1,,42.52,,true,0,0,0,0,null,0,1,0,brander-desktop,0,0
03:03:25,0,CPUfront2,,48.99,,true,0,0,0,0,null,0,1,0,brander-desktop,0,0
03:03:27,0,CPUfront3,,42.63,,true,0,0,0,0,null,0,1,0,brander-desktop,0,0
03:03:29,0,CPUfront4,,39.78,,true,0,0,0,0,null,0,1,0,brander-desktop,0,0
03:03:31,0,CPUstatic,,9.15,,true,0,0,0,0,null,0,1,0,brander-desktop,0,0
03:03:32,0,CPUdb,,23.59,,true,0,0,0,0,null,0,1,0,brander-desktop,0,0
03:03:34,0,CPUfront1,,44.18,,true,0,0,0,0,null,0,1,0,brander-desktop,0,0
03:03:36,0,CPUfront2,,47.12,,true,0,0,0,0,null,0,1,0,brander-desktop,0,0
03:03:38,0,CPUfront3,,48.61,,true,0,0,0,0,null,0,1,0,brander-desktop,0,0
03:03:40,0,CPUfront4,,42.29,,true,0,0,0,0,null,0,1,0,brander-desktop,0,0
03:03:43,0,CPUstatic,,15.4,,true,0,0,0,0,null,0,1,0,brander-desktop,0,0
03:03:45,0,CPUdb,,19.46,,true,0,0,0,0,null,0,1,0,brander-desktop,0,0
03:03:47,0,CPUfront1,,36.86,,true,0,0,0,0,null,0,1,0,brander-desktop,0,0
03:03:48,0,CPUfront2,,50.59,,true,0,0,0,0,null,0,1,0,brander-desktop,0,0
03:03:50,0,CPUfront3,,44.39,,true,0,0,0,0,null,0,1,0,brander-desktop,0,0
03:03:52,0,CPUfront4,,43.72,,true,0,0,0,0,null,0,1,0,brander-desktop,0,0
03:03:54,0,CPUstatic,,9.58,,true,0,0,0,0,null,0,1,0,brander-desktop,0,0
03:03:56,0,CPUdb,,26.93,,true,0,0,0,0,null,0,1,0,brander-desktop,0,0
03:03:58,0,CPUfront1,,48.63,,true,0,0,0,0,null,0,1,0,brander-desktop,0,0
03:04:00,0,CPUfront2,,35.56,,true,0,0,0,0,null,0,1,0,brander-desktop,0,0
03:04:02,0,CPUfront3,,56.16,,true,0,0,0,0,null,0,1,0,brander-desktop,0,0
03:04:03,0,CPUfront4,,45.9,,true,0,0,0,0,null,0,1,0,brander-desktop,0,0
03:04:05,0,CPUstatic,,11.85,,true,0,0,0,0,null,0,1,0,brander-desktop,0,0
03:04:07,0,CPUdb,,29.75,,true,0,0,0,0,null,0,1,0,brander-desktop,0,0
03:04:09,0,CPUfront1,,40.77,,true,0,0,0,0,null,0,1,0,brander-desktop,0,0
03:04:11,0,CPUfront2,,52.02,,true,0,0,0,0,null,0,1,0,brander-desktop,0,0
03:04:13,0,CPUfront3,,38.92,,true,0,0,0,0,null,0,1,0,brander-desktop,0,0
03:04:15,0,CPUfront4,,35.01,,true,0,0,0,0,null,0,1,0,brander-desktop,0,0
03:04:17,0,CPUstatic,,9.74,,true,0,0,0,0,null,0,1,0,brander-desktop,0,0
03:04:19,0,CPUdb,,26.4,,true,0,0,0,0,null,0,1,0,brander-desktop,0,0
03:04:20,0,CPUfront1,,35.67,,true,0,0,0,0,null,0,1,0,brander-desktop,0,0
03:04:22,0,CPUfront2,,55.7,,true,0,0,0,0,null,0,1,0,brander-desktop,0,0
03:04:24,0,CPUfront3,,43.66,,true,0,0,0,0,null,0,1,0,brander-desktop,0,0
03:04:26,0,CPUfront4,,39.26,,true,0,0,0,0,null,0,1,0,brander-desktop,0,0
03:04:28,0,CPUstatic,,8.81,,true,0,0,0,0,null,0,1,0,brander-desktop,0,0
03:04:30,0,CPUdb,,11.97,,true,0,0,0,0,null,0,1,0,brander-desktop,0,0
03:04:32,0,CPUfront1,,26.73,,true,0,0,0,0,null,0,1,0,brander-desktop,0,0
03:04:34,0,CPUfront2,,53.55,,true,0,0,0,0,null,0,1,0,brander-desktop,0,0
03:04:35,0,CPUfront3,,41.24,,true,0,0,0,0,null,0,1,0,brander-desktop,0,0
03:04:37,0,CPUfront4,,43.06,,true,0,0,0,0,null,0,1,0,brander-desktop,0,0
03:04:39,0,CPUstatic,,10.5,,true,0,0,0,0,null,0,1,0,brander-desktop,0,0
03:04:41,0,CPUdb,,19.51,,true,0,0,0,0,null,0,1,0,brander-desktop,0,0
03:04:43,0,CPUfront1,,40.49,,true,0,0,0,0,null,0,1,0,brander-desktop,0,0
03:04:45,0,CPUfront2,,24.41,,true,0,0,0,0,null,0,1,0,brander-desktop,0,0
03:04:46,0,CPUfront3,,48.78,,true,0,0,0,0,null,0,1,0,brander-desktop,0,0
03:04:48,0,CPUfront4,,59.2,,true,0,0,0,0,null,0,1,0,brander-desktop,0,0
03:04:50,0,CPUstatic,,8.97,,true,0,0,0,0,null,0,1,0,brander-desktop,0,0
03:04:52,0,CPUdb,,11.78,,true,0,0,0,0,null,0,1,0,brander-desktop,0,0
03:04:54,0,CPUfront1,,37.06,,true,0,0,0,0,null,0,1,0,brander-desktop,0,0
03:04:56,0,CPUfront2,,35.77,,true,0,0,0,0,null,0,1,0,brander-desktop,0,0
03:04:57,0,CPUfront3,,57.39,,true,0,0,0,0,null,0,1,0,brander-desktop,0,0
03:04:59,0,CPUfront4,,53.78,,true,0,0,0,0,null,0,1,0,brander-desktop,0,0
03:05:01,0,CPUstatic,,10.89,,true,0,0,0,0,null,0,1,0,brander-desktop,0,0
03:05:03,0,CPUdb,,27.54,,true,0,0,0,0,null,0,1,0,brander-desktop,0,0
03:05:04,0,CPUfront1,,45.75,,true,0,0,0,0,null,0,1,0,brander-desktop,0,0
03:05:06,0,CPUfront2,,29.35,,true,0,0,0,0,null,0,1,0,brander-desktop,0,0
03:05:08,0,CPUfront3,,64.39,,true,0,0,0,0,null,0,1,0,brander-desktop,0,0
03:05:10,0,CPUfront4,,32.03,,true,0,0,0,0,null,0,1,0,brander-desktop,0,0
03:05:12,0,CPUstatic,,9.42,,true,0,0,0,0,null,0,1,0,brander-desktop,0,0
03:05:13,0,CPUdb,,32.71,,true,0,0,0,0,null,0,1,0,brander-desktop,0,0
03:05:15,0,CPUfront1,,53.2,,true,0,0,0,0,null,0,1,0,brander-desktop,0,0
03:05:17,0,CPUfront2,,52.92,,true,0,0,0,0,null,0,1,0,brander-desktop,0,0
03:05:19,0,CPUfront3,,52.31,,true,0,0,0,0,null,0,1,0,brander-desktop,0,0
03:05:21,0,CPUfront4,,58.83,,true,0,0,0,0,null,0,1,0,brander-desktop,0,0
03:05:22,0,CPUstatic,,8.52,,true,0,0,0,0,null,0,1,0,brander-desktop,0,0
03:05:24,0,CPUdb,,22.59,,true,0,0,0,0,null,0,1,0,brander-desktop,0,0
03:05:26,0,CPUfront1,,45.66,,true,0,0,0,0,null,0,1,0,brander-desktop,0,0
03:05:27,0,CPUfront2,,42.98,,true,0,0,0,0,null,0,1,0,brander-desktop,0,0
03:05:29,0,CPUfront3,,40.15,,true,0,0,0,0,null,0,1,0,brander-desktop,0,0
03:05:31,0,CPUfront4,,59.73,,true,0,0,0,0,null,0,1,0,brander-desktop,0,0
03:05:32,0,CPUstatic,,9.41,,true,0,0,0,0,null,0,1,0,brander-desktop,0,0
03:05:34,0,CPUdb,,29.64,,true,0,0,0,0,null,0,1,0,brander-desktop,0,0
03:05:35,0,CPUfront1,,44.32,,true,0,0,0,0,null,0,1,0,brander-desktop,0,0
03:05:37,0,CPUfront2,,35.95,,true,0,0,0,0,null,0,1,0,brander-desktop,0,0
03:05:38,0,CPUfront3,,40.2,,true,0,0,0,0,null,0,1,0,brander-desktop,0,0
03:05:39,0,CPUfront4,,38.35,,true,0,0,0,0,null,0,1,0,brander-desktop,0,0
03:05:41,0,CPUstatic,,9.28,,true,0,0,0,0,null,0,1,0,brander-desktop,0,0
03:05:42,0,CPUdb,,20.14,,true,0,0,0,0,null,0,1,0,brander-desktop,0,0
03:05:43,0,CPUfront1,,28.88,,true,0,0,0,0,null,0,1,0,brander-desktop,0,0
03:05:45,0,CPUfront2,,41.83,,true,0,0,0,0,null,0,1,0,brander-desktop,0,0
03:05:46,0,CPUfront3,,27.85,,true,0,0,0,0,null,0,1,0,brander-desktop,0,0
03:05:48,0,CPUfront4,,51.86,,true,0,0,0,0,null,0,1,0,brander-desktop,0,0
03:05:49,0,CPUstatic,,9.21,,true,0,0,0,0,null,0,1,0,brander-desktop,0,0
03:05:50,0,CPUdb,,23.69,,true,0,0,0,0,null,0,1,0,brander-desktop,0,0
03:05:51,0,CPUfront1,,32.77,,true,0,0,0,0,null,0,1,0,brander-desktop,0,0
03:05:52,0,CPUfront2,,29.64,,true,0,0,0,0,null,0,1,0,brander-desktop,0,0
03:05:53,0,CPUfront3,,43.24,,true,0,0,0,0,null,0,1,0,brander-desktop,0,0
03:05:55,0,CPUfront4,,50.7,,true,0,0,0,0,null,0,1,0,brander-desktop,0,0
03:05:56,0,CPUstatic,,9.76,,true,0,0,0,0,null,0,1,0,brander-desktop,0,0
03:05:57,0,CPUdb,,23.21,,true,0,0,0,0,null,0,1,0,brander-desktop,0,0
03:05:58,0,CPUfront1,,48.37,,true,0,0,0,0,null,0,1,0,brander-desktop,0,0
03:05:59,0,CPUfront2,,28.37,,true,0,0,0,0,null,0,1,0,brander-desktop,0,0
03:06:00,0,CPUfront3,,40.02,,true,0,0,0,0,null,0,1,0,brander-desktop,0,0
03:06:01,0,CPUfront4,,55.34,,true,0,0,0,0,null,0,1,0,brander-desktop,0,0
03:06:02,0,CPUstatic,,10.96,,true,0,0,0,0,null,0,1,0,brander-desktop,0,0
03:06:04,0,CPUdb,,30.14,,true,0,0,0,0,null,0,1,0,brander-desktop,0,0
03:06:05,0,CPUfront1,,55.23,,true,0,0,0,0,null,0,1,0,brander-desktop,0,0
03:06:06,0,CPUfront2,,48.71,,true,0,0,0,0,null,0,1,0,brander-desktop,0,0
03:06:07,0,CPUfront3,,42.75,,true,0,0,0,0,null,0,1,0,brander-desktop,0,0
03:06:08,0,CPUfront4,,42.41,,true,0,0,0,0,null,0,1,0,brander-desktop,0,0
03:06:10,0,CPUstatic,,8.4,,true,0,0,0,0,null,0,1,0,brander-desktop,0,0
03:06:11,0,CPUdb,,23.07,,true,0,0,0,0,null,0,1,0,brander-desktop,0,0
03:06:12,0,CPUfront1,,39.15,,true,0,0,0,0,null,0,1,0,brander-desktop,0,0
03:06:14,0,CPUfront2,,40.18,,true,0,0,0,0,null,0,1,0,brander-desktop,0,0
03:06:15,0,CPUfront3,,49.11,,true,0,0,0,0,null,0,1,0,brander-desktop,0,0
03:06:16,0,CPUfront4,,42.87,,true,0,0,0,0,null,0,1,0,brander-desktop,0,0
03:06:17,0,CPUstatic,,8.52,,true,0,0,0,0,null,0,1,0,brander-desktop,0,0
03:06:18,0,CPUdb,,15.24,,true,0,0,0,0,null,0,1,0,brander-desktop,0,0
03:06:20,0,CPUfront1,,39.48,,true,0,0,0,0,null,0,1,0,brander-desktop,0,0
03:06:21,0,CPUfront2,,47.39,,true,0,0,0,0,null,0,1,0,brander-desktop,0,0
03:06:22,0,CPUfront3,,34.62,,true,0,0,0,0,null,0,1,0,brander-desktop,0,0
03:06:23,0,CPUfront4,,45.18,,true,0,0,0,0,null,0,1,0,brander-desktop,0,0
03:06:25,0,CPUstatic,,9.45,,true,0,0,0,0,null,0,1,0,brander-desktop,0,0
03:06:26,0,CPUdb,,29.32,,true,0,0,0,0,null,0,1,0,brander-desktop,0,0
03:06:27,0,CPUfront1,,38.47,,true,0,0,0,0,null,0,1,0,brander-desktop,0,0
03:06:28,0,CPUfront2,,46.59,,true,0,0,0,0,null,0,1,0,brander-desktop,0,0
03:06:30,0,CPUfront3,,42.56,,true,0,0,0,0,null,0,1,0,brander-desktop,0,0
03:06:31,0,CPUfront4,,44.47,,true,0,0,0,0,null,0,1,0,brander-desktop,0,0
03:06:32,0,CPUstatic,,8.85,,true,0,0,0,0,null,0,1,0,brander-desktop,0,0
03:06:34,0,CPUdb,,21.48,,true,0,0,0,0,null,0,1,0,brander-desktop,0,0
03:06:35,0,CPUfront1,,50.29,,true,0,0,0,0,null,0,1,0,brander-desktop,0,0
03:06:36,0,CPUfront2,,23.24,,true,0,0,0,0,null,0,1,0,brander-desktop,0,0
03:06:38,0,CPUfront3,,32.94,,true,0,0,0,0,null,0,1,0,brander-desktop,0,0
03:06:39,0,CPUfront4,,31.33,,true,0,0,0,0,null,0,1,0,brander-desktop,0,0
03:06:40,0,CPUstatic,,8.8,,true,0,0,0,0,null,0,1,0,brander-desktop,0,0
03:06:41,0,CPUdb,,22.38,,true,0,0,0,0,null,0,1,0,brander-desktop,0,0
03:06:42,0,CPUfront1,,57.63,,true,0,0,0,0,null,0,1,0,brander-desktop,0,0
03:06:44,0,CPUfront2,,38.45,,true,0,0,0,0,null,0,1,0,brander-desktop,0,0
03:06:45,0,CPUfront3,,53.63,,true,0,0,0,0,null,0,1,0,brander-desktop,0,0
03:06:46,0,CPUfront4,,57.5,,true,0,0,0,0,null,0,1,0,brander-desktop,0,0
03:06:47,0,CPUstatic,,9.34,,true,0,0,0,0,null,0,1,0,brander-desktop,0,0
03:06:49,0,CPUdb,,19.37,,true,0,0,0,0,null,0,1,0,brander-desktop,0,0
03:06:50,0,CPUfront1,,44.24,,true,0,0,0,0,null,0,1,0,brander-desktop,0,0
03:06:51,0,CPUfront2,,46.08,,true,0,0,0,0,null,0,1,0,brander-desktop,0,0
03:06:53,0,CPUfront3,,45.19,,true,0,0,0,0,null,0,1,0,brander-desktop,0,0
03:06:54,0,CPUfront4,,41.4,,true,0,0,0,0,null,0,1,0,brander-desktop,0,0
03:06:55,0,CPUstatic,,8.97,,true,0,0,0,0,null,0,1,0,brander-desktop,0,0
03:06:57,0,CPUdb,,22.14,,true,0,0,0,0,null,0,1,0,brander-desktop,0,0
03:06:58,0,CPUfront1,,49.79,,true,0,0,0,0,null,0,1,0,brander-desktop,0,0
03:06:59,0,CPUfront2,,40.59,,true,0,0,0,0,null,0,1,0,brander-desktop,0,0
03:07:00,0,CPUfront3,,25.94,,true,0,0,0,0,null,0,1,0,brander-desktop,0,0
03:07:01,0,CPUfront4,,48.59,,true,0,0,0,0,null,0,1,0,brander-desktop,0,0
03:07:02,0,CPUstatic,,10.4,,true,0,0,0,0,null,0,1,0,brander-desktop,0,0
03:07:03,0,CPUdb,,26.86,,true,0,0,0,0,null,0,1,0,brander-desktop,0,0
03:07:04,0,CPUfront1,,38.71,,true,0,0,0,0,null,0,1,0,brander-desktop,0,0
03:07:06,0,CPUfront2,,29.54,,true,0,0,0,0,null,0,1,0,brander-desktop,0,0
03:07:07,0,CPUfront3,,32.07,,true,0,0,0,0,null,0,1,0,brander-desktop,0,0
03:07:08,0,CPUfront4,,57.55,,true,0,0,0,0,null,0,1,0,brander-desktop,0,0
03:07:09,0,CPUstatic,,8.69,,true,0,0,0,0,null,0,1,0,brander-desktop,0,0
03:07:10,0,CPUdb,,21.18,,true,0,0,0,0,null,0,1,0,brander-desktop,0,0
03:07:11,0,CPUfront1,,32.41,,true,0,0,0,0,null,0,1,0,brander-desktop,0,0
03:07:12,0,CPUfront2,,43.66,,true,0,0,0,0,null,0,1,0,brander-desktop,0,0
03:07:13,0,CPUfront3,,29.92,,true,0,0,0,0,null,0,1,0,brander-desktop,0,0
03:07:15,0,CPUfront4,,37.34,,true,0,0,0,0,null,0,1,0,brander-desktop,0,0
03:07:16,0,CPUstatic,,8.13,,true,0,0,0,0,null,0,1,0,brander-desktop,0,0
03:07:17,0,CPUdb,,18.8,,true,0,0,0,0,null,0,1,0,brander-desktop,0,0
03:07:18,0,CPUfront1,,29.05,,true,0,0,0,0,null,0,1,0,brander-desktop,0,0
03:07:19,0,CPUfront2,,35.6,,true,0,0,0,0,null,0,1,0,brander-desktop,0,0
03:07:20,0,CPUfront3,,33.61,,true,0,0,0,0,null,0,1,0,brander-desktop,0,0
03:07:21,0,CPUfront4,,48.47,,true,0,0,0,0,null,0,1,0,brander-desktop,0,0
03:07:22,0,CPUstatic,,8.34,,true,0,0,0,0,null,0,1,0,brander-desktop,0,0
03:07:23,0,CPUdb,,19.49,,true,0,0,0,0,null,0,1,0,brander-desktop,0,0
03:07:25,0,CPUfront1,,29.92,,true,0,0,0,0,null,0,1,0,brander-desktop,0,0
03:07:26,0,CPUfront2,,31.77,,true,0,0,0,0,null,0,1,0,brander-desktop,0,0
03:07:27,0,CPUfront3,,52.67,,true,0,0,0,0,null,0,1,0,brander-desktop,0,0
03:07:28,0,CPUfront4,,45.6,,true,0,0,0,0,null,0,1,0,brander-desktop,0,0
03:07:29,0,CPUstatic,,9.58,,true,0,0,0,0,null,0,1,0,brander-desktop,0,0
03:07:30,0,CPUdb,,32.41,,true,0,0,0,0,null,0,1,0,brander-desktop,0,0
03:07:31,0,CPUfront1,,32.38,,true,0,0,0,0,null,0,1,0,brander-desktop,0,0
03:07:32,0,CPUfront2,,37.88,,true,0,0,0,0,null,0,1,0,brander-desktop,0,0
03:07:33,0,CPUfront3,,46.13,,true,0,0,0,0,null,0,1,0,brander-desktop,0,0
03:07:34,0,CPUfront4,,46.76,,true,0,0,0,0,null,0,1,0,brander-desktop,0,0
03:07:36,0,CPUstatic,,8.64,,true,0,0,0,0,null,0,1,0,brander-desktop,0,0
03:07:37,0,CPUdb,,18.11,,true,0,0,0,0,null,0,1,0,brander-desktop,0,0
03:07:38,0,CPUfront1,,42.69,,true,0,0,0,0,null,0,1,0,brander-desktop,0,0
03:07:39,0,CPUfront2,,39.16,,true,0,0,0,0,null,0,1,0,brander-desktop,0,0
03:07:40,0,CPUfront3,,39.8,,true,0,0,0,0,null,0,1,0,brander-desktop,0,0
03:07:41,0,CPUfront4,,36.66,,true,0,0,0,0,null,0,1,0,brander-desktop,0,0
03:07:42,0,CPUstatic,,9.38,,true,0,0,0,0,null,0,1,0,brander-desktop,0,0
03:07:43,0,CPUdb,,23.81,,true,0,0,0,0,null,0,1,0,brander-desktop,0,0
03:07:44,0,CPUfront1,,46.73,,true,0,0,0,0,null,0,1,0,brander-desktop,0,0
03:07:46,0,CPUfront2,,51.18,,true,0,0,0,0,null,0,1,0,brander-desktop,0,0
03:07:47,0,CPUfront3,,45.47,,true,0,0,0,0,null,0,1,0,brander-desktop,0,0
03:07:48,0,CPUfront4,,46.52,,true,0,0,0,0,null,0,1,0,brander-desktop,0,0
03:07:49,0,CPUstatic,,9.35,,true,0,0,0,0,null,0,1,0,brander-desktop,0,0
03:07:50,0,CPUdb,,18.8,,true,0,0,0,0,null,0,1,0,brander-desktop,0,0
03:07:51,0,CPUfront1,,25.86,,true,0,0,0,0,null,0,1,0,brander-desktop,0,0
03:07:52,0,CPUfront2,,44.66,,true,0,0,0,0,null,0,1,0,brander-desktop,0,0
03:07:54,0,CPUfront3,,51.46,,true,0,0,0,0,null,0,1,0,brander-desktop,0,0
03:07:55,0,CPUfront4,,37.34,,true,0,0,0,0,null,0,1,0,brander-desktop,0,0
03:07:56,0,CPUstatic,,8.35,,true,0,0,0,0,null,0,1,0,brander-desktop,0,0
03:07:57,0,CPUdb,,17.59,,true,0,0,0,0,null,0,1,0,brander-desktop,0,0
03:07:58,0,CPUfront1,,24.01,,true,0,0,0,0,null,0,1,0,brander-desktop,0,0
03:07:59,0,CPUfront2,,37.24,,true,0,0,0,0,null,0,1,0,brander-desktop,0,0
03:08:00,0,CPUfront3,,31.27,,true,0,0,0,0,null,0,1,0,brander-desktop,0,0
03:08:02,0,CPUfront4,,30.04,,true,0,0,0,0,null,0,1,0,brander-desktop,0,0
03:08:03,0,CPUstatic,,9.34,,true,0,0,0,0,null,0,1,0,brander-desktop,0,0
03:08:04,0,CPUdb,,15.42,,true,0,0,0,0,null,0,1,0,brander-desktop,0,0
03:08:05,0,CPUfront1,,42.21,,true,0,0,0,0,null,0,1,0,brander-desktop,0,0
03:08:06,0,CPUfront2,,48.71,,true,0,0,0,0,null,0,1,0,brander-desktop,0,0
03:08:07,0,CPUfront3,,56.06,,true,0,0,0,0,null,0,1,0,brander-desktop,0,0
03:08:08,0,CPUfront4,,55.56,,true,0,0,0,0,null,0,1,0,brander-desktop,0,0
03:08:09,0,CPUstatic,,11.02,,true,0,0,0,0,null,0,1,0,brander-desktop,0,0
03:08:11,0,CPUdb,,29.49,,true,0,0,0,0,null,0,1,0,brander-desktop,0,0
03:08:12,0,CPUfront1,,38.97,,true,0,0,0,0,null,0,1,0,brander-desktop,0,0
03:08:13,0,CPUfront2,,36.99,,true,0,0,0,0,null,0,1,0,brander-desktop,0,0
03:08:15,0,CPUfront3,,26.98,,true,0,0,0,0,null,0,1,0,brander-desktop,0,0
03:08:16,0,CPUfront4,,37.04,,true,0,0,0,0,null,0,1,0,brander-desktop,0,0
03:08:18,0,CPUstatic,,8.88,,true,0,0,0,0,null,0,1,0,brander-desktop,0,0
03:08:19,0,CPUdb,,23.95,,true,0,0,0,0,null,0,1,0,brander-desktop,0,0
03:08:20,0,CPUfront1,,49.83,,true,0,0,0,0,null,0,1,0,brander-desktop,0,0
03:08:22,0,CPUfront2,,39.01,,true,0,0,0,0,null,0,1,0,brander-desktop,0,0
03:08:23,0,CPUfront3,,34.06,,true,0,0,0,0,null,0,1,0,brander-desktop,0,0
03:08:24,0,CPUfront4,,32.5,,true,0,0,0,0,null,0,1,0,brander-desktop,0,0
03:08:26,0,CPUstatic,,10.99,,true,0,0,0,0,null,0,1,0,brander-desktop,0,0
03:08:27,0,CPUdb,,14.43,,true,0,0,0,0,null,0,1,0,brander-desktop,0,0
03:08:28,0,CPUfront1,,57.15,,true,0,0,0,0,null,0,1,0,brander-desktop,0,0
03:08:30,0,CPUfront2,,47.4,,true,0,0,0,0,null,0,1,0,brander-desktop,0,0
03:08:31,0,CPUfront3,,45.05,,true,0,0,0,0,null,0,1,0,brander-desktop,0,0
03:08:32,0,CPUfront4,,35.25,,true,0,0,0,0,null,0,1,0,brander-desktop,0,0
03:08:33,0,CPUstatic,,7.83,,true,0,0,0,0,null,0,1,0,brander-desktop,0,0
03:08:34,0,CPUdb,,14.75,,true,0,0,0,0,null,0,1,0,brander-desktop,0,0
03:08:35,0,CPUfront1,,42.37,,true,0,0,0,0,null,0,1,0,brander-desktop,0,0
03:08:36,0,CPUfront2,,50.76,,true,0,0,0,0,null,0,1,0,brander-desktop,0,0
03:08:38,0,CPUfront3,,47.11,,true,0,0,0,0,null,0,1,0,brander-desktop,0,0
03:08:39,0,CPUfront4,,37.42,,true,0,0,0,0,null,0,1,0,brander-desktop,0,0
03:08:40,0,CPUstatic,,8.93,,true,0,0,0,0,null,0,1,0,brander-desktop,0,0
03:08:41,0,CPUdb,,22.73,,true,0,0,0,0,null,0,1,0,brander-desktop,0,0
03:08:43,0,CPUfront1,,37.04,,true,0,0,0,0,null,0,1,0,brander-desktop,0,0
03:08:44,0,CPUfront2,,39.38,,true,0,0,0,0,null,0,1,0,brander-desktop,0,0
03:08:45,0,CPUfront3,,55.86,,true,0,0,0,0,null,0,1,0,brander-desktop,0,0
03:08:46,0,CPUfront4,,43.65,,true,0,0,0,0,null,0,1,0,brander-desktop,0,0
03:08:48,0,CPUstatic,,9.38,,true,0,0,0,0,null,0,1,0,brander-desktop,0,0
03:08:49,0,CPUdb,,23.0,,true,0,0,0,0,null,0,1,0,brander-desktop,0,0
03:08:50,0,CPUfront1,,44.36,,true,0,0,0,0,null,0,1,0,brander-desktop,0,0
03:08:51,0,CPUfront2,,48.86,,true,0,0,0,0,null,0,1,0,brander-desktop,0,0
03:08:53,0,CPUfront3,,41.51,,true,0,0,0,0,null,0,1,0,brander-desktop,0,0
03:08:54,0,CPUfront4,,51.71,,true,0,0,0,0,null,0,1,0,brander-desktop,0,0
03:08:55,0,CPUstatic,,8.18,,true,0,0,0,0,null,0,1,0,brander-desktop,0,0
03:08:57,0,CPUdb,,15.78,,true,0,0,0,0,null,0,1,0,brander-desktop,0,0
03:08:58,0,CPUfront1,,60.96,,true,0,0,0,0,null,0,1,0,brander-desktop,0,0
03:09:00,0,CPUfront2,,37.35,,true,0,0,0,0,null,0,1,0,brander-desktop,0,0
03:09:01,0,CPUfront3,,53.11,,true,0,0,0,0,null,0,1,0,brander-desktop,0,0
03:09:02,0,CPUfront4,,59.81,,true,0,0,0,0,null,0,1,0,brander-desktop,0,0
03:09:04,0,CPUstatic,,10.36,,true,0,0,0,0,null,0,1,0,brander-desktop,0,0
03:09:05,0,CPUdb,,15.99,,true,0,0,0,0,null,0,1,0,brander-desktop,0,0
03:09:06,0,CPUfront1,,59.48,,true,0,0,0,0,null,0,1,0,brander-desktop,0,0
03:09:08,0,CPUfront2,,40.1,,true,0,0,0,0,null,0,1,0,brander-desktop,0,0
03:09:09,0,CPUfront3,,36.78,,true,0,0,0,0,null,0,1,0,brander-desktop,0,0
03:09:10,0,CPUfront4,,67.59,,true,0,0,0,0,null,0,1,0,brander-desktop,0,0
03:09:12,0,CPUstatic,,10.08,,true,0,0,0,0,null,0,1,0,brander-desktop,0,0
03:09:13,0,CPUdb,,26.21,,true,0,0,0,0,null,0,1,0,brander-desktop,0,0
03:09:14,0,CPUfront1,,46.0,,true,0,0,0,0,null,0,1,0,brander-desktop,0,0
03:09:16,0,CPUfront2,,52.95,,true,0,0,0,0,null,0,1,0,brander-desktop,0,0
03:09:17,0,CPUfront3,,44.79,,true,0,0,0,0,null,0,1,0,brander-desktop,0,0
03:09:19,0,CPUfront4,,39.34,,true,0,0,0,0,null,0,1,0,brander-desktop,0,0
03:09:20,0,CPUstatic,,8.91,,true,0,0,0,0,null,0,1,0,brander-desktop,0,0
03:09:22,0,CPUdb,,28.78,,true,0,0,0,0,null,0,1,0,brander-desktop,0,0
03:09:23,0,CPUfront1,,40.81,,true,0,0,0,0,null,0,1,0,brander-desktop,0,0
03:09:24,0,CPUfront2,,43.06,,true,0,0,0,0,null,0,1,0,brander-desktop,0,0
03:09:26,0,CPUfront3,,53.32,,true,0,0,0,0,null,0,1,0,brander-desktop,0,0
03:09:27,0,CPUfront4,,54.61,,true,0,0,0,0,null,0,1,0,brander-desktop,0,0
03:09:29,0,CPUstatic,,8.3,,true,0,0,0,0,null,0,1,0,brander-desktop,0,0
03:09:30,0,CPUdb,,20.65,,true,0,0,0,0,null,0,1,0,brander-desktop,0,0
03:09:32,0,CPUfront1,,49.5,,true,0,0,0,0,null,0,1,0,brander-desktop,0,0
03:09:34,0,CPUfront2,,36.71,,true,0,0,0,0,null,0,1,0,brander-desktop,0,0
03:09:35,0,CPUfront3,,44.55,,true,0,0,0,0,null,0,1,0,brander-desktop,0,0
03:09:37,0,CPUfront4,,69.61,,true,0,0,0,0,null,0,1,0,brander-desktop,0,0
03:09:38,0,CPUstatic,,9.21,,true,0,0,0,0,null,0,1,0,brander-desktop,0,0
03:09:40,0,CPUdb,,22.24,,true,0,0,0,0,null,0,1,0,brander-desktop,0,0
03:09:41,0,CPUfront1,,31.44,,true,0,0,0,0,null,0,1,0,brander-desktop,0,0
03:09:43,0,CPUfront2,,54.48,,true,0,0,0,0,null,0,1,0,brander-desktop,0,0
03:09:44,0,CPUfront3,,47.39,,true,0,0,0,0,null,0,1,0,brander-desktop,0,0
03:09:45,0,CPUfront4,,56.04,,true,0,0,0,0,null,0,1,0,brander-desktop,0,0
03:09:47,0,CPUstatic,,8.51,,true,0,0,0,0,null,0,1,0,brander-desktop,0,0
03:09:48,0,CPUdb,,22.99,,true,0,0,0,0,null,0,1,0,brander-desktop,0,0
03:09:50,0,CPUfront1,,45.29,,true,0,0,0,0,null,0,1,0,brander-desktop,0,0
03:09:51,0,CPUfront2,,50.47,,true,0,0,0,0,null,0,1,0,brander-desktop,0,0
03:09:53,0,CPUfront3,,51.22,,true,0,0,0,0,null,0,1,0,brander-desktop,0,0
03:09:54,0,CPUfront4,,47.32,,true,0,0,0,0,null,0,1,0,brander-desktop,0,0
03:09:55,0,CPUstatic,,8.9,,true,0,0,0,0,null,0,1,0,brander-desktop,0,0
03:09:57,0,CPUdb,,26.53,,true,0,0,0,0,null,0,1,0,brander-desktop,0,0
03:09:58,0,CPUfront1,,49.42,,true,0,0,0,0,null,0,1,0,brander-desktop,0,0
03:09:59,0,CPUfront2,,56.95,,true,0,0,0,0,null,0,1,0,brander-desktop,0,0
03:10:01,0,CPUfront3,,28.01,,true,0,0,0,0,null,0,1,0,brander-desktop,0,0
03:10:02,0,CPUfront4,,47.17,,true,0,0,0,0,null,0,1,0,brander-desktop,0,0
03:10:03,0,CPUstatic,,9.58,,true,0,0,0,0,null,0,1,0,brander-desktop,0,0
03:10:05,0,CPUdb,,26.79,,true,0,0,0,0,null,0,1,0,brander-desktop,0,0
03:10:06,0,CPUfront1,,58.59,,true,0,0,0,0,null,0,1,0,brander-desktop,0,0
03:10:07,0,CPUfront2,,45.18,,true,0,0,0,0,null,0,1,0,brander-desktop,0,0
03:10:09,0,CPUfront3,,35.19,,true,0,0,0,0,null,0,1,0,brander-desktop,0,0
03:10:10,0,CPUfront4,,38.43,,true,0,0,0,0,null,0,1,0,brander-desktop,0,0
03:10:11,0,CPUstatic,,9.27,,true,0,0,0,0,null,0,1,0,brander-desktop,0,0
03:10:12,0,CPUdb,,28.01,,true,0,0,0,0,null,0,1,0,brander-desktop,0,0
03:10:14,0,CPUfront1,,51.08,,true,0,0,0,0,null,0,1,0,brander-desktop,0,0
03:10:15,0,CPUfront2,,47.55,,true,0,0,0,0,null,0,1,0,brander-desktop,0,0
03:10:16,0,CPUfront3,,57.62,,true,0,0,0,0,null,0,1,0,brander-desktop,0,0
03:10:17,0,CPUfront4,,43.32,,true,0,0,0,0,null,0,1,0,brander-desktop,0,0
03:10:19,0,CPUstatic,,10.07,,true,0,0,0,0,null,0,1,0,brander-desktop,0,0
03:10:20,0,CPUdb,,32.91,,true,0,0,0,0,null,0,1,0,brander-desktop,0,0
03:10:22,0,CPUfront1,,35.21,,true,0,0,0,0,null,0,1,0,brander-desktop,0,0
03:10:23,0,CPUfront2,,47.07,,true,0,0,0,0,null,0,1,0,brander-desktop,0,0
03:10:24,0,CPUfront3,,38.3,,true,0,0,0,0,null,0,1,0,brander-desktop,0,0
03:10:26,0,CPUfront4,,37.13,,true,0,0,0,0,null,0,1,0,brander-desktop,0,0
03:10:27,0,CPUstatic,,9.69,,true,0,0,0,0,null,0,1,0,brander-desktop,0,0
03:10:28,0,CPUdb,,25.88,,true,0,0,0,0,null,0,1,0,brander-desktop,0,0
03:10:29,0,CPUfront1,,25.13,,true,0,0,0,0,null,0,1,0,brander-desktop,0,0
03:10:30,0,CPUfront2,,52.99,,true,0,0,0,0,null,0,1,0,brander-desktop,0,0
03:10:31,0,CPUfront3,,35.24,,true,0,0,0,0,null,0,1,0,brander-desktop,0,0
03:10:32,0,CPUfront4,,35.44,,true,0,0,0,0,null,0,1,0,brander-desktop,0,0
03:10:33,0,CPUstatic,,9.14,,true,0,0,0,0,null,0,1,0,brander-desktop,0,0
03:10:35,0,CPUdb,,29.15,,true,0,0,0,0,null,0,1,0,brander-desktop,0,0
03:10:36,0,CPUfront1,,32.61,,true,0,0,0,0,null,0,1,0,brander-desktop,0,0
03:10:37,0,CPUfront2,,44.07,,true,0,0,0,0,null,0,1,0,brander-desktop,0,0
03:10:38,0,CPUfront3,,56.23,,true,0,0,0,0,null,0,1,0,brander-desktop,0,0
03:10:39,0,CPUfront4,,33.95,,true,0,0,0,0,null,0,1,0,brander-desktop,0,0
03:10:40,0,CPUstatic,,8.99,,true,0,0,0,0,null,0,1,0,brander-desktop,0,0
03:10:41,0,CPUdb,,25.0,,true,0,0,0,0,null,0,1,0,brander-desktop,0,0
03:10:42,0,CPUfront1,,41.6,,true,0,0,0,0,null,0,1,0,brander-desktop,0,0
03:10:44,0,CPUfront2,,33.45,,true,0,0,0,0,null,0,1,0,brander-desktop,0,0
03:10:45,0,CPUfront3,,24.41,,true,0,0,0,0,null,0,1,0,brander-desktop,0,0
03:10:46,0,CPUfront4,,34.59,,true,0,0,0,0,null,0,1,0,brander-desktop,0,0
03:10:47,0,CPUstatic,,9.41,,true,0,0,0,0,null,0,1,0,brander-desktop,0,0
03:10:48,0,CPUdb,,27.22,,true,0,0,0,0,null,0,1,0,brander-desktop,0,0
03:10:49,0,CPUfront1,,64.17,,true,0,0,0,0,null,0,1,0,brander-desktop,0,0
03:10:50,0,CPUfront2,,36.5,,true,0,0,0,0,null,0,1,0,brander-desktop,0,0
03:10:52,0,CPUfront3,,48.86,,true,0,0,0,0,null,0,1,0,brander-desktop,0,0
03:10:53,0,CPUfront4,,27.51,,true,0,0,0,0,null,0,1,0,brander-desktop,0,0
03:10:54,0,CPUstatic,,9.31,,true,0,0,0,0,null,0,1,0,brander-desktop,0,0
03:10:55,0,CPUdb,,28.33,,true,0,0,0,0,null,0,1,0,brander-desktop,0,0
03:10:56,0,CPUfront1,,47.5,,true,0,0,0,0,null,0,1,0,brander-desktop,0,0
03:10:57,0,CPUfront2,,46.16,,true,0,0,0,0,null,0,1,0,brander-desktop,0,0
03:10:58,0,CPUfront3,,32.21,,true,0,0,0,0,null,0,1,0,brander-desktop,0,0
03:10:59,0,CPUfront4,,51.83,,true,0,0,0,0,null,0,1,0,brander-desktop,0,0
03:11:00,0,CPUstatic,,11.31,,true,0,0,0,0,null,0,1,0,brander-desktop,0,0
03:11:02,0,CPUdb,,28.63,,true,0,0,0,0,null,0,1,0,brander-desktop,0,0
03:11:03,0,CPUfront1,,44.07,,true,0,0,0,0,null,0,1,0,brander-desktop,0,0
03:11:04,0,CPUfront2,,55.27,,true,0,0,0,0,null,0,1,0,brander-desktop,0,0
03:11:05,0,CPUfront3,,42.93,,true,0,0,0,0,null,0,1,0,brander-desktop,0,0
03:11:06,0,CPUfront4,,50.92,,true,0,0,0,0,null,0,1,0,brander-desktop,0,0
03:11:08,0,CPUstatic,,10.3,,true,0,0,0,0,null,0,1,0,brander-desktop,0,0
03:11:09,0,CPUdb,,26.14,,true,0,0,0,0,null,0,1,0,brander-desktop,0,0
03:11:10,0,CPUfront1,,44.22,,true,0,0,0,0,null,0,1,0,brander-desktop,0,0
03:11:12,0,CPUfront2,,37.92,,true,0,0,0,0,null,0,1,0,brander-desktop,0,0
03:11:13,0,CPUfront3,,39.85,,true,0,0,0,0,null,0,1,0,brander-desktop,0,0
03:11:14,0,CPUfront4,,39.9,,true,0,0,0,0,null,0,1,0,brander-desktop,0,0
03:11:16,0,CPUstatic,,8.88,,true,0,0,0,0,null,0,1,0,brander-desktop,0,0
03:11:17,0,CPUdb,,24.45,,true,0,0,0,0,null,0,1,0,brander-desktop,0,0
03:11:18,0,CPUfront1,,52.46,,true,0,0,0,0,null,0,1,0,brander-desktop,0,0
03:11:20,0,CPUfront2,,29.85,,true,0,0,0,0,null,0,1,0,brander-desktop,0,0
03:11:21,0,CPUfront3,,39.87,,true,0,0,0,0,null,0,1,0,brander-desktop,0,0
03:11:22,0,CPUfront4,,46.67,,true,0,0,0,0,null,0,1,0,brander-desktop,0,0
03:11:24,0,CPUstatic,,8.59,,true,0,0,0,0,null,0,1,0,brander-desktop,0,0
03:11:25,0,CPUdb,,25.21,,true,0,0,0,0,null,0,1,0,brander-desktop,0,0
03:11:26,0,CPUfront1,,46.47,,true,0,0,0,0,null,0,1,0,brander-desktop,0,0
03:11:27,0,CPUfront2,,51.62,,true,0,0,0,0,null,0,1,0,brander-desktop,0,0
03:11:28,0,CPUfront3,,45.27,,true,0,0,0,0,null,0,1,0,brander-desktop,0,0
03:11:29,0,CPUfront4,,44.83,,true,0,0,0,0,null,0,1,0,brander-desktop,0,0
03:11:31,0,CPUstatic,,9.54,,true,0,0,0,0,null,0,1,0,brander-desktop,0,0
03:11:32,0,CPUdb,,22.46,,true,0,0,0,0,null,0,1,0,brander-desktop,0,0
03:11:33,0,CPUfront1,,34.63,,true,0,0,0,0,null,0,1,0,brander-desktop,0,0
03:11:34,0,CPUfront2,,39.29,,true,0,0,0,0,null,0,1,0,brander-desktop,0,0
03:11:35,0,CPUfront3,,46.52,,true,0,0,0,0,null,0,1,0,brander-desktop,0,0
03:11:36,0,CPUfront4,,35.11,,true,0,0,0,0,null,0,1,0,brander-desktop,0,0
03:11:37,0,CPUstatic,,9.44,,true,0,0,0,0,null,0,1,0,brander-desktop,0,0
03:11:38,0,CPUdb,,24.1,,true,0,0,0,0,null,0,1,0,brander-desktop,0,0
03:11:39,0,CPUfront1,,40.58,,true,0,0,0,0,null,0,1,0,brander-desktop,0,0
03:11:41,0,CPUfront2,,53.52,,true,0,0,0,0,null,0,1,0,brander-desktop,0,0
03:11:42,0,CPUfront3,,39.09,,true,0,0,0,0,null,0,1,0,brander-desktop,0,0
03:11:43,0,CPUfront4,,34.61,,true,0,0,0,0,null,0,1,0,brander-desktop,0,0
03:11:44,0,CPUstatic,,9.15,,true,0,0,0,0,null,0,1,0,brander-desktop,0,0
03:11:45,0,CPUdb,,25.99,,true,0,0,0,0,null,0,1,0,brander-desktop,0,0
03:11:46,0,CPUfront1,,56.0,,true,0,0,0,0,null,0,1,0,brander-desktop,0,0
03:11:48,0,CPUfront2,,36.77,,true,0,0,0,0,null,0,1,0,brander-desktop,0,0
03:11:49,0,CPUfront3,,31.99,,true,0,0,0,0,null,0,1,0,brander-desktop,0,0
03:11:50,0,CPUfront4,,42.08,,true,0,0,0,0,null,0,1,0,brander-desktop,0,0
03:11:51,0,CPUstatic,,8.79,,true,0,0,0,0,null,0,1,0,brander-desktop,0,0
03:11:52,0,CPUdb,,21.67,,true,0,0,0,0,null,0,1,0,brander-desktop,0,0
03:11:53,0,CPUfront1,,34.74,,true,0,0,0,0,null,0,1,0,brander-desktop,0,0
03:11:54,0,CPUfront2,,33.75,,true,0,0,0,0,null,0,1,0,brander-desktop,0,0
03:11:56,0,CPUfront3,,47.02,,true,0,0,0,0,null,0,1,0,brander-desktop,0,0
03:11:57,0,CPUfront4,,43.91,,true,0,0,0,0,null,0,1,0,brander-desktop,0,0
03:11:58,0,CPUstatic,,8.68,,true,0,0,0,0,null,0,1,0,brander-desktop,0,0
03:11:59,0,CPUdb,,29.59,,true,0,0,0,0,null,0,1,0,brander-desktop,0,0
03:12:00,0,CPUfront1,,31.8,,true,0,0,0,0,null,0,1,0,brander-desktop,0,0
03:12:01,0,CPUfront2,,34.51,,true,0,0,0,0,null,0,1,0,brander-desktop,0,0
03:12:02,0,CPUfront3,,50.59,,true,0,0,0,0,null,0,1,0,brander-desktop,0,0
03:12:03,0,CPUfront4,,40.78,,true,0,0,0,0,null,0,1,0,brander-desktop,0,0
03:12:04,0,CPUstatic,,9.18,,true,0,0,0,0,null,0,1,0,brander-desktop,0,0
03:12:06,0,CPUdb,,34.45,,true,0,0,0,0,null,0,1,0,brander-desktop,0,0
03:12:07,0,CPUfront1,,38.92,,true,0,0,0,0,null,0,1,0,brander-desktop,0,0
03:12:08,0,CPUfront2,,32.72,,true,0,0,0,0,null,0,1,0,brander-desktop,0,0
03:12:09,0,CPUfront3,,35.73,,true,0,0,0,0,null,0,1,0,brander-desktop,0,0
03:12:10,0,CPUfront4,,33.19,,true,0,0,0,0,null,0,1,0,brander-desktop,0,0
03:12:11,0,CPUstatic,,9.77,,true,0,0,0,0,null,0,1,0,brander-desktop,0,0
03:12:13,0,CPUdb,,23.13,,true,0,0,0,0,null,0,1,0,brander-desktop,0,0
03:12:14,0,CPUfront1,,48.12,,true,0,0,0,0,null,0,1,0,brander-desktop,0,0
03:12:15,0,CPUfront2,,51.26,,true,0,0,0,0,null,0,1,0,brander-desktop,0,0
03:12:16,0,CPUfront3,,43.13,,true,0,0,0,0,null,0,1,0,brander-desktop,0,0
03:12:17,0,CPUfront4,,34.7,,true,0,0,0,0,null,0,1,0,brander-desktop,0,0
03:12:19,0,CPUstatic,,10.28,,true,0,0,0,0,null,0,1,0,brander-desktop,0,0
03:12:20,0,CPUdb,,31.4,,true,0,0,0,0,null,0,1,0,brander-desktop,0,0
03:12:21,0,CPUfront1,,48.35,,true,0,0,0,0,null,0,1,0,brander-desktop,0,0
03:12:22,0,CPUfront2,,45.13,,true,0,0,0,0,null,0,1,0,brander-desktop,0,0
03:12:23,0,CPUfront3,,41.57,,true,0,0,0,0,null,0,1,0,brander-desktop,0,0
03:12:25,0,CPUfront4,,43.83,,true,0,0,0,0,null,0,1,0,brander-desktop,0,0
03:12:26,0,CPUstatic,,9.46,,true,0,0,0,0,null,0,1,0,brander-desktop,0,0
03:12:27,0,CPUdb,,28.74,,true,0,0,0,0,null,0,1,0,brander-desktop,0,0
03:12:28,0,CPUfront1,,32.13,,true,0,0,0,0,null,0,1,0,brander-desktop,0,0
03:12:30,0,CPUfront2,,49.45,,true,0,0,0,0,null,0,1,0,brander-desktop,0,0
03:12:31,0,CPUfront3,,54.6,,true,0,0,0,0,null,0,1,0,brander-desktop,0,0
03:12:32,0,CPUfront4,,42.68,,true,0,0,0,0,null,0,1,0,brander-desktop,0,0
03:12:33,0,CPUstatic,,9.18,,true,0,0,0,0,null,0,1,0,brander-desktop,0,0
03:12:34,0,CPUdb,,26.72,,true,0,0,0,0,null,0,1,0,brander-desktop,0,0
03:12:36,0,CPUfront1,,45.7,,true,0,0,0,0,null,0,1,0,brander-desktop,0,0
03:12:37,0,CPUfront2,,52.93,,true,0,0,0,0,null,0,1,0,brander-desktop,0,0
03:12:38,0,CPUfront3,,45.78,,true,0,0,0,0,null,0,1,0,brander-desktop,0,0
03:12:39,0,CPUfront4,,37.85,,true,0,0,0,0,null,0,1,0,brander-desktop,0,0
03:12:40,0,CPUstatic,,10.13,,true,0,0,0,0,null,0,1,0,brander-desktop,0,0
03:12:41,0,CPUdb,,25.38,,true,0,0,0,0,null,0,1,0,brander-desktop,0,0
03:12:43,0,CPUfront1,,44.08,,true,0,0,0,0,null,0,1,0,brander-desktop,0,0
03:12:44,0,CPUfront2,,29.05,,true,0,0,0,0,null,0,1,0,brander-desktop,0,0
03:12:45,0,CPUfront3,,42.45,,true,0,0,0,0,null,0,1,0,brander-desktop,0,0
03:12:46,0,CPUfront4,,37.97,,true,0,0,0,0,null,0,1,0,brander-desktop,0,0
03:12:47,0,CPUstatic,,9.01,,true,0,0,0,0,null,0,1,0,brander-desktop,0,0
03:12:48,0,CPUdb,,31.12,,true,0,0,0,0,null,0,1,0,brander-desktop,0,0
03:12:49,0,CPUfront1,,45.23,,true,0,0,0,0,null,0,1,0,brander-desktop,0,0
03:12:50,0,CPUfront2,,40.67,,true,0,0,0,0,null,0,1,0,brander-desktop,0,0
03:12:52,0,CPUfront3,,35.24,,true,0,0,0,0,null,0,1,0,brander-desktop,0,0
03:12:53,0,CPUfront4,,46.66,,true,0,0,0,0,null,0,1,0,brander-desktop,0,0
03:12:54,0,CPUstatic,,9.49,,true,0,0,0,0,null,0,1,0,brander-desktop,0,0
03:12:55,0,CPUdb,,24.58,,true,0,0,0,0,null,0,1,0,brander-desktop,0,0
03:12:56,0,CPUfront1,,55.2,,true,0,0,0,0,null,0,1,0,brander-desktop,0,0
03:12:57,0,CPUfront2,,42.99,,true,0,0,0,0,null,0,1,0,brander-desktop,0,0
03:12:59,0,CPUfront3,,47.12,,true,0,0,0,0,null,0,1,0,brander-desktop,0,0
03:13:00,0,CPUfront4,,45.08,,true,0,0,0,0,null,0,1,0,brander-desktop,0,0
03:13:01,0,CPUstatic,,9.13,,true,0,0,0,0,null,0,1,0,brander-desktop,0,0
03:13:02,0,CPUdb,,26.33,,true,0,0,0,0,null,0,1,0,brander-desktop,0,0
03:13:04,0,CPUfront1,,48.61,,true,0,0,0,0,null,0,1,0,brander-desktop,0,0
03:13:05,0,CPUfront2,,32.36,,true,0,0,0,0,null,0,1,0,brander-desktop,0,0
03:13:06,0,CPUfront3,,41.75,,true,0,0,0,0,null,0,1,0,brander-desktop,0,0
03:13:07,0,CPUfront4,,48.25,,true,0,0,0,0,null,0,1,0,brander-desktop,0,0
03:13:09,0,CPUstatic,,8.6,,true,0,0,0,0,null,0,1,0,brander-desktop,0,0
03:13:10,0,CPUdb,,27.53,,true,0,0,0,0,null,0,1,0,brander-desktop,0,0
03:13:11,0,CPUfront1,,47.66,,true,0,0,0,0,null,0,1,0,brander-desktop,0,0
03:13:12,0,CPUfront2,,31.55,,true,0,0,0,0,null,0,1,0,brander-desktop,0,0
03:13:13,0,CPUfront3,,32.57,,true,0,0,0,0,null,0,1,0,brander-desktop,0,0
03:13:15,0,CPUfront4,,44.05,,true,0,0,0,0,null,0,1,0,brander-desktop,0,0
03:13:16,0,CPUstatic,,10.15,,true,0,0,0,0,null,0,1,0,brander-desktop,0,0
03:13:17,0,CPUdb,,30.76,,true,0,0,0,0,null,0,1,0,brander-desktop,0,0
03:13:18,0,CPUfront1,,35.86,,true,0,0,0,0,null,0,1,0,brander-desktop,0,0
03:13:19,0,CPUfront2,,35.98,,true,0,0,0,0,null,0,1,0,brander-desktop,0,0
03:13:21,0,CPUfront3,,38.42,,true,0,0,0,0,null,0,1,0,brander-desktop,0,0
03:13:22,0,CPUfront4,,38.8,,true,0,0,0,0,null,0,1,0,brander-desktop,0,0
03:13:23,0,CPUstatic,,9.43,,true,0,0,0,0,null,0,1,0,brander-desktop,0,0
03:13:24,0,CPUdb,,27.21,,true,0,0,0,0,null,0,1,0,brander-desktop,0,0
03:13:25,0,CPUfront1,,33.89,,true,0,0,0,0,null,0,1,0,brander-desktop,0,0
03:13:26,0,CPUfront2,,21.41,,true,0,0,0,0,null,0,1,0,brander-desktop,0,0
03:13:27,0,CPUfront3,,36.64,,true,0,0,0,0,null,0,1,0,brander-desktop,0,0
03:13:28,0,CPUfront4,,57.26,,true,0,0,0,0,null,0,1,0,brander-desktop,0,0
03:13:30,0,CPUstatic,,9.11,,true,0,0,0,0,null,0,1,0,brander-desktop,0,0
03:13:31,0,CPUdb,,24.07,,true,0,0,0,0,null,0,1,0,brander-desktop,0,0
03:13:32,0,CPUfront1,,39.92,,true,0,0,0,0,null,0,1,0,brander-desktop,0,0
03:13:33,0,CPUfront2,,43.31,,true,0,0,0,0,null,0,1,0,brander-desktop,0,0
03:13:35,0,CPUfront3,,50.21,,true,0,0,0,0,null,0,1,0,brander-desktop,0,0
03:13:36,0,CPUfront4,,53.13,,true,0,0,0,0,null,0,1,0,brander-desktop,0,0
03:13:38,0,CPUstatic,,8.88,,true,0,0,0,0,null,0,1,0,brander-desktop,0,0
03:13:39,0,CPUdb,,26.76,,true,0,0,0,0,null,0,1,0,brander-desktop,0,0
03:13:40,0,CPUfront1,,39.68,,true,0,0,0,0,null,0,1,0,brander-desktop,0,0
03:13:41,0,CPUfront2,,48.15,,true,0,0,0,0,null,0,1,0,brander-desktop,0,0
03:13:43,0,CPUfront3,,56.09,,true,0,0,0,0,null,0,1,0,brander-desktop,0,0
03:13:44,0,CPUfront4,,55.94,,true,0,0,0,0,null,0,1,0,brander-desktop,0,0
03:13:45,0,CPUstatic,,10.85,,true,0,0,0,0,null,0,1,0,brander-desktop,0,0
03:13:46,0,CPUdb,,26.6,,true,0,0,0,0,null,0,1,0,brander-desktop,0,0
03:13:48,0,CPUfront1,,55.21,,true,0,0,0,0,null,0,1,0,brander-desktop,0,0
03:13:49,0,CPUfront2,,41.9,,true,0,0,0,0,null,0,1,0,brander-desktop,0,0
03:13:50,0,CPUfront3,,51.85,,true,0,0,0,0,null,0,1,0,brander-desktop,0,0
03:13:52,0,CPUfront4,,55.05,,true,0,0,0,0,null,0,1,0,brander-desktop,0,0
03:13:53,0,CPUstatic,,8.59,,true,0,0,0,0,null,0,1,0,brander-desktop,0,0
03:13:55,0,CPUdb,,31.99,,true,0,0,0,0,null,0,1,0,brander-desktop,0,0
03:13:56,0,CPUfront1,,38.69,,true,0,0,0,0,null,0,1,0,brander-desktop,0,0
03:13:58,0,CPUfront2,,46.98,,true,0,0,0,0,null,0,1,0,brander-desktop,0,0
03:13:59,0,CPUfront3,,52.19,,true,0,0,0,0,null,0,1,0,brander-desktop,0,0
03:14:01,0,CPUfront4,,54.18,,true,0,0,0,0,null,0,1,0,brander-desktop,0,0
03:14:02,0,CPUstatic,,9.63,,true,0,0,0,0,null,0,1,0,brander-desktop,0,0
03:14:04,0,CPUdb,,20.91,,true,0,0,0,0,null,0,1,0,brander-desktop,0,0
03:14:06,0,CPUfront1,,52.91,,true,0,0,0,0,null,0,1,0,brander-desktop,0,0
03:14:07,0,CPUfront2,,44.4,,true,0,0,0,0,null,0,1,0,brander-desktop,0,0
03:14:08,0,CPUfront3,,54.05,,true,0,0,0,0,null,0,1,0,brander-desktop,0,0
03:14:10,0,CPUfront4,,57.46,,true,0,0,0,0,null,0,1,0,brander-desktop,0,0
03:14:11,0,CPUstatic,,8.57,,true,0,0,0,0,null,0,1,0,brander-desktop,0,0
03:14:13,0,CPUdb,,17.02,,true,0,0,0,0,null,0,1,0,brander-desktop,0,0
03:14:14,0,CPUfront1,,37.7,,true,0,0,0,0,null,0,1,0,brander-desktop,0,0
03:14:15,0,CPUfront2,,39.38,,true,0,0,0,0,null,0,1,0,brander-desktop,0,0
03:14:17,0,CPUfront3,,36.6,,true,0,0,0,0,null,0,1,0,brander-desktop,0,0
03:14:18,0,CPUfront4,,38.87,,true,0,0,0,0,null,0,1,0,brander-desktop,0,0
03:14:23,0,CPUstatic,,8.47,,true,0,0,0,0,null,0,1,0,brander-desktop,0,0
03:14:25,0,CPUdb,,9.36,,true,0,0,0,0,null,0,1,0,brander-desktop,0,0
03:14:26,0,CPUfront1,,70.14,,true,0,0,0,0,null,0,1,0,brander-desktop,0,0
03:14:28,0,CPUfront2,,62.3,,true,0,0,0,0,null,0,1,0,brander-desktop,0,0
03:14:29,0,CPUfront3,,56.04,,true,0,0,0,0,null,0,1,0,brander-desktop,0,0
03:14:31,0,CPUfront4,,31.72,,true,0,0,0,0,null,0,1,0,brander-desktop,0,0
03:14:33,0,CPUstatic,,6.42,,true,0,0,0,0,null,0,1,0,brander-desktop,0,0
03:14:35,0,CPUdb,,28.9,,true,0,0,0,0,null,0,1,0,brander-desktop,0,0
03:14:36,0,CPUfront1,,33.11,,true,0,0,0,0,null,0,1,0,brander-desktop,0,0
03:14:38,0,CPUfront2,,39.29,,true,0,0,0,0,null,0,1,0,brander-desktop,0,0
03:14:40,0,CPUfront3,,65.45,,true,0,0,0,0,null,0,1,0,brander-desktop,0,0
03:14:41,0,CPUfront4,,55.1,,true,0,0,0,0,null,0,1,0,brander-desktop,0,0
03:14:43,0,CPUstatic,,9.78,,true,0,0,0,0,null,0,1,0,brander-desktop,0,0
03:14:44,0,CPUdb,,21.82,,true,0,0,0,0,null,0,1,0,brander-desktop,0,0
03:14:46,0,CPUfront1,,42.07,,true,0,0,0,0,null,0,1,0,brander-desktop,0,0
03:14:47,0,CPUfront2,,38.81,,true,0,0,0,0,null,0,1,0,brander-desktop,0,0
03:14:49,0,CPUfront3,,41.75,,true,0,0,0,0,null,0,1,0,brander-desktop,0,0
03:14:50,0,CPUfront4,,52.66,,true,0,0,0,0,null,0,1,0,brander-desktop,0,0
03:14:52,0,CPUstatic,,9.24,,true,0,0,0,0,null,0,1,0,brander-desktop,0,0
03:14:54,0,CPUdb,,17.65,,true,0,0,0,0,null,0,1,0,brander-desktop,0,0
03:14:55,0,CPUfront1,,41.81,,true,0,0,0,0,null,0,1,0,brander-desktop,0,0
03:14:57,0,CPUfront2,,49.79,,true,0,0,0,0,null,0,1,0,brander-desktop,0,0
03:14:58,0,CPUfront3,,57.05,,true,0,0,0,0,null,0,1,0,brander-desktop,0,0
03:14:59,0,CPUfront4,,11.56,,true,0,0,0,0,null,0,1,0,brander-desktop,0,0
03:15:01,0,CPUstatic,,9.01,,true,0,0,0,0,null,0,1,0,brander-desktop,0,0
03:15:02,0,CPUdb,,17.21,,true,0,0,0,0,null,0,1,0,brander-desktop,0,0
03:15:05,0,CPUfront1,,15.16,,true,0,0,0,0,null,0,1,0,brander-desktop,0,0
03:15:06,0,CPUfront2,,65.01,,true,0,0,0,0,null,0,1,0,brander-desktop,0,0
03:15:07,0,CPUfront3,,58.76,,true,0,0,0,0,null,0,1,0,brander-desktop,0,0
03:15:08,0,CPUfront4,,50.75,,true,0,0,0,0,null,0,1,0,brander-desktop,0,0
03:15:10,0,CPUstatic,,10.27,,true,0,0,0,0,null,0,1,0,brander-desktop,0,0
03:15:11,0,CPUdb,,19.88,,true,0,0,0,0,null,0,1,0,brander-desktop,0,0
03:15:13,0,CPUfront1,,39.66,,true,0,0,0,0,null,0,1,0,brander-desktop,0,0
03:15:15,0,CPUfront2,,37.51,,true,0,0,0,0,null,0,1,0,brander-desktop,0,0
03:15:16,0,CPUfront3,,40.1,,true,0,0,0,0,null,0,1,0,brander-desktop,0,0
03:15:18,0,CPUfront4,,51.74,,true,0,0,0,0,null,0,1,0,brander-desktop,0,0
03:15:19,0,CPUstatic,,8.86,,true,0,0,0,0,null,0,1,0,brander-desktop,0,0
03:15:21,0,CPUdb,,28.97,,true,0,0,0,0,null,0,1,0,brander-desktop,0,0
03:15:23,0,CPUfront1,,47.79,,true,0,0,0,0,null,0,1,0,brander-desktop,0,0
03:15:24,0,CPUfront2,,34.67,,true,0,0,0,0,null,0,1,0,brander-desktop,0,0
03:15:26,0,CPUfront3,,27.06,,true,0,0,0,0,null,0,1,0,brander-desktop,0,0
03:15:28,0,CPUfront4,,48.58,,true,0,0,0,0,null,0,1,0,brander-desktop,0,0
03:15:29,0,CPUstatic,,9.66,,true,0,0,0,0,null,0,1,0,brander-desktop,0,0
03:15:31,0,CPUdb,,25.93,,true,0,0,0,0,null,0,1,0,brander-desktop,0,0
03:15:32,0,CPUfront1,,56.06,,true,0,0,0,0,null,0,1,0,brander-desktop,0,0
03:15:34,0,CPUfront2,,25.23,,true,0,0,0,0,null,0,1,0,brander-desktop,0,0
03:15:35,0,CPUfront3,,49.83,,true,0,0,0,0,null,0,1,0,brander-desktop,0,0
03:15:36,0,CPUfront4,,57.34,,true,0,0,0,0,null,0,1,0,brander-desktop,0,0
03:15:37,0,CPUstatic,,9.91,,true,0,0,0,0,null,0,1,0,brander-desktop,0,0
03:15:39,0,CPUdb,,30.89,,true,0,0,0,0,null,0,1,0,brander-desktop,0,0
03:15:40,0,CPUfront1,,52.1,,true,0,0,0,0,null,0,1,0,brander-desktop,0,0
03:15:42,0,CPUfront2,,48.03,,true,0,0,0,0,null,0,1,0,brander-desktop,0,0
03:15:43,0,CPUfront3,,33.33,,true,0,0,0,0,null,0,1,0,brander-desktop,0,0
03:15:44,0,CPUfront4,,57.85,,true,0,0,0,0,null,0,1,0,brander-desktop,0,0
03:15:46,0,CPUstatic,,10.37,,true,0,0,0,0,null,0,1,0,brander-desktop,0,0
03:15:47,0,CPUdb,,13.33,,true,0,0,0,0,null,0,1,0,brander-desktop,0,0
03:15:49,0,CPUfront1,,45.08,,true,0,0,0,0,null,0,1,0,brander-desktop,0,0
03:15:50,0,CPUfront2,,46.43,,true,0,0,0,0,null,0,1,0,brander-desktop,0,0
03:15:52,0,CPUfront3,,29.24,,true,0,0,0,0,null,0,1,0,brander-desktop,0,0
03:15:53,0,CPUfront4,,49.96,,true,0,0,0,0,null,0,1,0,brander-desktop,0,0
03:15:55,0,CPUstatic,,9.93,,true,0,0,0,0,null,0,1,0,brander-desktop,0,0
03:15:56,0,CPUdb,,26.81,,true,0,0,0,0,null,0,1,0,brander-desktop,0,0
03:15:57,0,CPUfront1,,40.08,,true,0,0,0,0,null,0,1,0,brander-desktop,0,0
03:15:59,0,CPUfront2,,22.85,,true,0,0,0,0,null,0,1,0,brander-desktop,0,0
03:16:00,0,CPUfront3,,43.73,,true,0,0,0,0,null,0,1,0,brander-desktop,0,0
03:16:01,0,CPUfront4,,45.27,,true,0,0,0,0,null,0,1,0,brander-desktop,0,0
03:16:03,0,CPUstatic,,10.14,,true,0,0,0,0,null,0,1,0,brander-desktop,0,0
03:16:04,0,CPUdb,,20.12,,true,0,0,0,0,null,0,1,0,brander-desktop,0,0
03:16:05,0,CPUfront1,,21.32,,true,0,0,0,0,null,0,1,0,brander-desktop,0,0
03:16:06,0,CPUfront2,,44.04,,true,0,0,0,0,null,0,1,0,brander-desktop,0,0
03:16:08,0,CPUfront3,,32.69,,true,0,0,0,0,null,0,1,0,brander-desktop,0,0
03:16:09,0,CPUfront4,,41.08,,true,0,0,0,0,null,0,1,0,brander-desktop,0,0
03:16:10,0,CPUstatic,,9.45,,true,0,0,0,0,null,0,1,0,brander-desktop,0,0
03:16:11,0,CPUdb,,20.7,,true,0,0,0,0,null,0,1,0,brander-desktop,0,0
03:16:13,0,CPUfront1,,41.76,,true,0,0,0,0,null,0,1,0,brander-desktop,0,0
03:16:14,0,CPUfront2,,40.12,,true,0,0,0,0,null,0,1,0,brander-desktop,0,0
03:16:16,0,CPUfront3,,35.15,,true,0,0,0,0,null,0,1,0,brander-desktop,0,0
03:16:17,0,CPUfront4,,48.07,,true,0,0,0,0,null,0,1,0,brander-desktop,0,0
03:16:18,0,CPUstatic,,8.28,,true,0,0,0,0,null,0,1,0,brander-desktop,0,0
03:16:19,0,CPUdb,,25.74,,true,0,0,0,0,null,0,1,0,brander-desktop,0,0
03:16:20,0,CPUfront1,,35.62,,true,0,0,0,0,null,0,1,0,brander-desktop,0,0
03:16:21,0,CPUfront2,,26.51,,true,0,0,0,0,null,0,1,0,brander-desktop,0,0
03:16:23,0,CPUfront3,,44.82,,true,0,0,0,0,null,0,1,0,brander-desktop,0,0
03:16:24,0,CPUfront4,,30.89,,true,0,0,0,0,null,0,1,0,brander-desktop,0,0
03:16:25,0,CPUstatic,,8.4,,true,0,0,0,0,null,0,1,0,brander-desktop,0,0
03:16:28,0,CPUdb,,16.57,,true,0,0,0,0,null,0,1,0,brander-desktop,0,0
03:16:29,0,CPUfront1,,44.56,,true,0,0,0,0,null,0,1,0,brander-desktop,0,0
03:16:32,0,CPUfront2,,26.39,,true,0,0,0,0,null,0,1,0,brander-desktop,0,0
03:16:33,0,CPUfront3,,67.59,,true,0,0,0,0,null,0,1,0,brander-desktop,0,0
03:16:34,0,CPUfront4,,53.59,,true,0,0,0,0,null,0,1,0,brander-desktop,0,0
03:16:36,0,CPUstatic,,8.46,,true,0,0,0,0,null,0,1,0,brander-desktop,0,0
03:16:37,0,CPUdb,,21.92,,true,0,0,0,0,null,0,1,0,brander-desktop,0,0
03:16:38,0,CPUfront1,,45.61,,true,0,0,0,0,null,0,1,0,brander-desktop,0,0
03:16:41,0,CPUfront2,,47.04,,true,0,0,0,0,null,0,1,0,brander-desktop,0,0
03:16:42,0,CPUfront3,,22.98,,true,0,0,0,0,null,0,1,0,brander-desktop,0,0
03:16:43,0,CPUfront4,,73.6,,true,0,0,0,0,null,0,1,0,brander-desktop,0,0
03:16:45,0,CPUstatic,,11.63,,true,0,0,0,0,null,0,1,0,brander-desktop,0,0
03:16:46,0,CPUdb,,26.4,,true,0,0,0,0,null,0,1,0,brander-desktop,0,0
03:16:47,0,CPUfront1,,21.96,,true,0,0,0,0,null,0,1,0,brander-desktop,0,0
03:16:49,0,CPUfront2,,59.49,,true,0,0,0,0,null,0,1,0,brander-desktop,0,0
03:16:50,0,CPUfront3,,40.52,,true,0,0,0,0,null,0,1,0,brander-desktop,0,0
03:16:51,0,CPUfront4,,61.26,,true,0,0,0,0,null,0,1,0,brander-desktop,0,0
03:16:53,0,CPUstatic,,9.9,,true,0,0,0,0,null,0,1,0,brander-desktop,0,0
03:16:54,0,CPUdb,,26.27,,true,0,0,0,0,null,0,1,0,brander-desktop,0,0
03:16:56,0,CPUfront1,,49.75,,true,0,0,0,0,null,0,1,0,brander-desktop,0,0
03:16:57,0,CPUfront2,,42.47,,true,0,0,0,0,null,0,1,0,brander-desktop,0,0
03:16:59,0,CPUfront3,,48.54,,true,0,0,0,0,null,0,1,0,brander-desktop,0,0
03:17:00,0,CPUfront4,,26.87,,true,0,0,0,0,null,0,1,0,brander-desktop,0,0
03:17:01,0,CPUstatic,,10.65,,true,0,0,0,0,null,0,1,0,brander-desktop,0,0
03:17:03,0,CPUdb,,21.15,,true,0,0,0,0,null,0,1,0,brander-desktop,0,0
03:17:04,0,CPUfront1,,33.11,,true,0,0,0,0,null,0,1,0,brander-desktop,0,0
03:17:06,0,CPUfront2,,30.34,,true,0,0,0,0,null,0,1,0,brander-desktop,0,0
03:17:08,0,CPUfront3,,20.1,,true,0,0,0,0,null,0,1,0,brander-desktop,0,0
03:17:09,0,CPUfront4,,64.49,,true,0,0,0,0,null,0,1,0,brander-desktop,0,0
03:17:10,0,CPUstatic,,9.27,,true,0,0,0,0,null,0,1,0,brander-desktop,0,0
03:17:11,0,CPUdb,,26.67,,true,0,0,0,0,null,0,1,0,brander-desktop,0,0
03:17:12,0,CPUfront1,,51.85,,true,0,0,0,0,null,0,1,0,brander-desktop,0,0
03:17:14,0,CPUfront2,,43.21,,true,0,0,0,0,null,0,1,0,brander-desktop,0,0
03:17:15,0,CPUfront3,,58.91,,true,0,0,0,0,null,0,1,0,brander-desktop,0,0
03:17:16,0,CPUfront4,,47.27,,true,0,0,0,0,null,0,1,0,brander-desktop,0,0
03:17:17,0,CPUstatic,,9.14,,true,0,0,0,0,null,0,1,0,brander-desktop,0,0
03:17:18,0,CPUdb,,27.41,,true,0,0,0,0,null,0,1,0,brander-desktop,0,0
03:17:19,0,CPUfront1,,51.85,,true,0,0,0,0,null,0,1,0,brander-desktop,0,0
03:17:21,0,CPUfront2,,37.54,,true,0,0,0,0,null,0,1,0,brander-desktop,0,0
03:17:22,0,CPUfront3,,33.28,,true,0,0,0,0,null,0,1,0,brander-desktop,0,0
03:17:23,0,CPUfront4,,55.23,,true,0,0,0,0,null,0,1,0,brander-desktop,0,0
03:17:24,0,CPUstatic,,10.51,,true,0,0,0,0,null,0,1,0,brander-desktop,0,0
03:17:26,0,CPUdb,,23.26,,true,0,0,0,0,null,0,1,0,brander-desktop,0,0
03:17:27,0,CPUfront1,,43.89,,true,0,0,0,0,null,0,1,0,brander-desktop,0,0
03:17:28,0,CPUfront2,,45.73,,true,0,0,0,0,null,0,1,0,brander-desktop,0,0
03:17:29,0,CPUfront3,,45.62,,true,0,0,0,0,null,0,1,0,brander-desktop,0,0
03:17:30,0,CPUfront4,,63.26,,true,0,0,0,0,null,0,1,0,brander-desktop,0,0
03:17:32,0,CPUstatic,,9.81,,true,0,0,0,0,null,0,1,0,brander-desktop,0,0
03:17:33,0,CPUdb,,29.9,,true,0,0,0,0,null,0,1,0,brander-desktop,0,0
03:17:34,0,CPUfront1,,53.49,,true,0,0,0,0,null,0,1,0,brander-desktop,0,0
03:17:36,0,CPUfront2,,42.03,,true,0,0,0,0,null,0,1,0,brander-desktop,0,0
03:17:37,0,CPUfront3,,55.28,,true,0,0,0,0,null,0,1,0,brander-desktop,0,0
03:17:39,0,CPUfront4,,49.71,,true,0,0,0,0,null,0,1,0,brander-desktop,0,0
03:17:40,0,CPUstatic,,8.82,,true,0,0,0,0,null,0,1,0,brander-desktop,0,0
03:17:41,0,CPUdb,,29.16,,true,0,0,0,0,null,0,1,0,brander-desktop,0,0
03:17:43,0,CPUfront1,,41.27,,true,0,0,0,0,null,0,1,0,brander-desktop,0,0
03:17:44,0,CPUfront2,,41.64,,true,0,0,0,0,null,0,1,0,brander-desktop,0,0
03:17:45,0,CPUfront3,,25.88,,true,0,0,0,0,null,0,1,0,brander-desktop,0,0
03:17:46,0,CPUfront4,,44.23,,true,0,0,0,0,null,0,1,0,brander-desktop,0,0
03:17:48,0,CPUstatic,,8.14,,true,0,0,0,0,null,0,1,0,brander-desktop,0,0
03:17:49,0,CPUdb,,25.76,,true,0,0,0,0,null,0,1,0,brander-desktop,0,0
03:17:50,0,CPUfront1,,52.07,,true,0,0,0,0,null,0,1,0,brander-desktop,0,0
03:17:51,0,CPUfront2,,29.52,,true,0,0,0,0,null,0,1,0,brander-desktop,0,0
03:17:52,0,CPUfront3,,41.71,,true,0,0,0,0,null,0,1,0,brander-desktop,0,0
03:17:53,0,CPUfront4,,33.47,,true,0,0,0,0,null,0,1,0,brander-desktop,0,0
03:17:54,0,CPUstatic,,8.88,,true,0,0,0,0,null,0,1,0,brander-desktop,0,0
03:17:56,0,CPUdb,,24.16,,true,0,0,0,0,null,0,1,0,brander-desktop,0,0
03:17:57,0,CPUfront1,,30.05,,true,0,0,0,0,null,0,1,0,brander-desktop,0,0
03:17:58,0,CPUfront2,,39.88,,true,0,0,0,0,null,0,1,0,brander-desktop,0,0
03:17:59,0,CPUfront3,,33.78,,true,0,0,0,0,null,0,1,0,brander-desktop,0,0
03:18:00,0,CPUfront4,,52.31,,true,0,0,0,0,null,0,1,0,brander-desktop,0,0
03:18:02,0,CPUstatic,,8.53,,true,0,0,0,0,null,0,1,0,brander-desktop,0,0
03:18:03,0,CPUdb,,21.22,,true,0,0,0,0,null,0,1,0,brander-desktop,0,0
03:18:04,0,CPUfront1,,41.16,,true,0,0,0,0,null,0,1,0,brander-desktop,0,0
03:18:05,0,CPUfront2,,22.91,,true,0,0,0,0,null,0,1,0,brander-desktop,0,0
03:18:07,0,CPUfront3,,60.0,,true,0,0,0,0,null,0,1,0,brander-desktop,0,0
03:18:08,0,CPUfront4,,49.46,,true,0,0,0,0,null,0,1,0,brander-desktop,0,0
03:18:09,0,CPUstatic,,8.73,,true,0,0,0,0,null,0,1,0,brander-desktop,0,0
03:18:10,0,CPUdb,,20.2,,true,0,0,0,0,null,0,1,0,brander-desktop,0,0
03:18:11,0,CPUfront1,,43.37,,true,0,0,0,0,null,0,1,0,brander-desktop,0,0
03:18:12,0,CPUfront2,,40.3,,true,0,0,0,0,null,0,1,0,brander-desktop,0,0
03:18:14,0,CPUfront3,,39.19,,true,0,0,0,0,null,0,1,0,brander-desktop,0,0
03:18:15,0,CPUfront4,,39.21,,true,0,0,0,0,null,0,1,0,brander-desktop,0,0
03:18:17,0,CPUstatic,,9.26,,true,0,0,0,0,null,0,1,0,brander-desktop,0,0
03:18:19,0,CPUdb,,21.7,,true,0,0,0,0,null,0,1,0,brander-desktop,0,0
03:18:20,0,CPUfront1,,55.82,,true,0,0,0,0,null,0,1,0,brander-desktop,0,0
03:18:21,0,CPUfront2,,52.45,,true,0,0,0,0,null,0,1,0,brander-desktop,0,0
03:18:22,0,CPUfront3,,58.24,,true,0,0,0,0,null,0,1,0,brander-desktop,0,0
03:18:23,0,CPUfront4,,53.5,,true,0,0,0,0,null,0,1,0,brander-desktop,0,0
03:18:25,0,CPUstatic,,10.15,,true,0,0,0,0,null,0,1,0,brander-desktop,0,0
03:18:26,0,CPUdb,,14.01,,true,0,0,0,0,null,0,1,0,brander-desktop,0,0
03:18:27,0,CPUfront1,,36.55,,true,0,0,0,0,null,0,1,0,brander-desktop,0,0
03:18:29,0,CPUfront2,,41.92,,true,0,0,0,0,null,0,1,0,brander-desktop,0,0
03:18:30,0,CPUfront3,,43.34,,true,0,0,0,0,null,0,1,0,brander-desktop,0,0
03:18:31,0,CPUfront4,,42.86,,true,0,0,0,0,null,0,1,0,brander-desktop,0,0
03:18:32,0,CPUstatic,,10.33,,true,0,0,0,0,null,0,1,0,brander-desktop,0,0
03:18:33,0,CPUdb,,28.49,,true,0,0,0,0,null,0,1,0,brander-desktop,0,0
03:18:34,0,CPUfront1,,67.23,,true,0,0,0,0,null,0,1,0,brander-desktop,0,0
03:18:35,0,CPUfront2,,53.24,,true,0,0,0,0,null,0,1,0,brander-desktop,0,0
03:18:37,0,CPUfront3,,30.26,,true,0,0,0,0,null,0,1,0,brander-desktop,0,0
03:18:38,0,CPUfront4,,44.01,,true,0,0,0,0,null,0,1,0,brander-desktop,0,0
03:18:39,0,CPUstatic,,8.43,,true,0,0,0,0,null,0,1,0,brander-desktop,0,0
03:18:41,0,CPUdb,,21.87,,true,0,0,0,0,null,0,1,0,brander-desktop,0,0
03:18:42,0,CPUfront1,,19.95,,true,0,0,0,0,null,0,1,0,brander-desktop,0,0
03:18:44,0,CPUfront2,,52.36,,true,0,0,0,0,null,0,1,0,brander-desktop,0,0
03:18:45,0,CPUfront3,,52.13,,true,0,0,0,0,null,0,1,0,brander-desktop,0,0
03:18:46,0,CPUfront4,,60.82,,true,0,0,0,0,null,0,1,0,brander-desktop,0,0
03:18:48,0,CPUstatic,,9.92,,true,0,0,0,0,null,0,1,0,brander-desktop,0,0
03:18:49,0,CPUdb,,29.41,,true,0,0,0,0,null,0,1,0,brander-desktop,0,0
03:18:50,0,CPUfront1,,43.78,,true,0,0,0,0,null,0,1,0,brander-desktop,0,0
03:18:51,0,CPUfront2,,50.38,,true,0,0,0,0,null,0,1,0,brander-desktop,0,0
03:18:53,0,CPUfront3,,32.86,,true,0,0,0,0,null,0,1,0,brander-desktop,0,0
03:18:54,0,CPUfront4,,52.84,,true,0,0,0,0,null,0,1,0,brander-desktop,0,0
03:18:55,0,CPUstatic,,8.21,,true,0,0,0,0,null,0,1,0,brander-desktop,0,0
03:18:57,0,CPUdb,,18.76,,true,0,0,0,0,null,0,1,0,brander-desktop,0,0
03:18:58,0,CPUfront1,,43.8,,true,0,0,0,0,null,0,1,0,brander-desktop,0,0
03:19:00,0,CPUfront2,,47.73,,true,0,0,0,0,null,0,1,0,brander-desktop,0,0
03:19:01,0,CPUfront3,,44.97,,true,0,0,0,0,null,0,1,0,brander-desktop,0,0
03:19:03,0,CPUfront4,,30.58,,true,0,0,0,0,null,0,1,0,brander-desktop,0,0
03:19:05,0,CPUstatic,,9.08,,true,0,0,0,0,null,0,1,0,brander-desktop,0,0
03:19:07,0,CPUdb,,29.64,,true,0,0,0,0,null,0,1,0,brander-desktop,0,0
03:19:08,0,CPUfront1,,63.28,,true,0,0,0,0,null,0,1,0,brander-desktop,0,0
03:19:09,0,CPUfront2,,42.76,,true,0,0,0,0,null,0,1,0,brander-desktop,0,0
03:19:10,0,CPUfront3,,54.07,,true,0,0,0,0,null,0,1,0,brander-desktop,0,0
03:19:12,0,CPUfront4,,34.2,,true,0,0,0,0,null,0,1,0,brander-desktop,0,0
03:19:13,0,CPUstatic,,8.32,,true,0,0,0,0,null,0,1,0,brander-desktop,0,0
03:19:14,0,CPUdb,,12.42,,true,0,0,0,0,null,0,1,0,brander-desktop,0,0
03:19:15,0,CPUfront1,,52.56,,true,0,0,0,0,null,0,1,0,brander-desktop,0,0
03:19:17,0,CPUfront2,,63.86,,true,0,0,0,0,null,0,1,0,brander-desktop,0,0
03:19:18,0,CPUfront3,,54.38,,true,0,0,0,0,null,0,1,0,brander-desktop,0,0
03:19:19,0,CPUfront4,,31.5,,true,0,0,0,0,null,0,1,0,brander-desktop,0,0
03:19:20,0,CPUstatic,,11.75,,true,0,0,0,0,null,0,1,0,brander-desktop,0,0
03:19:22,0,CPUdb,,20.09,,true,0,0,0,0,null,0,1,0,brander-desktop,0,0
03:19:23,0,CPUfront1,,46.59,,true,0,0,0,0,null,0,1,0,brander-desktop,0,0
03:19:24,0,CPUfront2,,51.97,,true,0,0,0,0,null,0,1,0,brander-desktop,0,0
03:19:25,0,CPUfront3,,46.93,,true,0,0,0,0,null,0,1,0,brander-desktop,0,0
03:19:27,0,CPUfront4,,68.94,,true,0,0,0,0,null,0,1,0,brander-desktop,0,0
03:19:28,0,CPUstatic,,11.98,,true,0,0,0,0,null,0,1,0,brander-desktop,0,0
03:19:29,0,CPUdb,,26.01,,true,0,0,0,0,null,0,1,0,brander-desktop,0,0
03:19:30,0,CPUfront1,,25.75,,true,0,0,0,0,null,0,1,0,brander-desktop,0,0
03:19:32,0,CPUfront2,,35.67,,true,0,0,0,0,null,0,1,0,brander-desktop,0,0
03:19:33,0,CPUfront3,,59.83,,true,0,0,0,0,null,0,1,0,brander-desktop,0,0
03:19:34,0,CPUfront4,,32.89,,true,0,0,0,0,null,0,1,0,brander-desktop,0,0
03:19:36,0,CPUstatic,,10.7,,true,0,0,0,0,null,0,1,0,brander-desktop,0,0
03:19:37,0,CPUdb,,26.27,,true,0,0,0,0,null,0,1,0,brander-desktop,0,0
03:19:38,0,CPUfront1,,47.59,,true,0,0,0,0,null,0,1,0,brander-desktop,0,0
03:19:39,0,CPUfront2,,35.71,,true,0,0,0,0,null,0,1,0,brander-desktop,0,0
03:19:40,0,CPUfront3,,51.63,,true,0,0,0,0,null,0,1,0,brander-desktop,0,0
03:19:42,0,CPUfront4,,26.13,,true,0,0,0,0,null,0,1,0,brander-desktop,0,0
03:19:43,0,CPUstatic,,9.36,,true,0,0,0,0,null,0,1,0,brander-desktop,0,0
03:19:44,0,CPUdb,,30.53,,true,0,0,0,0,null,0,1,0,brander-desktop,0,0
03:19:45,0,CPUfront1,,42.5,,true,0,0,0,0,null,0,1,0,brander-desktop,0,0
03:19:46,0,CPUfront2,,43.2,,true,0,0,0,0,null,0,1,0,brander-desktop,0,0
03:19:47,0,CPUfront3,,28.48,,true,0,0,0,0,null,0,1,0,brander-desktop,0,0
03:19:49,0,CPUfront4,,49.33,,true,0,0,0,0,null,0,1,0,brander-desktop,0,0
03:19:50,0,CPUstatic,,9.21,,true,0,0,0,0,null,0,1,0,brander-desktop,0,0
03:19:51,0,CPUdb,,25.04,,true,0,0,0,0,null,0,1,0,brander-desktop,0,0
03:19:52,0,CPUfront1,,38.58,,true,0,0,0,0,null,0,1,0,brander-desktop,0,0
03:19:53,0,CPUfront2,,50.59,,true,0,0,0,0,null,0,1,0,brander-desktop,0,0
03:19:54,0,CPUfront3,,43.98,,true,0,0,0,0,null,0,1,0,brander-desktop,0,0
03:19:56,0,CPUfront4,,30.52,,true,0,0,0,0,null,0,1,0,brander-desktop,0,0
03:19:57,0,CPUstatic,,8.94,,true,0,0,0,0,null,0,1,0,brander-desktop,0,0
03:19:58,0,CPUdb,,17.31,,true,0,0,0,0,null,0,1,0,brander-desktop,0,0
03:19:59,0,CPUfront1,,51.13,,true,0,0,0,0,null,0,1,0,brander-desktop,0,0
03:20:00,0,CPUfront2,,51.34,,true,0,0,0,0,null,0,1,0,brander-desktop,0,0
03:20:01,0,CPUfront3,,39.65,,true,0,0,0,0,null,0,1,0,brander-desktop,0,0
03:20:02,0,CPUfront4,,38.36,,true,0,0,0,0,null,0,1,0,brander-desktop,0,0
03:20:04,0,CPUstatic,,10.65,,true,0,0,0,0,null,0,1,0,brander-desktop,0,0
03:20:05,0,CPUdb,,20.64,,true,0,0,0,0,null,0,1,0,brander-desktop,0,0
03:20:07,0,CPUfront1,,38.22,,true,0,0,0,0,null,0,1,0,brander-desktop,0,0
03:20:08,0,CPUfront2,,28.32,,true,0,0,0,0,null,0,1,0,brander-desktop,0,0
03:20:09,0,CPUfront3,,32.83,,true,0,0,0,0,null,0,1,0,brander-desktop,0,0
03:20:10,0,CPUfront4,,33.89,,true,0,0,0,0,null,0,1,0,brander-desktop,0,0
03:20:12,0,CPUstatic,,8.37,,true,0,0,0,0,null,0,1,0,brander-desktop,0,0
03:20:13,0,CPUdb,,38.12,,true,0,0,0,0,null,0,1,0,brander-desktop,0,0
03:20:14,0,CPUfront1,,47.4,,true,0,0,0,0,null,0,1,0,brander-desktop,0,0
03:20:15,0,CPUfront2,,45.61,,true,0,0,0,0,null,0,1,0,brander-desktop,0,0
03:20:16,0,CPUfront3,,27.0,,true,0,0,0,0,null,0,1,0,brander-desktop,0,0
03:20:17,0,CPUfront4,,40.61,,true,0,0,0,0,null,0,1,0,brander-desktop,0,0
03:20:18,0,CPUstatic,,9.41,,true,0,0,0,0,null,0,1,0,brander-desktop,0,0
03:20:20,0,CPUdb,,38.94,,true,0,0,0,0,null,0,1,0,brander-desktop,0,0
03:20:21,0,CPUfront1,,49.87,,true,0,0,0,0,null,0,1,0,brander-desktop,0,0
03:20:22,0,CPUfront2,,36.4,,true,0,0,0,0,null,0,1,0,brander-desktop,0,0
03:20:24,0,CPUfront3,,50.46,,true,0,0,0,0,null,0,1,0,brander-desktop,0,0
03:20:25,0,CPUfront4,,52.31,,true,0,0,0,0,null,0,1,0,brander-desktop,0,0
03:20:26,0,CPUstatic,,9.49,,true,0,0,0,0,null,0,1,0,brander-desktop,0,0
03:20:28,0,CPUdb,,29.34,,true,0,0,0,0,null,0,1,0,brander-desktop,0,0
03:20:29,0,CPUfront1,,44.5,,true,0,0,0,0,null,0,1,0,brander-desktop,0,0
03:20:30,0,CPUfront2,,46.81,,true,0,0,0,0,null,0,1,0,brander-desktop,0,0
03:20:31,0,CPUfront3,,50.59,,true,0,0,0,0,null,0,1,0,brander-desktop,0,0
03:20:33,0,CPUfront4,,55.59,,true,0,0,0,0,null,0,1,0,brander-desktop,0,0
03:20:34,0,CPUstatic,,9.08,,true,0,0,0,0,null,0,1,0,brander-desktop,0,0
03:20:35,0,CPUdb,,40.1,,true,0,0,0,0,null,0,1,0,brander-desktop,0,0
03:20:36,0,CPUfront1,,29.23,,true,0,0,0,0,null,0,1,0,brander-desktop,0,0
03:20:38,0,CPUfront2,,50.88,,true,0,0,0,0,null,0,1,0,brander-desktop,0,0
03:20:39,0,CPUfront3,,51.57,,true,0,0,0,0,null,0,1,0,brander-desktop,0,0
03:20:41,0,CPUfront4,,57.71,,true,0,0,0,0,null,0,1,0,brander-desktop,0,0
03:20:42,0,CPUstatic,,10.26,,true,0,0,0,0,null,0,1,0,brander-desktop,0,0
03:20:43,0,CPUdb,,28.82,,true,0,0,0,0,null,0,1,0,brander-desktop,0,0
03:20:45,0,CPUfront1,,43.43,,true,0,0,0,0,null,0,1,0,brander-desktop,0,0
03:20:46,0,CPUfront2,,38.39,,true,0,0,0,0,null,0,1,0,brander-desktop,0,0
03:20:47,0,CPUfront3,,52.98,,true,0,0,0,0,null,0,1,0,brander-desktop,0,0
03:20:49,0,CPUfront4,,45.18,,true,0,0,0,0,null,0,1,0,brander-desktop,0,0
03:20:50,0,CPUstatic,,8.23,,true,0,0,0,0,null,0,1,0,brander-desktop,0,0
03:20:51,0,CPUdb,,17.77,,true,0,0,0,0,null,0,1,0,brander-desktop,0,0
03:20:53,0,CPUfront1,,40.71,,true,0,0,0,0,null,0,1,0,brander-desktop,0,0
03:20:54,0,CPUfront2,,53.14,,true,0,0,0,0,null,0,1,0,brander-desktop,0,0
03:20:56,0,CPUfront3,,45.95,,true,0,0,0,0,null,0,1,0,brander-desktop,0,0
03:20:57,0,CPUfront4,,43.0,,true,0,0,0,0,null,0,1,0,brander-desktop,0,0
03:20:58,0,CPUstatic,,9.27,,true,0,0,0,0,null,0,1,0,brander-desktop,0,0
03:20:59,0,CPUdb,,25.25,,true,0,0,0,0,null,0,1,0,brander-desktop,0,0
03:21:01,0,CPUfront1,,41.07,,true,0,0,0,0,null,0,1,0,brander-desktop,0,0
03:21:02,0,CPUfront2,,59.83,,true,0,0,0,0,null,0,1,0,brander-desktop,0,0
03:21:03,0,CPUfront3,,65.59,,true,0,0,0,0,null,0,1,0,brander-desktop,0,0
03:21:04,0,CPUfront4,,37.36,,true,0,0,0,0,null,0,1,0,brander-desktop,0,0
03:21:06,0,CPUstatic,,9.05,,true,0,0,0,0,null,0,1,0,brander-desktop,0,0
03:21:07,0,CPUdb,,41.41,,true,0,0,0,0,null,0,1,0,brander-desktop,0,0
03:21:08,0,CPUfront1,,36.2,,true,0,0,0,0,null,0,1,0,brander-desktop,0,0
03:21:09,0,CPUfront2,,57.36,,true,0,0,0,0,null,0,1,0,brander-desktop,0,0
03:21:11,0,CPUfront3,,54.23,,true,0,0,0,0,null,0,1,0,brander-desktop,0,0
03:21:12,0,CPUfront4,,33.56,,true,0,0,0,0,null,0,1,0,brander-desktop,0,0
03:21:13,0,CPUstatic,,8.86,,true,0,0,0,0,null,0,1,0,brander-desktop,0,0
03:21:14,0,CPUdb,,25.71,,true,0,0,0,0,null,0,1,0,brander-desktop,0,0
03:21:15,0,CPUfront1,,34.89,,true,0,0,0,0,null,0,1,0,brander-desktop,0,0
03:21:16,0,CPUfront2,,56.94,,true,0,0,0,0,null,0,1,0,brander-desktop,0,0
03:21:17,0,CPUfront3,,35.24,,true,0,0,0,0,null,0,1,0,brander-desktop,0,0
03:21:19,0,CPUfront4,,44.02,,true,0,0,0,0,null,0,1,0,brander-desktop,0,0
03:21:20,0,CPUstatic,,8.57,,true,0,0,0,0,null,0,1,0,brander-desktop,0,0
03:21:21,0,CPUdb,,24.7,,true,0,0,0,0,null,0,1,0,brander-desktop,0,0
03:21:22,0,CPUfront1,,41.79,,true,0,0,0,0,null,0,1,0,brander-desktop,0,0
03:21:23,0,CPUfront2,,41.52,,true,0,0,0,0,null,0,1,0,brander-desktop,0,0
03:21:24,0,CPUfront3,,38.33,,true,0,0,0,0,null,0,1,0,brander-desktop,0,0
03:21:25,0,CPUfront4,,41.13,,true,0,0,0,0,null,0,1,0,brander-desktop,0,0
03:21:27,0,CPUstatic,,9.11,,true,0,0,0,0,null,0,1,0,brander-desktop,0,0
03:21:28,0,CPUdb,,20.47,,true,0,0,0,0,null,0,1,0,brander-desktop,0,0
03:21:29,0,CPUfront1,,39.4,,true,0,0,0,0,null,0,1,0,brander-desktop,0,0
03:21:30,0,CPUfront2,,63.58,,true,0,0,0,0,null,0,1,0,brander-desktop,0,0
03:21:31,0,CPUfront3,,47.52,,true,0,0,0,0,null,0,1,0,brander-desktop,0,0
03:21:32,0,CPUfront4,,59.9,,true,0,0,0,0,null,0,1,0,brander-desktop,0,0
03:21:33,0,CPUstatic,,8.5,,true,0,0,0,0,null,0,1,0,brander-desktop,0,0
03:21:35,0,CPUdb,,21.42,,true,0,0,0,0,null,0,1,0,brander-desktop,0,0
03:21:36,0,CPUfront1,,46.16,,true,0,0,0,0,null,0,1,0,brander-desktop,0,0
03:21:37,0,CPUfront2,,41.52,,true,0,0,0,0,null,0,1,0,brander-desktop,0,0
03:21:38,0,CPUfront3,,46.13,,true,0,0,0,0,null,0,1,0,brander-desktop,0,0
03:21:40,0,CPUfront4,,64.76,,true,0,0,0,0,null,0,1,0,brander-desktop,0,0
03:21:41,0,CPUstatic,,10.61,,true,0,0,0,0,null,0,1,0,brander-desktop,0,0
03:21:42,0,CPUdb,,25.55,,true,0,0,0,0,null,0,1,0,brander-desktop,0,0
03:21:44,0,CPUfront1,,33.98,,true,0,0,0,0,null,0,1,0,brander-desktop,0,0
03:21:45,0,CPUfront2,,31.26,,true,0,0,0,0,null,0,1,0,brander-desktop,0,0
03:21:46,0,CPUfront3,,54.88,,true,0,0,0,0,null,0,1,0,brander-desktop,0,0
03:21:48,0,CPUfront4,,59.23,,true,0,0,0,0,null,0,1,0,brander-desktop,0,0
03:21:49,0,CPUstatic,,11.38,,true,0,0,0,0,null,0,1,0,brander-desktop,0,0
03:21:50,0,CPUdb,,47.28,,true,0,0,0,0,null,0,1,0,brander-desktop,0,0
03:21:51,0,CPUfront1,,49.96,,true,0,0,0,0,null,0,1,0,brander-desktop,0,0
03:21:52,0,CPUfront2,,39.37,,true,0,0,0,0,null,0,1,0,brander-desktop,0,0
03:21:54,0,CPUfront3,,53.23,,true,0,0,0,0,null,0,1,0,brander-desktop,0,0
03:21:55,0,CPUfront4,,62.52,,true,0,0,0,0,null,0,1,0,brander-desktop,0,0
03:21:56,0,CPUstatic,,9.89,,true,0,0,0,0,null,0,1,0,brander-desktop,0,0
03:21:58,0,CPUdb,,36.51,,true,0,0,0,0,null,0,1,0,brander-desktop,0,0
03:21:59,0,CPUfront1,,46.98,,true,0,0,0,0,null,0,1,0,brander-desktop,0,0
03:22:00,0,CPUfront2,,24.18,,true,0,0,0,0,null,0,1,0,brander-desktop,0,0
03:22:01,0,CPUfront3,,32.21,,true,0,0,0,0,null,0,1,0,brander-desktop,0,0
03:22:03,0,CPUfront4,,37.4,,true,0,0,0,0,null,0,1,0,brander-desktop,0,0
03:22:04,0,CPUstatic,,10.68,,true,0,0,0,0,null,0,1,0,brander-desktop,0,0
03:22:05,0,CPUdb,,27.41,,true,0,0,0,0,null,0,1,0,brander-desktop,0,0
03:22:06,0,CPUfront1,,49.96,,true,0,0,0,0,null,0,1,0,brander-desktop,0,0
03:22:08,0,CPUfront2,,31.76,,true,0,0,0,0,null,0,1,0,brander-desktop,0,0
03:22:09,0,CPUfront3,,55.96,,true,0,0,0,0,null,0,1,0,brander-desktop,0,0
03:22:10,0,CPUfront4,,52.33,,true,0,0,0,0,null,0,1,0,brander-desktop,0,0
03:22:11,0,CPUstatic,,10.27,,true,0,0,0,0,null,0,1,0,brander-desktop,0,0
03:22:12,0,CPUdb,,23.5,,true,0,0,0,0,null,0,1,0,brander-desktop,0,0
03:22:14,0,CPUfront1,,48.04,,true,0,0,0,0,null,0,1,0,brander-desktop,0,0
03:22:15,0,CPUfront2,,42.47,,true,0,0,0,0,null,0,1,0,brander-desktop,0,0
03:22:16,0,CPUfront3,,36.13,,true,0,0,0,0,null,0,1,0,brander-desktop,0,0
03:22:17,0,CPUfront4,,49.29,,true,0,0,0,0,null,0,1,0,brander-desktop,0,0
03:22:18,0,CPUstatic,,9.22,,true,0,0,0,0,null,0,1,0,brander-desktop,0,0
03:22:19,0,CPUdb,,38.58,,true,0,0,0,0,null,0,1,0,brander-desktop,0,0
03:22:21,0,CPUfront1,,46.93,,true,0,0,0,0,null,0,1,0,brander-desktop,0,0
03:22:22,0,CPUfront2,,44.99,,true,0,0,0,0,null,0,1,0,brander-desktop,0,0
03:22:23,0,CPUfront3,,45.39,,true,0,0,0,0,null,0,1,0,brander-desktop,0,0
03:22:24,0,CPUfront4,,50.62,,true,0,0,0,0,null,0,1,0,brander-desktop,0,0
03:22:25,0,CPUstatic,,8.7,,true,0,0,0,0,null,0,1,0,brander-desktop,0,0
03:22:26,0,CPUdb,,24.24,,true,0,0,0,0,null,0,1,0,brander-desktop,0,0
03:22:28,0,CPUfront1,,48.54,,true,0,0,0,0,null,0,1,0,brander-desktop,0,0
03:22:29,0,CPUfront2,,36.02,,true,0,0,0,0,null,0,1,0,brander-desktop,0,0
03:22:30,0,CPUfront3,,47.69,,true,0,0,0,0,null,0,1,0,brander-desktop,0,0
03:22:31,0,CPUfront4,,36.48,,true,0,0,0,0,null,0,1,0,brander-desktop,0,0
03:22:32,0,CPUstatic,,8.75,,true,0,0,0,0,null,0,1,0,brander-desktop,0,0
03:22:33,0,CPUdb,,29.97,,true,0,0,0,0,null,0,1,0,brander-desktop,0,0
03:22:34,0,CPUfront1,,38.64,,true,0,0,0,0,null,0,1,0,brander-desktop,0,0
03:22:35,0,CPUfront2,,44.03,,true,0,0,0,0,null,0,1,0,brander-desktop,0,0
03:22:37,0,CPUfront3,,32.86,,true,0,0,0,0,null,0,1,0,brander-desktop,0,0
03:22:38,0,CPUfront4,,51.42,,true,0,0,0,0,null,0,1,0,brander-desktop,0,0
03:22:39,0,CPUstatic,,9.5,,true,0,0,0,0,null,0,1,0,brander-desktop,0,0
03:22:40,0,CPUdb,,25.78,,true,0,0,0,0,null,0,1,0,brander-desktop,0,0
03:22:41,0,CPUfront1,,56.55,,true,0,0,0,0,null,0,1,0,brander-desktop,0,0
03:22:42,0,CPUfront2,,42.39,,true,0,0,0,0,null,0,1,0,brander-desktop,0,0
03:22:43,0,CPUfront3,,35.94,,true,0,0,0,0,null,0,1,0,brander-desktop,0,0
03:22:45,0,CPUfront4,,48.61,,true,0,0,0,0,null,0,1,0,brander-desktop,0,0
03:22:46,0,CPUstatic,,8.55,,true,0,0,0,0,null,0,1,0,brander-desktop,0,0
03:22:47,0,CPUdb,,30.93,,true,0,0,0,0,null,0,1,0,brander-desktop,0,0
03:22:48,0,CPUfront1,,50.96,,true,0,0,0,0,null,0,1,0,brander-desktop,0,0
03:22:49,0,CPUfront2,,40.97,,true,0,0,0,0,null,0,1,0,brander-desktop,0,0
03:22:50,0,CPUfront3,,29.66,,true,0,0,0,0,null,0,1,0,brander-desktop,0,0
03:22:51,0,CPUfront4,,47.15,,true,0,0,0,0,null,0,1,0,brander-desktop,0,0
03:22:52,0,CPUstatic,,9.83,,true,0,0,0,0,null,0,1,0,brander-desktop,0,0
03:22:53,0,CPUdb,,37.72,,true,0,0,0,0,null,0,1,0,brander-desktop,0,0
03:22:55,0,CPUfront1,,38.09,,true,0,0,0,0,null,0,1,0,brander-desktop,0,0
03:22:56,0,CPUfront2,,44.27,,true,0,0,0,0,null,0,1,0,brander-desktop,0,0
03:22:57,0,CPUfront3,,37.29,,true,0,0,0,0,null,0,1,0,brander-desktop,0,0
03:22:58,0,CPUfront4,,28.39,,true,0,0,0,0,null,0,1,0,brander-desktop,0,0
03:22:59,0,CPUstatic,,8.61,,true,0,0,0,0,null,0,1,0,brander-desktop,0,0
03:23:00,0,CPUdb,,39.78,,true,0,0,0,0,null,0,1,0,brander-desktop,0,0
03:23:01,0,CPUfront1,,34.87,,true,0,0,0,0,null,0,1,0,brander-desktop,0,0
03:23:03,0,CPUfront2,,52.61,,true,0,0,0,0,null,0,1,0,brander-desktop,0,0
03:23:04,0,CPUfront3,,62.19,,true,0,0,0,0,null,0,1,0,brander-desktop,0,0
03:23:05,0,CPUfront4,,53.63,,true,0,0,0,0,null,0,1,0,brander-desktop,0,0
03:23:06,0,CPUstatic,,10.55,,true,0,0,0,0,null,0,1,0,brander-desktop,0,0
03:23:07,0,CPUdb,,32.66,,true,0,0,0,0,null,0,1,0,brander-desktop,0,0
03:23:08,0,CPUfront1,,44.43,,true,0,0,0,0,null,0,1,0,brander-desktop,0,0
03:23:10,0,CPUfront2,,38.62,,true,0,0,0,0,null,0,1,0,brander-desktop,0,0
03:23:11,0,CPUfront3,,63.04,,true,0,0,0,0,null,0,1,0,brander-desktop,0,0
03:23:12,0,CPUfront4,,59.43,,true,0,0,0,0,null,0,1,0,brander-desktop,0,0
03:23:13,0,CPUstatic,,10.83,,true,0,0,0,0,null,0,1,0,brander-desktop,0,0
03:23:14,0,CPUdb,,46.57,,true,0,0,0,0,null,0,1,0,brander-desktop,0,0
03:23:16,0,CPUfront1,,41.84,,true,0,0,0,0,null,0,1,0,brander-desktop,0,0
03:23:17,0,CPUfront2,,55.38,,true,0,0,0,0,null,0,1,0,brander-desktop,0,0
03:23:18,0,CPUfront3,,45.54,,true,0,0,0,0,null,0,1,0,brander-desktop,0,0
03:23:19,0,CPUfront4,,37.59,,true,0,0,0,0,null,0,1,0,brander-desktop,0,0
03:23:20,0,CPUstatic,,8.72,,true,0,0,0,0,null,0,1,0,brander-desktop,0,0
03:23:21,0,CPUdb,,35.97,,true,0,0,0,0,null,0,1,0,brander-desktop,0,0
03:23:22,0,CPUfront1,,52.52,,true,0,0,0,0,null,0,1,0,brander-desktop,0,0
03:23:24,0,CPUfront2,,45.19,,true,0,0,0,0,null,0,1,0,brander-desktop,0,0
03:23:25,0,CPUfront3,,42.12,,true,0,0,0,0,null,0,1,0,brander-desktop,0,0
03:23:26,0,CPUfront4,,39.11,,true,0,0,0,0,null,0,1,0,brander-desktop,0,0
03:23:27,0,CPUstatic,,9.85,,true,0,0,0,0,null,0,1,0,brander-desktop,0,0
03:23:29,0,CPUdb,,38.11,,true,0,0,0,0,null,0,1,0,brander-desktop,0,0
03:23:30,0,CPUfront1,,34.06,,true,0,0,0,0,null,0,1,0,brander-desktop,0,0
03:23:31,0,CPUfront2,,36.82,,true,0,0,0,0,null,0,1,0,brander-desktop,0,0
03:23:32,0,CPUfront3,,44.59,,true,0,0,0,0,null,0,1,0,brander-desktop,0,0
03:23:34,0,CPUfront4,,27.27,,true,0,0,0,0,null,0,1,0,brander-desktop,0,0
03:23:35,0,CPUstatic,,9.04,,true,0,0,0,0,null,0,1,0,brander-desktop,0,0
03:23:36,0,CPUdb,,38.42,,true,0,0,0,0,null,0,1,0,brander-desktop,0,0
03:23:37,0,CPUfront1,,48.18,,true,0,0,0,0,null,0,1,0,brander-desktop,0,0
03:23:38,0,CPUfront2,,39.21,,true,0,0,0,0,null,0,1,0,brander-desktop,0,0
03:23:39,0,CPUfront3,,56.96,,true,0,0,0,0,null,0,1,0,brander-desktop,0,0
03:23:41,0,CPUfront4,,44.13,,true,0,0,0,0,null,0,1,0,brander-desktop,0,0
03:23:42,0,CPUstatic,,9.72,,true,0,0,0,0,null,0,1,0,brander-desktop,0,0
03:23:43,0,CPUdb,,31.3,,true,0,0,0,0,null,0,1,0,brander-desktop,0,0
03:23:45,0,CPUfront1,,41.66,,true,0,0,0,0,null,0,1,0,brander-desktop,0,0
03:23:46,0,CPUfront2,,23.91,,true,0,0,0,0,null,0,1,0,brander-desktop,0,0
03:23:47,0,CPUfront3,,28.28,,true,0,0,0,0,null,0,1,0,brander-desktop,0,0
03:23:48,0,CPUfront4,,49.66,,true,0,0,0,0,null,0,1,0,brander-desktop,0,0
03:23:49,0,CPUstatic,,9.31,,true,0,0,0,0,null,0,1,0,brander-desktop,0,0
03:23:50,0,CPUdb,,32.94,,true,0,0,0,0,null,0,1,0,brander-desktop,0,0
03:23:51,0,CPUfront1,,54.76,,true,0,0,0,0,null,0,1,0,brander-desktop,0,0
03:23:52,0,CPUfront2,,45.21,,true,0,0,0,0,null,0,1,0,brander-desktop,0,0
03:23:53,0,CPUfront3,,42.85,,true,0,0,0,0,null,0,1,0,brander-desktop,0,0
03:23:55,0,CPUfront4,,44.78,,true,0,0,0,0,null,0,1,0,brander-desktop,0,0
03:23:56,0,CPUstatic,,9.25,,true,0,0,0,0,null,0,1,0,brander-desktop,0,0
03:23:57,0,CPUdb,,41.6,,true,0,0,0,0,null,0,1,0,brander-desktop,0,0
03:23:58,0,CPUfront1,,67.25,,true,0,0,0,0,null,0,1,0,brander-desktop,0,0
03:23:59,0,CPUfront2,,44.89,,true,0,0,0,0,null,0,1,0,brander-desktop,0,0
03:24:00,0,CPUfront3,,48.27,,true,0,0,0,0,null,0,1,0,brander-desktop,0,0
03:24:02,0,CPUfront4,,44.12,,true,0,0,0,0,null,0,1,0,brander-desktop,0,0
03:24:03,0,CPUstatic,,10.91,,true,0,0,0,0,null,0,1,0,brander-desktop,0,0
03:24:04,0,CPUdb,,42.17,,true,0,0,0,0,null,0,1,0,brander-desktop,0,0
03:24:05,0,CPUfront1,,57.37,,true,0,0,0,0,null,0,1,0,brander-desktop,0,0
03:24:06,0,CPUfront2,,52.07,,true,0,0,0,0,null,0,1,0,brander-desktop,0,0
03:24:07,0,CPUfront3,,46.69,,true,0,0,0,0,null,0,1,0,brander-desktop,0,0
03:24:09,0,CPUfront4,,43.28,,true,0,0,0,0,null,0,1,0,brander-desktop,0,0
03:24:10,0,CPUstatic,,9.48,,true,0,0,0,0,null,0,1,0,brander-desktop,0,0
03:24:12,0,CPUdb,,34.89,,true,0,0,0,0,null,0,1,0,brander-desktop,0,0
03:24:13,0,CPUfront1,,46.65,,true,0,0,0,0,null,0,1,0,brander-desktop,0,0
03:24:15,0,CPUfront2,,54.37,,true,0,0,0,0,null,0,1,0,brander-desktop,0,0
03:24:16,0,CPUfront3,,58.78,,true,0,0,0,0,null,0,1,0,brander-desktop,0,0
03:24:17,0,CPUfront4,,58.64,,true,0,0,0,0,null,0,1,0,brander-desktop,0,0
03:24:19,0,CPUstatic,,9.63,,true,0,0,0,0,null,0,1,0,brander-desktop,0,0
03:24:20,0,CPUdb,,32.33,,true,0,0,0,0,null,0,1,0,brander-desktop,0,0
03:24:22,0,CPUfront1,,55.95,,true,0,0,0,0,null,0,1,0,brander-desktop,0,0
03:24:23,0,CPUfront2,,48.54,,true,0,0,0,0,null,0,1,0,brander-desktop,0,0
03:24:24,0,CPUfront3,,51.22,,true,0,0,0,0,null,0,1,0,brander-desktop,0,0
03:24:26,0,CPUfront4,,46.67,,true,0,0,0,0,null,0,1,0,brander-desktop,0,0
03:24:27,0,CPUstatic,,10.26,,true,0,0,0,0,null,0,1,0,brander-desktop,0,0
03:24:28,0,CPUdb,,43.04,,true,0,0,0,0,null,0,1,0,brander-desktop,0,0
03:24:29,0,CPUfront1,,48.57,,true,0,0,0,0,null,0,1,0,brander-desktop,0,0
03:24:31,0,CPUfront2,,50.97,,true,0,0,0,0,null,0,1,0,brander-desktop,0,0
03:24:32,0,CPUfront3,,55.44,,true,0,0,0,0,null,0,1,0,brander-desktop,0,0
03:24:33,0,CPUfront4,,40.86,,true,0,0,0,0,null,0,1,0,brander-desktop,0,0
03:24:34,0,CPUstatic,,11.01,,true,0,0,0,0,null,0,1,0,brander-desktop,0,0
03:24:35,0,CPUdb,,33.22,,true,0,0,0,0,null,0,1,0,brander-desktop,0,0
03:24:37,0,CPUfront1,,42.32,,true,0,0,0,0,null,0,1,0,brander-desktop,0,0
03:24:38,0,CPUfront2,,45.57,,true,0,0,0,0,null,0,1,0,brander-desktop,0,0
03:24:39,0,CPUfront3,,50.76,,true,0,0,0,0,null,0,1,0,brander-desktop,0,0
03:24:40,0,CPUfront4,,43.68,,true,0,0,0,0,null,0,1,0,brander-desktop,0,0
03:24:41,0,CPUstatic,,9.35,,true,0,0,0,0,null,0,1,0,brander-desktop,0,0
03:24:42,0,CPUdb,,51.42,,true,0,0,0,0,null,0,1,0,brander-desktop,0,0
03:24:43,0,CPUfront1,,42.03,,true,0,0,0,0,null,0,1,0,brander-desktop,0,0
03:24:45,0,CPUfront2,,52.93,,true,0,0,0,0,null,0,1,0,brander-desktop,0,0
03:24:46,0,CPUfront3,,66.39,,true,0,0,0,0,null,0,1,0,brander-desktop,0,0
03:24:47,0,CPUfront4,,47.33,,true,0,0,0,0,null,0,1,0,brander-desktop,0,0
03:24:48,0,CPUstatic,,10.14,,true,0,0,0,0,null,0,1,0,brander-desktop,0,0
03:24:49,0,CPUdb,,48.17,,true,0,0,0,0,null,0,1,0,brander-desktop,0,0
03:24:50,0,CPUfront1,,45.48,,true,0,0,0,0,null,0,1,0,brander-desktop,0,0
03:24:51,0,CPUfront2,,39.46,,true,0,0,0,0,null,0,1,0,brander-desktop,0,0
03:24:53,0,CPUfront3,,54.64,,true,0,0,0,0,null,0,1,0,brander-desktop,0,0
03:24:54,0,CPUfront4,,48.28,,true,0,0,0,0,null,0,1,0,brander-desktop,0,0
03:24:55,0,CPUstatic,,10.08,,true,0,0,0,0,null,0,1,0,brander-desktop,0,0
03:24:56,0,CPUdb,,36.56,,true,0,0,0,0,null,0,1,0,brander-desktop,0,0
03:24:57,0,CPUfront1,,32.72,,true,0,0,0,0,null,0,1,0,brander-desktop,0,0
03:24:58,0,CPUfront2,,23.89,,true,0,0,0,0,null,0,1,0,brander-desktop,0,0
03:24:59,0,CPUfront3,,34.34,,true,0,0,0,0,null,0,1,0,brander-desktop,0,0
03:25:00,0,CPUfront4,,34.08,,true,0,0,0,0,null,0,1,0,brander-desktop,0,0
03:25:01,0,CPUstatic,,10.41,,true,0,0,0,0,null,0,1,0,brander-desktop,0,0
03:25:03,0,CPUdb,,53.44,,true,0,0,0,0,null,0,1,0,brander-desktop,0,0
03:25:04,0,CPUfront1,,51.55,,true,0,0,0,0,null,0,1,0,brander-desktop,0,0
03:25:05,0,CPUfront2,,28.15,,true,0,0,0,0,null,0,1,0,brander-desktop,0,0
03:25:06,0,CPUfront3,,44.95,,true,0,0,0,0,null,0,1,0,brander-desktop,0,0
03:25:07,0,CPUfront4,,47.95,,true,0,0,0,0,null,0,1,0,brander-desktop,0,0
03:25:08,0,CPUstatic,,9.87,,true,0,0,0,0,null,0,1,0,brander-desktop,0,0
03:25:10,0,CPUdb,,52.0,,true,0,0,0,0,null,0,1,0,brander-desktop,0,0
03:25:11,0,CPUfront1,,51.68,,true,0,0,0,0,null,0,1,0,brander-desktop,0,0
03:25:12,0,CPUfront2,,38.13,,true,0,0,0,0,null,0,1,0,brander-desktop,0,0
03:25:13,0,CPUfront3,,43.34,,true,0,0,0,0,null,0,1,0,brander-desktop,0,0
03:25:14,0,CPUfront4,,40.72,,true,0,0,0,0,null,0,1,0,brander-desktop,0,0
03:25:16,0,CPUstatic,,10.18,,true,0,0,0,0,null,0,1,0,brander-desktop,0,0
03:25:17,0,CPUdb,,43.39,,true,0,0,0,0,null,0,1,0,brander-desktop,0,0
03:25:18,0,CPUfront1,,47.77,,true,0,0,0,0,null,0,1,0,brander-desktop,0,0
03:25:19,0,CPUfront2,,40.6,,true,0,0,0,0,null,0,1,0,brander-desktop,0,0
03:25:20,0,CPUfront3,,52.58,,true,0,0,0,0,null,0,1,0,brander-desktop,0,0
03:25:21,0,CPUfront4,,47.04,,true,0,0,0,0,null,0,1,0,brander-desktop,0,0
03:25:23,0,CPUstatic,,10.23,,true,0,0,0,0,null,0,1,0,brander-desktop,0,0
03:25:24,0,CPUdb,,33.84,,true,0,0,0,0,null,0,1,0,brander-desktop,0,0
03:25:26,0,CPUfront1,,54.36,,true,0,0,0,0,null,0,1,0,brander-desktop,0,0
03:25:27,0,CPUfront2,,47.64,,true,0,0,0,0,null,0,1,0,brander-desktop,0,0
03:25:28,0,CPUfront3,,46.88,,true,0,0,0,0,null,0,1,0,brander-desktop,0,0
03:25:29,0,CPUfront4,,26.87,,true,0,0,0,0,null,0,1,0,brander-desktop,0,0
03:25:30,0,CPUstatic,,9.21,,true,0,0,0,0,null,0,1,0,brander-desktop,0,0
03:25:31,0,CPUdb,,42.18,,true,0,0,0,0,null,0,1,0,brander-desktop,0,0
03:25:32,0,CPUfront1,,49.12,,true,0,0,0,0,null,0,1,0,brander-desktop,0,0
03:25:34,0,CPUfront2,,45.0,,true,0,0,0,0,null,0,1,0,brander-desktop,0,0
03:25:35,0,CPUfront3,,40.39,,true,0,0,0,0,null,0,1,0,brander-desktop,0,0
03:25:36,0,CPUfront4,,60.81,,true,0,0,0,0,null,0,1,0,brander-desktop,0,0
03:25:37,0,CPUstatic,,10.91,,true,0,0,0,0,null,0,1,0,brander-desktop,0,0
03:25:39,0,CPUdb,,30.54,,true,0,0,0,0,null,0,1,0,brander-desktop,0,0
03:25:40,0,CPUfront1,,41.88,,true,0,0,0,0,null,0,1,0,brander-desktop,0,0
03:25:41,0,CPUfront2,,30.34,,true,0,0,0,0,null,0,1,0,brander-desktop,0,0
03:25:43,0,CPUfront3,,29.06,,true,0,0,0,0,null,0,1,0,brander-desktop,0,0
03:25:44,0,CPUfront4,,41.81,,true,0,0,0,0,null,0,1,0,brander-desktop,0,0
03:25:45,0,CPUstatic,,9.58,,true,0,0,0,0,null,0,1,0,brander-desktop,0,0
03:25:46,0,CPUdb,,33.14,,true,0,0,0,0,null,0,1,0,brander-desktop,0,0
03:25:47,0,CPUfront1,,36.06,,true,0,0,0,0,null,0,1,0,brander-desktop,0,0
03:25:48,0,CPUfront2,,53.03,,true,0,0,0,0,null,0,1,0,brander-desktop,0,0
03:25:50,0,CPUfront3,,42.76,,true,0,0,0,0,null,0,1,0,brander-desktop,0,0
03:25:51,0,CPUfront4,,37.02,,true,0,0,0,0,null,0,1,0,brander-desktop,0,0
03:25:52,0,CPUstatic,,8.74,,true,0,0,0,0,null,0,1,0,brander-desktop,0,0
03:25:53,0,CPUdb,,28.5,,true,0,0,0,0,null,0,1,0,brander-desktop,0,0
03:25:54,0,CPUfront1,,35.4,,true,0,0,0,0,null,0,1,0,brander-desktop,0,0
03:25:55,0,CPUfront2,,47.82,,true,0,0,0,0,null,0,1,0,brander-desktop,0,0
03:25:56,0,CPUfront3,,49.24,,true,0,0,0,0,null,0,1,0,brander-desktop,0,0
03:25:57,0,CPUfront4,,37.74,,true,0,0,0,0,null,0,1,0,brander-desktop,0,0
03:25:59,0,CPUstatic,,8.77,,true,0,0,0,0,null,0,1,0,brander-desktop,0,0
03:26:00,0,CPUdb,,30.79,,true,0,0,0,0,null,0,1,0,brander-desktop,0,0
03:26:01,0,CPUfront1,,47.41,,true,0,0,0,0,null,0,1,0,brander-desktop,0,0
03:26:02,0,CPUfront2,,54.33,,true,0,0,0,0,null,0,1,0,brander-desktop,0,0
03:26:03,0,CPUfront3,,42.1,,true,0,0,0,0,null,0,1,0,brander-desktop,0,0
03:26:05,0,CPUfront4,,35.35,,true,0,0,0,0,null,0,1,0,brander-desktop,0,0
03:26:06,0,CPUstatic,,12.27,,true,0,0,0,0,null,0,1,0,brander-desktop,0,0
03:26:07,0,CPUdb,,29.15,,true,0,0,0,0,null,0,1,0,brander-desktop,0,0
03:26:08,0,CPUfront1,,47.78,,true,0,0,0,0,null,0,1,0,brander-desktop,0,0
03:26:10,0,CPUfront2,,40.62,,true,0,0,0,0,null,0,1,0,brander-desktop,0,0
03:26:11,0,CPUfront3,,45.01,,true,0,0,0,0,null,0,1,0,brander-desktop,0,0
03:26:12,0,CPUfront4,,52.98,,true,0,0,0,0,null,0,1,0,brander-desktop,0,0
03:26:13,0,CPUstatic,,8.95,,true,0,0,0,0,null,0,1,0,brander-desktop,0,0
03:26:15,0,CPUdb,,35.22,,true,0,0,0,0,null,0,1,0,brander-desktop,0,0
03:26:16,0,CPUfront1,,46.67,,true,0,0,0,0,null,0,1,0,brander-desktop,0,0
03:26:17,0,CPUfront2,,28.85,,true,0,0,0,0,null,0,1,0,brander-desktop,0,0
03:26:19,0,CPUfront3,,45.71,,true,0,0,0,0,null,0,1,0,brander-desktop,0,0
03:26:20,0,CPUfront4,,48.71,,true,0,0,0,0,null,0,1,0,brander-desktop,0,0
03:26:21,0,CPUstatic,,10.08,,true,0,0,0,0,null,0,1,0,brander-desktop,0,0
03:26:22,0,CPUdb,,29.6,,true,0,0,0,0,null,0,1,0,brander-desktop,0,0
03:26:24,0,CPUfront1,,45.72,,true,0,0,0,0,null,0,1,0,brander-desktop,0,0
03:26:25,0,CPUfront2,,40.82,,true,0,0,0,0,null,0,1,0,brander-desktop,0,0
03:26:26,0,CPUfront3,,27.53,,true,0,0,0,0,null,0,1,0,brander-desktop,0,0
03:26:27,0,CPUfront4,,50.42,,true,0,0,0,0,null,0,1,0,brander-desktop,0,0
03:26:29,0,CPUstatic,,11.27,,true,0,0,0,0,null,0,1,0,brander-desktop,0,0
03:26:30,0,CPUdb,,32.15,,true,0,0,0,0,null,0,1,0,brander-desktop,0,0
03:26:31,0,CPUfront1,,39.21,,true,0,0,0,0,null,0,1,0,brander-desktop,0,0
03:26:32,0,CPUfront2,,41.73,,true,0,0,0,0,null,0,1,0,brander-desktop,0,0
03:26:33,0,CPUfront3,,39.13,,true,0,0,0,0,null,0,1,0,brander-desktop,0,0
03:26:34,0,CPUfront4,,44.4,,true,0,0,0,0,null,0,1,0,brander-desktop,0,0
03:26:36,0,CPUstatic,,8.42,,true,0,0,0,0,null,0,1,0,brander-desktop,0,0
03:26:37,0,CPUdb,,22.57,,true,0,0,0,0,null,0,1,0,brander-desktop,0,0
03:26:38,0,CPUfront1,,32.04,,true,0,0,0,0,null,0,1,0,brander-desktop,0,0
03:26:39,0,CPUfront2,,41.09,,true,0,0,0,0,null,0,1,0,brander-desktop,0,0
03:26:40,0,CPUfront3,,51.34,,true,0,0,0,0,null,0,1,0,brander-desktop,0,0
03:26:41,0,CPUfront4,,56.58,,true,0,0,0,0,null,0,1,0,brander-desktop,0,0
03:26:42,0,CPUstatic,,9.97,,true,0,0,0,0,null,0,1,0,brander-desktop,0,0
03:26:43,0,CPUdb,,31.69,,true,0,0,0,0,null,0,1,0,brander-desktop,0,0
03:26:45,0,CPUfront1,,42.23,,true,0,0,0,0,null,0,1,0,brander-desktop,0,0
03:26:46,0,CPUfront2,,50.55,,true,0,0,0,0,null,0,1,0,brander-desktop,0,0
03:26:47,0,CPUfront3,,52.05,,true,0,0,0,0,null,0,1,0,brander-desktop,0,0
03:26:48,0,CPUfront4,,41.92,,true,0,0,0,0,null,0,1,0,brander-desktop,0,0
03:26:50,0,CPUstatic,,8.61,,true,0,0,0,0,null,0,1,0,brander-desktop,0,0
03:26:51,0,CPUdb,,30.81,,true,0,0,0,0,null,0,1,0,brander-desktop,0,0
03:26:52,0,CPUfront1,,43.92,,true,0,0,0,0,null,0,1,0,brander-desktop,0,0
03:26:53,0,CPUfront2,,45.63,,true,0,0,0,0,null,0,1,0,brander-desktop,0,0
03:26:55,0,CPUfront3,,39.68,,true,0,0,0,0,null,0,1,0,brander-desktop,0,0
03:26:56,0,CPUfront4,,36.02,,true,0,0,0,0,null,0,1,0,brander-desktop,0,0
03:26:58,0,CPUstatic,,9.38,,true,0,0,0,0,null,0,1,0,brander-desktop,0,0
03:26:59,0,CPUdb,,30.19,,true,0,0,0,0,null,0,1,0,brander-desktop,0,0
03:27:00,0,CPUfront1,,56.45,,true,0,0,0,0,null,0,1,0,brander-desktop,0,0
03:27:02,0,CPUfront2,,52.47,,true,0,0,0,0,null,0,1,0,brander-desktop,0,0
03:27:03,0,CPUfront3,,37.9,,true,0,0,0,0,null,0,1,0,brander-desktop,0,0
03:27:05,0,CPUfront4,,42.48,,true,0,0,0,0,null,0,1,0,brander-desktop,0,0
03:27:06,0,CPUstatic,,10.55,,true,0,0,0,0,null,0,1,0,brander-desktop,0,0
03:27:08,0,CPUdb,,27.65,,true,0,0,0,0,null,0,1,0,brander-desktop,0,0
03:27:09,0,CPUfront1,,50.76,,true,0,0,0,0,null,0,1,0,brander-desktop,0,0
03:27:10,0,CPUfront2,,55.71,,true,0,0,0,0,null,0,1,0,brander-desktop,0,0
03:27:11,0,CPUfront3,,41.3,,true,0,0,0,0,null,0,1,0,brander-desktop,0,0
03:27:13,0,CPUfront4,,44.75,,true,0,0,0,0,null,0,1,0,brander-desktop,0,0
03:27:15,0,CPUstatic,,10.47,,true,0,0,0,0,null,0,1,0,brander-desktop,0,0
03:27:16,0,CPUdb,,25.48,,true,0,0,0,0,null,0,1,0,brander-desktop,0,0
03:27:18,0,CPUfront1,,43.08,,true,0,0,0,0,null,0,1,0,brander-desktop,0,0
03:27:20,0,CPUfront2,,53.43,,true,0,0,0,0,null,0,1,0,brander-desktop,0,0
03:27:22,0,CPUfront3,,45.1,,true,0,0,0,0,null,0,1,0,brander-desktop,0,0
03:27:24,0,CPUfront4,,46.86,,true,0,0,0,0,null,0,1,0,brander-desktop,0,0
03:27:25,0,CPUstatic,,11.61,,true,0,0,0,0,null,0,1,0,brander-desktop,0,0
03:27:27,0,CPUdb,,36.73,,true,0,0,0,0,null,0,1,0,brander-desktop,0,0
03:27:29,0,CPUfront1,,43.41,,true,0,0,0,0,null,0,1,0,brander-desktop,0,0
03:27:31,0,CPUfront2,,39.5,,true,0,0,0,0,null,0,1,0,brander-desktop,0,0
03:27:33,0,CPUfront3,,42.92,,true,0,0,0,0,null,0,1,0,brander-desktop,0,0
03:27:35,0,CPUfront4,,53.25,,true,0,0,0,0,null,0,1,0,brander-desktop,0,0
03:27:37,0,CPUstatic,,9.63,,true,0,0,0,0,null,0,1,0,brander-desktop,0,0
03:27:39,0,CPUdb,,27.23,,true,0,0,0,0,null,0,1,0,brander-desktop,0,0
03:27:41,0,CPUfront1,,35.43,,true,0,0,0,0,null,0,1,0,brander-desktop,0,0
03:27:43,0,CPUfront2,,41.74,,true,0,0,0,0,null,0,1,0,brander-desktop,0,0
03:27:45,0,CPUfront3,,34.68,,true,0,0,0,0,null,0,1,0,brander-desktop,0,0
03:27:46,0,CPUfront4,,37.19,,true,0,0,0,0,null,0,1,0,brander-desktop,0,0
03:27:48,0,CPUstatic,,8.68,,true,0,0,0,0,null,0,1,0,brander-desktop,0,0
03:27:50,0,CPUdb,,14.93,,true,0,0,0,0,null,0,1,0,brander-desktop,0,0
03:27:52,0,CPUfront1,,57.2,,true,0,0,0,0,null,0,1,0,brander-desktop,0,0
03:27:53,0,CPUfront2,,44.23,,true,0,0,0,0,null,0,1,0,brander-desktop,0,0
03:27:55,0,CPUfront3,,39.83,,true,0,0,0,0,null,0,1,0,brander-desktop,0,0
03:27:57,0,CPUfront4,,58.93,,true,0,0,0,0,null,0,1,0,brander-desktop,0,0
03:27:59,0,CPUstatic,,10.85,,true,0,0,0,0,null,0,1,0,brander-desktop,0,0
03:28:00,0,CPUdb,,26.64,,true,0,0,0,0,null,0,1,0,brander-desktop,0,0
03:28:02,0,CPUfront1,,58.31,,true,0,0,0,0,null,0,1,0,brander-desktop,0,0
03:28:05,0,CPUfront2,,67.66,,true,0,0,0,0,null,0,1,0,brander-desktop,0,0
03:28:08,0,CPUfront3,,35.74,,true,0,0,0,0,null,0,1,0,brander-desktop,0,0
03:28:09,0,CPUfront4,,62.47,,true,0,0,0,0,null,0,1,0,brander-desktop,0,0
03:28:12,0,CPUstatic,,8.21,,true,0,0,0,0,null,0,1,0,brander-desktop,0,0
03:28:13,0,CPUdb,,13.62,,true,0,0,0,0,null,0,1,0,brander-desktop,0,0
03:28:15,0,CPUfront1,,51.97,,true,0,0,0,0,null,0,1,0,brander-desktop,0,0
03:28:17,0,CPUfront2,,53.27,,true,0,0,0,0,null,0,1,0,brander-desktop,0,0
03:28:18,0,CPUfront3,,45.02,,true,0,0,0,0,null,0,1,0,brander-desktop,0,0
03:28:20,0,CPUfront4,,31.95,,true,0,0,0,0,null,0,1,0,brander-desktop,0,0
03:28:22,0,CPUstatic,,9.58,,true,0,0,0,0,null,0,1,0,brander-desktop,0,0
03:28:23,0,CPUdb,,28.34,,true,0,0,0,0,null,0,1,0,brander-desktop,0,0
03:28:25,0,CPUfront1,,46.58,,true,0,0,0,0,null,0,1,0,brander-desktop,0,0
03:28:26,0,CPUfront2,,18.73,,true,0,0,0,0,null,0,1,0,brander-desktop,0,0
03:28:28,0,CPUfront3,,43.28,,true,0,0,0,0,null,0,1,0,brander-desktop,0,0
03:28:30,0,CPUfront4,,48.02,,true,0,0,0,0,null,0,1,0,brander-desktop,0,0
03:28:31,0,CPUstatic,,9.64,,true,0,0,0,0,null,0,1,0,brander-desktop,0,0
03:28:33,0,CPUdb,,23.84,,true,0,0,0,0,null,0,1,0,brander-desktop,0,0
03:28:34,0,CPUfront1,,46.54,,true,0,0,0,0,null,0,1,0,brander-desktop,0,0
03:28:36,0,CPUfront2,,44.62,,true,0,0,0,0,null,0,1,0,brander-desktop,0,0
03:28:37,0,CPUfront3,,47.53,,true,0,0,0,0,null,0,1,0,brander-desktop,0,0
03:28:39,0,CPUfront4,,48.75,,true,0,0,0,0,null,0,1,0,brander-desktop,0,0
03:28:40,0,CPUstatic,,8.57,,true,0,0,0,0,null,0,1,0,brander-desktop,0,0
03:28:42,0,CPUdb,,16.34,,true,0,0,0,0,null,0,1,0,brander-desktop,0,0
03:28:43,0,CPUfront1,,44.02,,true,0,0,0,0,null,0,1,0,brander-desktop,0,0
03:28:45,0,CPUfront2,,39.7,,true,0,0,0,0,null,0,1,0,brander-desktop,0,0
03:28:46,0,CPUfront3,,51.05,,true,0,0,0,0,null,0,1,0,brander-desktop,0,0
03:28:47,0,CPUfront4,,41.88,,true,0,0,0,0,null,0,1,0,brander-desktop,0,0
03:28:49,0,CPUstatic,,9.43,,true,0,0,0,0,null,0,1,0,brander-desktop,0,0
03:28:50,0,CPUdb,,23.18,,true,0,0,0,0,null,0,1,0,brander-desktop,0,0
03:28:52,0,CPUfront1,,55.44,,true,0,0,0,0,null,0,1,0,brander-desktop,0,0
03:28:53,0,CPUfront2,,51.55,,true,0,0,0,0,null,0,1,0,brander-desktop,0,0
03:28:55,0,CPUfront3,,43.32,,true,0,0,0,0,null,0,1,0,brander-desktop,0,0
03:28:57,0,CPUfront4,,51.75,,true,0,0,0,0,null,0,1,0,brander-desktop,0,0
03:28:58,0,CPUstatic,,8.35,,true,0,0,0,0,null,0,1,0,brander-desktop,0,0
03:29:00,0,CPUdb,,25.79,,true,0,0,0,0,null,0,1,0,brander-desktop,0,0
03:29:01,0,CPUfront1,,38.09,,true,0,0,0,0,null,0,1,0,brander-desktop,0,0
03:29:03,0,CPUfront2,,55.92,,true,0,0,0,0,null,0,1,0,brander-desktop,0,0
03:29:04,0,CPUfront3,,51.31,,true,0,0,0,0,null,0,1,0,brander-desktop,0,0
03:29:06,0,CPUfront4,,34.3,,true,0,0,0,0,null,0,1,0,brander-desktop,0,0
03:29:07,0,CPUstatic,,9.77,,true,0,0,0,0,null,0,1,0,brander-desktop,0,0
03:29:08,0,CPUdb,,26.47,,true,0,0,0,0,null,0,1,0,brander-desktop,0,0
03:29:10,0,CPUfront1,,57.95,,true,0,0,0,0,null,0,1,0,brander-desktop,0,0
03:29:11,0,CPUfront2,,37.36,,true,0,0,0,0,null,0,1,0,brander-desktop,0,0
03:29:12,0,CPUfront3,,37.51,,true,0,0,0,0,null,0,1,0,brander-desktop,0,0
03:29:14,0,CPUfront4,,52.66,,true,0,0,0,0,null,0,1,0,brander-desktop,0,0
03:29:15,0,CPUstatic,,9.46,,true,0,0,0,0,null,0,1,0,brander-desktop,0,0
03:29:16,0,CPUdb,,21.77,,true,0,0,0,0,null,0,1,0,brander-desktop,0,0
03:29:18,0,CPUfront1,,57.91,,true,0,0,0,0,null,0,1,0,brander-desktop,0,0
03:29:19,0,CPUfront2,,28.45,,true,0,0,0,0,null,0,1,0,brander-desktop,0,0
03:29:20,0,CPUfront3,,30.0,,true,0,0,0,0,null,0,1,0,brander-desktop,0,0
03:29:21,0,CPUfront4,,29.73,,true,0,0,0,0,null,0,1,0,brander-desktop,0,0
03:29:23,0,CPUstatic,,10.66,,true,0,0,0,0,null,0,1,0,brander-desktop,0,0
03:29:24,0,CPUdb,,21.86,,true,0,0,0,0,null,0,1,0,brander-desktop,0,0
03:29:25,0,CPUfront1,,46.26,,true,0,0,0,0,null,0,1,0,brander-desktop,0,0
03:29:26,0,CPUfront2,,38.99,,true,0,0,0,0,null,0,1,0,brander-desktop,0,0
03:29:27,0,CPUfront3,,41.76,,true,0,0,0,0,null,0,1,0,brander-desktop,0,0
03:29:28,0,CPUfront4,,28.6,,true,0,0,0,0,null,0,1,0,brander-desktop,0,0
03:29:29,0,CPUstatic,,11.82,,true,0,0,0,0,null,0,1,0,brander-desktop,0,0
03:29:30,0,CPUdb,,22.99,,true,0,0,0,0,null,0,1,0,brander-desktop,0,0
03:29:32,0,CPUfront1,,53.5,,true,0,0,0,0,null,0,1,0,brander-desktop,0,0
03:29:33,0,CPUfront2,,41.17,,true,0,0,0,0,null,0,1,0,brander-desktop,0,0
03:29:34,0,CPUfront3,,45.89,,true,0,0,0,0,null,0,1,0,brander-desktop,0,0
03:29:35,0,CPUfront4,,54.29,,true,0,0,0,0,null,0,1,0,brander-desktop,0,0
03:29:36,0,CPUstatic,,11.57,,true,0,0,0,0,null,0,1,0,brander-desktop,0,0
03:29:37,0,CPUdb,,22.58,,true,0,0,0,0,null,0,1,0,brander-desktop,0,0
03:29:39,0,CPUfront1,,67.2,,true,0,0,0,0,null,0,1,0,brander-desktop,0,0
03:29:40,0,CPUfront2,,40.61,,true,0,0,0,0,null,0,1,0,brander-desktop,0,0
03:29:41,0,CPUfront3,,29.98,,true,0,0,0,0,null,0,1,0,brander-desktop,0,0
03:29:42,0,CPUfront4,,46.41,,true,0,0,0,0,null,0,1,0,brander-desktop,0,0
03:29:43,0,CPUstatic,,10.22,,true,0,0,0,0,null,0,1,0,brander-desktop,0,0
03:29:44,0,CPUdb,,25.23,,true,0,0,0,0,null,0,1,0,brander-desktop,0,0
03:29:46,0,CPUfront1,,34.65,,true,0,0,0,0,null,0,1,0,brander-desktop,0,0
03:29:47,0,CPUfront2,,51.8,,true,0,0,0,0,null,0,1,0,brander-desktop,0,0
03:29:48,0,CPUfront3,,38.72,,true,0,0,0,0,null,0,1,0,brander-desktop,0,0
03:29:49,0,CPUfront4,,40.59,,true,0,0,0,0,null,0,1,0,brander-desktop,0,0
03:29:50,0,CPUstatic,,8.67,,true,0,0,0,0,null,0,1,0,brander-desktop,0,0
03:29:51,0,CPUdb,,23.14,,true,0,0,0,0,null,0,1,0,brander-desktop,0,0
03:29:53,0,CPUfront1,,35.91,,true,0,0,0,0,null,0,1,0,brander-desktop,0,0
03:29:54,0,CPUfront2,,43.67,,true,0,0,0,0,null,0,1,0,brander-desktop,0,0
03:29:55,0,CPUfront3,,45.96,,true,0,0,0,0,null,0,1,0,brander-desktop,0,0
03:29:56,0,CPUfront4,,44.0,,true,0,0,0,0,null,0,1,0,brander-desktop,0,0
03:29:57,0,CPUstatic,,10.14,,true,0,0,0,0,null,0,1,0,brander-desktop,0,0
03:29:58,0,CPUdb,,27.29,,true,0,0,0,0,null,0,1,0,brander-desktop,0,0
03:29:59,0,CPUfront1,,37.15,,true,0,0,0,0,null,0,1,0,brander-desktop,0,0
03:30:01,0,CPUfront2,,38.2,,true,0,0,0,0,null,0,1,0,brander-desktop,0,0
03:30:02,0,CPUfront3,,66.75,,true,0,0,0,0,null,0,1,0,brander-desktop,0,0
03:30:03,0,CPUfront4,,53.11,,true,0,0,0,0,null,0,1,0,brander-desktop,0,0
03:30:04,0,CPUstatic,,12.68,,true,0,0,0,0,null,0,1,0,brander-desktop,0,0
03:30:05,0,CPUdb,,17.57,,true,0,0,0,0,null,0,1,0,brander-desktop,0,0
03:30:06,0,CPUfront1,,73.76,,true,0,0,0,0,null,0,1,0,brander-desktop,0,0
03:30:08,0,CPUfront2,,34.14,,true,0,0,0,0,null,0,1,0,brander-desktop,0,0
03:30:09,0,CPUfront3,,63.63,,true,0,0,0,0,null,0,1,0,brander-desktop,0,0
03:30:10,0,CPUfront4,,48.1,,true,0,0,0,0,null,0,1,0,brander-desktop,0,0
03:30:11,0,CPUstatic,,8.83,,true,0,0,0,0,null,0,1,0,brander-desktop,0,0
03:30:12,0,CPUdb,,24.58,,true,0,0,0,0,null,0,1,0,brander-desktop,0,0
03:30:14,0,CPUfront1,,29.15,,true,0,0,0,0,null,0,1,0,brander-desktop,0,0
03:30:15,0,CPUfront2,,40.66,,true,0,0,0,0,null,0,1,0,brander-desktop,0,0
03:30:16,0,CPUfront3,,59.11,,true,0,0,0,0,null,0,1,0,brander-desktop,0,0
03:30:17,0,CPUfront4,,68.39,,true,0,0,0,0,null,0,1,0,brander-desktop,0,0
03:30:19,0,CPUstatic,,12.5,,true,0,0,0,0,null,0,1,0,brander-desktop,0,0
03:30:20,0,CPUdb,,31.57,,true,0,0,0,0,null,0,1,0,brander-desktop,0,0
03:30:21,0,CPUfront1,,49.96,,true,0,0,0,0,null,0,1,0,brander-desktop,0,0
03:30:22,0,CPUfront2,,41.35,,true,0,0,0,0,null,0,1,0,brander-desktop,0,0
03:30:24,0,CPUfront3,,35.78,,true,0,0,0,0,null,0,1,0,brander-desktop,0,0
03:30:25,0,CPUfront4,,63.22,,true,0,0,0,0,null,0,1,0,brander-desktop,0,0
03:30:26,0,CPUstatic,,11.56,,true,0,0,0,0,null,0,1,0,brander-desktop,0,0
03:30:28,0,CPUdb,,26.81,,true,0,0,0,0,null,0,1,0,brander-desktop,0,0
03:30:29,0,CPUfront1,,44.49,,true,0,0,0,0,null,0,1,0,brander-desktop,0,0
03:30:30,0,CPUfront2,,24.79,,true,0,0,0,0,null,0,1,0,brander-desktop,0,0
03:30:32,0,CPUfront3,,39.08,,true,0,0,0,0,null,0,1,0,brander-desktop,0,0
03:30:33,0,CPUfront4,,51.04,,true,0,0,0,0,null,0,1,0,brander-desktop,0,0
03:30:34,0,CPUstatic,,10.81,,true,0,0,0,0,null,0,1,0,brander-desktop,0,0
03:30:35,0,CPUdb,,21.69,,true,0,0,0,0,null,0,1,0,brander-desktop,0,0
03:30:36,0,CPUfront1,,18.94,,true,0,0,0,0,null,0,1,0,brander-desktop,0,0
03:30:37,0,CPUfront2,,8.07,,true,0,0,0,0,null,0,1,0,brander-desktop,0,0
