timeStamp,elapsed,label,responseCode,responseMessage,threadName,success,bytes,sentBytes,grpThreads,allThreads,URL,Latency,SampleCount,ErrorCount,Hostname,IdleTime,Connect
19:15:02,0,RAMstatic,,97.49,,true,0,0,0,0,null,0,1,0,brander-desktop,0,0
19:15:03,0,RAMdb,,68.89,,true,0,0,0,0,null,0,1,0,brander-desktop,0,0
19:15:05,0,RAMfront1,,62.92,,true,0,0,0,0,null,0,1,0,brander-desktop,0,0
19:15:06,0,RAMstatic,,97.5,,true,0,0,0,0,null,0,1,0,brander-desktop,0,0
19:15:07,0,RAMdb,,68.89,,true,0,0,0,0,null,0,1,0,brander-desktop,0,0
19:15:08,0,RAMfront1,,62.93,,true,0,0,0,0,null,0,1,0,brander-desktop,0,0
19:15:09,0,RAMstatic,,97.5,,true,0,0,0,0,null,0,1,0,brander-desktop,0,0
19:15:10,0,RAMdb,,68.9,,true,0,0,0,0,null,0,1,0,brander-desktop,0,0
19:15:12,0,RAMfront1,,62.93,,true,0,0,0,0,null,0,1,0,brander-desktop,0,0
19:15:13,0,RAMstatic,,97.49,,true,0,0,0,0,null,0,1,0,brander-desktop,0,0
19:15:14,0,RAMdb,,68.9,,true,0,0,0,0,null,0,1,0,brander-desktop,0,0
19:15:15,0,RAMfront1,,62.92,,true,0,0,0,0,null,0,1,0,brander-desktop,0,0
19:15:16,0,RAMstatic,,97.49,,true,0,0,0,0,null,0,1,0,brander-desktop,0,0
19:15:17,0,RAMdb,,68.9,,true,0,0,0,0,null,0,1,0,brander-desktop,0,0
19:15:18,0,RAMfront1,,62.92,,true,0,0,0,0,null,0,1,0,brander-desktop,0,0
19:15:19,0,RAMstatic,,97.49,,true,0,0,0,0,null,0,1,0,brander-desktop,0,0
19:15:20,0,RAMdb,,68.9,,true,0,0,0,0,null,0,1,0,brander-desktop,0,0
19:15:21,0,RAMfront1,,62.92,,true,0,0,0,0,null,0,1,0,brander-desktop,0,0
19:15:22,0,RAMstatic,,97.5,,true,0,0,0,0,null,0,1,0,brander-desktop,0,0
19:15:23,0,RAMdb,,68.9,,true,0,0,0,0,null,0,1,0,brander-desktop,0,0
19:15:25,0,RAMfront1,,62.92,,true,0,0,0,0,null,0,1,0,brander-desktop,0,0
19:15:26,0,RAMstatic,,97.49,,true,0,0,0,0,null,0,1,0,brander-desktop,0,0
19:15:27,0,RAMdb,,68.9,,true,0,0,0,0,null,0,1,0,brander-desktop,0,0
19:15:28,0,RAMfront1,,62.92,,true,0,0,0,0,null,0,1,0,brander-desktop,0,0
19:15:29,0,RAMstatic,,97.5,,true,0,0,0,0,null,0,1,0,brander-desktop,0,0
19:15:30,0,RAMdb,,68.89,,true,0,0,0,0,null,0,1,0,brander-desktop,0,0
19:15:31,0,RAMfront1,,62.92,,true,0,0,0,0,null,0,1,0,brander-desktop,0,0
19:15:32,0,RAMstatic,,97.49,,true,0,0,0,0,null,0,1,0,brander-desktop,0,0
19:15:33,0,RAMdb,,68.89,,true,0,0,0,0,null,0,1,0,brander-desktop,0,0
19:15:34,0,RAMfront1,,62.92,,true,0,0,0,0,null,0,1,0,brander-desktop,0,0
19:15:35,0,RAMstatic,,97.49,,true,0,0,0,0,null,0,1,0,brander-desktop,0,0
19:15:36,0,RAMdb,,68.89,,true,0,0,0,0,null,0,1,0,brander-desktop,0,0
19:15:38,0,RAMfront1,,62.91,,true,0,0,0,0,null,0,1,0,brander-desktop,0,0
19:15:39,0,RAMstatic,,97.49,,true,0,0,0,0,null,0,1,0,brander-desktop,0,0
19:15:40,0,RAMdb,,68.89,,true,0,0,0,0,null,0,1,0,brander-desktop,0,0
19:15:41,0,RAMfront1,,62.92,,true,0,0,0,0,null,0,1,0,brander-desktop,0,0
19:15:42,0,RAMstatic,,97.48,,true,0,0,0,0,null,0,1,0,brander-desktop,0,0
19:15:43,0,RAMdb,,68.89,,true,0,0,0,0,null,0,1,0,brander-desktop,0,0
19:15:44,0,RAMfront1,,62.92,,true,0,0,0,0,null,0,1,0,brander-desktop,0,0
19:15:45,0,RAMstatic,,97.48,,true,0,0,0,0,null,0,1,0,brander-desktop,0,0
19:15:46,0,RAMdb,,68.89,,true,0,0,0,0,null,0,1,0,brander-desktop,0,0
19:15:47,0,RAMfront1,,62.91,,true,0,0,0,0,null,0,1,0,brander-desktop,0,0
19:15:48,0,RAMstatic,,97.49,,true,0,0,0,0,null,0,1,0,brander-desktop,0,0
19:15:49,0,RAMdb,,68.89,,true,0,0,0,0,null,0,1,0,brander-desktop,0,0
19:15:51,0,RAMfront1,,62.92,,true,0,0,0,0,null,0,1,0,brander-desktop,0,0
19:15:52,0,RAMstatic,,97.49,,true,0,0,0,0,null,0,1,0,brander-desktop,0,0
19:15:53,0,RAMdb,,68.89,,true,0,0,0,0,null,0,1,0,brander-desktop,0,0
19:15:54,0,RAMfront1,,62.92,,true,0,0,0,0,null,0,1,0,brander-desktop,0,0
19:15:55,0,RAMstatic,,97.49,,true,0,0,0,0,null,0,1,0,brander-desktop,0,0
19:15:56,0,RAMdb,,68.89,,true,0,0,0,0,null,0,1,0,brander-desktop,0,0
19:15:57,0,RAMfront1,,62.92,,true,0,0,0,0,null,0,1,0,brander-desktop,0,0
19:15:58,0,RAMstatic,,97.5,,true,0,0,0,0,null,0,1,0,brander-desktop,0,0
19:15:59,0,RAMdb,,68.89,,true,0,0,0,0,null,0,1,0,brander-desktop,0,0
19:16:00,0,RAMfront1,,62.93,,true,0,0,0,0,null,0,1,0,brander-desktop,0,0
19:16:01,0,RAMstatic,,97.49,,true,0,0,0,0,null,0,1,0,brander-desktop,0,0
19:16:02,0,RAMdb,,68.89,,true,0,0,0,0,null,0,1,0,brander-desktop,0,0
19:16:04,0,RAMfront1,,62.91,,true,0,0,0,0,null,0,1,0,brander-desktop,0,0
19:16:05,0,RAMstatic,,97.5,,true,0,0,0,0,null,0,1,0,brander-desktop,0,0
19:16:06,0,RAMdb,,68.89,,true,0,0,0,0,null,0,1,0,brander-desktop,0,0
19:16:07,0,RAMfront1,,63.04,,true,0,0,0,0,null,0,1,0,brander-desktop,0,0
19:16:08,0,RAMstatic,,97.49,,true,0,0,0,0,null,0,1,0,brander-desktop,0,0
19:16:09,0,RAMdb,,68.89,,true,0,0,0,0,null,0,1,0,brander-desktop,0,0
19:16:10,0,RAMfront1,,63.09,,true,0,0,0,0,null,0,1,0,brander-desktop,0,0
19:16:11,0,RAMstatic,,97.5,,true,0,0,0,0,null,0,1,0,brander-desktop,0,0
19:16:12,0,RAMdb,,68.89,,true,0,0,0,0,null,0,1,0,brander-desktop,0,0
19:16:13,0,RAMfront1,,63.3,,true,0,0,0,0,null,0,1,0,brander-desktop,0,0
19:16:14,0,RAMstatic,,97.5,,true,0,0,0,0,null,0,1,0,brander-desktop,0,0
19:16:16,0,RAMdb,,68.9,,true,0,0,0,0,null,0,1,0,brander-desktop,0,0
19:16:17,0,RAMfront1,,63.5,,true,0,0,0,0,null,0,1,0,brander-desktop,0,0
19:16:18,0,RAMstatic,,97.5,,true,0,0,0,0,null,0,1,0,brander-desktop,0,0
19:16:19,0,RAMdb,,68.89,,true,0,0,0,0,null,0,1,0,brander-desktop,0,0
19:16:20,0,RAMfront1,,63.43,,true,0,0,0,0,null,0,1,0,brander-desktop,0,0
19:16:21,0,RAMstatic,,97.49,,true,0,0,0,0,null,0,1,0,brander-desktop,0,0
19:16:22,0,RAMdb,,68.9,,true,0,0,0,0,null,0,1,0,brander-desktop,0,0
19:16:23,0,RAMfront1,,63.6,,true,0,0,0,0,null,0,1,0,brander-desktop,0,0
19:16:24,0,RAMstatic,,97.5,,true,0,0,0,0,null,0,1,0,brander-desktop,0,0
19:16:26,0,RAMdb,,68.9,,true,0,0,0,0,null,0,1,0,brander-desktop,0,0
19:16:27,0,RAMfront1,,63.6,,true,0,0,0,0,null,0,1,0,brander-desktop,0,0
19:16:28,0,RAMstatic,,97.5,,true,0,0,0,0,null,0,1,0,brander-desktop,0,0
19:16:29,0,RAMdb,,68.89,,true,0,0,0,0,null,0,1,0,brander-desktop,0,0
19:16:30,0,RAMfront1,,63.6,,true,0,0,0,0,null,0,1,0,brander-desktop,0,0
19:16:31,0,RAMstatic,,97.5,,true,0,0,0,0,null,0,1,0,brander-desktop,0,0
19:16:32,0,RAMdb,,68.89,,true,0,0,0,0,null,0,1,0,brander-desktop,0,0
19:16:33,0,RAMfront1,,63.6,,true,0,0,0,0,null,0,1,0,brander-desktop,0,0
19:16:34,0,RAMstatic,,97.5,,true,0,0,0,0,null,0,1,0,brander-desktop,0,0
19:16:35,0,RAMdb,,68.89,,true,0,0,0,0,null,0,1,0,brander-desktop,0,0
19:16:36,0,RAMfront1,,63.61,,true,0,0,0,0,null,0,1,0,brander-desktop,0,0
19:16:38,0,RAMstatic,,97.5,,true,0,0,0,0,null,0,1,0,brander-desktop,0,0
19:16:39,0,RAMdb,,68.89,,true,0,0,0,0,null,0,1,0,brander-desktop,0,0
19:16:40,0,RAMfront1,,63.6,,true,0,0,0,0,null,0,1,0,brander-desktop,0,0
19:16:41,0,RAMstatic,,97.49,,true,0,0,0,0,null,0,1,0,brander-desktop,0,0
19:16:42,0,RAMdb,,68.89,,true,0,0,0,0,null,0,1,0,brander-desktop,0,0
19:16:43,0,RAMfront1,,63.59,,true,0,0,0,0,null,0,1,0,brander-desktop,0,0
19:16:44,0,RAMstatic,,97.5,,true,0,0,0,0,null,0,1,0,brander-desktop,0,0
19:16:45,0,RAMdb,,68.89,,true,0,0,0,0,null,0,1,0,brander-desktop,0,0
19:16:46,0,RAMfront1,,63.76,,true,0,0,0,0,null,0,1,0,brander-desktop,0,0
19:16:47,0,RAMstatic,,97.5,,true,0,0,0,0,null,0,1,0,brander-desktop,0,0
19:16:48,0,RAMdb,,68.89,,true,0,0,0,0,null,0,1,0,brander-desktop,0,0
19:16:49,0,RAMfront1,,63.96,,true,0,0,0,0,null,0,1,0,brander-desktop,0,0
19:16:51,0,RAMstatic,,97.5,,true,0,0,0,0,null,0,1,0,brander-desktop,0,0
19:16:52,0,RAMdb,,68.89,,true,0,0,0,0,null,0,1,0,brander-desktop,0,0
19:16:53,0,RAMfront1,,63.91,,true,0,0,0,0,null,0,1,0,brander-desktop,0,0
19:16:54,0,RAMstatic,,97.49,,true,0,0,0,0,null,0,1,0,brander-desktop,0,0
19:16:55,0,RAMdb,,68.89,,true,0,0,0,0,null,0,1,0,brander-desktop,0,0
19:16:56,0,RAMfront1,,64.15,,true,0,0,0,0,null,0,1,0,brander-desktop,0,0
19:16:57,0,RAMstatic,,97.51,,true,0,0,0,0,null,0,1,0,brander-desktop,0,0
19:16:58,0,RAMdb,,68.89,,true,0,0,0,0,null,0,1,0,brander-desktop,0,0
19:16:59,0,RAMfront1,,64.11,,true,0,0,0,0,null,0,1,0,brander-desktop,0,0
19:17:00,0,RAMstatic,,97.5,,true,0,0,0,0,null,0,1,0,brander-desktop,0,0
19:17:01,0,RAMdb,,68.89,,true,0,0,0,0,null,0,1,0,brander-desktop,0,0
19:17:02,0,RAMfront1,,64.11,,true,0,0,0,0,null,0,1,0,brander-desktop,0,0
19:17:04,0,RAMstatic,,97.5,,true,0,0,0,0,null,0,1,0,brander-desktop,0,0
19:17:05,0,RAMdb,,68.89,,true,0,0,0,0,null,0,1,0,brander-desktop,0,0
19:17:06,0,RAMfront1,,64.11,,true,0,0,0,0,null,0,1,0,brander-desktop,0,0
19:17:07,0,RAMstatic,,97.51,,true,0,0,0,0,null,0,1,0,brander-desktop,0,0
19:17:08,0,RAMdb,,68.9,,true,0,0,0,0,null,0,1,0,brander-desktop,0,0
19:17:09,0,RAMfront1,,64.19,,true,0,0,0,0,null,0,1,0,brander-desktop,0,0
19:17:10,0,RAMstatic,,97.52,,true,0,0,0,0,null,0,1,0,brander-desktop,0,0
19:17:11,0,RAMdb,,68.9,,true,0,0,0,0,null,0,1,0,brander-desktop,0,0
19:17:12,0,RAMfront1,,64.18,,true,0,0,0,0,null,0,1,0,brander-desktop,0,0
19:17:13,0,RAMstatic,,97.51,,true,0,0,0,0,null,0,1,0,brander-desktop,0,0
19:17:14,0,RAMdb,,68.89,,true,0,0,0,0,null,0,1,0,brander-desktop,0,0
19:17:16,0,RAMfront1,,64.25,,true,0,0,0,0,null,0,1,0,brander-desktop,0,0
19:17:17,0,RAMstatic,,97.51,,true,0,0,0,0,null,0,1,0,brander-desktop,0,0
19:17:18,0,RAMdb,,68.9,,true,0,0,0,0,null,0,1,0,brander-desktop,0,0
19:17:19,0,RAMfront1,,64.33,,true,0,0,0,0,null,0,1,0,brander-desktop,0,0
19:17:20,0,RAMstatic,,97.52,,true,0,0,0,0,null,0,1,0,brander-desktop,0,0
19:17:21,0,RAMdb,,68.89,,true,0,0,0,0,null,0,1,0,brander-desktop,0,0
19:17:22,0,RAMfront1,,64.39,,true,0,0,0,0,null,0,1,0,brander-desktop,0,0
19:17:23,0,RAMstatic,,97.51,,true,0,0,0,0,null,0,1,0,brander-desktop,0,0
19:17:24,0,RAMdb,,68.89,,true,0,0,0,0,null,0,1,0,brander-desktop,0,0
19:17:25,0,RAMfront1,,64.49,,true,0,0,0,0,null,0,1,0,brander-desktop,0,0
19:17:27,0,RAMstatic,,97.52,,true,0,0,0,0,null,0,1,0,brander-desktop,0,0
19:17:28,0,RAMdb,,68.9,,true,0,0,0,0,null,0,1,0,brander-desktop,0,0
19:17:29,0,RAMfront1,,64.56,,true,0,0,0,0,null,0,1,0,brander-desktop,0,0
19:17:30,0,RAMstatic,,97.52,,true,0,0,0,0,null,0,1,0,brander-desktop,0,0
19:17:31,0,RAMdb,,68.89,,true,0,0,0,0,null,0,1,0,brander-desktop,0,0
19:17:32,0,RAMfront1,,64.65,,true,0,0,0,0,null,0,1,0,brander-desktop,0,0
19:17:33,0,RAMstatic,,97.52,,true,0,0,0,0,null,0,1,0,brander-desktop,0,0
19:17:34,0,RAMdb,,68.89,,true,0,0,0,0,null,0,1,0,brander-desktop,0,0
19:17:35,0,RAMfront1,,64.69,,true,0,0,0,0,null,0,1,0,brander-desktop,0,0
19:17:36,0,RAMstatic,,97.52,,true,0,0,0,0,null,0,1,0,brander-desktop,0,0
19:17:38,0,RAMdb,,68.89,,true,0,0,0,0,null,0,1,0,brander-desktop,0,0
19:17:39,0,RAMfront1,,64.73,,true,0,0,0,0,null,0,1,0,brander-desktop,0,0
19:17:40,0,RAMstatic,,97.52,,true,0,0,0,0,null,0,1,0,brander-desktop,0,0
19:17:41,0,RAMdb,,68.89,,true,0,0,0,0,null,0,1,0,brander-desktop,0,0
19:17:42,0,RAMfront1,,64.79,,true,0,0,0,0,null,0,1,0,brander-desktop,0,0
19:17:43,0,RAMstatic,,97.52,,true,0,0,0,0,null,0,1,0,brander-desktop,0,0
19:17:44,0,RAMdb,,68.89,,true,0,0,0,0,null,0,1,0,brander-desktop,0,0
19:17:45,0,RAMfront1,,64.84,,true,0,0,0,0,null,0,1,0,brander-desktop,0,0
19:17:47,0,RAMstatic,,97.52,,true,0,0,0,0,null,0,1,0,brander-desktop,0,0
19:17:48,0,RAMdb,,68.89,,true,0,0,0,0,null,0,1,0,brander-desktop,0,0
19:17:49,0,RAMfront1,,64.81,,true,0,0,0,0,null,0,1,0,brander-desktop,0,0
19:17:50,0,RAMstatic,,97.54,,true,0,0,0,0,null,0,1,0,brander-desktop,0,0
19:17:52,0,RAMdb,,68.89,,true,0,0,0,0,null,0,1,0,brander-desktop,0,0
19:17:53,0,RAMfront1,,64.83,,true,0,0,0,0,null,0,1,0,brander-desktop,0,0
19:17:54,0,RAMstatic,,97.54,,true,0,0,0,0,null,0,1,0,brander-desktop,0,0
19:17:55,0,RAMdb,,68.9,,true,0,0,0,0,null,0,1,0,brander-desktop,0,0
19:17:56,0,RAMfront1,,64.86,,true,0,0,0,0,null,0,1,0,brander-desktop,0,0
19:17:58,0,RAMstatic,,97.59,,true,0,0,0,0,null,0,1,0,brander-desktop,0,0
19:17:59,0,RAMdb,,68.89,,true,0,0,0,0,null,0,1,0,brander-desktop,0,0
19:18:00,0,RAMfront1,,64.88,,true,0,0,0,0,null,0,1,0,brander-desktop,0,0
19:18:02,0,RAMstatic,,97.59,,true,0,0,0,0,null,0,1,0,brander-desktop,0,0
19:18:03,0,RAMdb,,68.89,,true,0,0,0,0,null,0,1,0,brander-desktop,0,0
19:18:04,0,RAMfront1,,64.89,,true,0,0,0,0,null,0,1,0,brander-desktop,0,0
19:18:06,0,RAMstatic,,97.56,,true,0,0,0,0,null,0,1,0,brander-desktop,0,0
19:18:07,0,RAMdb,,68.89,,true,0,0,0,0,null,0,1,0,brander-desktop,0,0
19:18:08,0,RAMfront1,,64.9,,true,0,0,0,0,null,0,1,0,brander-desktop,0,0
19:18:09,0,RAMstatic,,97.54,,true,0,0,0,0,null,0,1,0,brander-desktop,0,0
19:18:10,0,RAMdb,,68.9,,true,0,0,0,0,null,0,1,0,brander-desktop,0,0
19:18:11,0,RAMfront1,,64.9,,true,0,0,0,0,null,0,1,0,brander-desktop,0,0
19:18:13,0,RAMstatic,,97.54,,true,0,0,0,0,null,0,1,0,brander-desktop,0,0
19:18:14,0,RAMdb,,68.9,,true,0,0,0,0,null,0,1,0,brander-desktop,0,0
19:18:15,0,RAMfront1,,64.89,,true,0,0,0,0,null,0,1,0,brander-desktop,0,0
19:18:16,0,RAMstatic,,97.55,,true,0,0,0,0,null,0,1,0,brander-desktop,0,0
19:18:17,0,RAMdb,,68.9,,true,0,0,0,0,null,0,1,0,brander-desktop,0,0
19:18:18,0,RAMfront1,,64.96,,true,0,0,0,0,null,0,1,0,brander-desktop,0,0
19:18:19,0,RAMstatic,,97.54,,true,0,0,0,0,null,0,1,0,brander-desktop,0,0
19:18:21,0,RAMdb,,68.9,,true,0,0,0,0,null,0,1,0,brander-desktop,0,0
19:18:22,0,RAMfront1,,65.29,,true,0,0,0,0,null,0,1,0,brander-desktop,0,0
19:18:23,0,RAMstatic,,97.55,,true,0,0,0,0,null,0,1,0,brander-desktop,0,0
19:18:24,0,RAMdb,,68.89,,true,0,0,0,0,null,0,1,0,brander-desktop,0,0
19:18:25,0,RAMfront1,,65.35,,true,0,0,0,0,null,0,1,0,brander-desktop,0,0
19:18:26,0,RAMstatic,,97.57,,true,0,0,0,0,null,0,1,0,brander-desktop,0,0
19:18:28,0,RAMdb,,68.9,,true,0,0,0,0,null,0,1,0,brander-desktop,0,0
19:18:29,0,RAMfront1,,65.35,,true,0,0,0,0,null,0,1,0,brander-desktop,0,0
19:18:30,0,RAMstatic,,97.57,,true,0,0,0,0,null,0,1,0,brander-desktop,0,0
19:18:31,0,RAMdb,,68.89,,true,0,0,0,0,null,0,1,0,brander-desktop,0,0
19:18:32,0,RAMfront1,,65.42,,true,0,0,0,0,null,0,1,0,brander-desktop,0,0
19:18:33,0,RAMstatic,,97.55,,true,0,0,0,0,null,0,1,0,brander-desktop,0,0
19:18:35,0,RAMdb,,68.89,,true,0,0,0,0,null,0,1,0,brander-desktop,0,0
19:18:36,0,RAMfront1,,65.43,,true,0,0,0,0,null,0,1,0,brander-desktop,0,0
19:18:37,0,RAMstatic,,97.57,,true,0,0,0,0,null,0,1,0,brander-desktop,0,0
19:18:38,0,RAMdb,,68.9,,true,0,0,0,0,null,0,1,0,brander-desktop,0,0
19:18:39,0,RAMfront1,,65.4,,true,0,0,0,0,null,0,1,0,brander-desktop,0,0
19:18:41,0,RAMstatic,,97.57,,true,0,0,0,0,null,0,1,0,brander-desktop,0,0
19:18:42,0,RAMdb,,68.9,,true,0,0,0,0,null,0,1,0,brander-desktop,0,0
19:18:43,0,RAMfront1,,65.54,,true,0,0,0,0,null,0,1,0,brander-desktop,0,0
19:18:44,0,RAMstatic,,97.57,,true,0,0,0,0,null,0,1,0,brander-desktop,0,0
19:18:45,0,RAMdb,,68.9,,true,0,0,0,0,null,0,1,0,brander-desktop,0,0
19:18:47,0,RAMfront1,,65.51,,true,0,0,0,0,null,0,1,0,brander-desktop,0,0
19:18:48,0,RAMstatic,,97.57,,true,0,0,0,0,null,0,1,0,brander-desktop,0,0
19:18:49,0,RAMdb,,68.9,,true,0,0,0,0,null,0,1,0,brander-desktop,0,0
19:18:50,0,RAMfront1,,65.67,,true,0,0,0,0,null,0,1,0,brander-desktop,0,0
19:18:51,0,RAMstatic,,97.56,,true,0,0,0,0,null,0,1,0,brander-desktop,0,0
19:18:52,0,RAMdb,,68.89,,true,0,0,0,0,null,0,1,0,brander-desktop,0,0
19:18:53,0,RAMfront1,,65.69,,true,0,0,0,0,null,0,1,0,brander-desktop,0,0
19:18:54,0,RAMstatic,,97.57,,true,0,0,0,0,null,0,1,0,brander-desktop,0,0
19:18:55,0,RAMdb,,68.89,,true,0,0,0,0,null,0,1,0,brander-desktop,0,0
19:18:57,0,RAMfront1,,65.69,,true,0,0,0,0,null,0,1,0,brander-desktop,0,0
19:18:58,0,RAMstatic,,97.57,,true,0,0,0,0,null,0,1,0,brander-desktop,0,0
19:18:59,0,RAMdb,,68.89,,true,0,0,0,0,null,0,1,0,brander-desktop,0,0
19:19:00,0,RAMfront1,,65.87,,true,0,0,0,0,null,0,1,0,brander-desktop,0,0
19:19:01,0,RAMstatic,,97.58,,true,0,0,0,0,null,0,1,0,brander-desktop,0,0
19:19:02,0,RAMdb,,68.9,,true,0,0,0,0,null,0,1,0,brander-desktop,0,0
19:19:03,0,RAMfront1,,65.87,,true,0,0,0,0,null,0,1,0,brander-desktop,0,0
19:19:04,0,RAMstatic,,97.58,,true,0,0,0,0,null,0,1,0,brander-desktop,0,0
19:19:05,0,RAMdb,,68.89,,true,0,0,0,0,null,0,1,0,brander-desktop,0,0
19:19:06,0,RAMfront1,,65.96,,true,0,0,0,0,null,0,1,0,brander-desktop,0,0
19:19:08,0,RAMstatic,,97.59,,true,0,0,0,0,null,0,1,0,brander-desktop,0,0
19:19:09,0,RAMdb,,68.9,,true,0,0,0,0,null,0,1,0,brander-desktop,0,0
19:19:10,0,RAMfront1,,66.33,,true,0,0,0,0,null,0,1,0,brander-desktop,0,0
19:19:11,0,RAMstatic,,97.6,,true,0,0,0,0,null,0,1,0,brander-desktop,0,0
19:19:12,0,RAMdb,,68.9,,true,0,0,0,0,null,0,1,0,brander-desktop,0,0
19:19:13,0,RAMfront1,,66.44,,true,0,0,0,0,null,0,1,0,brander-desktop,0,0
19:19:15,0,RAMstatic,,97.63,,true,0,0,0,0,null,0,1,0,brander-desktop,0,0
19:19:16,0,RAMdb,,68.9,,true,0,0,0,0,null,0,1,0,brander-desktop,0,0
19:19:17,0,RAMfront1,,66.46,,true,0,0,0,0,null,0,1,0,brander-desktop,0,0
19:19:18,0,RAMstatic,,97.64,,true,0,0,0,0,null,0,1,0,brander-desktop,0,0
19:19:20,0,RAMdb,,68.9,,true,0,0,0,0,null,0,1,0,brander-desktop,0,0
19:19:21,0,RAMfront1,,66.49,,true,0,0,0,0,null,0,1,0,brander-desktop,0,0
19:19:22,0,RAMstatic,,97.68,,true,0,0,0,0,null,0,1,0,brander-desktop,0,0
19:19:24,0,RAMdb,,68.9,,true,0,0,0,0,null,0,1,0,brander-desktop,0,0
19:19:25,0,RAMfront1,,66.51,,true,0,0,0,0,null,0,1,0,brander-desktop,0,0
19:19:26,0,RAMstatic,,97.68,,true,0,0,0,0,null,0,1,0,brander-desktop,0,0
19:19:27,0,RAMdb,,68.9,,true,0,0,0,0,null,0,1,0,brander-desktop,0,0
19:19:29,0,RAMfront1,,66.51,,true,0,0,0,0,null,0,1,0,brander-desktop,0,0
19:19:30,0,RAMstatic,,97.64,,true,0,0,0,0,null,0,1,0,brander-desktop,0,0
19:19:32,0,RAMdb,,68.9,,true,0,0,0,0,null,0,1,0,brander-desktop,0,0
19:19:33,0,RAMfront1,,66.41,,true,0,0,0,0,null,0,1,0,brander-desktop,0,0
19:19:34,0,RAMstatic,,97.66,,true,0,0,0,0,null,0,1,0,brander-desktop,0,0
19:19:36,0,RAMdb,,68.9,,true,0,0,0,0,null,0,1,0,brander-desktop,0,0
19:19:37,0,RAMfront1,,66.51,,true,0,0,0,0,null,0,1,0,brander-desktop,0,0
19:19:38,0,RAMstatic,,97.72,,true,0,0,0,0,null,0,1,0,brander-desktop,0,0
19:19:40,0,RAMdb,,68.9,,true,0,0,0,0,null,0,1,0,brander-desktop,0,0
19:19:41,0,RAMfront1,,66.42,,true,0,0,0,0,null,0,1,0,brander-desktop,0,0
19:19:43,0,RAMstatic,,97.74,,true,0,0,0,0,null,0,1,0,brander-desktop,0,0
19:19:44,0,RAMdb,,68.9,,true,0,0,0,0,null,0,1,0,brander-desktop,0,0
19:19:46,0,RAMfront1,,66.46,,true,0,0,0,0,null,0,1,0,brander-desktop,0,0
19:19:47,0,RAMstatic,,97.73,,true,0,0,0,0,null,0,1,0,brander-desktop,0,0
19:19:49,0,RAMdb,,68.9,,true,0,0,0,0,null,0,1,0,brander-desktop,0,0
19:19:51,0,RAMfront1,,66.51,,true,0,0,0,0,null,0,1,0,brander-desktop,0,0
19:19:55,0,RAMstatic,,97.64,,true,0,0,0,0,null,0,1,0,brander-desktop,0,0
19:19:58,0,RAMdb,,68.9,,true,0,0,0,0,null,0,1,0,brander-desktop,0,0
