timeStamp,elapsed,label,responseCode,responseMessage,threadName,success,bytes,sentBytes,grpThreads,allThreads,URL,Latency,SampleCount,ErrorCount,Hostname,IdleTime,Connect
12:15:42,0,RAMstatic,,97.58,,true,0,0,0,0,null,0,1,0,brander-desktop,0,0
12:15:43,0,RAMdb,,96.83,,true,0,0,0,0,null,0,1,0,brander-desktop,0,0
12:15:44,0,RAMfront1,,87.98,,true,0,0,0,0,null,0,1,0,brander-desktop,0,0
12:15:45,0,RAMstatic,,97.59,,true,0,0,0,0,null,0,1,0,brander-desktop,0,0
12:15:46,0,RAMdb,,96.83,,true,0,0,0,0,null,0,1,0,brander-desktop,0,0
12:15:48,0,RAMfront1,,88.03,,true,0,0,0,0,null,0,1,0,brander-desktop,0,0
12:15:49,0,RAMstatic,,97.6,,true,0,0,0,0,null,0,1,0,brander-desktop,0,0
12:15:50,0,RAMdb,,96.84,,true,0,0,0,0,null,0,1,0,brander-desktop,0,0
12:15:51,0,RAMfront1,,88.1,,true,0,0,0,0,null,0,1,0,brander-desktop,0,0
12:15:52,0,RAMstatic,,97.6,,true,0,0,0,0,null,0,1,0,brander-desktop,0,0
12:15:53,0,RAMdb,,96.84,,true,0,0,0,0,null,0,1,0,brander-desktop,0,0
12:15:54,0,RAMfront1,,88.08,,true,0,0,0,0,null,0,1,0,brander-desktop,0,0
12:15:55,0,RAMstatic,,97.61,,true,0,0,0,0,null,0,1,0,brander-desktop,0,0
12:15:56,0,RAMdb,,96.85,,true,0,0,0,0,null,0,1,0,brander-desktop,0,0
12:15:57,0,RAMfront1,,88.35,,true,0,0,0,0,null,0,1,0,brander-desktop,0,0
12:15:59,0,RAMstatic,,97.63,,true,0,0,0,0,null,0,1,0,brander-desktop,0,0
12:16:00,0,RAMdb,,96.9,,true,0,0,0,0,null,0,1,0,brander-desktop,0,0
12:16:01,0,RAMfront1,,88.85,,true,0,0,0,0,null,0,1,0,brander-desktop,0,0
12:16:02,0,RAMstatic,,97.64,,true,0,0,0,0,null,0,1,0,brander-desktop,0,0
12:16:03,0,RAMdb,,96.94,,true,0,0,0,0,null,0,1,0,brander-desktop,0,0
12:16:04,0,RAMfront1,,89.16,,true,0,0,0,0,null,0,1,0,brander-desktop,0,0
12:16:05,0,RAMstatic,,97.66,,true,0,0,0,0,null,0,1,0,brander-desktop,0,0
12:16:06,0,RAMdb,,97.04,,true,0,0,0,0,null,0,1,0,brander-desktop,0,0
12:16:07,0,RAMfront1,,89.12,,true,0,0,0,0,null,0,1,0,brander-desktop,0,0
12:16:09,0,RAMstatic,,97.67,,true,0,0,0,0,null,0,1,0,brander-desktop,0,0
12:16:10,0,RAMdb,,97.06,,true,0,0,0,0,null,0,1,0,brander-desktop,0,0
12:16:11,0,RAMfront1,,88.66,,true,0,0,0,0,null,0,1,0,brander-desktop,0,0
12:16:12,0,RAMstatic,,97.68,,true,0,0,0,0,null,0,1,0,brander-desktop,0,0
12:16:13,0,RAMdb,,97.08,,true,0,0,0,0,null,0,1,0,brander-desktop,0,0
12:16:14,0,RAMfront1,,88.64,,true,0,0,0,0,null,0,1,0,brander-desktop,0,0
12:16:15,0,RAMstatic,,97.69,,true,0,0,0,0,null,0,1,0,brander-desktop,0,0
12:16:16,0,RAMdb,,97.12,,true,0,0,0,0,null,0,1,0,brander-desktop,0,0
12:16:17,0,RAMfront1,,88.78,,true,0,0,0,0,null,0,1,0,brander-desktop,0,0
12:16:19,0,RAMstatic,,97.68,,true,0,0,0,0,null,0,1,0,brander-desktop,0,0
12:16:20,0,RAMdb,,97.14,,true,0,0,0,0,null,0,1,0,brander-desktop,0,0
12:16:21,0,RAMfront1,,88.97,,true,0,0,0,0,null,0,1,0,brander-desktop,0,0
12:16:22,0,RAMstatic,,97.7,,true,0,0,0,0,null,0,1,0,brander-desktop,0,0
12:16:23,0,RAMdb,,97.18,,true,0,0,0,0,null,0,1,0,brander-desktop,0,0
12:16:24,0,RAMfront1,,88.83,,true,0,0,0,0,null,0,1,0,brander-desktop,0,0
12:16:25,0,RAMstatic,,97.74,,true,0,0,0,0,null,0,1,0,brander-desktop,0,0
12:16:26,0,RAMdb,,97.24,,true,0,0,0,0,null,0,1,0,brander-desktop,0,0
12:16:27,0,RAMfront1,,88.99,,true,0,0,0,0,null,0,1,0,brander-desktop,0,0
12:16:29,0,RAMstatic,,97.75,,true,0,0,0,0,null,0,1,0,brander-desktop,0,0
12:16:30,0,RAMdb,,97.25,,true,0,0,0,0,null,0,1,0,brander-desktop,0,0
12:16:31,0,RAMfront1,,89.24,,true,0,0,0,0,null,0,1,0,brander-desktop,0,0
12:16:32,0,RAMstatic,,97.77,,true,0,0,0,0,null,0,1,0,brander-desktop,0,0
12:16:33,0,RAMdb,,97.31,,true,0,0,0,0,null,0,1,0,brander-desktop,0,0
12:16:34,0,RAMfront1,,88.92,,true,0,0,0,0,null,0,1,0,brander-desktop,0,0
12:16:35,0,RAMstatic,,97.77,,true,0,0,0,0,null,0,1,0,brander-desktop,0,0
12:16:36,0,RAMdb,,97.38,,true,0,0,0,0,null,0,1,0,brander-desktop,0,0
12:16:37,0,RAMfront1,,88.77,,true,0,0,0,0,null,0,1,0,brander-desktop,0,0
12:16:38,0,RAMstatic,,97.79,,true,0,0,0,0,null,0,1,0,brander-desktop,0,0
12:16:40,0,RAMdb,,97.42,,true,0,0,0,0,null,0,1,0,brander-desktop,0,0
12:16:41,0,RAMfront1,,89.35,,true,0,0,0,0,null,0,1,0,brander-desktop,0,0
12:16:42,0,RAMstatic,,97.85,,true,0,0,0,0,null,0,1,0,brander-desktop,0,0
12:16:43,0,RAMdb,,97.42,,true,0,0,0,0,null,0,1,0,brander-desktop,0,0
12:16:44,0,RAMfront1,,89.33,,true,0,0,0,0,null,0,1,0,brander-desktop,0,0
12:16:45,0,RAMstatic,,97.84,,true,0,0,0,0,null,0,1,0,brander-desktop,0,0
12:16:46,0,RAMdb,,97.42,,true,0,0,0,0,null,0,1,0,brander-desktop,0,0
12:16:47,0,RAMfront1,,89.44,,true,0,0,0,0,null,0,1,0,brander-desktop,0,0
12:16:48,0,RAMstatic,,97.89,,true,0,0,0,0,null,0,1,0,brander-desktop,0,0
12:16:50,0,RAMdb,,97.41,,true,0,0,0,0,null,0,1,0,brander-desktop,0,0
12:16:51,0,RAMfront1,,89.67,,true,0,0,0,0,null,0,1,0,brander-desktop,0,0
12:16:52,0,RAMstatic,,97.87,,true,0,0,0,0,null,0,1,0,brander-desktop,0,0
12:16:53,0,RAMdb,,97.42,,true,0,0,0,0,null,0,1,0,brander-desktop,0,0
12:16:54,0,RAMfront1,,90.12,,true,0,0,0,0,null,0,1,0,brander-desktop,0,0
12:16:55,0,RAMstatic,,97.88,,true,0,0,0,0,null,0,1,0,brander-desktop,0,0
12:16:56,0,RAMdb,,97.44,,true,0,0,0,0,null,0,1,0,brander-desktop,0,0
12:16:57,0,RAMfront1,,90.31,,true,0,0,0,0,null,0,1,0,brander-desktop,0,0
12:16:58,0,RAMstatic,,97.89,,true,0,0,0,0,null,0,1,0,brander-desktop,0,0
12:16:59,0,RAMdb,,97.45,,true,0,0,0,0,null,0,1,0,brander-desktop,0,0
12:17:01,0,RAMfront1,,91.53,,true,0,0,0,0,null,0,1,0,brander-desktop,0,0
12:17:02,0,RAMstatic,,97.92,,true,0,0,0,0,null,0,1,0,brander-desktop,0,0
12:17:03,0,RAMdb,,97.45,,true,0,0,0,0,null,0,1,0,brander-desktop,0,0
12:17:04,0,RAMfront1,,91.39,,true,0,0,0,0,null,0,1,0,brander-desktop,0,0
12:17:05,0,RAMstatic,,97.92,,true,0,0,0,0,null,0,1,0,brander-desktop,0,0
12:17:06,0,RAMdb,,97.46,,true,0,0,0,0,null,0,1,0,brander-desktop,0,0
12:17:07,0,RAMfront1,,91.14,,true,0,0,0,0,null,0,1,0,brander-desktop,0,0
12:17:08,0,RAMstatic,,97.94,,true,0,0,0,0,null,0,1,0,brander-desktop,0,0
12:17:09,0,RAMdb,,97.46,,true,0,0,0,0,null,0,1,0,brander-desktop,0,0
12:17:11,0,RAMfront1,,90.56,,true,0,0,0,0,null,0,1,0,brander-desktop,0,0
12:17:12,0,RAMstatic,,97.95,,true,0,0,0,0,null,0,1,0,brander-desktop,0,0
12:17:13,0,RAMdb,,97.47,,true,0,0,0,0,null,0,1,0,brander-desktop,0,0
12:17:14,0,RAMfront1,,90.4,,true,0,0,0,0,null,0,1,0,brander-desktop,0,0
12:17:15,0,RAMstatic,,97.97,,true,0,0,0,0,null,0,1,0,brander-desktop,0,0
12:17:16,0,RAMdb,,97.45,,true,0,0,0,0,null,0,1,0,brander-desktop,0,0
12:17:17,0,RAMfront1,,89.05,,true,0,0,0,0,null,0,1,0,brander-desktop,0,0
12:17:18,0,RAMstatic,,97.98,,true,0,0,0,0,null,0,1,0,brander-desktop,0,0
12:17:20,0,RAMdb,,97.46,,true,0,0,0,0,null,0,1,0,brander-desktop,0,0
12:17:21,0,RAMfront1,,88.47,,true,0,0,0,0,null,0,1,0,brander-desktop,0,0
12:17:22,0,RAMstatic,,97.98,,true,0,0,0,0,null,0,1,0,brander-desktop,0,0
12:17:23,0,RAMdb,,97.47,,true,0,0,0,0,null,0,1,0,brander-desktop,0,0
12:17:24,0,RAMfront1,,88.79,,true,0,0,0,0,null,0,1,0,brander-desktop,0,0
12:17:25,0,RAMstatic,,97.98,,true,0,0,0,0,null,0,1,0,brander-desktop,0,0
12:17:26,0,RAMdb,,97.47,,true,0,0,0,0,null,0,1,0,brander-desktop,0,0
12:17:28,0,RAMfront1,,89.34,,true,0,0,0,0,null,0,1,0,brander-desktop,0,0
12:17:29,0,RAMstatic,,97.98,,true,0,0,0,0,null,0,1,0,brander-desktop,0,0
12:17:30,0,RAMdb,,97.48,,true,0,0,0,0,null,0,1,0,brander-desktop,0,0
12:17:31,0,RAMfront1,,89.05,,true,0,0,0,0,null,0,1,0,brander-desktop,0,0
12:17:32,0,RAMstatic,,98.03,,true,0,0,0,0,null,0,1,0,brander-desktop,0,0
12:17:33,0,RAMdb,,97.49,,true,0,0,0,0,null,0,1,0,brander-desktop,0,0
12:17:34,0,RAMfront1,,88.76,,true,0,0,0,0,null,0,1,0,brander-desktop,0,0
12:17:35,0,RAMstatic,,98.06,,true,0,0,0,0,null,0,1,0,brander-desktop,0,0
12:17:36,0,RAMdb,,97.49,,true,0,0,0,0,null,0,1,0,brander-desktop,0,0
12:17:37,0,RAMfront1,,88.68,,true,0,0,0,0,null,0,1,0,brander-desktop,0,0
12:17:39,0,RAMstatic,,98.06,,true,0,0,0,0,null,0,1,0,brander-desktop,0,0
12:17:40,0,RAMdb,,97.49,,true,0,0,0,0,null,0,1,0,brander-desktop,0,0
12:17:41,0,RAMfront1,,88.99,,true,0,0,0,0,null,0,1,0,brander-desktop,0,0
12:17:42,0,RAMstatic,,98.07,,true,0,0,0,0,null,0,1,0,brander-desktop,0,0
12:17:43,0,RAMdb,,97.5,,true,0,0,0,0,null,0,1,0,brander-desktop,0,0
12:17:44,0,RAMfront1,,88.45,,true,0,0,0,0,null,0,1,0,brander-desktop,0,0
12:17:45,0,RAMstatic,,98.09,,true,0,0,0,0,null,0,1,0,brander-desktop,0,0
12:17:46,0,RAMdb,,97.51,,true,0,0,0,0,null,0,1,0,brander-desktop,0,0
12:17:47,0,RAMfront1,,88.58,,true,0,0,0,0,null,0,1,0,brander-desktop,0,0
12:17:48,0,RAMstatic,,98.1,,true,0,0,0,0,null,0,1,0,brander-desktop,0,0
12:17:50,0,RAMdb,,97.53,,true,0,0,0,0,null,0,1,0,brander-desktop,0,0
12:17:51,0,RAMfront1,,88.93,,true,0,0,0,0,null,0,1,0,brander-desktop,0,0
12:17:52,0,RAMstatic,,98.12,,true,0,0,0,0,null,0,1,0,brander-desktop,0,0
12:17:53,0,RAMdb,,97.53,,true,0,0,0,0,null,0,1,0,brander-desktop,0,0
12:17:54,0,RAMfront1,,89.2,,true,0,0,0,0,null,0,1,0,brander-desktop,0,0
12:17:55,0,RAMstatic,,98.13,,true,0,0,0,0,null,0,1,0,brander-desktop,0,0
12:17:56,0,RAMdb,,97.55,,true,0,0,0,0,null,0,1,0,brander-desktop,0,0
12:17:57,0,RAMfront1,,89.9,,true,0,0,0,0,null,0,1,0,brander-desktop,0,0
12:17:58,0,RAMstatic,,98.13,,true,0,0,0,0,null,0,1,0,brander-desktop,0,0
12:17:59,0,RAMdb,,97.55,,true,0,0,0,0,null,0,1,0,brander-desktop,0,0
12:18:01,0,RAMfront1,,90.35,,true,0,0,0,0,null,0,1,0,brander-desktop,0,0
12:18:02,0,RAMstatic,,98.15,,true,0,0,0,0,null,0,1,0,brander-desktop,0,0
12:18:03,0,RAMdb,,97.56,,true,0,0,0,0,null,0,1,0,brander-desktop,0,0
12:18:04,0,RAMfront1,,90.33,,true,0,0,0,0,null,0,1,0,brander-desktop,0,0
12:18:05,0,RAMstatic,,98.16,,true,0,0,0,0,null,0,1,0,brander-desktop,0,0
12:18:06,0,RAMdb,,97.56,,true,0,0,0,0,null,0,1,0,brander-desktop,0,0
12:18:07,0,RAMfront1,,89.62,,true,0,0,0,0,null,0,1,0,brander-desktop,0,0
12:18:08,0,RAMstatic,,98.16,,true,0,0,0,0,null,0,1,0,brander-desktop,0,0
12:18:09,0,RAMdb,,97.37,,true,0,0,0,0,null,0,1,0,brander-desktop,0,0
12:18:11,0,RAMfront1,,90.2,,true,0,0,0,0,null,0,1,0,brander-desktop,0,0
12:18:12,0,RAMstatic,,98.18,,true,0,0,0,0,null,0,1,0,brander-desktop,0,0
12:18:13,0,RAMdb,,97.45,,true,0,0,0,0,null,0,1,0,brander-desktop,0,0
12:18:14,0,RAMfront1,,90.15,,true,0,0,0,0,null,0,1,0,brander-desktop,0,0
12:18:15,0,RAMstatic,,98.19,,true,0,0,0,0,null,0,1,0,brander-desktop,0,0
12:18:16,0,RAMdb,,97.46,,true,0,0,0,0,null,0,1,0,brander-desktop,0,0
12:18:17,0,RAMfront1,,90.76,,true,0,0,0,0,null,0,1,0,brander-desktop,0,0
12:18:18,0,RAMstatic,,98.23,,true,0,0,0,0,null,0,1,0,brander-desktop,0,0
12:18:19,0,RAMdb,,97.55,,true,0,0,0,0,null,0,1,0,brander-desktop,0,0
12:18:20,0,RAMfront1,,90.63,,true,0,0,0,0,null,0,1,0,brander-desktop,0,0
12:18:21,0,RAMstatic,,98.25,,true,0,0,0,0,null,0,1,0,brander-desktop,0,0
12:18:23,0,RAMdb,,97.56,,true,0,0,0,0,null,0,1,0,brander-desktop,0,0
12:18:24,0,RAMfront1,,90.38,,true,0,0,0,0,null,0,1,0,brander-desktop,0,0
12:18:25,0,RAMstatic,,98.27,,true,0,0,0,0,null,0,1,0,brander-desktop,0,0
12:18:26,0,RAMdb,,97.57,,true,0,0,0,0,null,0,1,0,brander-desktop,0,0
12:18:27,0,RAMfront1,,90.4,,true,0,0,0,0,null,0,1,0,brander-desktop,0,0
12:18:28,0,RAMstatic,,98.29,,true,0,0,0,0,null,0,1,0,brander-desktop,0,0
12:18:29,0,RAMdb,,97.58,,true,0,0,0,0,null,0,1,0,brander-desktop,0,0
12:18:30,0,RAMfront1,,89.86,,true,0,0,0,0,null,0,1,0,brander-desktop,0,0
12:18:31,0,RAMstatic,,98.31,,true,0,0,0,0,null,0,1,0,brander-desktop,0,0
12:18:32,0,RAMdb,,97.59,,true,0,0,0,0,null,0,1,0,brander-desktop,0,0
12:18:34,0,RAMfront1,,90.73,,true,0,0,0,0,null,0,1,0,brander-desktop,0,0
12:18:35,0,RAMstatic,,98.34,,true,0,0,0,0,null,0,1,0,brander-desktop,0,0
12:18:36,0,RAMdb,,97.46,,true,0,0,0,0,null,0,1,0,brander-desktop,0,0
12:18:37,0,RAMfront1,,90.44,,true,0,0,0,0,null,0,1,0,brander-desktop,0,0
12:18:38,0,RAMstatic,,98.37,,true,0,0,0,0,null,0,1,0,brander-desktop,0,0
12:18:39,0,RAMdb,,97.53,,true,0,0,0,0,null,0,1,0,brander-desktop,0,0
12:18:40,0,RAMfront1,,90.36,,true,0,0,0,0,null,0,1,0,brander-desktop,0,0
12:18:41,0,RAMstatic,,98.37,,true,0,0,0,0,null,0,1,0,brander-desktop,0,0
12:18:42,0,RAMdb,,97.57,,true,0,0,0,0,null,0,1,0,brander-desktop,0,0
12:18:44,0,RAMfront1,,90.59,,true,0,0,0,0,null,0,1,0,brander-desktop,0,0
12:18:45,0,RAMstatic,,98.38,,true,0,0,0,0,null,0,1,0,brander-desktop,0,0
12:18:46,0,RAMdb,,97.57,,true,0,0,0,0,null,0,1,0,brander-desktop,0,0
12:18:47,0,RAMfront1,,90.31,,true,0,0,0,0,null,0,1,0,brander-desktop,0,0
12:18:48,0,RAMstatic,,98.4,,true,0,0,0,0,null,0,1,0,brander-desktop,0,0
12:18:49,0,RAMdb,,97.57,,true,0,0,0,0,null,0,1,0,brander-desktop,0,0
12:18:50,0,RAMfront1,,90.49,,true,0,0,0,0,null,0,1,0,brander-desktop,0,0
12:18:51,0,RAMstatic,,98.42,,true,0,0,0,0,null,0,1,0,brander-desktop,0,0
12:18:53,0,RAMdb,,97.59,,true,0,0,0,0,null,0,1,0,brander-desktop,0,0
12:18:54,0,RAMfront1,,90.83,,true,0,0,0,0,null,0,1,0,brander-desktop,0,0
12:18:55,0,RAMstatic,,98.46,,true,0,0,0,0,null,0,1,0,brander-desktop,0,0
12:18:57,0,RAMdb,,97.6,,true,0,0,0,0,null,0,1,0,brander-desktop,0,0
12:18:58,0,RAMfront1,,91.24,,true,0,0,0,0,null,0,1,0,brander-desktop,0,0
12:18:59,0,RAMstatic,,98.44,,true,0,0,0,0,null,0,1,0,brander-desktop,0,0
12:19:00,0,RAMdb,,97.61,,true,0,0,0,0,null,0,1,0,brander-desktop,0,0
12:19:01,0,RAMfront1,,91.0,,true,0,0,0,0,null,0,1,0,brander-desktop,0,0
12:19:02,0,RAMstatic,,98.47,,true,0,0,0,0,null,0,1,0,brander-desktop,0,0
12:19:03,0,RAMdb,,97.62,,true,0,0,0,0,null,0,1,0,brander-desktop,0,0
12:19:05,0,RAMfront1,,89.66,,true,0,0,0,0,null,0,1,0,brander-desktop,0,0
12:19:06,0,RAMstatic,,98.49,,true,0,0,0,0,null,0,1,0,brander-desktop,0,0
12:19:07,0,RAMdb,,97.62,,true,0,0,0,0,null,0,1,0,brander-desktop,0,0
12:19:08,0,RAMfront1,,90.41,,true,0,0,0,0,null,0,1,0,brander-desktop,0,0
12:19:09,0,RAMstatic,,98.49,,true,0,0,0,0,null,0,1,0,brander-desktop,0,0
12:19:10,0,RAMdb,,97.61,,true,0,0,0,0,null,0,1,0,brander-desktop,0,0
12:19:11,0,RAMfront1,,91.02,,true,0,0,0,0,null,0,1,0,brander-desktop,0,0
12:19:12,0,RAMstatic,,98.51,,true,0,0,0,0,null,0,1,0,brander-desktop,0,0
12:19:13,0,RAMdb,,97.63,,true,0,0,0,0,null,0,1,0,brander-desktop,0,0
12:19:15,0,RAMfront1,,90.98,,true,0,0,0,0,null,0,1,0,brander-desktop,0,0
12:19:16,0,RAMstatic,,98.52,,true,0,0,0,0,null,0,1,0,brander-desktop,0,0
12:19:17,0,RAMdb,,97.52,,true,0,0,0,0,null,0,1,0,brander-desktop,0,0
12:19:18,0,RAMfront1,,90.07,,true,0,0,0,0,null,0,1,0,brander-desktop,0,0
12:19:19,0,RAMstatic,,98.54,,true,0,0,0,0,null,0,1,0,brander-desktop,0,0
12:19:20,0,RAMdb,,97.54,,true,0,0,0,0,null,0,1,0,brander-desktop,0,0
12:19:21,0,RAMfront1,,89.7,,true,0,0,0,0,null,0,1,0,brander-desktop,0,0
12:19:22,0,RAMstatic,,98.56,,true,0,0,0,0,null,0,1,0,brander-desktop,0,0
12:19:23,0,RAMdb,,97.6,,true,0,0,0,0,null,0,1,0,brander-desktop,0,0
12:19:25,0,RAMfront1,,89.79,,true,0,0,0,0,null,0,1,0,brander-desktop,0,0
12:19:26,0,RAMstatic,,98.56,,true,0,0,0,0,null,0,1,0,brander-desktop,0,0
12:19:27,0,RAMdb,,97.63,,true,0,0,0,0,null,0,1,0,brander-desktop,0,0
12:19:28,0,RAMfront1,,89.35,,true,0,0,0,0,null,0,1,0,brander-desktop,0,0
12:19:29,0,RAMstatic,,98.57,,true,0,0,0,0,null,0,1,0,brander-desktop,0,0
12:19:30,0,RAMdb,,97.63,,true,0,0,0,0,null,0,1,0,brander-desktop,0,0
12:19:31,0,RAMfront1,,89.19,,true,0,0,0,0,null,0,1,0,brander-desktop,0,0
12:19:32,0,RAMstatic,,98.58,,true,0,0,0,0,null,0,1,0,brander-desktop,0,0
12:19:33,0,RAMdb,,97.64,,true,0,0,0,0,null,0,1,0,brander-desktop,0,0
12:19:35,0,RAMfront1,,89.47,,true,0,0,0,0,null,0,1,0,brander-desktop,0,0
12:19:36,0,RAMstatic,,98.59,,true,0,0,0,0,null,0,1,0,brander-desktop,0,0
12:19:37,0,RAMdb,,97.64,,true,0,0,0,0,null,0,1,0,brander-desktop,0,0
12:19:38,0,RAMfront1,,89.39,,true,0,0,0,0,null,0,1,0,brander-desktop,0,0
12:19:39,0,RAMstatic,,98.6,,true,0,0,0,0,null,0,1,0,brander-desktop,0,0
12:19:40,0,RAMdb,,97.65,,true,0,0,0,0,null,0,1,0,brander-desktop,0,0
12:19:41,0,RAMfront1,,89.51,,true,0,0,0,0,null,0,1,0,brander-desktop,0,0
12:19:42,0,RAMstatic,,98.56,,true,0,0,0,0,null,0,1,0,brander-desktop,0,0
12:19:43,0,RAMdb,,97.66,,true,0,0,0,0,null,0,1,0,brander-desktop,0,0
12:19:44,0,RAMfront1,,90.07,,true,0,0,0,0,null,0,1,0,brander-desktop,0,0
12:19:46,0,RAMstatic,,98.56,,true,0,0,0,0,null,0,1,0,brander-desktop,0,0
12:19:47,0,RAMdb,,97.68,,true,0,0,0,0,null,0,1,0,brander-desktop,0,0
12:19:48,0,RAMfront1,,90.11,,true,0,0,0,0,null,0,1,0,brander-desktop,0,0
12:19:49,0,RAMstatic,,98.56,,true,0,0,0,0,null,0,1,0,brander-desktop,0,0
12:19:50,0,RAMdb,,97.69,,true,0,0,0,0,null,0,1,0,brander-desktop,0,0
12:19:51,0,RAMfront1,,90.19,,true,0,0,0,0,null,0,1,0,brander-desktop,0,0
12:19:52,0,RAMstatic,,98.58,,true,0,0,0,0,null,0,1,0,brander-desktop,0,0
12:19:53,0,RAMdb,,97.7,,true,0,0,0,0,null,0,1,0,brander-desktop,0,0
12:19:54,0,RAMfront1,,90.34,,true,0,0,0,0,null,0,1,0,brander-desktop,0,0
12:19:55,0,RAMstatic,,98.58,,true,0,0,0,0,null,0,1,0,brander-desktop,0,0
12:19:57,0,RAMdb,,97.71,,true,0,0,0,0,null,0,1,0,brander-desktop,0,0
12:19:58,0,RAMfront1,,90.27,,true,0,0,0,0,null,0,1,0,brander-desktop,0,0
12:19:59,0,RAMstatic,,98.59,,true,0,0,0,0,null,0,1,0,brander-desktop,0,0
12:20:00,0,RAMdb,,97.71,,true,0,0,0,0,null,0,1,0,brander-desktop,0,0
12:20:01,0,RAMfront1,,90.37,,true,0,0,0,0,null,0,1,0,brander-desktop,0,0
12:20:02,0,RAMstatic,,98.6,,true,0,0,0,0,null,0,1,0,brander-desktop,0,0
12:20:03,0,RAMdb,,97.73,,true,0,0,0,0,null,0,1,0,brander-desktop,0,0
12:20:04,0,RAMfront1,,90.07,,true,0,0,0,0,null,0,1,0,brander-desktop,0,0
12:20:05,0,RAMstatic,,98.63,,true,0,0,0,0,null,0,1,0,brander-desktop,0,0
12:20:07,0,RAMdb,,97.74,,true,0,0,0,0,null,0,1,0,brander-desktop,0,0
12:20:08,0,RAMfront1,,89.99,,true,0,0,0,0,null,0,1,0,brander-desktop,0,0
12:20:09,0,RAMstatic,,98.61,,true,0,0,0,0,null,0,1,0,brander-desktop,0,0
12:20:10,0,RAMdb,,97.75,,true,0,0,0,0,null,0,1,0,brander-desktop,0,0
12:20:11,0,RAMfront1,,89.52,,true,0,0,0,0,null,0,1,0,brander-desktop,0,0
12:20:12,0,RAMstatic,,98.64,,true,0,0,0,0,null,0,1,0,brander-desktop,0,0
12:20:13,0,RAMdb,,97.75,,true,0,0,0,0,null,0,1,0,brander-desktop,0,0
12:20:14,0,RAMfront1,,88.92,,true,0,0,0,0,null,0,1,0,brander-desktop,0,0
12:20:15,0,RAMstatic,,98.64,,true,0,0,0,0,null,0,1,0,brander-desktop,0,0
12:20:16,0,RAMdb,,97.76,,true,0,0,0,0,null,0,1,0,brander-desktop,0,0
12:20:18,0,RAMfront1,,89.35,,true,0,0,0,0,null,0,1,0,brander-desktop,0,0
12:20:19,0,RAMstatic,,98.64,,true,0,0,0,0,null,0,1,0,brander-desktop,0,0
12:20:20,0,RAMdb,,97.78,,true,0,0,0,0,null,0,1,0,brander-desktop,0,0
12:20:21,0,RAMfront1,,89.91,,true,0,0,0,0,null,0,1,0,brander-desktop,0,0
12:20:22,0,RAMstatic,,98.62,,true,0,0,0,0,null,0,1,0,brander-desktop,0,0
12:20:23,0,RAMdb,,97.78,,true,0,0,0,0,null,0,1,0,brander-desktop,0,0
12:20:24,0,RAMfront1,,89.28,,true,0,0,0,0,null,0,1,0,brander-desktop,0,0
12:20:25,0,RAMstatic,,98.64,,true,0,0,0,0,null,0,1,0,brander-desktop,0,0
12:20:26,0,RAMdb,,97.78,,true,0,0,0,0,null,0,1,0,brander-desktop,0,0
12:20:27,0,RAMfront1,,89.75,,true,0,0,0,0,null,0,1,0,brander-desktop,0,0
12:20:29,0,RAMstatic,,98.64,,true,0,0,0,0,null,0,1,0,brander-desktop,0,0
12:20:30,0,RAMdb,,97.79,,true,0,0,0,0,null,0,1,0,brander-desktop,0,0
12:20:31,0,RAMfront1,,90.11,,true,0,0,0,0,null,0,1,0,brander-desktop,0,0
12:20:32,0,RAMstatic,,98.65,,true,0,0,0,0,null,0,1,0,brander-desktop,0,0
12:20:33,0,RAMdb,,97.79,,true,0,0,0,0,null,0,1,0,brander-desktop,0,0
12:20:34,0,RAMfront1,,90.49,,true,0,0,0,0,null,0,1,0,brander-desktop,0,0
12:20:35,0,RAMstatic,,98.63,,true,0,0,0,0,null,0,1,0,brander-desktop,0,0
12:20:37,0,RAMdb,,97.8,,true,0,0,0,0,null,0,1,0,brander-desktop,0,0
12:20:38,0,RAMfront1,,90.07,,true,0,0,0,0,null,0,1,0,brander-desktop,0,0
12:20:39,0,RAMstatic,,98.63,,true,0,0,0,0,null,0,1,0,brander-desktop,0,0
12:20:40,0,RAMdb,,97.81,,true,0,0,0,0,null,0,1,0,brander-desktop,0,0
12:20:41,0,RAMfront1,,90.78,,true,0,0,0,0,null,0,1,0,brander-desktop,0,0
12:20:42,0,RAMstatic,,98.62,,true,0,0,0,0,null,0,1,0,brander-desktop,0,0
12:20:43,0,RAMdb,,97.81,,true,0,0,0,0,null,0,1,0,brander-desktop,0,0
12:20:44,0,RAMfront1,,90.11,,true,0,0,0,0,null,0,1,0,brander-desktop,0,0
12:20:45,0,RAMstatic,,98.64,,true,0,0,0,0,null,0,1,0,brander-desktop,0,0
12:20:47,0,RAMdb,,97.82,,true,0,0,0,0,null,0,1,0,brander-desktop,0,0
12:20:48,0,RAMfront1,,89.76,,true,0,0,0,0,null,0,1,0,brander-desktop,0,0
12:20:49,0,RAMstatic,,98.64,,true,0,0,0,0,null,0,1,0,brander-desktop,0,0
12:20:50,0,RAMdb,,97.84,,true,0,0,0,0,null,0,1,0,brander-desktop,0,0
12:20:51,0,RAMfront1,,89.94,,true,0,0,0,0,null,0,1,0,brander-desktop,0,0
12:20:52,0,RAMstatic,,98.63,,true,0,0,0,0,null,0,1,0,brander-desktop,0,0
12:20:53,0,RAMdb,,97.86,,true,0,0,0,0,null,0,1,0,brander-desktop,0,0
12:20:54,0,RAMfront1,,89.84,,true,0,0,0,0,null,0,1,0,brander-desktop,0,0
12:20:55,0,RAMstatic,,98.63,,true,0,0,0,0,null,0,1,0,brander-desktop,0,0
12:20:56,0,RAMdb,,97.88,,true,0,0,0,0,null,0,1,0,brander-desktop,0,0
12:20:58,0,RAMfront1,,90.33,,true,0,0,0,0,null,0,1,0,brander-desktop,0,0
12:20:59,0,RAMstatic,,98.63,,true,0,0,0,0,null,0,1,0,brander-desktop,0,0
12:21:00,0,RAMdb,,97.88,,true,0,0,0,0,null,0,1,0,brander-desktop,0,0
12:21:01,0,RAMfront1,,90.18,,true,0,0,0,0,null,0,1,0,brander-desktop,0,0
12:21:02,0,RAMstatic,,98.62,,true,0,0,0,0,null,0,1,0,brander-desktop,0,0
12:21:03,0,RAMdb,,97.9,,true,0,0,0,0,null,0,1,0,brander-desktop,0,0
12:21:04,0,RAMfront1,,89.97,,true,0,0,0,0,null,0,1,0,brander-desktop,0,0
12:21:05,0,RAMstatic,,98.63,,true,0,0,0,0,null,0,1,0,brander-desktop,0,0
12:21:06,0,RAMdb,,97.9,,true,0,0,0,0,null,0,1,0,brander-desktop,0,0
12:21:07,0,RAMfront1,,90.35,,true,0,0,0,0,null,0,1,0,brander-desktop,0,0
12:21:09,0,RAMstatic,,98.63,,true,0,0,0,0,null,0,1,0,brander-desktop,0,0
12:21:10,0,RAMdb,,97.92,,true,0,0,0,0,null,0,1,0,brander-desktop,0,0
12:21:11,0,RAMfront1,,90.28,,true,0,0,0,0,null,0,1,0,brander-desktop,0,0
12:21:12,0,RAMstatic,,98.63,,true,0,0,0,0,null,0,1,0,brander-desktop,0,0
12:21:13,0,RAMdb,,97.93,,true,0,0,0,0,null,0,1,0,brander-desktop,0,0
12:21:14,0,RAMfront1,,90.05,,true,0,0,0,0,null,0,1,0,brander-desktop,0,0
12:21:15,0,RAMstatic,,98.63,,true,0,0,0,0,null,0,1,0,brander-desktop,0,0
12:21:16,0,RAMdb,,97.94,,true,0,0,0,0,null,0,1,0,brander-desktop,0,0
12:21:17,0,RAMfront1,,90.07,,true,0,0,0,0,null,0,1,0,brander-desktop,0,0
12:21:19,0,RAMstatic,,98.64,,true,0,0,0,0,null,0,1,0,brander-desktop,0,0
12:21:20,0,RAMdb,,97.95,,true,0,0,0,0,null,0,1,0,brander-desktop,0,0
12:21:21,0,RAMfront1,,89.98,,true,0,0,0,0,null,0,1,0,brander-desktop,0,0
12:21:22,0,RAMstatic,,98.64,,true,0,0,0,0,null,0,1,0,brander-desktop,0,0
12:21:23,0,RAMdb,,97.95,,true,0,0,0,0,null,0,1,0,brander-desktop,0,0
12:21:24,0,RAMfront1,,90.15,,true,0,0,0,0,null,0,1,0,brander-desktop,0,0
12:21:26,0,RAMstatic,,98.62,,true,0,0,0,0,null,0,1,0,brander-desktop,0,0
12:21:27,0,RAMdb,,97.95,,true,0,0,0,0,null,0,1,0,brander-desktop,0,0
12:21:28,0,RAMfront1,,90.24,,true,0,0,0,0,null,0,1,0,brander-desktop,0,0
12:21:29,0,RAMstatic,,98.62,,true,0,0,0,0,null,0,1,0,brander-desktop,0,0
12:21:30,0,RAMdb,,97.96,,true,0,0,0,0,null,0,1,0,brander-desktop,0,0
12:21:31,0,RAMfront1,,90.1,,true,0,0,0,0,null,0,1,0,brander-desktop,0,0
12:21:32,0,RAMstatic,,98.64,,true,0,0,0,0,null,0,1,0,brander-desktop,0,0
12:21:33,0,RAMdb,,97.98,,true,0,0,0,0,null,0,1,0,brander-desktop,0,0
12:21:34,0,RAMfront1,,90.09,,true,0,0,0,0,null,0,1,0,brander-desktop,0,0
12:21:35,0,RAMstatic,,98.63,,true,0,0,0,0,null,0,1,0,brander-desktop,0,0
12:21:37,0,RAMdb,,97.99,,true,0,0,0,0,null,0,1,0,brander-desktop,0,0
12:21:38,0,RAMfront1,,89.87,,true,0,0,0,0,null,0,1,0,brander-desktop,0,0
12:21:39,0,RAMstatic,,98.63,,true,0,0,0,0,null,0,1,0,brander-desktop,0,0
12:21:40,0,RAMdb,,98.0,,true,0,0,0,0,null,0,1,0,brander-desktop,0,0
12:21:41,0,RAMfront1,,90.13,,true,0,0,0,0,null,0,1,0,brander-desktop,0,0
12:21:42,0,RAMstatic,,98.63,,true,0,0,0,0,null,0,1,0,brander-desktop,0,0
12:21:43,0,RAMdb,,98.02,,true,0,0,0,0,null,0,1,0,brander-desktop,0,0
12:21:44,0,RAMfront1,,90.56,,true,0,0,0,0,null,0,1,0,brander-desktop,0,0
12:21:45,0,RAMstatic,,98.65,,true,0,0,0,0,null,0,1,0,brander-desktop,0,0
12:21:47,0,RAMdb,,98.04,,true,0,0,0,0,null,0,1,0,brander-desktop,0,0
12:21:48,0,RAMfront1,,90.62,,true,0,0,0,0,null,0,1,0,brander-desktop,0,0
12:21:49,0,RAMstatic,,98.67,,true,0,0,0,0,null,0,1,0,brander-desktop,0,0
12:21:50,0,RAMdb,,98.06,,true,0,0,0,0,null,0,1,0,brander-desktop,0,0
12:21:51,0,RAMfront1,,90.23,,true,0,0,0,0,null,0,1,0,brander-desktop,0,0
12:21:52,0,RAMstatic,,98.68,,true,0,0,0,0,null,0,1,0,brander-desktop,0,0
12:21:53,0,RAMdb,,98.09,,true,0,0,0,0,null,0,1,0,brander-desktop,0,0
12:21:54,0,RAMfront1,,89.91,,true,0,0,0,0,null,0,1,0,brander-desktop,0,0
12:21:55,0,RAMstatic,,98.69,,true,0,0,0,0,null,0,1,0,brander-desktop,0,0
12:21:57,0,RAMdb,,98.1,,true,0,0,0,0,null,0,1,0,brander-desktop,0,0
12:21:58,0,RAMfront1,,90.43,,true,0,0,0,0,null,0,1,0,brander-desktop,0,0
12:21:59,0,RAMstatic,,98.7,,true,0,0,0,0,null,0,1,0,brander-desktop,0,0
12:22:00,0,RAMdb,,98.11,,true,0,0,0,0,null,0,1,0,brander-desktop,0,0
12:22:01,0,RAMfront1,,90.5,,true,0,0,0,0,null,0,1,0,brander-desktop,0,0
12:22:02,0,RAMstatic,,98.71,,true,0,0,0,0,null,0,1,0,brander-desktop,0,0
12:22:03,0,RAMdb,,98.13,,true,0,0,0,0,null,0,1,0,brander-desktop,0,0
12:22:04,0,RAMfront1,,90.43,,true,0,0,0,0,null,0,1,0,brander-desktop,0,0
12:22:05,0,RAMstatic,,98.74,,true,0,0,0,0,null,0,1,0,brander-desktop,0,0
12:22:06,0,RAMdb,,98.14,,true,0,0,0,0,null,0,1,0,brander-desktop,0,0
12:22:08,0,RAMfront1,,89.46,,true,0,0,0,0,null,0,1,0,brander-desktop,0,0
12:22:09,0,RAMstatic,,98.75,,true,0,0,0,0,null,0,1,0,brander-desktop,0,0
12:22:10,0,RAMdb,,98.14,,true,0,0,0,0,null,0,1,0,brander-desktop,0,0
12:22:11,0,RAMfront1,,89.49,,true,0,0,0,0,null,0,1,0,brander-desktop,0,0
12:22:12,0,RAMstatic,,98.76,,true,0,0,0,0,null,0,1,0,brander-desktop,0,0
12:22:13,0,RAMdb,,98.13,,true,0,0,0,0,null,0,1,0,brander-desktop,0,0
12:22:14,0,RAMfront1,,88.96,,true,0,0,0,0,null,0,1,0,brander-desktop,0,0
12:22:15,0,RAMstatic,,98.76,,true,0,0,0,0,null,0,1,0,brander-desktop,0,0
12:22:16,0,RAMdb,,98.14,,true,0,0,0,0,null,0,1,0,brander-desktop,0,0
12:22:17,0,RAMfront1,,89.07,,true,0,0,0,0,null,0,1,0,brander-desktop,0,0
12:22:19,0,RAMstatic,,98.77,,true,0,0,0,0,null,0,1,0,brander-desktop,0,0
12:22:20,0,RAMdb,,98.14,,true,0,0,0,0,null,0,1,0,brander-desktop,0,0
12:22:21,0,RAMfront1,,89.01,,true,0,0,0,0,null,0,1,0,brander-desktop,0,0
12:22:22,0,RAMstatic,,98.78,,true,0,0,0,0,null,0,1,0,brander-desktop,0,0
12:22:23,0,RAMdb,,98.16,,true,0,0,0,0,null,0,1,0,brander-desktop,0,0
12:22:24,0,RAMfront1,,88.82,,true,0,0,0,0,null,0,1,0,brander-desktop,0,0
12:22:25,0,RAMstatic,,98.8,,true,0,0,0,0,null,0,1,0,brander-desktop,0,0
12:22:26,0,RAMdb,,98.17,,true,0,0,0,0,null,0,1,0,brander-desktop,0,0
12:22:27,0,RAMfront1,,89.32,,true,0,0,0,0,null,0,1,0,brander-desktop,0,0
12:22:29,0,RAMstatic,,98.81,,true,0,0,0,0,null,0,1,0,brander-desktop,0,0
12:22:30,0,RAMdb,,98.17,,true,0,0,0,0,null,0,1,0,brander-desktop,0,0
12:22:31,0,RAMfront1,,89.55,,true,0,0,0,0,null,0,1,0,brander-desktop,0,0
12:22:32,0,RAMstatic,,98.8,,true,0,0,0,0,null,0,1,0,brander-desktop,0,0
12:22:33,0,RAMdb,,98.18,,true,0,0,0,0,null,0,1,0,brander-desktop,0,0
12:22:34,0,RAMfront1,,90.17,,true,0,0,0,0,null,0,1,0,brander-desktop,0,0
12:22:35,0,RAMstatic,,98.8,,true,0,0,0,0,null,0,1,0,brander-desktop,0,0
12:22:37,0,RAMdb,,98.18,,true,0,0,0,0,null,0,1,0,brander-desktop,0,0
12:22:38,0,RAMfront1,,90.21,,true,0,0,0,0,null,0,1,0,brander-desktop,0,0
12:22:39,0,RAMstatic,,98.82,,true,0,0,0,0,null,0,1,0,brander-desktop,0,0
12:22:40,0,RAMdb,,98.19,,true,0,0,0,0,null,0,1,0,brander-desktop,0,0
12:22:41,0,RAMfront1,,89.93,,true,0,0,0,0,null,0,1,0,brander-desktop,0,0
12:22:42,0,RAMstatic,,98.81,,true,0,0,0,0,null,0,1,0,brander-desktop,0,0
12:22:43,0,RAMdb,,98.22,,true,0,0,0,0,null,0,1,0,brander-desktop,0,0
12:22:44,0,RAMfront1,,89.99,,true,0,0,0,0,null,0,1,0,brander-desktop,0,0
12:22:46,0,RAMstatic,,98.82,,true,0,0,0,0,null,0,1,0,brander-desktop,0,0
12:22:47,0,RAMdb,,98.23,,true,0,0,0,0,null,0,1,0,brander-desktop,0,0
12:22:48,0,RAMfront1,,89.91,,true,0,0,0,0,null,0,1,0,brander-desktop,0,0
12:22:49,0,RAMstatic,,98.84,,true,0,0,0,0,null,0,1,0,brander-desktop,0,0
12:22:50,0,RAMdb,,98.24,,true,0,0,0,0,null,0,1,0,brander-desktop,0,0
12:22:51,0,RAMfront1,,90.29,,true,0,0,0,0,null,0,1,0,brander-desktop,0,0
12:22:52,0,RAMstatic,,98.84,,true,0,0,0,0,null,0,1,0,brander-desktop,0,0
12:22:53,0,RAMdb,,98.25,,true,0,0,0,0,null,0,1,0,brander-desktop,0,0
12:22:54,0,RAMfront1,,90.06,,true,0,0,0,0,null,0,1,0,brander-desktop,0,0
12:22:56,0,RAMstatic,,98.84,,true,0,0,0,0,null,0,1,0,brander-desktop,0,0
12:22:57,0,RAMdb,,98.25,,true,0,0,0,0,null,0,1,0,brander-desktop,0,0
12:22:58,0,RAMfront1,,89.9,,true,0,0,0,0,null,0,1,0,brander-desktop,0,0
12:22:59,0,RAMstatic,,98.84,,true,0,0,0,0,null,0,1,0,brander-desktop,0,0
12:23:00,0,RAMdb,,98.26,,true,0,0,0,0,null,0,1,0,brander-desktop,0,0
12:23:01,0,RAMfront1,,89.98,,true,0,0,0,0,null,0,1,0,brander-desktop,0,0
12:23:02,0,RAMstatic,,98.83,,true,0,0,0,0,null,0,1,0,brander-desktop,0,0
12:23:03,0,RAMdb,,98.27,,true,0,0,0,0,null,0,1,0,brander-desktop,0,0
12:23:04,0,RAMfront1,,89.88,,true,0,0,0,0,null,0,1,0,brander-desktop,0,0
12:23:05,0,RAMstatic,,98.84,,true,0,0,0,0,null,0,1,0,brander-desktop,0,0
12:23:07,0,RAMdb,,98.28,,true,0,0,0,0,null,0,1,0,brander-desktop,0,0
12:23:08,0,RAMfront1,,90.67,,true,0,0,0,0,null,0,1,0,brander-desktop,0,0
12:23:09,0,RAMstatic,,98.84,,true,0,0,0,0,null,0,1,0,brander-desktop,0,0
12:23:10,0,RAMdb,,98.29,,true,0,0,0,0,null,0,1,0,brander-desktop,0,0
12:23:11,0,RAMfront1,,90.0,,true,0,0,0,0,null,0,1,0,brander-desktop,0,0
12:23:12,0,RAMstatic,,98.86,,true,0,0,0,0,null,0,1,0,brander-desktop,0,0
12:23:13,0,RAMdb,,98.3,,true,0,0,0,0,null,0,1,0,brander-desktop,0,0
12:23:14,0,RAMfront1,,89.95,,true,0,0,0,0,null,0,1,0,brander-desktop,0,0
12:23:15,0,RAMstatic,,98.85,,true,0,0,0,0,null,0,1,0,brander-desktop,0,0
12:23:17,0,RAMdb,,98.31,,true,0,0,0,0,null,0,1,0,brander-desktop,0,0
12:23:18,0,RAMfront1,,90.51,,true,0,0,0,0,null,0,1,0,brander-desktop,0,0
12:23:19,0,RAMstatic,,98.86,,true,0,0,0,0,null,0,1,0,brander-desktop,0,0
12:23:20,0,RAMdb,,98.32,,true,0,0,0,0,null,0,1,0,brander-desktop,0,0
12:23:21,0,RAMfront1,,90.58,,true,0,0,0,0,null,0,1,0,brander-desktop,0,0
12:23:22,0,RAMstatic,,98.87,,true,0,0,0,0,null,0,1,0,brander-desktop,0,0
12:23:23,0,RAMdb,,98.33,,true,0,0,0,0,null,0,1,0,brander-desktop,0,0
12:23:24,0,RAMfront1,,90.25,,true,0,0,0,0,null,0,1,0,brander-desktop,0,0
12:23:25,0,RAMstatic,,98.87,,true,0,0,0,0,null,0,1,0,brander-desktop,0,0
12:23:27,0,RAMdb,,98.35,,true,0,0,0,0,null,0,1,0,brander-desktop,0,0
12:23:28,0,RAMfront1,,89.96,,true,0,0,0,0,null,0,1,0,brander-desktop,0,0
12:23:29,0,RAMstatic,,98.88,,true,0,0,0,0,null,0,1,0,brander-desktop,0,0
12:23:30,0,RAMdb,,98.36,,true,0,0,0,0,null,0,1,0,brander-desktop,0,0
12:23:31,0,RAMfront1,,90.0,,true,0,0,0,0,null,0,1,0,brander-desktop,0,0
12:23:32,0,RAMstatic,,98.89,,true,0,0,0,0,null,0,1,0,brander-desktop,0,0
12:23:33,0,RAMdb,,98.39,,true,0,0,0,0,null,0,1,0,brander-desktop,0,0
12:23:34,0,RAMfront1,,89.76,,true,0,0,0,0,null,0,1,0,brander-desktop,0,0
12:23:35,0,RAMstatic,,98.9,,true,0,0,0,0,null,0,1,0,brander-desktop,0,0
12:23:37,0,RAMdb,,98.25,,true,0,0,0,0,null,0,1,0,brander-desktop,0,0
12:23:38,0,RAMfront1,,90.29,,true,0,0,0,0,null,0,1,0,brander-desktop,0,0
12:23:39,0,RAMstatic,,98.91,,true,0,0,0,0,null,0,1,0,brander-desktop,0,0
12:23:40,0,RAMdb,,98.36,,true,0,0,0,0,null,0,1,0,brander-desktop,0,0
12:23:41,0,RAMfront1,,90.21,,true,0,0,0,0,null,0,1,0,brander-desktop,0,0
12:23:42,0,RAMstatic,,98.91,,true,0,0,0,0,null,0,1,0,brander-desktop,0,0
12:23:43,0,RAMdb,,98.37,,true,0,0,0,0,null,0,1,0,brander-desktop,0,0
12:23:45,0,RAMfront1,,89.69,,true,0,0,0,0,null,0,1,0,brander-desktop,0,0
12:23:46,0,RAMstatic,,98.92,,true,0,0,0,0,null,0,1,0,brander-desktop,0,0
12:23:47,0,RAMdb,,98.39,,true,0,0,0,0,null,0,1,0,brander-desktop,0,0
12:23:48,0,RAMfront1,,89.53,,true,0,0,0,0,null,0,1,0,brander-desktop,0,0
12:23:49,0,RAMstatic,,98.93,,true,0,0,0,0,null,0,1,0,brander-desktop,0,0
12:23:50,0,RAMdb,,98.39,,true,0,0,0,0,null,0,1,0,brander-desktop,0,0
12:23:51,0,RAMfront1,,89.18,,true,0,0,0,0,null,0,1,0,brander-desktop,0,0
12:23:52,0,RAMstatic,,98.94,,true,0,0,0,0,null,0,1,0,brander-desktop,0,0
12:23:53,0,RAMdb,,98.4,,true,0,0,0,0,null,0,1,0,brander-desktop,0,0
12:23:54,0,RAMfront1,,88.97,,true,0,0,0,0,null,0,1,0,brander-desktop,0,0
12:23:56,0,RAMstatic,,98.95,,true,0,0,0,0,null,0,1,0,brander-desktop,0,0
12:23:57,0,RAMdb,,98.41,,true,0,0,0,0,null,0,1,0,brander-desktop,0,0
12:23:58,0,RAMfront1,,88.93,,true,0,0,0,0,null,0,1,0,brander-desktop,0,0
12:23:59,0,RAMstatic,,98.96,,true,0,0,0,0,null,0,1,0,brander-desktop,0,0
12:24:00,0,RAMdb,,98.42,,true,0,0,0,0,null,0,1,0,brander-desktop,0,0
12:24:01,0,RAMfront1,,89.41,,true,0,0,0,0,null,0,1,0,brander-desktop,0,0
12:24:02,0,RAMstatic,,98.97,,true,0,0,0,0,null,0,1,0,brander-desktop,0,0
12:24:03,0,RAMdb,,98.44,,true,0,0,0,0,null,0,1,0,brander-desktop,0,0
12:24:04,0,RAMfront1,,90.96,,true,0,0,0,0,null,0,1,0,brander-desktop,0,0
12:24:05,0,RAMstatic,,98.98,,true,0,0,0,0,null,0,1,0,brander-desktop,0,0
12:24:07,0,RAMdb,,98.45,,true,0,0,0,0,null,0,1,0,brander-desktop,0,0
12:24:08,0,RAMfront1,,90.08,,true,0,0,0,0,null,0,1,0,brander-desktop,0,0
12:24:09,0,RAMstatic,,98.98,,true,0,0,0,0,null,0,1,0,brander-desktop,0,0
12:24:10,0,RAMdb,,98.46,,true,0,0,0,0,null,0,1,0,brander-desktop,0,0
12:24:11,0,RAMfront1,,89.08,,true,0,0,0,0,null,0,1,0,brander-desktop,0,0
12:24:12,0,RAMstatic,,98.98,,true,0,0,0,0,null,0,1,0,brander-desktop,0,0
12:24:13,0,RAMdb,,98.47,,true,0,0,0,0,null,0,1,0,brander-desktop,0,0
12:24:14,0,RAMfront1,,89.33,,true,0,0,0,0,null,0,1,0,brander-desktop,0,0
12:24:15,0,RAMstatic,,98.99,,true,0,0,0,0,null,0,1,0,brander-desktop,0,0
12:24:17,0,RAMdb,,98.47,,true,0,0,0,0,null,0,1,0,brander-desktop,0,0
12:24:18,0,RAMfront1,,89.71,,true,0,0,0,0,null,0,1,0,brander-desktop,0,0
12:24:19,0,RAMstatic,,98.99,,true,0,0,0,0,null,0,1,0,brander-desktop,0,0
12:24:20,0,RAMdb,,98.48,,true,0,0,0,0,null,0,1,0,brander-desktop,0,0
12:24:21,0,RAMfront1,,90.14,,true,0,0,0,0,null,0,1,0,brander-desktop,0,0
12:24:22,0,RAMstatic,,99.0,,true,0,0,0,0,null,0,1,0,brander-desktop,0,0
12:24:23,0,RAMdb,,98.48,,true,0,0,0,0,null,0,1,0,brander-desktop,0,0
12:24:24,0,RAMfront1,,89.7,,true,0,0,0,0,null,0,1,0,brander-desktop,0,0
12:24:25,0,RAMstatic,,99.01,,true,0,0,0,0,null,0,1,0,brander-desktop,0,0
12:24:26,0,RAMdb,,98.49,,true,0,0,0,0,null,0,1,0,brander-desktop,0,0
12:24:27,0,RAMfront1,,89.63,,true,0,0,0,0,null,0,1,0,brander-desktop,0,0
12:24:29,0,RAMstatic,,99.01,,true,0,0,0,0,null,0,1,0,brander-desktop,0,0
12:24:30,0,RAMdb,,98.49,,true,0,0,0,0,null,0,1,0,brander-desktop,0,0
12:24:31,0,RAMfront1,,89.71,,true,0,0,0,0,null,0,1,0,brander-desktop,0,0
12:24:32,0,RAMstatic,,99.02,,true,0,0,0,0,null,0,1,0,brander-desktop,0,0
12:24:33,0,RAMdb,,98.5,,true,0,0,0,0,null,0,1,0,brander-desktop,0,0
12:24:34,0,RAMfront1,,89.71,,true,0,0,0,0,null,0,1,0,brander-desktop,0,0
12:24:35,0,RAMstatic,,99.02,,true,0,0,0,0,null,0,1,0,brander-desktop,0,0
12:24:36,0,RAMdb,,98.51,,true,0,0,0,0,null,0,1,0,brander-desktop,0,0
12:24:37,0,RAMfront1,,89.93,,true,0,0,0,0,null,0,1,0,brander-desktop,0,0
12:24:39,0,RAMstatic,,99.03,,true,0,0,0,0,null,0,1,0,brander-desktop,0,0
12:24:40,0,RAMdb,,98.52,,true,0,0,0,0,null,0,1,0,brander-desktop,0,0
12:24:41,0,RAMfront1,,89.76,,true,0,0,0,0,null,0,1,0,brander-desktop,0,0
12:24:42,0,RAMstatic,,99.04,,true,0,0,0,0,null,0,1,0,brander-desktop,0,0
12:24:43,0,RAMdb,,98.53,,true,0,0,0,0,null,0,1,0,brander-desktop,0,0
12:24:44,0,RAMfront1,,89.48,,true,0,0,0,0,null,0,1,0,brander-desktop,0,0
12:24:45,0,RAMstatic,,98.92,,true,0,0,0,0,null,0,1,0,brander-desktop,0,0
12:24:46,0,RAMdb,,98.54,,true,0,0,0,0,null,0,1,0,brander-desktop,0,0
12:24:47,0,RAMfront1,,89.52,,true,0,0,0,0,null,0,1,0,brander-desktop,0,0
12:24:49,0,RAMstatic,,98.93,,true,0,0,0,0,null,0,1,0,brander-desktop,0,0
12:24:50,0,RAMdb,,98.55,,true,0,0,0,0,null,0,1,0,brander-desktop,0,0
12:24:51,0,RAMfront1,,89.92,,true,0,0,0,0,null,0,1,0,brander-desktop,0,0
12:24:52,0,RAMstatic,,98.92,,true,0,0,0,0,null,0,1,0,brander-desktop,0,0
12:24:53,0,RAMdb,,98.57,,true,0,0,0,0,null,0,1,0,brander-desktop,0,0
12:24:54,0,RAMfront1,,90.3,,true,0,0,0,0,null,0,1,0,brander-desktop,0,0
12:24:55,0,RAMstatic,,98.94,,true,0,0,0,0,null,0,1,0,brander-desktop,0,0
12:24:56,0,RAMdb,,98.57,,true,0,0,0,0,null,0,1,0,brander-desktop,0,0
12:24:57,0,RAMfront1,,90.36,,true,0,0,0,0,null,0,1,0,brander-desktop,0,0
12:24:58,0,RAMstatic,,98.97,,true,0,0,0,0,null,0,1,0,brander-desktop,0,0
12:25:00,0,RAMdb,,98.58,,true,0,0,0,0,null,0,1,0,brander-desktop,0,0
12:25:01,0,RAMfront1,,90.51,,true,0,0,0,0,null,0,1,0,brander-desktop,0,0
12:25:02,0,RAMstatic,,98.98,,true,0,0,0,0,null,0,1,0,brander-desktop,0,0
12:25:03,0,RAMdb,,98.61,,true,0,0,0,0,null,0,1,0,brander-desktop,0,0
12:25:04,0,RAMfront1,,91.0,,true,0,0,0,0,null,0,1,0,brander-desktop,0,0
12:25:05,0,RAMstatic,,98.99,,true,0,0,0,0,null,0,1,0,brander-desktop,0,0
12:25:06,0,RAMdb,,98.6,,true,0,0,0,0,null,0,1,0,brander-desktop,0,0
12:25:07,0,RAMfront1,,91.23,,true,0,0,0,0,null,0,1,0,brander-desktop,0,0
12:25:08,0,RAMstatic,,99.02,,true,0,0,0,0,null,0,1,0,brander-desktop,0,0
12:25:10,0,RAMdb,,98.6,,true,0,0,0,0,null,0,1,0,brander-desktop,0,0
12:25:11,0,RAMfront1,,91.0,,true,0,0,0,0,null,0,1,0,brander-desktop,0,0
12:25:12,0,RAMstatic,,99.05,,true,0,0,0,0,null,0,1,0,brander-desktop,0,0
12:25:13,0,RAMdb,,98.6,,true,0,0,0,0,null,0,1,0,brander-desktop,0,0
12:25:14,0,RAMfront1,,90.43,,true,0,0,0,0,null,0,1,0,brander-desktop,0,0
12:25:15,0,RAMstatic,,98.95,,true,0,0,0,0,null,0,1,0,brander-desktop,0,0
12:25:16,0,RAMdb,,98.6,,true,0,0,0,0,null,0,1,0,brander-desktop,0,0
12:25:17,0,RAMfront1,,89.86,,true,0,0,0,0,null,0,1,0,brander-desktop,0,0
12:25:18,0,RAMstatic,,98.95,,true,0,0,0,0,null,0,1,0,brander-desktop,0,0
12:25:19,0,RAMdb,,98.61,,true,0,0,0,0,null,0,1,0,brander-desktop,0,0
12:25:21,0,RAMfront1,,90.48,,true,0,0,0,0,null,0,1,0,brander-desktop,0,0
12:25:22,0,RAMstatic,,98.97,,true,0,0,0,0,null,0,1,0,brander-desktop,0,0
12:25:23,0,RAMdb,,98.63,,true,0,0,0,0,null,0,1,0,brander-desktop,0,0
12:25:24,0,RAMfront1,,90.21,,true,0,0,0,0,null,0,1,0,brander-desktop,0,0
12:25:25,0,RAMstatic,,98.97,,true,0,0,0,0,null,0,1,0,brander-desktop,0,0
12:25:26,0,RAMdb,,98.63,,true,0,0,0,0,null,0,1,0,brander-desktop,0,0
12:25:27,0,RAMfront1,,89.85,,true,0,0,0,0,null,0,1,0,brander-desktop,0,0
12:25:28,0,RAMstatic,,98.98,,true,0,0,0,0,null,0,1,0,brander-desktop,0,0
12:25:29,0,RAMdb,,98.63,,true,0,0,0,0,null,0,1,0,brander-desktop,0,0
12:25:30,0,RAMfront1,,90.14,,true,0,0,0,0,null,0,1,0,brander-desktop,0,0
12:25:32,0,RAMstatic,,98.98,,true,0,0,0,0,null,0,1,0,brander-desktop,0,0
12:25:33,0,RAMdb,,98.64,,true,0,0,0,0,null,0,1,0,brander-desktop,0,0
12:25:34,0,RAMfront1,,90.24,,true,0,0,0,0,null,0,1,0,brander-desktop,0,0
12:25:35,0,RAMstatic,,99.0,,true,0,0,0,0,null,0,1,0,brander-desktop,0,0
12:25:36,0,RAMdb,,98.63,,true,0,0,0,0,null,0,1,0,brander-desktop,0,0
12:25:37,0,RAMfront1,,90.13,,true,0,0,0,0,null,0,1,0,brander-desktop,0,0
12:25:38,0,RAMstatic,,99.03,,true,0,0,0,0,null,0,1,0,brander-desktop,0,0
12:25:39,0,RAMdb,,98.64,,true,0,0,0,0,null,0,1,0,brander-desktop,0,0
12:25:41,0,RAMfront1,,90.04,,true,0,0,0,0,null,0,1,0,brander-desktop,0,0
12:25:42,0,RAMstatic,,98.93,,true,0,0,0,0,null,0,1,0,brander-desktop,0,0
12:25:43,0,RAMdb,,98.64,,true,0,0,0,0,null,0,1,0,brander-desktop,0,0
12:25:44,0,RAMfront1,,89.98,,true,0,0,0,0,null,0,1,0,brander-desktop,0,0
12:25:45,0,RAMstatic,,98.94,,true,0,0,0,0,null,0,1,0,brander-desktop,0,0
12:25:47,0,RAMdb,,98.64,,true,0,0,0,0,null,0,1,0,brander-desktop,0,0
12:25:48,0,RAMfront1,,89.72,,true,0,0,0,0,null,0,1,0,brander-desktop,0,0
12:25:49,0,RAMstatic,,98.95,,true,0,0,0,0,null,0,1,0,brander-desktop,0,0
12:25:50,0,RAMdb,,98.64,,true,0,0,0,0,null,0,1,0,brander-desktop,0,0
12:25:51,0,RAMfront1,,89.8,,true,0,0,0,0,null,0,1,0,brander-desktop,0,0
12:25:52,0,RAMstatic,,98.94,,true,0,0,0,0,null,0,1,0,brander-desktop,0,0
12:25:53,0,RAMdb,,98.65,,true,0,0,0,0,null,0,1,0,brander-desktop,0,0
12:25:54,0,RAMfront1,,89.4,,true,0,0,0,0,null,0,1,0,brander-desktop,0,0
12:25:55,0,RAMstatic,,98.96,,true,0,0,0,0,null,0,1,0,brander-desktop,0,0
12:25:57,0,RAMdb,,98.66,,true,0,0,0,0,null,0,1,0,brander-desktop,0,0
12:25:58,0,RAMfront1,,89.52,,true,0,0,0,0,null,0,1,0,brander-desktop,0,0
12:25:59,0,RAMstatic,,98.97,,true,0,0,0,0,null,0,1,0,brander-desktop,0,0
12:26:00,0,RAMdb,,98.66,,true,0,0,0,0,null,0,1,0,brander-desktop,0,0
12:26:01,0,RAMfront1,,89.81,,true,0,0,0,0,null,0,1,0,brander-desktop,0,0
12:26:02,0,RAMstatic,,99.0,,true,0,0,0,0,null,0,1,0,brander-desktop,0,0
12:26:03,0,RAMdb,,98.67,,true,0,0,0,0,null,0,1,0,brander-desktop,0,0
12:26:04,0,RAMfront1,,90.77,,true,0,0,0,0,null,0,1,0,brander-desktop,0,0
12:26:05,0,RAMstatic,,99.03,,true,0,0,0,0,null,0,1,0,brander-desktop,0,0
12:26:07,0,RAMdb,,98.68,,true,0,0,0,0,null,0,1,0,brander-desktop,0,0
12:26:08,0,RAMfront1,,91.29,,true,0,0,0,0,null,0,1,0,brander-desktop,0,0
12:26:09,0,RAMstatic,,98.93,,true,0,0,0,0,null,0,1,0,brander-desktop,0,0
12:26:10,0,RAMdb,,98.68,,true,0,0,0,0,null,0,1,0,brander-desktop,0,0
12:26:11,0,RAMfront1,,91.05,,true,0,0,0,0,null,0,1,0,brander-desktop,0,0
12:26:12,0,RAMstatic,,98.93,,true,0,0,0,0,null,0,1,0,brander-desktop,0,0
12:26:13,0,RAMdb,,98.69,,true,0,0,0,0,null,0,1,0,brander-desktop,0,0
12:26:14,0,RAMfront1,,91.21,,true,0,0,0,0,null,0,1,0,brander-desktop,0,0
12:26:16,0,RAMstatic,,98.94,,true,0,0,0,0,null,0,1,0,brander-desktop,0,0
12:26:17,0,RAMdb,,98.7,,true,0,0,0,0,null,0,1,0,brander-desktop,0,0
12:26:18,0,RAMfront1,,91.68,,true,0,0,0,0,null,0,1,0,brander-desktop,0,0
12:26:19,0,RAMstatic,,98.95,,true,0,0,0,0,null,0,1,0,brander-desktop,0,0
12:26:20,0,RAMdb,,98.71,,true,0,0,0,0,null,0,1,0,brander-desktop,0,0
12:26:21,0,RAMfront1,,91.16,,true,0,0,0,0,null,0,1,0,brander-desktop,0,0
12:26:22,0,RAMstatic,,98.96,,true,0,0,0,0,null,0,1,0,brander-desktop,0,0
12:26:23,0,RAMdb,,98.72,,true,0,0,0,0,null,0,1,0,brander-desktop,0,0
12:26:24,0,RAMfront1,,90.17,,true,0,0,0,0,null,0,1,0,brander-desktop,0,0
12:26:25,0,RAMstatic,,98.97,,true,0,0,0,0,null,0,1,0,brander-desktop,0,0
12:26:27,0,RAMdb,,98.72,,true,0,0,0,0,null,0,1,0,brander-desktop,0,0
12:26:28,0,RAMfront1,,90.26,,true,0,0,0,0,null,0,1,0,brander-desktop,0,0
12:26:29,0,RAMstatic,,98.97,,true,0,0,0,0,null,0,1,0,brander-desktop,0,0
12:26:30,0,RAMdb,,98.72,,true,0,0,0,0,null,0,1,0,brander-desktop,0,0
12:26:31,0,RAMfront1,,89.37,,true,0,0,0,0,null,0,1,0,brander-desktop,0,0
12:26:32,0,RAMstatic,,98.97,,true,0,0,0,0,null,0,1,0,brander-desktop,0,0
12:26:33,0,RAMdb,,98.72,,true,0,0,0,0,null,0,1,0,brander-desktop,0,0
12:26:34,0,RAMfront1,,89.23,,true,0,0,0,0,null,0,1,0,brander-desktop,0,0
12:26:35,0,RAMstatic,,98.98,,true,0,0,0,0,null,0,1,0,brander-desktop,0,0
12:26:36,0,RAMdb,,98.72,,true,0,0,0,0,null,0,1,0,brander-desktop,0,0
12:26:38,0,RAMfront1,,89.12,,true,0,0,0,0,null,0,1,0,brander-desktop,0,0
12:26:39,0,RAMstatic,,98.98,,true,0,0,0,0,null,0,1,0,brander-desktop,0,0
12:26:40,0,RAMdb,,98.73,,true,0,0,0,0,null,0,1,0,brander-desktop,0,0
12:26:41,0,RAMfront1,,89.17,,true,0,0,0,0,null,0,1,0,brander-desktop,0,0
12:26:42,0,RAMstatic,,98.99,,true,0,0,0,0,null,0,1,0,brander-desktop,0,0
12:26:43,0,RAMdb,,98.74,,true,0,0,0,0,null,0,1,0,brander-desktop,0,0
12:26:44,0,RAMfront1,,89.12,,true,0,0,0,0,null,0,1,0,brander-desktop,0,0
12:26:45,0,RAMstatic,,99.01,,true,0,0,0,0,null,0,1,0,brander-desktop,0,0
12:26:46,0,RAMdb,,98.75,,true,0,0,0,0,null,0,1,0,brander-desktop,0,0
12:26:47,0,RAMfront1,,89.29,,true,0,0,0,0,null,0,1,0,brander-desktop,0,0
12:26:49,0,RAMstatic,,99.02,,true,0,0,0,0,null,0,1,0,brander-desktop,0,0
12:26:50,0,RAMdb,,98.76,,true,0,0,0,0,null,0,1,0,brander-desktop,0,0
12:26:51,0,RAMfront1,,88.99,,true,0,0,0,0,null,0,1,0,brander-desktop,0,0
12:26:52,0,RAMstatic,,99.03,,true,0,0,0,0,null,0,1,0,brander-desktop,0,0
12:26:53,0,RAMdb,,98.77,,true,0,0,0,0,null,0,1,0,brander-desktop,0,0
12:26:54,0,RAMfront1,,89.18,,true,0,0,0,0,null,0,1,0,brander-desktop,0,0
12:26:55,0,RAMstatic,,99.04,,true,0,0,0,0,null,0,1,0,brander-desktop,0,0
12:26:56,0,RAMdb,,98.78,,true,0,0,0,0,null,0,1,0,brander-desktop,0,0
12:26:58,0,RAMfront1,,89.2,,true,0,0,0,0,null,0,1,0,brander-desktop,0,0
12:26:59,0,RAMstatic,,99.04,,true,0,0,0,0,null,0,1,0,brander-desktop,0,0
12:27:00,0,RAMdb,,98.79,,true,0,0,0,0,null,0,1,0,brander-desktop,0,0
12:27:01,0,RAMfront1,,89.35,,true,0,0,0,0,null,0,1,0,brander-desktop,0,0
12:27:02,0,RAMstatic,,99.05,,true,0,0,0,0,null,0,1,0,brander-desktop,0,0
12:27:03,0,RAMdb,,98.79,,true,0,0,0,0,null,0,1,0,brander-desktop,0,0
12:27:04,0,RAMfront1,,89.33,,true,0,0,0,0,null,0,1,0,brander-desktop,0,0
12:27:05,0,RAMstatic,,99.04,,true,0,0,0,0,null,0,1,0,brander-desktop,0,0
12:27:06,0,RAMdb,,98.8,,true,0,0,0,0,null,0,1,0,brander-desktop,0,0
12:27:08,0,RAMfront1,,89.63,,true,0,0,0,0,null,0,1,0,brander-desktop,0,0
12:27:09,0,RAMstatic,,98.94,,true,0,0,0,0,null,0,1,0,brander-desktop,0,0
12:27:10,0,RAMdb,,98.8,,true,0,0,0,0,null,0,1,0,brander-desktop,0,0
12:27:11,0,RAMfront1,,89.46,,true,0,0,0,0,null,0,1,0,brander-desktop,0,0
12:27:12,0,RAMstatic,,98.93,,true,0,0,0,0,null,0,1,0,brander-desktop,0,0
12:27:13,0,RAMdb,,98.8,,true,0,0,0,0,null,0,1,0,brander-desktop,0,0
12:27:14,0,RAMfront1,,89.7,,true,0,0,0,0,null,0,1,0,brander-desktop,0,0
12:27:15,0,RAMstatic,,98.93,,true,0,0,0,0,null,0,1,0,brander-desktop,0,0
12:27:16,0,RAMdb,,98.81,,true,0,0,0,0,null,0,1,0,brander-desktop,0,0
12:27:17,0,RAMfront1,,90.09,,true,0,0,0,0,null,0,1,0,brander-desktop,0,0
12:27:18,0,RAMstatic,,98.94,,true,0,0,0,0,null,0,1,0,brander-desktop,0,0
12:27:20,0,RAMdb,,98.82,,true,0,0,0,0,null,0,1,0,brander-desktop,0,0
12:27:21,0,RAMfront1,,89.54,,true,0,0,0,0,null,0,1,0,brander-desktop,0,0
12:27:22,0,RAMstatic,,98.95,,true,0,0,0,0,null,0,1,0,brander-desktop,0,0
12:27:23,0,RAMdb,,98.83,,true,0,0,0,0,null,0,1,0,brander-desktop,0,0
12:27:24,0,RAMfront1,,90.07,,true,0,0,0,0,null,0,1,0,brander-desktop,0,0
12:27:25,0,RAMstatic,,98.96,,true,0,0,0,0,null,0,1,0,brander-desktop,0,0
12:27:26,0,RAMdb,,98.83,,true,0,0,0,0,null,0,1,0,brander-desktop,0,0
12:27:27,0,RAMfront1,,89.9,,true,0,0,0,0,null,0,1,0,brander-desktop,0,0
12:27:29,0,RAMstatic,,98.96,,true,0,0,0,0,null,0,1,0,brander-desktop,0,0
12:27:30,0,RAMdb,,98.84,,true,0,0,0,0,null,0,1,0,brander-desktop,0,0
12:27:31,0,RAMfront1,,89.76,,true,0,0,0,0,null,0,1,0,brander-desktop,0,0
12:27:32,0,RAMstatic,,98.96,,true,0,0,0,0,null,0,1,0,brander-desktop,0,0
12:27:33,0,RAMdb,,98.85,,true,0,0,0,0,null,0,1,0,brander-desktop,0,0
12:27:34,0,RAMfront1,,89.5,,true,0,0,0,0,null,0,1,0,brander-desktop,0,0
12:27:35,0,RAMstatic,,98.98,,true,0,0,0,0,null,0,1,0,brander-desktop,0,0
12:27:36,0,RAMdb,,98.85,,true,0,0,0,0,null,0,1,0,brander-desktop,0,0
12:27:37,0,RAMfront1,,90.29,,true,0,0,0,0,null,0,1,0,brander-desktop,0,0
12:27:39,0,RAMstatic,,99.0,,true,0,0,0,0,null,0,1,0,brander-desktop,0,0
12:27:40,0,RAMdb,,98.86,,true,0,0,0,0,null,0,1,0,brander-desktop,0,0
12:27:41,0,RAMfront1,,89.81,,true,0,0,0,0,null,0,1,0,brander-desktop,0,0
12:27:42,0,RAMstatic,,99.02,,true,0,0,0,0,null,0,1,0,brander-desktop,0,0
12:27:43,0,RAMdb,,98.87,,true,0,0,0,0,null,0,1,0,brander-desktop,0,0
12:27:44,0,RAMfront1,,89.46,,true,0,0,0,0,null,0,1,0,brander-desktop,0,0
12:27:45,0,RAMstatic,,99.02,,true,0,0,0,0,null,0,1,0,brander-desktop,0,0
12:27:46,0,RAMdb,,98.87,,true,0,0,0,0,null,0,1,0,brander-desktop,0,0
12:27:47,0,RAMfront1,,89.69,,true,0,0,0,0,null,0,1,0,brander-desktop,0,0
12:27:49,0,RAMstatic,,99.02,,true,0,0,0,0,null,0,1,0,brander-desktop,0,0
